{
    "askPrice": "",
    "green": 0,
    "coupon": "3,50 %",
    "accruedInterest": "4,75",
    "settleDate": "2022.10.24",
    "askEhmYield": "",
    "bidYield": "5,99",
    "rawName": "N2024/23",
    "bidPrice": "99,50",
    "coupon_val": 3.5,
    "maturityInDays": "749 nap",
    "securityType": "MÁP Plusz",
    "maturityDate": "2024.11.11",
    "name": "N2024/23",
    "bidEhmYield": "",
    "askYield": "",
    "currency": "HUF",
    "maturityInDays_val": 749,
    "longName": "N241111"
}