{
    "askPrice": "",
    "green": 0,
    "coupon": "3,50 %",
    "accruedInterest": "3,56",
    "settleDate": "2022.07.29",
    "askEhmYield": "",
    "bidYield": "",
    "rawName": "N2024/23",
    "bidPrice": "99,50",
    "coupon_val": 3.5,
    "maturityInDays": "836 nap",
    "securityType": "MÁP Plusz",
    "maturityDate": "2024.11.11",
    "name": "N2024/23",
    "bidEhmYield": "",
    "askYield": "",
    "currency": "HUF",
    "maturityInDays_val": 836,
    "longName": "N241111"
}