{
    "askPrice": "",
    "green": 0,
    "coupon": "3,50 %",
    "accruedInterest": "4,95",
    "settleDate": "2022.11.07",
    "askEhmYield": "",
    "bidYield": "6,01",
    "rawName": "N2024/23",
    "bidPrice": "99,50",
    "coupon_val": 3.5,
    "maturityInDays": "735 nap",
    "securityType": "MÁP Plusz",
    "maturityDate": "2024.11.11",
    "name": "N2024/23",
    "bidEhmYield": "",
    "askYield": "",
    "currency": "HUF",
    "maturityInDays_val": 735,
    "issueDate": "2019-11-11",
    "longName": "N241111"
}