{
    "askPrice": "",
    "green": 0,
    "coupon": "3,50 %",
    "accruedInterest": "0,05",
    "settleDate": "2022.11.14",
    "askEhmYield": "",
    "bidYield": "5,74",
    "rawName": "N2024/23",
    "bidPrice": "100,00",
    "coupon_val": 3.5,
    "maturityInDays": "728 nap",
    "securityType": "MÁP Plusz",
    "maturityDate": "2024.11.11",
    "name": "N2024/23",
    "bidEhmYield": "",
    "askYield": "",
    "currency": "HUF",
    "maturityInDays_val": 728,
    "issueDate": "2019-11-11",
    "longName": "N241111"
}