{
    "askPrice": "",
    "green": 0,
    "coupon": "3,50 %",
    "accruedInterest": "3,5260",
    "settleDate": "2023.07.03",
    "askEhmYield": "",
    "bidYield": "6,23",
    "rawName": "N2024/23",
    "bidPrice": "99,5000",
    "coupon_val": 3.5,
    "maturityInDays": "497 nap",
    "securityType": "MÁP Plusz",
    "maturityDate": "2024.11.11",
    "name": "N2024/23",
    "bidEhmYield": "",
    "askYield": "",
    "currency": "HUF",
    "maturityInDays_val": 497,
    "issueDate": "2019.11.11",
    "longName": "N241111"
}