{
    "askPrice": "69,9106",
    "green": 0,
    "coupon": "3,25 %",
    "accruedInterest": "0,2671",
    "settleDate": "2022.11.21",
    "askEhmYield": "8,11",
    "bidYield": "8,85",
    "rawName": "2031/A",
    "bidPrice": "66,4170",
    "coupon_val": 3.25,
    "maturityInDays": "3257 nap",
    "securityType": "KTV",
    "maturityDate": "2031.10.22",
    "name": "2031/A",
    "bidEhmYield": "8,84",
    "askYield": "8,12",
    "currency": "HUF",
    "maturityInDays_val": 3257,
    "issueDate": "2015.04.22",
    "longName": "A311022A15"
}