{
    "askPrice": "68,31",
    "green": 0,
    "coupon": "3,25 %",
    "accruedInterest": "0,20",
    "settleDate": "2022.11.14",
    "askEhmYield": "8,43",
    "bidYield": "9,18",
    "rawName": "2031/A",
    "bidPrice": "64,86",
    "coupon_val": 3.25,
    "maturityInDays": "3264 nap",
    "securityType": "KTV",
    "maturityDate": "2031.10.22",
    "name": "2031/A",
    "bidEhmYield": "9,17",
    "askYield": "8,44",
    "currency": "HUF",
    "maturityInDays_val": 3264,
    "issueDate": "2015-04-22",
    "longName": "A311022A15"
}