{
    "askPrice": "70,62",
    "green": 0,
    "coupon": "3,25 %",
    "accruedInterest": "2,53",
    "settleDate": "2022.08.02",
    "askEhmYield": "7,84",
    "bidYield": "8,42",
    "rawName": "2031/A",
    "bidPrice": "67,72",
    "coupon_val": 3.25,
    "maturityInDays": "3368 nap",
    "securityType": "KTV",
    "maturityDate": "2031.10.22",
    "name": "2031/A",
    "bidEhmYield": "8,42",
    "askYield": "7,84",
    "currency": "HUF",
    "maturityInDays_val": 3368,
    "longName": "A311022A15"
}