{
    "askPrice": "71,66",
    "green": 0,
    "coupon": "3,25 %",
    "accruedInterest": "2,61",
    "settleDate": "2022.08.11",
    "askEhmYield": "7,65",
    "bidYield": "8,23",
    "rawName": "2031/A",
    "bidPrice": "68,71",
    "coupon_val": 3.25,
    "maturityInDays": "3359 nap",
    "securityType": "KTV",
    "maturityDate": "2031.10.22",
    "name": "2031/A",
    "bidEhmYield": "8,23",
    "askYield": "7,65",
    "currency": "HUF",
    "maturityInDays_val": 3359,
    "longName": "A311022A15"
}