{
    "askPrice": "66,08",
    "green": 0,
    "coupon": "3,25 %",
    "accruedInterest": "3,02",
    "settleDate": "2022.09.26",
    "askEhmYield": "8,84",
    "bidYield": "9,43",
    "rawName": "2031/A",
    "bidPrice": "63,38",
    "coupon_val": 3.25,
    "maturityInDays": "3313 nap",
    "securityType": "KTV",
    "maturityDate": "2031.10.22",
    "name": "2031/A",
    "bidEhmYield": "9,43",
    "askYield": "8,84",
    "currency": "HUF",
    "maturityInDays_val": 3313,
    "longName": "A311022A15"
}