{
    "askPrice": "67,98",
    "green": 0,
    "coupon": "3,25 %",
    "accruedInterest": "2,43",
    "settleDate": "2022.07.22",
    "askEhmYield": "8,35",
    "bidYield": "8,92",
    "rawName": "2031/A",
    "bidPrice": "65,22",
    "coupon_val": 3.25,
    "maturityInDays": "3379 nap",
    "securityType": "KTV",
    "maturityDate": "2031.10.22",
    "name": "2031/A",
    "bidEhmYield": "8,92",
    "askYield": "8,35",
    "currency": "HUF",
    "maturityInDays_val": 3379,
    "longName": "A311022A15"
}