{
    "askPrice": "71,7989",
    "green": 0,
    "coupon": "3,25 %",
    "accruedInterest": "0,3918",
    "settleDate": "2022.12.05",
    "askEhmYield": "7,75",
    "bidYield": "8,62",
    "rawName": "2031/A",
    "bidPrice": "67,5845",
    "coupon_val": 3.25,
    "maturityInDays": "3243 nap",
    "securityType": "KTV",
    "maturityDate": "2031.10.22",
    "name": "2031/A",
    "bidEhmYield": "8,61",
    "askYield": "7,76",
    "currency": "HUF",
    "maturityInDays_val": 3243,
    "issueDate": "2015.04.22",
    "longName": "A311022A15"
}