{
    "askPrice": "71,45",
    "green": 0,
    "coupon": "3,25 %",
    "accruedInterest": "2,22",
    "settleDate": "2022.06.28",
    "askEhmYield": "7,64",
    "bidYield": "8,21",
    "rawName": "2031/A",
    "bidPrice": "68,53",
    "coupon_val": 3.25,
    "maturityInDays": "3403 nap",
    "securityType": "KTV",
    "maturityDate": "2031.10.22",
    "name": "2031/A",
    "bidEhmYield": "8,21",
    "askYield": "7,64",
    "currency": "HUF",
    "maturityInDays_val": 3403,
    "longName": "A311022A15"
}