{
    "askPrice": "69,90",
    "green": 0,
    "coupon": "3,25 %",
    "accruedInterest": "2,23",
    "settleDate": "2022.06.29",
    "askEhmYield": "7,94",
    "bidYield": "8,51",
    "rawName": "2031/A",
    "bidPrice": "67,06",
    "coupon_val": 3.25,
    "maturityInDays": "3402 nap",
    "securityType": "KTV",
    "maturityDate": "2031.10.22",
    "name": "2031/A",
    "bidEhmYield": "8,51",
    "askYield": "7,94",
    "currency": "HUF",
    "maturityInDays_val": 3402,
    "longName": "A311022A15"
}