{
    "askPrice": "64,53",
    "green": 0,
    "coupon": "3,25 %",
    "accruedInterest": "0,18",
    "settleDate": "2022.11.11",
    "askEhmYield": "9,24",
    "bidYield": "9,80",
    "rawName": "2031/A",
    "bidPrice": "62,12",
    "coupon_val": 3.25,
    "maturityInDays": "3267 nap",
    "securityType": "KTV",
    "maturityDate": "2031.10.22",
    "name": "2031/A",
    "bidEhmYield": "9,79",
    "askYield": "9,25",
    "currency": "HUF",
    "maturityInDays_val": 3267,
    "issueDate": "2015-04-22",
    "longName": "A311022A15"
}