{
    "askPrice": "69,3035",
    "green": 0,
    "coupon": "3,25 %",
    "accruedInterest": "0,5877",
    "settleDate": "2022.12.27",
    "askEhmYield": "8,28",
    "bidYield": "9,17",
    "rawName": "2031/A",
    "bidPrice": "65,1999",
    "coupon_val": 3.25,
    "maturityInDays": "3221 nap",
    "securityType": "KTV",
    "maturityDate": "2031.10.22",
    "name": "2031/A",
    "bidEhmYield": "9,16",
    "askYield": "8,29",
    "currency": "HUF",
    "maturityInDays_val": 3221,
    "issueDate": "2015.04.22",
    "longName": "A311022A15"
}