{
    "askPrice": "61,39",
    "green": 0,
    "coupon": "3,25 %",
    "accruedInterest": "3,17",
    "settleDate": "2022.10.13",
    "askEhmYield": "9,92",
    "bidYield": "10,52",
    "rawName": "2031/A",
    "bidPrice": "58,92",
    "coupon_val": 3.25,
    "maturityInDays": "3296 nap",
    "securityType": "KTV",
    "maturityDate": "2031.10.22",
    "name": "2031/A",
    "bidEhmYield": "10,52",
    "askYield": "9,92",
    "currency": "HUF",
    "maturityInDays_val": 3296,
    "longName": "A311022A15"
}