{
    "askPrice": "71,10",
    "green": 0,
    "coupon": "3,25 %",
    "accruedInterest": "2,56",
    "settleDate": "2022.08.05",
    "askEhmYield": "7,75",
    "bidYield": "8,33",
    "rawName": "2031/A",
    "bidPrice": "68,18",
    "coupon_val": 3.25,
    "maturityInDays": "3365 nap",
    "securityType": "KTV",
    "maturityDate": "2031.10.22",
    "name": "2031/A",
    "bidEhmYield": "8,33",
    "askYield": "7,75",
    "currency": "HUF",
    "maturityInDays_val": 3365,
    "longName": "A311022A15"
}