{
    "askPrice": "73,67",
    "green": 0,
    "coupon": "3,25 %",
    "accruedInterest": "2,66",
    "settleDate": "2022.08.17",
    "askEhmYield": "7,28",
    "bidYield": "7,86",
    "rawName": "2031/A",
    "bidPrice": "70,60",
    "coupon_val": 3.25,
    "maturityInDays": "3353 nap",
    "securityType": "KTV",
    "maturityDate": "2031.10.22",
    "name": "2031/A",
    "bidEhmYield": "7,86",
    "askYield": "7,28",
    "currency": "HUF",
    "maturityInDays_val": 3353,
    "longName": "A311022A15"
}