{
    "askPrice": "63,41",
    "green": 0,
    "coupon": "3,25 %",
    "accruedInterest": "3,14",
    "settleDate": "2022.10.10",
    "askEhmYield": "9,45",
    "bidYield": "10,05",
    "rawName": "2031/A",
    "bidPrice": "60,84",
    "coupon_val": 3.25,
    "maturityInDays": "3299 nap",
    "securityType": "KTV",
    "maturityDate": "2031.10.22",
    "name": "2031/A",
    "bidEhmYield": "10,05",
    "askYield": "9,45",
    "currency": "HUF",
    "maturityInDays_val": 3299,
    "longName": "A311022A15"
}