{
    "askPrice": "68,00",
    "green": 0,
    "coupon": "3,25 %",
    "accruedInterest": "2,46",
    "settleDate": "2022.07.25",
    "askEhmYield": "8,35",
    "bidYield": "8,93",
    "rawName": "2031/A",
    "bidPrice": "65,24",
    "coupon_val": 3.25,
    "maturityInDays": "3376 nap",
    "securityType": "KTV",
    "maturityDate": "2031.10.22",
    "name": "2031/A",
    "bidEhmYield": "8,93",
    "askYield": "8,35",
    "currency": "HUF",
    "maturityInDays_val": 3376,
    "longName": "A311022A15"
}