{
    "askPrice": "60,67",
    "green": 0,
    "coupon": "3,25 %",
    "accruedInterest": "0,12",
    "settleDate": "2022.11.04",
    "askEhmYield": "10,12",
    "bidYield": "10,85",
    "rawName": "2031/A",
    "bidPrice": "57,77",
    "coupon_val": 3.25,
    "maturityInDays": "3274 nap",
    "securityType": "KTV",
    "maturityDate": "2031.10.22",
    "name": "2031/A",
    "bidEhmYield": "10,84",
    "askYield": "10,13",
    "currency": "HUF",
    "maturityInDays_val": 3274,
    "issueDate": "2015-04-22",
    "longName": "A311022A15"
}