{
    "askPrice": "69,5632",
    "green": 0,
    "coupon": "3,25 %",
    "accruedInterest": "0,5432",
    "settleDate": "2022.12.22",
    "askEhmYield": "8,22",
    "bidYield": "9,11",
    "rawName": "2031/A",
    "bidPrice": "65,4357",
    "coupon_val": 3.25,
    "maturityInDays": "3226 nap",
    "securityType": "KTV",
    "maturityDate": "2031.10.22",
    "name": "2031/A",
    "bidEhmYield": "9,10",
    "askYield": "8,23",
    "currency": "HUF",
    "maturityInDays_val": 3226,
    "issueDate": "2015.04.22",
    "longName": "A311022A15"
}