{
    "askPrice": "74,42",
    "green": 0,
    "coupon": "3,25 %",
    "accruedInterest": "2,65",
    "settleDate": "2022.08.16",
    "askEhmYield": "7,14",
    "bidYield": "7,72",
    "rawName": "2031/A",
    "bidPrice": "71,32",
    "coupon_val": 3.25,
    "maturityInDays": "3354 nap",
    "securityType": "KTV",
    "maturityDate": "2031.10.22",
    "name": "2031/A",
    "bidEhmYield": "7,72",
    "askYield": "7,14",
    "currency": "HUF",
    "maturityInDays_val": 3354,
    "longName": "A311022A15"
}