{
    "askPrice": "71,60",
    "green": 0,
    "coupon": "3,25 %",
    "accruedInterest": "2,21",
    "settleDate": "2022.06.27",
    "askEhmYield": "7,61",
    "bidYield": "8,18",
    "rawName": "2031/A",
    "bidPrice": "68,68",
    "coupon_val": 3.25,
    "maturityInDays": "3404 nap",
    "securityType": "KTV",
    "maturityDate": "2031.10.22",
    "name": "2031/A",
    "bidEhmYield": "8,18",
    "askYield": "7,61",
    "currency": "HUF",
    "maturityInDays_val": 3404,
    "longName": "A311022A15"
}