{
    "askPrice": "",
    "green": 0,
    "coupon": "3,25 %",
    "accruedInterest": 0,
    "settleDate": "2022.10.21",
    "askEhmYield": "",
    "bidYield": "",
    "rawName": "2031/A",
    "bidPrice": "",
    "coupon_val": 3.25,
    "maturityInDays": "3288 nap",
    "securityType": "KTV",
    "maturityDate": "2031.10.22",
    "name": "2031/A",
    "bidEhmYield": "",
    "askYield": "",
    "currency": "HUF",
    "maturityInDays_val": 3288,
    "longName": "A311022A15"
}