{
    "askPrice": "67,19",
    "green": 0,
    "coupon": "3,25 %",
    "accruedInterest": "2,42",
    "settleDate": "2022.07.21",
    "askEhmYield": "8,51",
    "bidYield": "9,08",
    "rawName": "2031/A",
    "bidPrice": "64,47",
    "coupon_val": 3.25,
    "maturityInDays": "3380 nap",
    "securityType": "KTV",
    "maturityDate": "2031.10.22",
    "name": "2031/A",
    "bidEhmYield": "9,08",
    "askYield": "8,51",
    "currency": "HUF",
    "maturityInDays_val": 3380,
    "longName": "A311022A15"
}