{
    "askPrice": "66,70",
    "green": 0,
    "coupon": "3,25 %",
    "accruedInterest": "2,85",
    "settleDate": "2022.09.07",
    "askEhmYield": "8,68",
    "bidYield": "9,27",
    "rawName": "2031/A",
    "bidPrice": "63,98",
    "coupon_val": 3.25,
    "maturityInDays": "3332 nap",
    "securityType": "KTV",
    "maturityDate": "2031.10.22",
    "name": "2031/A",
    "bidEhmYield": "9,27",
    "askYield": "8,68",
    "currency": "HUF",
    "maturityInDays_val": 3332,
    "longName": "A311022A15"
}