{
    "askPrice": "71,2099",
    "green": 0,
    "coupon": "3,25 %",
    "accruedInterest": "1,1397",
    "settleDate": "2023.02.27",
    "askEhmYield": "7,97",
    "bidYield": "8,85",
    "rawName": "2031/A",
    "bidPrice": "67,0801",
    "coupon_val": 3.25,
    "maturityInDays": "3159 nap",
    "securityType": "KTV",
    "maturityDate": "2031.10.22",
    "name": "2031/A",
    "bidEhmYield": "8,84",
    "askYield": "7,98",
    "currency": "HUF",
    "maturityInDays_val": 3159,
    "issueDate": "2015.04.22",
    "longName": "A311022A15"
}