{
    "askPrice": "78,7995",
    "green": 0,
    "coupon": "3,25 %",
    "accruedInterest": "2,1637",
    "settleDate": "2023.06.22",
    "askEhmYield": "6,64",
    "bidYield": "7,40",
    "rawName": "2031/A",
    "bidPrice": "74,8258",
    "coupon_val": 3.25,
    "maturityInDays": "3044 nap",
    "securityType": "KTV",
    "maturityDate": "2031.10.22",
    "name": "2031/A",
    "bidEhmYield": "7,39",
    "askYield": "6,64",
    "currency": "HUF",
    "maturityInDays_val": 3044,
    "issueDate": "2015.04.22",
    "longName": "A311022A15"
}