{
    "askPrice": "77,5527",
    "green": 0,
    "coupon": "3,25 %",
    "accruedInterest": "2,7068",
    "settleDate": "2023.08.22",
    "askEhmYield": "6,93",
    "bidYield": "7,71",
    "rawName": "2031/A",
    "bidPrice": "73,6746",
    "coupon_val": 3.25,
    "maturityInDays": "2983 nap",
    "securityType": "KTV",
    "maturityDate": "2031.10.22",
    "name": "2031/A",
    "bidEhmYield": "7,70",
    "askYield": "6,94",
    "currency": "HUF",
    "maturityInDays_val": 2983,
    "issueDate": "2015.04.22",
    "longName": "A311022A15"
}