{
    "askPrice": "71,4315",
    "green": 0,
    "coupon": "3,25 %",
    "accruedInterest": "1,1041",
    "settleDate": "2023.02.23",
    "askEhmYield": "7,92",
    "bidYield": "8,80",
    "rawName": "2031/A",
    "bidPrice": "67,2817",
    "coupon_val": 3.25,
    "maturityInDays": "3163 nap",
    "securityType": "KTV",
    "maturityDate": "2031.10.22",
    "name": "2031/A",
    "bidEhmYield": "8,79",
    "askYield": "7,93",
    "currency": "HUF",
    "maturityInDays_val": 3163,
    "issueDate": "2015.04.22",
    "longName": "A311022A15"
}