{
    "askPrice": "69,8896",
    "green": 0,
    "coupon": "3,25 %",
    "accruedInterest": "1,3267",
    "settleDate": "2023.03.20",
    "askEhmYield": "8,27",
    "bidYield": "9,15",
    "rawName": "2031/A",
    "bidPrice": "65,8755",
    "coupon_val": 3.25,
    "maturityInDays": "3138 nap",
    "securityType": "KTV",
    "maturityDate": "2031.10.22",
    "name": "2031/A",
    "bidEhmYield": "9,14",
    "askYield": "8,28",
    "currency": "HUF",
    "maturityInDays_val": 3138,
    "issueDate": "2015.04.22",
    "longName": "A311022A15"
}