{
    "askPrice": "80,5269",
    "green": 0,
    "coupon": "3,25 %",
    "accruedInterest": "2,8849",
    "settleDate": "2023.09.11",
    "askEhmYield": "6,40",
    "bidYield": "7,12",
    "rawName": "2031/A",
    "bidPrice": "76,7456",
    "coupon_val": 3.25,
    "maturityInDays": "2963 nap",
    "securityType": "KTV",
    "maturityDate": "2031.10.22",
    "name": "2031/A",
    "bidEhmYield": "7,11",
    "askYield": "6,40",
    "currency": "HUF",
    "maturityInDays_val": 2963,
    "issueDate": "2015.04.22",
    "longName": "A311022A15"
}