{
    "askPrice": "80,8938",
    "green": 0,
    "coupon": "3,25 %",
    "accruedInterest": "2,9562",
    "settleDate": "2023.09.19",
    "askEhmYield": "6,34",
    "bidYield": "7,08",
    "rawName": "2031/A",
    "bidPrice": "76,9985",
    "coupon_val": 3.25,
    "maturityInDays": "2955 nap",
    "securityType": "KTV",
    "maturityDate": "2031.10.22",
    "name": "2031/A",
    "bidEhmYield": "7,07",
    "askYield": "6,34",
    "currency": "HUF",
    "maturityInDays_val": 2955,
    "issueDate": "2015.04.22",
    "longName": "A311022A15"
}