{
    "askPrice": "80,4979",
    "green": 0,
    "coupon": "3,25 %",
    "accruedInterest": "0,1332",
    "settleDate": "2023.11.06",
    "askEhmYield": "6,46",
    "bidYield": "7,19",
    "rawName": "2031/A",
    "bidPrice": "76,7306",
    "coupon_val": 3.25,
    "maturityInDays": "2907 nap",
    "securityType": "KTV",
    "maturityDate": "2031.10.22",
    "name": "2031/A",
    "bidEhmYield": "7,18",
    "askYield": "6,46",
    "currency": "HUF",
    "maturityInDays_val": 2907,
    "issueDate": "2015.04.22",
    "longName": "A311022A15"
}