{
    "askPrice": "77,8369",
    "green": 0,
    "coupon": "3,25 %",
    "accruedInterest": "2,5822",
    "settleDate": "2023.08.08",
    "askEhmYield": "6,87",
    "bidYield": "7,65",
    "rawName": "2031/A",
    "bidPrice": "73,8763",
    "coupon_val": 3.25,
    "maturityInDays": "2997 nap",
    "securityType": "KTV",
    "maturityDate": "2031.10.22",
    "name": "2031/A",
    "bidEhmYield": "7,64",
    "askYield": "6,87",
    "currency": "HUF",
    "maturityInDays_val": 2997,
    "issueDate": "2015.04.22",
    "longName": "A311022A15"
}