{
    "askPrice": "71,5333",
    "green": 0,
    "coupon": "3,25 %",
    "accruedInterest": "1,5226",
    "settleDate": "2023.04.11",
    "askEhmYield": "7,96",
    "bidYield": "8,77",
    "rawName": "2031/A",
    "bidPrice": "67,7470",
    "coupon_val": 3.25,
    "maturityInDays": "3116 nap",
    "securityType": "KTV",
    "maturityDate": "2031.10.22",
    "name": "2031/A",
    "bidEhmYield": "8,76",
    "askYield": "7,97",
    "currency": "HUF",
    "maturityInDays_val": 3116,
    "issueDate": "2015.04.22",
    "longName": "A311022A15"
}