{
    "askPrice": "73,4943",
    "green": 0,
    "coupon": "3,25 %",
    "accruedInterest": "1,0240",
    "settleDate": "2023.02.14",
    "askEhmYield": "7,50",
    "bidYield": "8,38",
    "rawName": "2031/A",
    "bidPrice": "69,1876",
    "coupon_val": 3.25,
    "maturityInDays": "3172 nap",
    "securityType": "KTV",
    "maturityDate": "2031.10.22",
    "name": "2031/A",
    "bidEhmYield": "8,37",
    "askYield": "7,51",
    "currency": "HUF",
    "maturityInDays_val": 3172,
    "issueDate": "2015.04.22",
    "longName": "A311022A15"
}