{
    "askPrice": "67,2596",
    "green": 0,
    "coupon": "3,25 %",
    "accruedInterest": "0,6500",
    "settleDate": "2023.01.03",
    "askEhmYield": "8,72",
    "bidYield": "9,55",
    "rawName": "2031/A",
    "bidPrice": "63,5709",
    "coupon_val": 3.25,
    "maturityInDays": "3214 nap",
    "securityType": "KTV",
    "maturityDate": "2031.10.22",
    "name": "2031/A",
    "bidEhmYield": "9,54",
    "askYield": "8,73",
    "currency": "HUF",
    "maturityInDays_val": 3214,
    "issueDate": "2015.04.22",
    "longName": "A311022A15"
}