{
    "askPrice": "75,6122",
    "green": 0,
    "coupon": "3,25 %",
    "accruedInterest": "1,8877",
    "settleDate": "2023.05.22",
    "askEhmYield": "7,20",
    "bidYield": "8,05",
    "rawName": "2031/A",
    "bidPrice": "71,4128",
    "coupon_val": 3.25,
    "maturityInDays": "3075 nap",
    "securityType": "KTV",
    "maturityDate": "2031.10.22",
    "name": "2031/A",
    "bidEhmYield": "8,04",
    "askYield": "7,21",
    "currency": "HUF",
    "maturityInDays_val": 3075,
    "issueDate": "2015.04.22",
    "longName": "A311022A15"
}