{
    "askPrice": "70,7876",
    "green": 0,
    "coupon": "3,25 %",
    "accruedInterest": "1,1664",
    "settleDate": "2023.03.02",
    "askEhmYield": "8,06",
    "bidYield": "8,96",
    "rawName": "2031/A",
    "bidPrice": "66,6002",
    "coupon_val": 3.25,
    "maturityInDays": "3156 nap",
    "securityType": "KTV",
    "maturityDate": "2031.10.22",
    "name": "2031/A",
    "bidEhmYield": "8,95",
    "askYield": "8,07",
    "currency": "HUF",
    "maturityInDays_val": 3156,
    "issueDate": "2015.04.22",
    "longName": "A311022A15"
}