{
    "askPrice": "79,7524",
    "green": 0,
    "coupon": "3,25 %",
    "accruedInterest": "2,8493",
    "settleDate": "2023.09.07",
    "askEhmYield": "6,54",
    "bidYield": "7,27",
    "rawName": "2031/A",
    "bidPrice": "75,9604",
    "coupon_val": 3.25,
    "maturityInDays": "2967 nap",
    "securityType": "KTV",
    "maturityDate": "2031.10.22",
    "name": "2031/A",
    "bidEhmYield": "7,26",
    "askYield": "6,54",
    "currency": "HUF",
    "maturityInDays_val": 2967,
    "issueDate": "2015.04.22",
    "longName": "A311022A15"
}