{
    "askPrice": "81,4009",
    "green": 0,
    "coupon": "3,25 %",
    "accruedInterest": "0,2220",
    "settleDate": "2023.11.16",
    "askEhmYield": "6,30",
    "bidYield": "7,04",
    "rawName": "2031/A",
    "bidPrice": "77,5424",
    "coupon_val": 3.25,
    "maturityInDays": "2897 nap",
    "securityType": "KTV",
    "maturityDate": "2031.10.22",
    "name": "2031/A",
    "bidEhmYield": "7,03",
    "askYield": "6,30",
    "currency": "HUF",
    "maturityInDays_val": 2897,
    "issueDate": "2015.04.22",
    "longName": "A311022A15"
}