{
    "askPrice": "73,3622",
    "green": 0,
    "coupon": "3,25 %",
    "accruedInterest": "0,9795",
    "settleDate": "2023.02.09",
    "askEhmYield": "7,52",
    "bidYield": "8,41",
    "rawName": "2031/A",
    "bidPrice": "69,0117",
    "coupon_val": 3.25,
    "maturityInDays": "3177 nap",
    "securityType": "KTV",
    "maturityDate": "2031.10.22",
    "name": "2031/A",
    "bidEhmYield": "8,40",
    "askYield": "7,53",
    "currency": "HUF",
    "maturityInDays_val": 3177,
    "issueDate": "2015.04.22",
    "longName": "A311022A15"
}