{
    "askPrice": "81,7547",
    "green": 0,
    "coupon": "3,25 %",
    "accruedInterest": "0,3818",
    "settleDate": "2023.12.04",
    "askEhmYield": "6,25",
    "bidYield": "6,97",
    "rawName": "2031/A",
    "bidPrice": "77,9971",
    "coupon_val": 3.25,
    "maturityInDays": "2879 nap",
    "securityType": "KTV",
    "maturityDate": "2031.10.22",
    "name": "2031/A",
    "bidEhmYield": "6,96",
    "askYield": "6,25",
    "currency": "HUF",
    "maturityInDays_val": 2879,
    "issueDate": "2015.04.22",
    "longName": "A311022A15"
}