{
    "askPrice": "87,4289",
    "green": 0,
    "coupon": "3,25 %",
    "accruedInterest": "0,5949",
    "settleDate": "2023.12.28",
    "askEhmYield": "5,25",
    "bidYield": "5,98",
    "rawName": "2031/A",
    "bidPrice": "83,3264",
    "coupon_val": 3.25,
    "maturityInDays": "2855 nap",
    "securityType": "KTV",
    "maturityDate": "2031.10.22",
    "name": "2031/A",
    "bidEhmYield": "5,98",
    "askYield": "5,25",
    "currency": "HUF",
    "maturityInDays_val": 2855,
    "issueDate": "2015.04.22",
    "longName": "A311022A15"
}