{
    "askPrice": "67,4996",
    "green": 0,
    "coupon": "3,25 %",
    "accruedInterest": "0,6589",
    "settleDate": "2023.01.04",
    "askEhmYield": "8,67",
    "bidYield": "9,55",
    "rawName": "2031/A",
    "bidPrice": "63,5780",
    "coupon_val": 3.25,
    "maturityInDays": "3213 nap",
    "securityType": "KTV",
    "maturityDate": "2031.10.22",
    "name": "2031/A",
    "bidEhmYield": "9,54",
    "askYield": "8,68",
    "currency": "HUF",
    "maturityInDays_val": 3213,
    "issueDate": "2015.04.22",
    "longName": "A311022A15"
}