{
    "askPrice": "74,5326",
    "green": 0,
    "coupon": "3,25 %",
    "accruedInterest": "1,9589",
    "settleDate": "2023.05.30",
    "askEhmYield": "7,42",
    "bidYield": "8,31",
    "rawName": "2031/A",
    "bidPrice": "70,2263",
    "coupon_val": 3.25,
    "maturityInDays": "3067 nap",
    "securityType": "KTV",
    "maturityDate": "2031.10.22",
    "name": "2031/A",
    "bidEhmYield": "8,30",
    "askYield": "7,43",
    "currency": "HUF",
    "maturityInDays_val": 3067,
    "issueDate": "2015.04.22",
    "longName": "A311022A15"
}