{
    "askPrice": "78,2446",
    "green": 0,
    "coupon": "3,25 %",
    "accruedInterest": "2,6445",
    "settleDate": "2023.08.15",
    "askEhmYield": "6,80",
    "bidYield": "7,54",
    "rawName": "2031/A",
    "bidPrice": "74,4648",
    "coupon_val": 3.25,
    "maturityInDays": "2990 nap",
    "securityType": "KTV",
    "maturityDate": "2031.10.22",
    "name": "2031/A",
    "bidEhmYield": "7,53",
    "askYield": "6,80",
    "currency": "HUF",
    "maturityInDays_val": 2990,
    "issueDate": "2015.04.22",
    "longName": "A311022A15"
}