{
    "askPrice": "69,7595",
    "green": 0,
    "coupon": "3,25 %",
    "accruedInterest": "1,3445",
    "settleDate": "2023.03.22",
    "askEhmYield": "8,30",
    "bidYield": "9,15",
    "rawName": "2031/A",
    "bidPrice": "65,8899",
    "coupon_val": 3.25,
    "maturityInDays": "3136 nap",
    "securityType": "KTV",
    "maturityDate": "2031.10.22",
    "name": "2031/A",
    "bidEhmYield": "9,14",
    "askYield": "8,31",
    "currency": "HUF",
    "maturityInDays_val": 3136,
    "issueDate": "2015.04.22",
    "longName": "A311022A15"
}