{
    "askPrice": "78,8535",
    "green": 0,
    "coupon": "3,25 %",
    "accruedInterest": "2,3418",
    "settleDate": "2023.07.12",
    "askEhmYield": "6,65",
    "bidYield": "7,46",
    "rawName": "2031/A",
    "bidPrice": "74,6475",
    "coupon_val": 3.25,
    "maturityInDays": "3024 nap",
    "securityType": "KTV",
    "maturityDate": "2031.10.22",
    "name": "2031/A",
    "bidEhmYield": "7,45",
    "askYield": "6,65",
    "currency": "HUF",
    "maturityInDays_val": 3024,
    "issueDate": "2015.04.22",
    "longName": "A311022A15"
}