{
    "askPrice": "80,9429",
    "green": 0,
    "coupon": "3,25 %",
    "accruedInterest": "2,9473",
    "settleDate": "2023.09.18",
    "askEhmYield": "6,33",
    "bidYield": "7,05",
    "rawName": "2031/A",
    "bidPrice": "77,1458",
    "coupon_val": 3.25,
    "maturityInDays": "2956 nap",
    "securityType": "KTV",
    "maturityDate": "2031.10.22",
    "name": "2031/A",
    "bidEhmYield": "7,04",
    "askYield": "6,33",
    "currency": "HUF",
    "maturityInDays_val": 2956,
    "issueDate": "2015.04.22",
    "longName": "A311022A15"
}