{
    "askPrice": "74,5590",
    "green": 0,
    "coupon": "3,25 %",
    "accruedInterest": "1,9233",
    "settleDate": "2023.05.26",
    "askEhmYield": "7,41",
    "bidYield": "8,30",
    "rawName": "2031/A",
    "bidPrice": "70,2460",
    "coupon_val": 3.25,
    "maturityInDays": "3071 nap",
    "securityType": "KTV",
    "maturityDate": "2031.10.22",
    "name": "2031/A",
    "bidEhmYield": "8,29",
    "askYield": "7,42",
    "currency": "HUF",
    "maturityInDays_val": 3071,
    "issueDate": "2015.04.22",
    "longName": "A311022A15"
}