{
    "askPrice": "72,6165",
    "green": 0,
    "coupon": "3,25 %",
    "accruedInterest": "0,7034",
    "settleDate": "2023.01.09",
    "askEhmYield": "7,63",
    "bidYield": "8,50",
    "rawName": "2031/A",
    "bidPrice": "68,3806",
    "coupon_val": 3.25,
    "maturityInDays": "3208 nap",
    "securityType": "KTV",
    "maturityDate": "2031.10.22",
    "name": "2031/A",
    "bidEhmYield": "8,49",
    "askYield": "7,64",
    "currency": "HUF",
    "maturityInDays_val": 3208,
    "issueDate": "2015.04.22",
    "longName": "A311022A15"
}