{
    "askPrice": "75,0542",
    "green": 0,
    "coupon": "3,25 %",
    "accruedInterest": "1,9767",
    "settleDate": "2023.06.01",
    "askEhmYield": "7,32",
    "bidYield": "8,17",
    "rawName": "2031/A",
    "bidPrice": "70,9041",
    "coupon_val": 3.25,
    "maturityInDays": "3065 nap",
    "securityType": "KTV",
    "maturityDate": "2031.10.22",
    "name": "2031/A",
    "bidEhmYield": "8,16",
    "askYield": "7,33",
    "currency": "HUF",
    "maturityInDays_val": 3065,
    "issueDate": "2015.04.22",
    "longName": "A311022A15"
}