{
    "askPrice": "77,1667",
    "green": 0,
    "coupon": "3,25 %",
    "accruedInterest": "0,0266",
    "settleDate": "2023.10.25",
    "askEhmYield": "7,08",
    "bidYield": "7,80",
    "rawName": "2031/A",
    "bidPrice": "73,6719",
    "coupon_val": 3.25,
    "maturityInDays": "2919 nap",
    "securityType": "KTV",
    "maturityDate": "2031.10.22",
    "name": "2031/A",
    "bidEhmYield": "7,79",
    "askYield": "7,09",
    "currency": "HUF",
    "maturityInDays_val": 2919,
    "issueDate": "2015.04.22",
    "longName": "A311022A15"
}