{
    "askPrice": "79,7466",
    "green": 0,
    "coupon": "3,25 %",
    "accruedInterest": "2,2973",
    "settleDate": "2023.07.07",
    "askEhmYield": "6,48",
    "bidYield": "7,31",
    "rawName": "2031/A",
    "bidPrice": "75,3747",
    "coupon_val": 3.25,
    "maturityInDays": "3029 nap",
    "securityType": "KTV",
    "maturityDate": "2031.10.22",
    "name": "2031/A",
    "bidEhmYield": "7,30",
    "askYield": "6,48",
    "currency": "HUF",
    "maturityInDays_val": 3029,
    "issueDate": "2015.04.22",
    "longName": "A311022A15"
}