{
    "askPrice": "75,0606",
    "green": 0,
    "coupon": "3,25 %",
    "accruedInterest": "0,8637",
    "settleDate": "2023.01.27",
    "askEhmYield": "7,19",
    "bidYield": "8,02",
    "rawName": "2031/A",
    "bidPrice": "70,8181",
    "coupon_val": 3.25,
    "maturityInDays": "3190 nap",
    "securityType": "KTV",
    "maturityDate": "2031.10.22",
    "name": "2031/A",
    "bidEhmYield": "8,01",
    "askYield": "7,19",
    "currency": "HUF",
    "maturityInDays_val": 3190,
    "issueDate": "2015.04.22",
    "longName": "A311022A15"
}