{
    "askPrice": "81,4740",
    "green": 0,
    "coupon": "3,25 %",
    "accruedInterest": "1,8204",
    "settleDate": "2024.05.14",
    "askEhmYield": "6,46",
    "bidYield": "7,18",
    "rawName": "2031/A",
    "bidPrice": "77,9125",
    "coupon_val": 3.25,
    "maturityInDays": "2717 nap",
    "securityType": "KTV",
    "maturityDate": "2031.10.22",
    "name": "2031/A",
    "bidEhmYield": "7,17",
    "askYield": "6,46",
    "currency": "HUF",
    "maturityInDays_val": 2717,
    "issueDate": "2015.04.22",
    "longName": "A311022A15"
}