{
    "askPrice": "81,4878",
    "green": 0,
    "coupon": "3,25 %",
    "accruedInterest": "1,5007",
    "settleDate": "2024.04.08",
    "askEhmYield": "6,42",
    "bidYield": "7,13",
    "rawName": "2031/A",
    "bidPrice": "77,9334",
    "coupon_val": 3.25,
    "maturityInDays": "2753 nap",
    "securityType": "KTV",
    "maturityDate": "2031.10.22",
    "name": "2031/A",
    "bidEhmYield": "7,12",
    "askYield": "6,42",
    "currency": "HUF",
    "maturityInDays_val": 2753,
    "issueDate": "2015.04.22",
    "longName": "A311022A15"
}