{
    "askPrice": "79,2937",
    "green": 0,
    "coupon": "3,25 %",
    "accruedInterest": "1,6250",
    "settleDate": "2024.04.22",
    "askEhmYield": "6,87",
    "bidYield": "7,61",
    "rawName": "2031/A",
    "bidPrice": "75,7299",
    "coupon_val": 3.25,
    "maturityInDays": "2739 nap",
    "securityType": "KTV",
    "maturityDate": "2031.10.22",
    "name": "2031/A",
    "bidEhmYield": "7,60",
    "askYield": "6,87",
    "currency": "HUF",
    "maturityInDays_val": 2739,
    "issueDate": "2015.04.22",
    "longName": "A311022A15"
}