{
    "askPrice": "84,9557",
    "green": 0,
    "coupon": "3,25 %",
    "accruedInterest": "0,8969",
    "settleDate": "2024.01.31",
    "askEhmYield": "5,71",
    "bidYield": "6,43",
    "rawName": "2031/A",
    "bidPrice": "81,0855",
    "coupon_val": 3.25,
    "maturityInDays": "2821 nap",
    "securityType": "KTV",
    "maturityDate": "2031.10.22",
    "name": "2031/A",
    "bidEhmYield": "6,43",
    "askYield": "5,71",
    "currency": "HUF",
    "maturityInDays_val": 2821,
    "issueDate": "2015.04.22",
    "longName": "A311022A15"
}