{
    "askPrice": "88,0724",
    "green": 0,
    "coupon": "3,25 %",
    "accruedInterest": "0,7637",
    "settleDate": "2024.01.16",
    "askEhmYield": "5,15",
    "bidYield": "5,85",
    "rawName": "2031/A",
    "bidPrice": "84,1210",
    "coupon_val": 3.25,
    "maturityInDays": "2836 nap",
    "securityType": "KTV",
    "maturityDate": "2031.10.22",
    "name": "2031/A",
    "bidEhmYield": "5,85",
    "askYield": "5,15",
    "currency": "HUF",
    "maturityInDays_val": 2836,
    "issueDate": "2015.04.22",
    "longName": "A311022A15"
}