{
    "askPrice": "80,1019",
    "green": 0,
    "coupon": "3,25 %",
    "accruedInterest": "1,5628",
    "settleDate": "2024.04.15",
    "askEhmYield": "6,70",
    "bidYield": "7,43",
    "rawName": "2031/A",
    "bidPrice": "76,5334",
    "coupon_val": 3.25,
    "maturityInDays": "2746 nap",
    "securityType": "KTV",
    "maturityDate": "2031.10.22",
    "name": "2031/A",
    "bidEhmYield": "7,42",
    "askYield": "6,70",
    "currency": "HUF",
    "maturityInDays_val": 2746,
    "issueDate": "2015.04.22",
    "longName": "A311022A15"
}