{
    "askPrice": "81,4565",
    "green": 0,
    "coupon": "3,25 %",
    "accruedInterest": "1,4474",
    "settleDate": "2024.04.02",
    "askEhmYield": "6,42",
    "bidYield": "7,15",
    "rawName": "2031/A",
    "bidPrice": "77,7995",
    "coupon_val": 3.25,
    "maturityInDays": "2759 nap",
    "securityType": "KTV",
    "maturityDate": "2031.10.22",
    "name": "2031/A",
    "bidEhmYield": "7,14",
    "askYield": "6,42",
    "currency": "HUF",
    "maturityInDays_val": 2759,
    "issueDate": "2015.04.22",
    "longName": "A311022A15"
}