{
    "askPrice": "86,7826",
    "green": 0,
    "coupon": "3,25 %",
    "accruedInterest": "0,8436",
    "settleDate": "2024.01.25",
    "askEhmYield": "5,38",
    "bidYield": "6,11",
    "rawName": "2031/A",
    "bidPrice": "82,7504",
    "coupon_val": 3.25,
    "maturityInDays": "2827 nap",
    "securityType": "KTV",
    "maturityDate": "2031.10.22",
    "name": "2031/A",
    "bidEhmYield": "6,11",
    "askYield": "5,38",
    "currency": "HUF",
    "maturityInDays_val": 2827,
    "issueDate": "2015.04.22",
    "longName": "A311022A15"
}