{
    "askPrice": "81,7480",
    "green": 0,
    "coupon": "3,25 %",
    "accruedInterest": "1,7671",
    "settleDate": "2024.05.08",
    "askEhmYield": "6,40",
    "bidYield": "7,11",
    "rawName": "2031/A",
    "bidPrice": "78,2135",
    "coupon_val": 3.25,
    "maturityInDays": "2723 nap",
    "securityType": "KTV",
    "maturityDate": "2031.10.22",
    "name": "2031/A",
    "bidEhmYield": "7,10",
    "askYield": "6,40",
    "currency": "HUF",
    "maturityInDays_val": 2723,
    "issueDate": "2015.04.22",
    "longName": "A311022A15"
}