{
    "askPrice": "98,0860",
    "green": 0,
    "coupon": 0,
    "accruedInterest": 0,
    "settleDate": "2023.04.11",
    "askEhmYield": "14,24",
    "bidYield": "15,37",
    "rawName": "D230531",
    "bidPrice": "97,9099",
    "maturityInDays": "50 nap",
    "securityType": "DKJ",
    "maturityDate": "2023.05.31",
    "name": "D230531",
    "bidEhmYield": "15,58",
    "askYield": "14,05",
    "currency": "HUF",
    "maturityInDays_val": 50,
    "issueDate": "2023.03.01",
    "longName": "D230531"
}