{
    "askPrice": "",
    "green": 0,
    "coupon": 0,
    "accruedInterest": 0,
    "settleDate": "2023.05.18",
    "askEhmYield": "",
    "bidYield": "14,40",
    "rawName": "D230531",
    "bidPrice": "99,4827",
    "maturityInDays": "13 nap",
    "securityType": "DKJ",
    "maturityDate": "2023.05.31",
    "name": "D230531",
    "bidEhmYield": "14,60",
    "askYield": "",
    "currency": "HUF",
    "maturityInDays_val": 13,
    "issueDate": "2023.03.01",
    "longName": "D230531"
}