{
    "askPrice": "",
    "green": 0,
    "coupon": 0,
    "accruedInterest": 0,
    "settleDate": "2023.05.17",
    "askEhmYield": "",
    "bidYield": "15,20",
    "rawName": "D230531",
    "bidPrice": "99,4124",
    "maturityInDays": "14 nap",
    "securityType": "DKJ",
    "maturityDate": "2023.05.31",
    "name": "D230531",
    "bidEhmYield": "15,41",
    "askYield": "",
    "currency": "HUF",
    "maturityInDays_val": 14,
    "issueDate": "2023.03.01",
    "longName": "D230531"
}