{
    "askPrice": "",
    "green": 0,
    "coupon": 0,
    "accruedInterest": 0,
    "settleDate": "2023.05.25",
    "askEhmYield": "",
    "bidYield": "14,54",
    "rawName": "D230531",
    "bidPrice": "99,7583",
    "maturityInDays": "6 nap",
    "securityType": "DKJ",
    "maturityDate": "2023.05.31",
    "name": "D230531",
    "bidEhmYield": "14,74",
    "askYield": "",
    "currency": "HUF",
    "maturityInDays_val": 6,
    "issueDate": "2023.03.01",
    "longName": "D230531"
}