{
    "askPrice": "98,6806",
    "green": 0,
    "coupon": 0,
    "accruedInterest": 0,
    "settleDate": "2023.04.25",
    "askEhmYield": "13,56",
    "bidYield": "14,50",
    "rawName": "D230531",
    "bidPrice": "98,5707",
    "maturityInDays": "36 nap",
    "securityType": "DKJ",
    "maturityDate": "2023.05.31",
    "name": "D230531",
    "bidEhmYield": "14,70",
    "askYield": "13,37",
    "currency": "HUF",
    "maturityInDays_val": 36,
    "issueDate": "2023.03.01",
    "longName": "D230531"
}