{
    "askPrice": "",
    "green": 0,
    "coupon": 0,
    "accruedInterest": 0,
    "settleDate": "2023.05.15",
    "askEhmYield": "",
    "bidYield": "15,25",
    "rawName": "D230531",
    "bidPrice": "99,3268",
    "maturityInDays": "16 nap",
    "securityType": "DKJ",
    "maturityDate": "2023.05.31",
    "name": "D230531",
    "bidEhmYield": "15,46",
    "askYield": "",
    "currency": "HUF",
    "maturityInDays_val": 16,
    "issueDate": "2023.03.01",
    "longName": "D230531"
}