{
    "askPrice": "96,7101",
    "green": 0,
    "coupon": 0,
    "accruedInterest": 0,
    "settleDate": "2023.03.03",
    "askEhmYield": "13,95",
    "bidYield": "15,05",
    "rawName": "D230531",
    "bidPrice": "96,4128",
    "maturityInDays": "89 nap",
    "securityType": "DKJ",
    "maturityDate": "2023.05.31",
    "name": "D230531",
    "bidEhmYield": "15,26",
    "askYield": "13,76",
    "currency": "HUF",
    "maturityInDays_val": 89,
    "issueDate": "2023.03.01",
    "longName": "D230531"
}