{
    "askPrice": "",
    "green": 0,
    "coupon": "7,00 %",
    "accruedInterest": "1,4575",
    "settleDate": "2022.12.19",
    "askEhmYield": "",
    "bidYield": "8,29",
    "rawName": "K2023/40",
    "bidPrice": "99,0000",
    "coupon_val": 7,
    "maturityInDays": "289 nap",
    "securityType": "1MÁP",
    "maturityDate": "2023.10.04",
    "name": "K2023/40",
    "bidEhmYield": "8,23",
    "askYield": "",
    "currency": "HUF",
    "maturityInDays_val": 289,
    "issueDate": "2022.10.04",
    "longName": "K231004"
}