{
    "askPrice": "",
    "green": 0,
    "coupon": "7,00 %",
    "accruedInterest": "0,46",
    "settleDate": "2022.10.28",
    "askEhmYield": "",
    "bidYield": "7,56",
    "rawName": "K2023/40",
    "bidPrice": "99,50",
    "coupon_val": 7,
    "maturityInDays": "341 nap",
    "securityType": "1MÁP",
    "maturityDate": "2023.10.04",
    "name": "K2023/40",
    "bidEhmYield": "7,54",
    "askYield": "",
    "currency": "HUF",
    "maturityInDays_val": 341,
    "longName": "K231004"
}