{
    "askPrice": "",
    "green": 0,
    "coupon": "7,00 %",
    "accruedInterest": "1,1890",
    "settleDate": "2022.12.05",
    "askEhmYield": "",
    "bidYield": "7,60",
    "rawName": "K2023/40",
    "bidPrice": "99,5000",
    "coupon_val": 7,
    "maturityInDays": "303 nap",
    "securityType": "1MÁP",
    "maturityDate": "2023.10.04",
    "name": "K2023/40",
    "bidEhmYield": "7,55",
    "askYield": "",
    "currency": "HUF",
    "maturityInDays_val": 303,
    "issueDate": "2022.10.04",
    "longName": "K231004"
}