{
    "askPrice": "",
    "green": 0,
    "coupon": "7,00 %",
    "accruedInterest": "6,5014",
    "settleDate": "2023.09.08",
    "askEhmYield": "",
    "bidYield": "21,90",
    "rawName": "K2023/40",
    "bidPrice": "99,0000",
    "coupon_val": 7,
    "maturityInDays": "26 nap",
    "securityType": "1MÁP",
    "maturityDate": "2023.10.04",
    "name": "K2023/40",
    "bidEhmYield": "19,94",
    "askYield": "",
    "currency": "HUF",
    "maturityInDays_val": 26,
    "issueDate": "2022.10.04",
    "longName": "K231004"
}