{
    "askPrice": "",
    "green": 0,
    "coupon": "7,00 %",
    "accruedInterest": "5,3507",
    "settleDate": "2023.07.10",
    "askEhmYield": "",
    "bidYield": "11,23",
    "rawName": "K2023/40",
    "bidPrice": "99,0000",
    "coupon_val": 7,
    "maturityInDays": "86 nap",
    "securityType": "1MÁP",
    "maturityDate": "2023.10.04",
    "name": "K2023/40",
    "bidEhmYield": "10,78",
    "askYield": "",
    "currency": "HUF",
    "maturityInDays_val": 86,
    "issueDate": "2022.10.04",
    "longName": "K231004"
}