{
    "askPrice": "",
    "green": 0,
    "coupon": "7,00 %",
    "accruedInterest": "2,1863",
    "settleDate": "2023.01.26",
    "askEhmYield": "",
    "bidYield": "8,46",
    "rawName": "K2023/40",
    "bidPrice": "99,0000",
    "coupon_val": 7,
    "maturityInDays": "251 nap",
    "securityType": "1MÁP",
    "maturityDate": "2023.10.04",
    "name": "K2023/40",
    "bidEhmYield": "8,36",
    "askYield": "",
    "currency": "HUF",
    "maturityInDays_val": 251,
    "issueDate": "2022.10.04",
    "longName": "K231004"
}