{
    "askPrice": "",
    "green": 0,
    "coupon": "7,00 %",
    "accruedInterest": "1,9370",
    "settleDate": "2023.01.13",
    "askEhmYield": "",
    "bidYield": "8,40",
    "rawName": "K2023/40",
    "bidPrice": "99,0000",
    "coupon_val": 7,
    "maturityInDays": "264 nap",
    "securityType": "1MÁP",
    "maturityDate": "2023.10.04",
    "name": "K2023/40",
    "bidEhmYield": "8,30",
    "askYield": "",
    "currency": "HUF",
    "maturityInDays_val": 264,
    "issueDate": "2022.10.04",
    "longName": "K231004"
}