{
    "askPrice": "",
    "green": 0,
    "coupon": "7,00 %",
    "accruedInterest": "5,6384",
    "settleDate": "2023.07.25",
    "askEhmYield": "",
    "bidYield": "12,16",
    "rawName": "K2023/40",
    "bidPrice": "99,0000",
    "coupon_val": 7,
    "maturityInDays": "71 nap",
    "securityType": "1MÁP",
    "maturityDate": "2023.10.04",
    "name": "K2023/40",
    "bidEhmYield": "11,60",
    "askYield": "",
    "currency": "HUF",
    "maturityInDays_val": 71,
    "issueDate": "2022.10.04",
    "longName": "K231004"
}