{
    "askPrice": "",
    "green": 0,
    "coupon": "7,00 %",
    "accruedInterest": "4,4877",
    "settleDate": "2023.05.26",
    "askEhmYield": "",
    "bidYield": "9,75",
    "rawName": "K2023/40",
    "bidPrice": "99,0000",
    "coupon_val": 7,
    "maturityInDays": "131 nap",
    "securityType": "1MÁP",
    "maturityDate": "2023.10.04",
    "name": "K2023/40",
    "bidEhmYield": "9,46",
    "askYield": "",
    "currency": "HUF",
    "maturityInDays_val": 131,
    "issueDate": "2022.10.04",
    "longName": "K231004"
}