{
    "askPrice": "",
    "green": 0,
    "coupon": "7,00 %",
    "accruedInterest": "3,6247",
    "settleDate": "2023.04.11",
    "askEhmYield": "",
    "bidYield": "9,04",
    "rawName": "K2023/40",
    "bidPrice": "99,0000",
    "coupon_val": 7,
    "maturityInDays": "176 nap",
    "securityType": "1MÁP",
    "maturityDate": "2023.10.04",
    "name": "K2023/40",
    "bidEhmYield": "8,84",
    "askYield": "",
    "currency": "HUF",
    "maturityInDays_val": 176,
    "issueDate": "2022.10.04",
    "longName": "K231004"
}