{
    "askPrice": "",
    "green": 0,
    "coupon": "7,00 %",
    "accruedInterest": "4,8137",
    "settleDate": "2023.06.12",
    "askEhmYield": "",
    "bidYield": "10,16",
    "rawName": "K2023/40",
    "bidPrice": "99,0000",
    "coupon_val": 7,
    "maturityInDays": "114 nap",
    "securityType": "1MÁP",
    "maturityDate": "2023.10.04",
    "name": "K2023/40",
    "bidEhmYield": "9,83",
    "askYield": "",
    "currency": "HUF",
    "maturityInDays_val": 114,
    "issueDate": "2022.10.04",
    "longName": "K231004"
}