{
    "askPrice": "77,54",
    "green": 0,
    "coupon": "4,50 %",
    "accruedInterest": "2,24",
    "settleDate": "2022.07.20",
    "askEhmYield": "9,83",
    "bidYield": "10,43",
    "rawName": "2028/B",
    "bidPrice": "75,43",
    "coupon_val": 4.5,
    "maturityInDays": "2073 nap",
    "securityType": "KTV",
    "maturityDate": "2028.03.23",
    "name": "2028/B",
    "bidEhmYield": "10,43",
    "askYield": "9,83",
    "currency": "HUF",
    "maturityInDays_val": 2073,
    "longName": "A280323B22"
}