{
    "askPrice": "71,53",
    "green": 0,
    "coupon": "4,50 %",
    "accruedInterest": "3,43",
    "settleDate": "2022.10.24",
    "askEhmYield": "11,90",
    "bidYield": "12,63",
    "rawName": "2028/B",
    "bidPrice": "69,35",
    "coupon_val": 4.5,
    "maturityInDays": "1977 nap",
    "securityType": "KTV",
    "maturityDate": "2028.03.23",
    "name": "2028/B",
    "bidEhmYield": "12,62",
    "askYield": "11,91",
    "currency": "HUF",
    "maturityInDays_val": 1977,
    "longName": "A280323B22"
}