{
    "askPrice": "73,93",
    "green": 0,
    "coupon": "4,50 %",
    "accruedInterest": "3,54",
    "settleDate": "2022.11.02",
    "askEhmYield": "11,17",
    "bidYield": "11,87",
    "rawName": "2028/B",
    "bidPrice": "71,75",
    "coupon_val": 4.5,
    "maturityInDays": "1968 nap",
    "securityType": "KTV",
    "maturityDate": "2028.03.23",
    "name": "2028/B",
    "bidEhmYield": "11,86",
    "askYield": "11,18",
    "currency": "HUF",
    "maturityInDays_val": 1968,
    "issueDate": "2022-01-19",
    "longName": "A280323B22"
}