{
    "askPrice": "74,97",
    "green": 0,
    "coupon": "4,50 %",
    "accruedInterest": "3,29",
    "settleDate": "2022.10.13",
    "askEhmYield": "10,80",
    "bidYield": "11,40",
    "rawName": "2028/B",
    "bidPrice": "73,02",
    "coupon_val": 4.5,
    "maturityInDays": "1988 nap",
    "securityType": "KTV",
    "maturityDate": "2028.03.23",
    "name": "2028/B",
    "bidEhmYield": "11,40",
    "askYield": "10,80",
    "currency": "HUF",
    "maturityInDays_val": 1988,
    "longName": "A280323B22"
}