{
    "askPrice": "78,8730",
    "green": 0,
    "coupon": "4,50 %",
    "accruedInterest": "4,2534",
    "settleDate": "2022.12.30",
    "askEhmYield": "9,84",
    "bidYield": "10,66",
    "rawName": "2028/B",
    "bidPrice": "76,1894",
    "coupon_val": 4.5,
    "maturityInDays": "1910 nap",
    "securityType": "KTV",
    "maturityDate": "2028.03.23",
    "name": "2028/B",
    "bidEhmYield": "10,65",
    "askYield": "9,85",
    "currency": "HUF",
    "maturityInDays_val": 1910,
    "issueDate": "2022.01.19",
    "longName": "A280323B22"
}