{
    "askPrice": "82,75",
    "green": 0,
    "coupon": "4,50 %",
    "accruedInterest": "2,59",
    "settleDate": "2022.08.17",
    "askEhmYield": "8,48",
    "bidYield": "9,08",
    "rawName": "2028/B",
    "bidPrice": "80,49",
    "coupon_val": 4.5,
    "maturityInDays": "2045 nap",
    "securityType": "KTV",
    "maturityDate": "2028.03.23",
    "name": "2028/B",
    "bidEhmYield": "9,08",
    "askYield": "8,48",
    "currency": "HUF",
    "maturityInDays_val": 2045,
    "longName": "A280323B22"
}