{
    "askPrice": "77,27",
    "green": 0,
    "coupon": "4,50 %",
    "accruedInterest": "3,13",
    "settleDate": "2022.09.30",
    "askEhmYield": "10,08",
    "bidYield": "10,68",
    "rawName": "2028/B",
    "bidPrice": "75,24",
    "coupon_val": 4.5,
    "maturityInDays": "2001 nap",
    "securityType": "KTV",
    "maturityDate": "2028.03.23",
    "name": "2028/B",
    "bidEhmYield": "10,68",
    "askYield": "10,08",
    "currency": "HUF",
    "maturityInDays_val": 2001,
    "longName": "A280323B22"
}