{
    "askPrice": "80,36",
    "green": 0,
    "coupon": "4,50 %",
    "accruedInterest": "3,70",
    "settleDate": "2022.11.15",
    "askEhmYield": "9,30",
    "bidYield": "10,01",
    "rawName": "2028/B",
    "bidPrice": "77,92",
    "coupon_val": 4.5,
    "maturityInDays": "1955 nap",
    "securityType": "KTV",
    "maturityDate": "2028.03.23",
    "name": "2028/B",
    "bidEhmYield": "10,00",
    "askYield": "9,31",
    "currency": "HUF",
    "maturityInDays_val": 1955,
    "issueDate": "2022-01-19",
    "longName": "A280323B22"
}