{
    "askPrice": "77,47",
    "green": 0,
    "coupon": "4,50 %",
    "accruedInterest": "3,02",
    "settleDate": "2022.09.21",
    "askEhmYield": "10,00",
    "bidYield": "10,60",
    "rawName": "2028/B",
    "bidPrice": "75,42",
    "coupon_val": 4.5,
    "maturityInDays": "2010 nap",
    "securityType": "KTV",
    "maturityDate": "2028.03.23",
    "name": "2028/B",
    "bidEhmYield": "10,60",
    "askYield": "10,00",
    "currency": "HUF",
    "maturityInDays_val": 2010,
    "longName": "A280323B22"
}