{
    "askPrice": "83,8225",
    "green": 0,
    "coupon": "4,50 %",
    "accruedInterest": "3,9082",
    "settleDate": "2022.12.02",
    "askEhmYield": "8,38",
    "bidYield": "9,19",
    "rawName": "2028/B",
    "bidPrice": "80,9202",
    "coupon_val": 4.5,
    "maturityInDays": "1938 nap",
    "securityType": "KTV",
    "maturityDate": "2028.03.23",
    "name": "2028/B",
    "bidEhmYield": "9,18",
    "askYield": "8,39",
    "currency": "HUF",
    "maturityInDays_val": 1938,
    "issueDate": "2022.01.19",
    "longName": "A280323B22"
}