{
    "askPrice": "76,42",
    "green": 0,
    "coupon": "4,50 %",
    "accruedInterest": "3,27",
    "settleDate": "2022.10.11",
    "askEhmYield": "10,36",
    "bidYield": "10,96",
    "rawName": "2028/B",
    "bidPrice": "74,42",
    "coupon_val": 4.5,
    "maturityInDays": "1990 nap",
    "securityType": "KTV",
    "maturityDate": "2028.03.23",
    "name": "2028/B",
    "bidEhmYield": "10,96",
    "askYield": "10,36",
    "currency": "HUF",
    "maturityInDays_val": 1990,
    "longName": "A280323B22"
}