{
    "askPrice": "76,74",
    "green": 0,
    "coupon": "4,50 %",
    "accruedInterest": "3,65",
    "settleDate": "2022.11.11",
    "askEhmYield": "10,34",
    "bidYield": "11,00",
    "rawName": "2028/B",
    "bidPrice": "74,60",
    "coupon_val": 4.5,
    "maturityInDays": "1959 nap",
    "securityType": "KTV",
    "maturityDate": "2028.03.23",
    "name": "2028/B",
    "bidEhmYield": "10,99",
    "askYield": "10,35",
    "currency": "HUF",
    "maturityInDays_val": 1959,
    "issueDate": "2022-01-19",
    "longName": "A280323B22"
}