{
    "askPrice": "81,13",
    "green": 0,
    "coupon": "4,50 %",
    "accruedInterest": "2,48",
    "settleDate": "2022.08.08",
    "askEhmYield": "8,89",
    "bidYield": "9,49",
    "rawName": "2028/B",
    "bidPrice": "78,92",
    "coupon_val": 4.5,
    "maturityInDays": "2054 nap",
    "securityType": "KTV",
    "maturityDate": "2028.03.23",
    "name": "2028/B",
    "bidEhmYield": "9,49",
    "askYield": "8,89",
    "currency": "HUF",
    "maturityInDays_val": 2054,
    "longName": "A280323B22"
}