{
    "askPrice": "84,51",
    "green": 0,
    "coupon": "4,50 %",
    "accruedInterest": "1,96",
    "settleDate": "2022.06.27",
    "askEhmYield": "7,95",
    "bidYield": "8,55",
    "rawName": "2028/B",
    "bidPrice": "82,14",
    "coupon_val": 4.5,
    "maturityInDays": "2096 nap",
    "securityType": "KTV",
    "maturityDate": "2028.03.23",
    "name": "2028/B",
    "bidEhmYield": "8,55",
    "askYield": "7,95",
    "currency": "HUF",
    "maturityInDays_val": 2096,
    "longName": "A280323B22"
}