{
    "askPrice": "77,44",
    "green": 0,
    "coupon": "4,50 %",
    "accruedInterest": "3,03",
    "settleDate": "2022.09.22",
    "askEhmYield": "10,01",
    "bidYield": "10,61",
    "rawName": "2028/B",
    "bidPrice": "75,40",
    "coupon_val": 4.5,
    "maturityInDays": "2009 nap",
    "securityType": "KTV",
    "maturityDate": "2028.03.23",
    "name": "2028/B",
    "bidEhmYield": "10,61",
    "askYield": "10,01",
    "currency": "HUF",
    "maturityInDays_val": 2009,
    "longName": "A280323B22"
}