{
    "askPrice": "84,3915",
    "green": 0,
    "coupon": "4,50 %",
    "accruedInterest": "3,8589",
    "settleDate": "2022.11.28",
    "askEhmYield": "8,22",
    "bidYield": "8,95",
    "rawName": "2028/B",
    "bidPrice": "81,7462",
    "coupon_val": 4.5,
    "maturityInDays": "1942 nap",
    "securityType": "KTV",
    "maturityDate": "2028.03.23",
    "name": "2028/B",
    "bidEhmYield": "8,94",
    "askYield": "8,23",
    "currency": "HUF",
    "maturityInDays_val": 1942,
    "issueDate": "2022.01.19",
    "longName": "A280323B22"
}