{
    "askPrice": "80,15",
    "green": 0,
    "coupon": "4,50 %",
    "accruedInterest": "2,16",
    "settleDate": "2022.07.13",
    "askEhmYield": "9,10",
    "bidYield": "9,70",
    "rawName": "2028/B",
    "bidPrice": "77,95",
    "coupon_val": 4.5,
    "maturityInDays": "2080 nap",
    "securityType": "KTV",
    "maturityDate": "2028.03.23",
    "name": "2028/B",
    "bidEhmYield": "9,70",
    "askYield": "9,10",
    "currency": "HUF",
    "maturityInDays_val": 2080,
    "longName": "A280323B22"
}