{
    "askPrice": "78,46",
    "green": 0,
    "coupon": "4,50 %",
    "accruedInterest": "2,82",
    "settleDate": "2022.09.05",
    "askEhmYield": "9,68",
    "bidYield": "10,28",
    "rawName": "2028/B",
    "bidPrice": "76,36",
    "coupon_val": 4.5,
    "maturityInDays": "2026 nap",
    "securityType": "KTV",
    "maturityDate": "2028.03.23",
    "name": "2028/B",
    "bidEhmYield": "10,28",
    "askYield": "9,68",
    "currency": "HUF",
    "maturityInDays_val": 2026,
    "longName": "A280323B22"
}