{
    "askPrice": "79,93",
    "green": 0,
    "coupon": "4,50 %",
    "accruedInterest": "2,10",
    "settleDate": "2022.07.08",
    "askEhmYield": "9,15",
    "bidYield": "9,75",
    "rawName": "2028/B",
    "bidPrice": "77,73",
    "coupon_val": 4.5,
    "maturityInDays": "2085 nap",
    "securityType": "KTV",
    "maturityDate": "2028.03.23",
    "name": "2028/B",
    "bidEhmYield": "9,75",
    "askYield": "9,15",
    "currency": "HUF",
    "maturityInDays_val": 2085,
    "longName": "A280323B22"
}