{
    "askPrice": "77,54",
    "green": 0,
    "coupon": "4,50 %",
    "accruedInterest": "3,17",
    "settleDate": "2022.10.03",
    "askEhmYield": "10,01",
    "bidYield": "10,61",
    "rawName": "2028/B",
    "bidPrice": "75,50",
    "coupon_val": 4.5,
    "maturityInDays": "1998 nap",
    "securityType": "KTV",
    "maturityDate": "2028.03.23",
    "name": "2028/B",
    "bidEhmYield": "10,61",
    "askYield": "10,01",
    "currency": "HUF",
    "maturityInDays_val": 1998,
    "longName": "A280323B22"
}