{
    "askPrice": "81,08",
    "green": 0,
    "coupon": "4,50 %",
    "accruedInterest": "2,52",
    "settleDate": "2022.08.11",
    "askEhmYield": "8,91",
    "bidYield": "9,51",
    "rawName": "2028/B",
    "bidPrice": "78,87",
    "coupon_val": 4.5,
    "maturityInDays": "2051 nap",
    "securityType": "KTV",
    "maturityDate": "2028.03.23",
    "name": "2028/B",
    "bidEhmYield": "9,51",
    "askYield": "8,91",
    "currency": "HUF",
    "maturityInDays_val": 2051,
    "longName": "A280323B22"
}