{
    "askPrice": "85,2355",
    "green": 0,
    "coupon": "4,50 %",
    "accruedInterest": "0,7623",
    "settleDate": "2023.05.24",
    "askEhmYield": "8,32",
    "bidYield": "9,11",
    "rawName": "2028/B",
    "bidPrice": "82,5793",
    "coupon_val": 4.5,
    "maturityInDays": "1765 nap",
    "securityType": "KTV",
    "maturityDate": "2028.03.23",
    "name": "2028/B",
    "bidEhmYield": "9,10",
    "askYield": "8,33",
    "currency": "HUF",
    "maturityInDays_val": 1765,
    "issueDate": "2022.01.19",
    "longName": "A280323B22"
}