{
    "askPrice": "88,3016",
    "green": 0,
    "coupon": "4,50 %",
    "accruedInterest": "1,8197",
    "settleDate": "2023.08.18",
    "askEhmYield": "7,59",
    "bidYield": "8,27",
    "rawName": "2028/B",
    "bidPrice": "86,0115",
    "coupon_val": 4.5,
    "maturityInDays": "1679 nap",
    "securityType": "KTV",
    "maturityDate": "2028.03.23",
    "name": "2028/B",
    "bidEhmYield": "8,26",
    "askYield": "7,60",
    "currency": "HUF",
    "maturityInDays_val": 1679,
    "issueDate": "2022.01.19",
    "longName": "A280323B22"
}