{
    "askPrice": "85,8757",
    "green": 0,
    "coupon": "4,50 %",
    "accruedInterest": "0,9221",
    "settleDate": "2023.06.06",
    "askEhmYield": "8,16",
    "bidYield": "8,98",
    "rawName": "2028/B",
    "bidPrice": "83,1110",
    "coupon_val": 4.5,
    "maturityInDays": "1752 nap",
    "securityType": "KTV",
    "maturityDate": "2028.03.23",
    "name": "2028/B",
    "bidEhmYield": "8,97",
    "askYield": "8,17",
    "currency": "HUF",
    "maturityInDays_val": 1752,
    "issueDate": "2022.01.19",
    "longName": "A280323B22"
}