{
    "askPrice": "88,8485",
    "green": 0,
    "coupon": "4,50 %",
    "accruedInterest": "1,3893",
    "settleDate": "2023.07.14",
    "askEhmYield": "7,38",
    "bidYield": "8,15",
    "rawName": "2028/B",
    "bidPrice": "86,1877",
    "coupon_val": 4.5,
    "maturityInDays": "1714 nap",
    "securityType": "KTV",
    "maturityDate": "2028.03.23",
    "name": "2028/B",
    "bidEhmYield": "8,14",
    "askYield": "7,39",
    "currency": "HUF",
    "maturityInDays_val": 1714,
    "issueDate": "2022.01.19",
    "longName": "A280323B22"
}