{
    "askPrice": "89,2014",
    "green": 0,
    "coupon": "4,50 %",
    "accruedInterest": "2,6434",
    "settleDate": "2023.10.24",
    "askEhmYield": "7,44",
    "bidYield": "8,13",
    "rawName": "2028/B",
    "bidPrice": "86,9325",
    "coupon_val": 4.5,
    "maturityInDays": "1612 nap",
    "securityType": "KTV",
    "maturityDate": "2028.03.23",
    "name": "2028/B",
    "bidEhmYield": "8,12",
    "askYield": "7,45",
    "currency": "HUF",
    "maturityInDays_val": 1612,
    "issueDate": "2022.01.19",
    "longName": "A280323B22"
}