{
    "askPrice": "82,6034",
    "green": 0,
    "coupon": "4,50 %",
    "accruedInterest": "0,3566",
    "settleDate": "2023.04.21",
    "askEhmYield": "9,02",
    "bidYield": "9,85",
    "rawName": "2028/B",
    "bidPrice": "79,8798",
    "coupon_val": 4.5,
    "maturityInDays": "1798 nap",
    "securityType": "KTV",
    "maturityDate": "2028.03.23",
    "name": "2028/B",
    "bidEhmYield": "9,84",
    "askYield": "9,03",
    "currency": "HUF",
    "maturityInDays_val": 1798,
    "issueDate": "2022.01.19",
    "longName": "A280323B22"
}