{
    "askPrice": "85,2211",
    "green": 0,
    "coupon": "4,50 %",
    "accruedInterest": "0,6025",
    "settleDate": "2023.05.11",
    "askEhmYield": "8,30",
    "bidYield": "9,14",
    "rawName": "2028/B",
    "bidPrice": "82,3809",
    "coupon_val": 4.5,
    "maturityInDays": "1778 nap",
    "securityType": "KTV",
    "maturityDate": "2028.03.23",
    "name": "2028/B",
    "bidEhmYield": "9,13",
    "askYield": "8,31",
    "currency": "HUF",
    "maturityInDays_val": 1778,
    "issueDate": "2022.01.19",
    "longName": "A280323B22"
}