{
    "askPrice": "89,1143",
    "green": 0,
    "coupon": "4,50 %",
    "accruedInterest": "1,4262",
    "settleDate": "2023.07.17",
    "askEhmYield": "7,31",
    "bidYield": "8,10",
    "rawName": "2028/B",
    "bidPrice": "86,3788",
    "coupon_val": 4.5,
    "maturityInDays": "1711 nap",
    "securityType": "KTV",
    "maturityDate": "2028.03.23",
    "name": "2028/B",
    "bidEhmYield": "8,09",
    "askYield": "7,32",
    "currency": "HUF",
    "maturityInDays_val": 1711,
    "issueDate": "2022.01.19",
    "longName": "A280323B22"
}