{
    "askPrice": "85,6446",
    "green": 0,
    "coupon": "4,50 %",
    "accruedInterest": "0,6762",
    "settleDate": "2023.05.17",
    "askEhmYield": "8,19",
    "bidYield": "9,00",
    "rawName": "2028/B",
    "bidPrice": "82,8956",
    "coupon_val": 4.5,
    "maturityInDays": "1772 nap",
    "securityType": "KTV",
    "maturityDate": "2028.03.23",
    "name": "2028/B",
    "bidEhmYield": "8,99",
    "askYield": "8,20",
    "currency": "HUF",
    "maturityInDays_val": 1772,
    "issueDate": "2022.01.19",
    "longName": "A280323B22"
}