{
    "askPrice": "89,0935",
    "green": 0,
    "coupon": "4,50 %",
    "accruedInterest": "1,2910",
    "settleDate": "2023.07.06",
    "askEhmYield": "7,30",
    "bidYield": "8,07",
    "rawName": "2028/B",
    "bidPrice": "86,4124",
    "coupon_val": 4.5,
    "maturityInDays": "1722 nap",
    "securityType": "KTV",
    "maturityDate": "2028.03.23",
    "name": "2028/B",
    "bidEhmYield": "8,06",
    "askYield": "7,31",
    "currency": "HUF",
    "maturityInDays_val": 1722,
    "issueDate": "2022.01.19",
    "longName": "A280323B22"
}