{
    "askPrice": "88,7241",
    "green": 0,
    "coupon": "4,50 %",
    "accruedInterest": "1,2664",
    "settleDate": "2023.07.04",
    "askEhmYield": "7,40",
    "bidYield": "8,15",
    "rawName": "2028/B",
    "bidPrice": "86,1234",
    "coupon_val": 4.5,
    "maturityInDays": "1724 nap",
    "securityType": "KTV",
    "maturityDate": "2028.03.23",
    "name": "2028/B",
    "bidEhmYield": "8,14",
    "askYield": "7,41",
    "currency": "HUF",
    "maturityInDays_val": 1724,
    "issueDate": "2022.01.19",
    "longName": "A280323B22"
}