{
    "askPrice": "96,2873",
    "green": 0,
    "coupon": "4,50 %",
    "accruedInterest": "3,4303",
    "settleDate": "2023.12.27",
    "askEhmYield": "5,49",
    "bidYield": "6,15",
    "rawName": "2028/B",
    "bidPrice": "93,9800",
    "coupon_val": 4.5,
    "maturityInDays": "1548 nap",
    "securityType": "KTV",
    "maturityDate": "2028.03.23",
    "name": "2028/B",
    "bidEhmYield": "6,14",
    "askYield": "5,50",
    "currency": "HUF",
    "maturityInDays_val": 1548,
    "issueDate": "2022.01.19",
    "longName": "A280323B22"
}