{
    "askPrice": "83,3049",
    "green": 0,
    "coupon": "4,50 %",
    "accruedInterest": "0,0861",
    "settleDate": "2023.03.30",
    "askEhmYield": "8,77",
    "bidYield": "9,60",
    "rawName": "2028/B",
    "bidPrice": "80,5229",
    "coupon_val": 4.5,
    "maturityInDays": "1820 nap",
    "securityType": "KTV",
    "maturityDate": "2028.03.23",
    "name": "2028/B",
    "bidEhmYield": "9,59",
    "askYield": "8,78",
    "currency": "HUF",
    "maturityInDays_val": 1820,
    "issueDate": "2022.01.19",
    "longName": "A280323B22"
}