{
    "askPrice": "84,8772",
    "green": 0,
    "coupon": "4,50 %",
    "accruedInterest": "4,7219",
    "settleDate": "2023.02.06",
    "askEhmYield": "8,22",
    "bidYield": "9,03",
    "rawName": "2028/B",
    "bidPrice": "82,0222",
    "coupon_val": 4.5,
    "maturityInDays": "1872 nap",
    "securityType": "KTV",
    "maturityDate": "2028.03.23",
    "name": "2028/B",
    "bidEhmYield": "9,02",
    "askYield": "8,23",
    "currency": "HUF",
    "maturityInDays_val": 1872,
    "issueDate": "2022.01.19",
    "longName": "A280323B22"
}