{
    "askPrice": "87,1182",
    "green": 0,
    "coupon": "4,50 %",
    "accruedInterest": "1,1680",
    "settleDate": "2023.06.26",
    "askEhmYield": "7,84",
    "bidYield": "8,67",
    "rawName": "2028/B",
    "bidPrice": "84,2970",
    "coupon_val": 4.5,
    "maturityInDays": "1732 nap",
    "securityType": "KTV",
    "maturityDate": "2028.03.23",
    "name": "2028/B",
    "bidEhmYield": "8,66",
    "askYield": "7,85",
    "currency": "HUF",
    "maturityInDays_val": 1732,
    "issueDate": "2022.01.19",
    "longName": "A280323B22"
}