{
    "askPrice": "81,8941",
    "green": 0,
    "coupon": "4,50 %",
    "accruedInterest": "4,9438",
    "settleDate": "2023.02.24",
    "askEhmYield": "9,10",
    "bidYield": "9,93",
    "rawName": "2028/B",
    "bidPrice": "79,1245",
    "coupon_val": 4.5,
    "maturityInDays": "1854 nap",
    "securityType": "KTV",
    "maturityDate": "2028.03.23",
    "name": "2028/B",
    "bidEhmYield": "9,92",
    "askYield": "9,11",
    "currency": "HUF",
    "maturityInDays_val": 1854,
    "issueDate": "2022.01.19",
    "longName": "A280323B22"
}