{
    "askPrice": "82,5938",
    "green": 0,
    "coupon": "4,50 %",
    "accruedInterest": "0,0492",
    "settleDate": "2023.03.27",
    "askEhmYield": "8,97",
    "bidYield": "9,78",
    "rawName": "2028/B",
    "bidPrice": "79,9040",
    "coupon_val": 4.5,
    "maturityInDays": "1823 nap",
    "securityType": "KTV",
    "maturityDate": "2028.03.23",
    "name": "2028/B",
    "bidEhmYield": "9,77",
    "askYield": "8,98",
    "currency": "HUF",
    "maturityInDays_val": 1823,
    "issueDate": "2022.01.19",
    "longName": "A280323B22"
}