{
    "askPrice": "89,2427",
    "green": 0,
    "coupon": "4,50 %",
    "accruedInterest": "1,5615",
    "settleDate": "2023.07.28",
    "askEhmYield": "7,29",
    "bidYield": "8,03",
    "rawName": "2028/B",
    "bidPrice": "86,6892",
    "coupon_val": 4.5,
    "maturityInDays": "1700 nap",
    "securityType": "KTV",
    "maturityDate": "2028.03.23",
    "name": "2028/B",
    "bidEhmYield": "8,02",
    "askYield": "7,30",
    "currency": "HUF",
    "maturityInDays_val": 1700,
    "issueDate": "2022.01.19",
    "longName": "A280323B22"
}