{
    "askPrice": "",
    "green": 0,
    "coupon": "4,50 %",
    "accruedInterest": 0,
    "settleDate": "2023.03.22",
    "askEhmYield": "",
    "bidYield": "",
    "rawName": "2028/B",
    "bidPrice": "",
    "coupon_val": 4.5,
    "maturityInDays": "1828 nap",
    "securityType": "KTV",
    "maturityDate": "2028.03.23",
    "name": "2028/B",
    "bidEhmYield": "",
    "askYield": "",
    "currency": "HUF",
    "maturityInDays_val": 1828,
    "issueDate": "2022.01.19",
    "longName": "A280323B22"
}