{
    "askPrice": "88,4695",
    "green": 0,
    "coupon": "4,50 %",
    "accruedInterest": "2,4590",
    "settleDate": "2023.10.09",
    "askEhmYield": "7,63",
    "bidYield": "8,31",
    "rawName": "2028/B",
    "bidPrice": "86,2382",
    "coupon_val": 4.5,
    "maturityInDays": "1627 nap",
    "securityType": "KTV",
    "maturityDate": "2028.03.23",
    "name": "2028/B",
    "bidEhmYield": "8,30",
    "askYield": "7,64",
    "currency": "HUF",
    "maturityInDays_val": 1627,
    "issueDate": "2022.01.19",
    "longName": "A280323B22"
}