{
    "askPrice": "88,5533",
    "green": 0,
    "coupon": "4,50 %",
    "accruedInterest": "2,4221",
    "settleDate": "2023.10.06",
    "askEhmYield": "7,60",
    "bidYield": "8,28",
    "rawName": "2028/B",
    "bidPrice": "86,3155",
    "coupon_val": 4.5,
    "maturityInDays": "1630 nap",
    "securityType": "KTV",
    "maturityDate": "2028.03.23",
    "name": "2028/B",
    "bidEhmYield": "8,27",
    "askYield": "7,61",
    "currency": "HUF",
    "maturityInDays_val": 1630,
    "issueDate": "2022.01.19",
    "longName": "A280323B22"
}