{
    "askPrice": "88,2736",
    "green": 0,
    "coupon": "4,50 %",
    "accruedInterest": "1,6844",
    "settleDate": "2023.08.07",
    "askEhmYield": "7,58",
    "bidYield": "8,32",
    "rawName": "2028/B",
    "bidPrice": "85,7686",
    "coupon_val": 4.5,
    "maturityInDays": "1690 nap",
    "securityType": "KTV",
    "maturityDate": "2028.03.23",
    "name": "2028/B",
    "bidEhmYield": "8,31",
    "askYield": "7,59",
    "currency": "HUF",
    "maturityInDays_val": 1690,
    "issueDate": "2022.01.19",
    "longName": "A280323B22"
}