{
    "askPrice": "82,5411",
    "green": 0,
    "coupon": "4,50 %",
    "accruedInterest": "0,1352",
    "settleDate": "2023.04.03",
    "askEhmYield": "9,00",
    "bidYield": "9,77",
    "rawName": "2028/B",
    "bidPrice": "79,9935",
    "coupon_val": 4.5,
    "maturityInDays": "1816 nap",
    "securityType": "KTV",
    "maturityDate": "2028.03.23",
    "name": "2028/B",
    "bidEhmYield": "9,76",
    "askYield": "9,01",
    "currency": "HUF",
    "maturityInDays_val": 1816,
    "issueDate": "2022.01.19",
    "longName": "A280323B22"
}