{
    "askPrice": "88,3189",
    "green": 0,
    "coupon": "4,50 %",
    "accruedInterest": "1,8566",
    "settleDate": "2023.08.21",
    "askEhmYield": "7,59",
    "bidYield": "8,29",
    "rawName": "2028/B",
    "bidPrice": "85,9648",
    "coupon_val": 4.5,
    "maturityInDays": "1676 nap",
    "securityType": "KTV",
    "maturityDate": "2028.03.23",
    "name": "2028/B",
    "bidEhmYield": "8,28",
    "askYield": "7,60",
    "currency": "HUF",
    "maturityInDays_val": 1676,
    "issueDate": "2022.01.19",
    "longName": "A280323B22"
}