{
    "askPrice": "81,5413",
    "green": 0,
    "coupon": "4,50 %",
    "accruedInterest": "5,0301",
    "settleDate": "2023.03.03",
    "askEhmYield": "9,22",
    "bidYield": "10,02",
    "rawName": "2028/B",
    "bidPrice": "78,8951",
    "coupon_val": 4.5,
    "maturityInDays": "1847 nap",
    "securityType": "KTV",
    "maturityDate": "2028.03.23",
    "name": "2028/B",
    "bidEhmYield": "10,01",
    "askYield": "9,23",
    "currency": "HUF",
    "maturityInDays_val": 1847,
    "issueDate": "2022.01.19",
    "longName": "A280323B22"
}