{
    "askPrice": "89,0252",
    "green": 0,
    "coupon": "4,50 %",
    "accruedInterest": "1,9549",
    "settleDate": "2023.08.29",
    "askEhmYield": "7,40",
    "bidYield": "8,12",
    "rawName": "2028/B",
    "bidPrice": "86,5898",
    "coupon_val": 4.5,
    "maturityInDays": "1668 nap",
    "securityType": "KTV",
    "maturityDate": "2028.03.23",
    "name": "2028/B",
    "bidEhmYield": "8,11",
    "askYield": "7,41",
    "currency": "HUF",
    "maturityInDays_val": 1668,
    "issueDate": "2022.01.19",
    "longName": "A280323B22"
}