{
    "askPrice": "92,4269",
    "green": 0,
    "coupon": "4,50 %",
    "accruedInterest": "3,1475",
    "settleDate": "2023.12.04",
    "askEhmYield": "6,56",
    "bidYield": "7,24",
    "rawName": "2028/B",
    "bidPrice": "90,1410",
    "coupon_val": 4.5,
    "maturityInDays": "1571 nap",
    "securityType": "KTV",
    "maturityDate": "2028.03.23",
    "name": "2028/B",
    "bidEhmYield": "7,23",
    "askYield": "6,57",
    "currency": "HUF",
    "maturityInDays_val": 1571,
    "issueDate": "2022.01.19",
    "longName": "A280323B22"
}