{
    "askPrice": "97,8444",
    "green": 0,
    "coupon": "4,50 %",
    "accruedInterest": "3,6639",
    "settleDate": "2024.01.15",
    "askEhmYield": "5,07",
    "bidYield": "5,76",
    "rawName": "2028/B",
    "bidPrice": "95,4097",
    "coupon_val": 4.5,
    "maturityInDays": "1529 nap",
    "securityType": "KTV",
    "maturityDate": "2028.03.23",
    "name": "2028/B",
    "bidEhmYield": "5,75",
    "askYield": "5,08",
    "currency": "HUF",
    "maturityInDays_val": 1529,
    "issueDate": "2022.01.19",
    "longName": "A280323B22"
}