{
    "askPrice": "91,9566",
    "green": 0,
    "coupon": "4,50 %",
    "accruedInterest": "0,4562",
    "settleDate": "2024.04.29",
    "askEhmYield": "6,92",
    "bidYield": "7,59",
    "rawName": "2028/B",
    "bidPrice": "89,8827",
    "coupon_val": 4.5,
    "maturityInDays": "1424 nap",
    "securityType": "KTV",
    "maturityDate": "2028.03.23",
    "name": "2028/B",
    "bidEhmYield": "7,58",
    "askYield": "6,92",
    "currency": "HUF",
    "maturityInDays_val": 1424,
    "issueDate": "2022.01.19",
    "longName": "A280323B22"
}