{
    "askPrice": "92,5481",
    "green": 0,
    "coupon": "4,50 %",
    "accruedInterest": "0,2466",
    "settleDate": "2024.04.12",
    "askEhmYield": "6,71",
    "bidYield": "7,37",
    "rawName": "2028/B",
    "bidPrice": "90,4655",
    "coupon_val": 4.5,
    "maturityInDays": "1441 nap",
    "securityType": "KTV",
    "maturityDate": "2028.03.23",
    "name": "2028/B",
    "bidEhmYield": "7,37",
    "askYield": "6,71",
    "currency": "HUF",
    "maturityInDays_val": 1441,
    "issueDate": "2022.01.19",
    "longName": "A280323B22"
}