{
    "askPrice": "92,6927",
    "green": 0,
    "coupon": "4,50 %",
    "accruedInterest": "0,2959",
    "settleDate": "2024.04.16",
    "askEhmYield": "6,67",
    "bidYield": "7,33",
    "rawName": "2028/B",
    "bidPrice": "90,6111",
    "coupon_val": 4.5,
    "maturityInDays": "1437 nap",
    "securityType": "KTV",
    "maturityDate": "2028.03.23",
    "name": "2028/B",
    "bidEhmYield": "7,33",
    "askYield": "6,67",
    "currency": "HUF",
    "maturityInDays_val": 1437,
    "issueDate": "2022.01.19",
    "longName": "A280323B22"
}