{
    "askPrice": "95,6420",
    "green": 0,
    "coupon": "4,50 %",
    "accruedInterest": "4,3525",
    "settleDate": "2024.03.11",
    "askEhmYield": "5,73",
    "bidYield": "6,41",
    "rawName": "2028/B",
    "bidPrice": "93,3915",
    "coupon_val": 4.5,
    "maturityInDays": "1473 nap",
    "securityType": "KTV",
    "maturityDate": "2028.03.23",
    "name": "2028/B",
    "bidEhmYield": "6,40",
    "askYield": "5,74",
    "currency": "HUF",
    "maturityInDays_val": 1473,
    "issueDate": "2022.01.19",
    "longName": "A280323B22"
}