{
    "askPrice": "93,5825",
    "green": 0,
    "coupon": "4,50 %",
    "accruedInterest": "0,5795",
    "settleDate": "2024.05.09",
    "askEhmYield": "6,42",
    "bidYield": "7,09",
    "rawName": "2028/B",
    "bidPrice": "91,4738",
    "coupon_val": 4.5,
    "maturityInDays": "1414 nap",
    "securityType": "KTV",
    "maturityDate": "2028.03.23",
    "name": "2028/B",
    "bidEhmYield": "7,09",
    "askYield": "6,42",
    "currency": "HUF",
    "maturityInDays_val": 1414,
    "issueDate": "2022.01.19",
    "longName": "A280323B22"
}