{
    "askPrice": "96,1880",
    "green": 0,
    "coupon": "4,50 %",
    "accruedInterest": "4,1803",
    "settleDate": "2024.02.26",
    "askEhmYield": "5,56",
    "bidYield": "6,26",
    "rawName": "2028/B",
    "bidPrice": "93,8335",
    "coupon_val": 4.5,
    "maturityInDays": "1487 nap",
    "securityType": "KTV",
    "maturityDate": "2028.03.23",
    "name": "2028/B",
    "bidEhmYield": "6,25",
    "askYield": "5,57",
    "currency": "HUF",
    "maturityInDays_val": 1487,
    "issueDate": "2022.01.19",
    "longName": "A280323B22"
}