{
    "askPrice": "94,9192",
    "green": 0,
    "coupon": "4,50 %",
    "accruedInterest": "4,4385",
    "settleDate": "2024.03.18",
    "askEhmYield": "5,95",
    "bidYield": "6,64",
    "rawName": "2028/B",
    "bidPrice": "92,6682",
    "coupon_val": 4.5,
    "maturityInDays": "1466 nap",
    "securityType": "KTV",
    "maturityDate": "2028.03.23",
    "name": "2028/B",
    "bidEhmYield": "6,63",
    "askYield": "5,96",
    "currency": "HUF",
    "maturityInDays_val": 1466,
    "issueDate": "2022.01.19",
    "longName": "A280323B22"
}