{
    "askPrice": "97,3489",
    "green": 0,
    "coupon": 0,
    "accruedInterest": 0,
    "settleDate": "2023.01.26",
    "askEhmYield": "13,08",
    "bidYield": "13,78",
    "rawName": "D230412",
    "bidPrice": "97,1731",
    "maturityInDays": "76 nap",
    "securityType": "DKJ",
    "maturityDate": "2023.04.12",
    "name": "D230412",
    "bidEhmYield": "13,97",
    "askYield": "12,90",
    "currency": "HUF",
    "maturityInDays_val": 76,
    "issueDate": "2023.01.11",
    "longName": "D230412"
}