{
    "askPrice": "97,5603",
    "green": 0,
    "coupon": 0,
    "accruedInterest": 0,
    "settleDate": "2023.02.06",
    "askEhmYield": "14,04",
    "bidYield": "14,65",
    "rawName": "D230412",
    "bidPrice": "97,4230",
    "maturityInDays": "65 nap",
    "securityType": "DKJ",
    "maturityDate": "2023.04.12",
    "name": "D230412",
    "bidEhmYield": "14,85",
    "askYield": "13,85",
    "currency": "HUF",
    "maturityInDays_val": 65,
    "issueDate": "2023.01.11",
    "longName": "D230412"
}