{
    "askPrice": "",
    "green": 0,
    "coupon": 0,
    "accruedInterest": 0,
    "settleDate": "2023.04.04",
    "askEhmYield": "",
    "bidYield": "15,39",
    "rawName": "D230412",
    "bidPrice": "99,6592",
    "maturityInDays": "8 nap",
    "securityType": "DKJ",
    "maturityDate": "2023.04.12",
    "name": "D230412",
    "bidEhmYield": "15,60",
    "askYield": "",
    "currency": "HUF",
    "maturityInDays_val": 8,
    "issueDate": "2023.01.11",
    "longName": "D230412"
}