{
    "askPrice": "98,1234",
    "green": 0,
    "coupon": 0,
    "accruedInterest": 0,
    "settleDate": "2023.02.20",
    "askEhmYield": "13,69",
    "bidYield": "14,79",
    "rawName": "D230412",
    "bidPrice": "97,9477",
    "maturityInDays": "51 nap",
    "securityType": "DKJ",
    "maturityDate": "2023.04.12",
    "name": "D230412",
    "bidEhmYield": "15,00",
    "askYield": "13,50",
    "currency": "HUF",
    "maturityInDays_val": 51,
    "issueDate": "2023.01.11",
    "longName": "D230412"
}