{
    "askPrice": "100,00",
    "green": 0,
    "coupon": null,
    "accruedInterest": "5,57",
    "settleDate": "2022.10.10",
    "askEhmYield": "",
    "bidYield": "",
    "rawName": "2041/S_BABA",
    "bidPrice": "100,00",
    "maturityInDays": "6689 nap",
    "securityType": "BABA",
    "maturityDate": "2041.02.01",
    "name": "2041/S_BABA",
    "bidEhmYield": "",
    "askYield": "",
    "currency": "HUF",
    "maturityInDays_val": 6689,
    "longName": "A410201S22"
}