{
    "askPrice": "100,00",
    "green": 0,
    "coupon": null,
    "accruedInterest": "6,08",
    "settleDate": "2022.11.02",
    "askEhmYield": "",
    "bidYield": "",
    "rawName": "2041/S_BABA",
    "bidPrice": "100,00",
    "maturityInDays": "6666 nap",
    "securityType": "BABA",
    "maturityDate": "2041.02.01",
    "name": "2041/S_BABA",
    "bidEhmYield": "",
    "askYield": "",
    "currency": "HUF",
    "maturityInDays_val": 6666,
    "issueDate": "2022-02-01",
    "longName": "A410201S22"
}