{
    "askPrice": "100,0000",
    "green": 0,
    "coupon": null,
    "accruedInterest": "8,3425",
    "settleDate": "2023.07.25",
    "askEhmYield": "",
    "bidYield": "",
    "rawName": "2041/S_BABA",
    "bidPrice": "100,0000",
    "maturityInDays": "6401 nap",
    "securityType": "BABA",
    "maturityDate": "2041.02.01",
    "name": "2041/S_BABA",
    "bidEhmYield": "",
    "askYield": "",
    "currency": "HUF",
    "maturityInDays_val": 6401,
    "issueDate": "2022.02.01",
    "longName": "A410201S22"
}