{
    "askPrice": "98,3495",
    "green": 0,
    "coupon": 0,
    "accruedInterest": 0,
    "settleDate": "2023.04.11",
    "askEhmYield": "14,25",
    "bidYield": "15,37",
    "rawName": "D230524",
    "bidPrice": "98,1972",
    "maturityInDays": "43 nap",
    "securityType": "DKJ",
    "maturityDate": "2023.05.24",
    "name": "D230524",
    "bidEhmYield": "15,58",
    "askYield": "14,05",
    "currency": "HUF",
    "maturityInDays_val": 43,
    "issueDate": "2023.02.22",
    "longName": "D230524"
}