{
    "askPrice": "98,4637",
    "green": 0,
    "coupon": 0,
    "accruedInterest": 0,
    "settleDate": "2023.04.13",
    "askEhmYield": "13,89",
    "bidYield": "14,94",
    "rawName": "D230524",
    "bidPrice": "98,3270",
    "maturityInDays": "41 nap",
    "securityType": "DKJ",
    "maturityDate": "2023.05.24",
    "name": "D230524",
    "bidEhmYield": "15,15",
    "askYield": "13,70",
    "currency": "HUF",
    "maturityInDays_val": 41,
    "issueDate": "2023.02.22",
    "longName": "D230524"
}