{
    "askPrice": "97,9274",
    "green": 0,
    "coupon": 0,
    "accruedInterest": 0,
    "settleDate": "2023.03.31",
    "askEhmYield": "14,31",
    "bidYield": "15,40",
    "rawName": "D230524",
    "bidPrice": "97,7422",
    "maturityInDays": "54 nap",
    "securityType": "DKJ",
    "maturityDate": "2023.05.24",
    "name": "D230524",
    "bidEhmYield": "15,61",
    "askYield": "14,11",
    "currency": "HUF",
    "maturityInDays_val": 54,
    "issueDate": "2023.02.22",
    "longName": "D230524"
}