{
    "askPrice": "98,0713",
    "green": 0,
    "coupon": 0,
    "accruedInterest": 0,
    "settleDate": "2023.04.04",
    "askEhmYield": "14,36",
    "bidYield": "15,39",
    "rawName": "D230524",
    "bidPrice": "97,9072",
    "maturityInDays": "50 nap",
    "securityType": "DKJ",
    "maturityDate": "2023.05.24",
    "name": "D230524",
    "bidEhmYield": "15,60",
    "askYield": "14,16",
    "currency": "HUF",
    "maturityInDays_val": 50,
    "issueDate": "2023.02.22",
    "longName": "D230524"
}