{
    "askPrice": "",
    "green": 0,
    "coupon": "2,50 %",
    "accruedInterest": "2,36",
    "settleDate": "2022.08.11",
    "askEhmYield": "",
    "bidYield": "",
    "rawName": "K2022/35",
    "bidPrice": "99,70",
    "coupon_val": 2.5,
    "maturityInDays": "20 nap",
    "securityType": "1MÁP",
    "maturityDate": "2022.08.31",
    "name": "K2022/35",
    "bidEhmYield": "7,81",
    "askYield": "",
    "currency": "HUF",
    "maturityInDays_val": 20,
    "longName": "K220831"
}