{
    "askPrice": "",
    "green": 0,
    "coupon": "3,50 %",
    "accruedInterest": "1,13",
    "settleDate": "2022.11.07",
    "askEhmYield": "",
    "bidYield": "5,14",
    "rawName": "N2027/28",
    "bidPrice": "99,50",
    "coupon_val": 3.5,
    "maturityInDays": "1707 nap",
    "securityType": "MÁP Plusz",
    "maturityDate": "2027.07.11",
    "name": "N2027/28",
    "bidEhmYield": "",
    "askYield": "",
    "currency": "HUF",
    "maturityInDays_val": 1707,
    "issueDate": "2022-07-11",
    "longName": "N270711"
}