{
    "askPrice": "",
    "green": 0,
    "coupon": "3,50 %",
    "accruedInterest": "0,30",
    "settleDate": "2022.08.12",
    "askEhmYield": "",
    "bidYield": "",
    "rawName": "N2027/28",
    "bidPrice": "99,50",
    "coupon_val": 3.5,
    "maturityInDays": "1794 nap",
    "securityType": "MÁP Plusz",
    "maturityDate": "2027.07.11",
    "name": "N2027/28",
    "bidEhmYield": "",
    "askYield": "",
    "currency": "HUF",
    "maturityInDays_val": 1794,
    "longName": "N270711"
}