{
    "askPrice": "",
    "green": 0,
    "coupon": "3,50 %",
    "accruedInterest": "1,03",
    "settleDate": "2022.10.27",
    "askEhmYield": "",
    "bidYield": "5,12",
    "rawName": "N2027/28",
    "bidPrice": "99,50",
    "coupon_val": 3.5,
    "maturityInDays": "1718 nap",
    "securityType": "MÁP Plusz",
    "maturityDate": "2027.07.11",
    "name": "N2027/28",
    "bidEhmYield": "",
    "askYield": "",
    "currency": "HUF",
    "maturityInDays_val": 1718,
    "longName": "N270711"
}