{
    "askPrice": "",
    "green": 0,
    "coupon": "3,50 %",
    "accruedInterest": "0,0221",
    "settleDate": "2023.01.13",
    "askEhmYield": "",
    "bidYield": "5,08",
    "rawName": "N2027/28",
    "bidPrice": "100,0000",
    "coupon_val": 3.5,
    "maturityInDays": "1640 nap",
    "securityType": "MÁP Plusz",
    "maturityDate": "2027.07.11",
    "name": "N2027/28",
    "bidEhmYield": "",
    "askYield": "",
    "currency": "HUF",
    "maturityInDays_val": 1640,
    "issueDate": "2022.07.11",
    "longName": "N270711"
}