{
    "askPrice": "",
    "green": 0,
    "coupon": "3,50 %",
    "accruedInterest": "1,9558",
    "settleDate": "2023.07.07",
    "askEhmYield": "",
    "bidYield": "",
    "rawName": "N2027/28",
    "bidPrice": "",
    "coupon_val": 3.5,
    "maturityInDays": "1465 nap",
    "securityType": "MÁP Plusz",
    "maturityDate": "2027.07.11",
    "name": "N2027/28",
    "bidEhmYield": "",
    "askYield": "",
    "currency": "HUF",
    "maturityInDays_val": 1465,
    "issueDate": "2022.07.11",
    "longName": "N270711"
}