{
    "askPrice": "",
    "green": 0,
    "coupon": "3,50 %",
    "accruedInterest": "2,1516",
    "settleDate": "2024.01.02",
    "askEhmYield": "",
    "bidYield": "5,48",
    "rawName": "N2027/28",
    "bidPrice": "99,5000",
    "coupon_val": 3.5,
    "maturityInDays": "1286 nap",
    "securityType": "MÁP Plusz",
    "maturityDate": "2027.07.11",
    "name": "N2027/28",
    "bidEhmYield": "",
    "askYield": "",
    "currency": "HUF",
    "maturityInDays_val": 1286,
    "issueDate": "2022.07.11",
    "longName": "N270711"
}