{
    "askPrice": "",
    "green": 0,
    "coupon": "3,50 %",
    "accruedInterest": "3,1107",
    "settleDate": "2024.03.20",
    "askEhmYield": "",
    "bidYield": "5,54",
    "rawName": "N2027/28",
    "bidPrice": "99,5000",
    "coupon_val": 3.5,
    "maturityInDays": "1208 nap",
    "securityType": "MÁP Plusz",
    "maturityDate": "2027.07.11",
    "name": "N2027/28",
    "bidEhmYield": "",
    "askYield": "",
    "currency": "HUF",
    "maturityInDays_val": 1208,
    "issueDate": "2022.07.11",
    "longName": "N270711"
}