{
    "askPrice": "",
    "green": 0,
    "coupon": "3,50 %",
    "accruedInterest": "2,52",
    "settleDate": "2022.08.03",
    "askEhmYield": "",
    "bidYield": "",
    "rawName": "N2026/02",
    "bidPrice": "99,50",
    "coupon_val": 3.5,
    "maturityInDays": "1257 nap",
    "securityType": "MÁP Plusz",
    "maturityDate": "2026.01.11",
    "name": "N2026/02",
    "bidEhmYield": "",
    "askYield": "",
    "currency": "HUF",
    "maturityInDays_val": 1257,
    "longName": "N260111"
}