{
    "askPrice": "",
    "green": 0,
    "coupon": "3,50 %",
    "accruedInterest": "4,3973",
    "settleDate": "2023.11.28",
    "askEhmYield": "",
    "bidYield": "5,95",
    "rawName": "N2026/02",
    "bidPrice": "99,5000",
    "coupon_val": 3.5,
    "maturityInDays": "775 nap",
    "securityType": "MÁP Plusz",
    "maturityDate": "2026.01.11",
    "name": "N2026/02",
    "bidEhmYield": "",
    "askYield": "",
    "currency": "HUF",
    "maturityInDays_val": 775,
    "issueDate": "2021.01.11",
    "longName": "N260111"
}