{
    "askPrice": "",
    "green": 0,
    "coupon": "3,50 %",
    "accruedInterest": 0,
    "settleDate": "2023.01.11",
    "askEhmYield": "",
    "bidYield": "5,67",
    "rawName": "N2026/02",
    "bidPrice": "99,5000",
    "coupon_val": 3.5,
    "maturityInDays": "1096 nap",
    "securityType": "MÁP Plusz",
    "maturityDate": "2026.01.11",
    "name": "N2026/02",
    "bidEhmYield": "",
    "askYield": "",
    "currency": "HUF",
    "maturityInDays_val": 1096,
    "issueDate": "2021.01.11",
    "longName": "N260111"
}