{
    "askPrice": "",
    "green": 0,
    "coupon": "3,50 %",
    "accruedInterest": "2,5753",
    "settleDate": "2023.07.18",
    "askEhmYield": "",
    "bidYield": "5,80",
    "rawName": "N2026/02",
    "bidPrice": "99,5000",
    "coupon_val": 3.5,
    "maturityInDays": "908 nap",
    "securityType": "MÁP Plusz",
    "maturityDate": "2026.01.11",
    "name": "N2026/02",
    "bidEhmYield": "",
    "askYield": "",
    "currency": "HUF",
    "maturityInDays_val": 908,
    "issueDate": "2021.01.11",
    "longName": "N260111"
}