{
    "askPrice": "",
    "green": 0,
    "coupon": "3,50 %",
    "accruedInterest": "4,9726",
    "settleDate": "2024.01.09",
    "askEhmYield": "",
    "bidYield": "",
    "rawName": "N2026/02",
    "bidPrice": "",
    "coupon_val": 3.5,
    "maturityInDays": "733 nap",
    "securityType": "MÁP Plusz",
    "maturityDate": "2026.01.11",
    "name": "N2026/02",
    "bidEhmYield": "",
    "askYield": "",
    "currency": "HUF",
    "maturityInDays_val": 733,
    "issueDate": "2021.01.11",
    "longName": "N260111"
}