{
    "askPrice": "",
    "green": 0,
    "coupon": "3,50 %",
    "accruedInterest": "4,9178",
    "settleDate": "2024.01.05",
    "askEhmYield": "",
    "bidYield": "6,01",
    "rawName": "N2026/02",
    "bidPrice": "99,5000",
    "coupon_val": 3.5,
    "maturityInDays": "737 nap",
    "securityType": "MÁP Plusz",
    "maturityDate": "2026.01.11",
    "name": "N2026/02",
    "bidEhmYield": "",
    "askYield": "",
    "currency": "HUF",
    "maturityInDays_val": 737,
    "issueDate": "2021.01.11",
    "longName": "N260111"
}