{
    "askPrice": "",
    "green": 0,
    "coupon": "4,25 %",
    "accruedInterest": "0,92",
    "settleDate": "2022.09.15",
    "askEhmYield": "",
    "bidYield": "",
    "rawName": "K2023/26",
    "bidPrice": "99,50",
    "coupon_val": 4.25,
    "maturityInDays": "286 nap",
    "securityType": "1MÁP",
    "maturityDate": "2023.06.28",
    "name": "K2023/26",
    "bidEhmYield": "4,87",
    "askYield": "",
    "currency": "HUF",
    "maturityInDays_val": 286,
    "longName": "K230628"
}