{
    "askPrice": "",
    "green": 0,
    "coupon": "4,25 %",
    "accruedInterest": "1,30",
    "settleDate": "2022.10.18",
    "askEhmYield": "",
    "bidYield": "4,97",
    "rawName": "K2023/26",
    "bidPrice": "99,50",
    "coupon_val": 4.25,
    "maturityInDays": "253 nap",
    "securityType": "1MÁP",
    "maturityDate": "2023.06.28",
    "name": "K2023/26",
    "bidEhmYield": "4,93",
    "askYield": "",
    "currency": "HUF",
    "maturityInDays_val": 253,
    "longName": "K230628"
}