{
    "askPrice": "",
    "green": 0,
    "coupon": "4,25 %",
    "accruedInterest": "1,8979",
    "settleDate": "2022.12.08",
    "askEhmYield": "",
    "bidYield": "6,08",
    "rawName": "K2023/26",
    "bidPrice": "99,0000",
    "coupon_val": 4.25,
    "maturityInDays": "202 nap",
    "securityType": "1MÁP",
    "maturityDate": "2023.06.28",
    "name": "K2023/26",
    "bidEhmYield": "6,00",
    "askYield": "",
    "currency": "HUF",
    "maturityInDays_val": 202,
    "issueDate": "2022.06.28",
    "longName": "K230628"
}