{
    "askPrice": "",
    "green": 0,
    "coupon": "4,25 %",
    "accruedInterest": "1,7233",
    "settleDate": "2022.11.23",
    "askEhmYield": "",
    "bidYield": "5,08",
    "rawName": "K2023/26",
    "bidPrice": "99,5000",
    "coupon_val": 4.25,
    "maturityInDays": "217 nap",
    "securityType": "1MÁP",
    "maturityDate": "2023.06.28",
    "name": "K2023/26",
    "bidEhmYield": "5,03",
    "askYield": "",
    "currency": "HUF",
    "maturityInDays_val": 217,
    "issueDate": "2022.06.28",
    "longName": "K230628"
}