{
    "askPrice": "",
    "green": 0,
    "coupon": "4,25 %",
    "accruedInterest": "2,1890",
    "settleDate": "2023.01.02",
    "askEhmYield": "",
    "bidYield": "6,34",
    "rawName": "K2023/26",
    "bidPrice": "99,0000",
    "coupon_val": 4.25,
    "maturityInDays": "177 nap",
    "securityType": "1MÁP",
    "maturityDate": "2023.06.28",
    "name": "K2023/26",
    "bidEhmYield": "6,24",
    "askYield": "",
    "currency": "HUF",
    "maturityInDays_val": 177,
    "issueDate": "2022.06.28",
    "longName": "K230628"
}