{
    "askPrice": "",
    "green": 0,
    "coupon": "4,25 %",
    "accruedInterest": "3,8425",
    "settleDate": "2023.05.24",
    "askEhmYield": "",
    "bidYield": "15,23",
    "rawName": "K2023/26",
    "bidPrice": "99,0000",
    "coupon_val": 4.25,
    "maturityInDays": "35 nap",
    "securityType": "1MÁP",
    "maturityDate": "2023.06.28",
    "name": "K2023/26",
    "bidEhmYield": "14,27",
    "askYield": "",
    "currency": "HUF",
    "maturityInDays_val": 35,
    "issueDate": "2022.06.28",
    "longName": "K230628"
}