{
    "askPrice": "",
    "green": 0,
    "coupon": "4,25 %",
    "accruedInterest": "4,1452",
    "settleDate": "2023.06.19",
    "askEhmYield": "",
    "bidYield": "31,67",
    "rawName": "K2023/26",
    "bidPrice": "99,4000",
    "coupon_val": 4.25,
    "maturityInDays": "9 nap",
    "securityType": "1MÁP",
    "maturityDate": "2023.06.28",
    "name": "K2023/26",
    "bidEhmYield": "27,60",
    "askYield": "",
    "currency": "HUF",
    "maturityInDays_val": 9,
    "issueDate": "2022.06.28",
    "longName": "K230628"
}