{
    "askPrice": "",
    "green": 0,
    "coupon": "4,25 %",
    "accruedInterest": "4,1685",
    "settleDate": "2023.06.21",
    "askEhmYield": "",
    "bidYield": "40,77",
    "rawName": "K2023/26",
    "bidPrice": "99,4000",
    "coupon_val": 4.25,
    "maturityInDays": "7 nap",
    "securityType": "1MÁP",
    "maturityDate": "2023.06.28",
    "name": "K2023/26",
    "bidEhmYield": "34,31",
    "askYield": "",
    "currency": "HUF",
    "maturityInDays_val": 7,
    "issueDate": "2022.06.28",
    "longName": "K230628"
}