{
    "askPrice": "",
    "green": 0,
    "coupon": "4,25 %",
    "accruedInterest": "3,2137",
    "settleDate": "2023.03.31",
    "askEhmYield": "",
    "bidYield": "8,43",
    "rawName": "K2023/26",
    "bidPrice": "99,0000",
    "coupon_val": 4.25,
    "maturityInDays": "89 nap",
    "securityType": "1MÁP",
    "maturityDate": "2023.06.28",
    "name": "K2023/26",
    "bidEhmYield": "8,17",
    "askYield": "",
    "currency": "HUF",
    "maturityInDays_val": 89,
    "issueDate": "2022.06.28",
    "longName": "K230628"
}