{
    "askPrice": "",
    "green": 0,
    "coupon": "4,25 %",
    "accruedInterest": "3,3418",
    "settleDate": "2023.04.11",
    "askEhmYield": "",
    "bidYield": "9,03",
    "rawName": "K2023/26",
    "bidPrice": "99,0000",
    "coupon_val": 4.25,
    "maturityInDays": "78 nap",
    "securityType": "1MÁP",
    "maturityDate": "2023.06.28",
    "name": "K2023/26",
    "bidEhmYield": "8,73",
    "askYield": "",
    "currency": "HUF",
    "maturityInDays_val": 78,
    "issueDate": "2022.06.28",
    "longName": "K230628"
}