{
    "askPrice": "",
    "green": 0,
    "coupon": "8,00 %",
    "accruedInterest": "1,8849",
    "settleDate": "2023.12.14",
    "askEhmYield": "",
    "bidYield": "9,29",
    "rawName": "K2024/38",
    "bidPrice": "99,0000",
    "coupon_val": 8,
    "maturityInDays": "280 nap",
    "securityType": "1MÁP",
    "maturityDate": "2024.09.19",
    "name": "K2024/38",
    "bidEhmYield": "9,19",
    "askYield": "",
    "currency": "HUF",
    "maturityInDays_val": 280,
    "issueDate": "2023.09.19",
    "longName": "K240919"
}