{
    "askPrice": "",
    "green": 0,
    "coupon": "8,00 %",
    "accruedInterest": "0,9205",
    "settleDate": "2023.10.31",
    "askEhmYield": "",
    "bidYield": "9,15",
    "rawName": "K2024/38",
    "bidPrice": "99,0000",
    "coupon_val": 8,
    "maturityInDays": "324 nap",
    "securityType": "1MÁP",
    "maturityDate": "2024.09.19",
    "name": "K2024/38",
    "bidEhmYield": "9,11",
    "askYield": "",
    "currency": "HUF",
    "maturityInDays_val": 324,
    "issueDate": "2023.09.19",
    "longName": "K240919"
}