{
    "askPrice": "",
    "green": 0,
    "coupon": "8,00 %",
    "accruedInterest": "2,3014",
    "settleDate": "2024.01.02",
    "askEhmYield": "",
    "bidYield": "9,37",
    "rawName": "K2024/38",
    "bidPrice": "99,0000",
    "coupon_val": 8,
    "maturityInDays": "261 nap",
    "securityType": "1MÁP",
    "maturityDate": "2024.09.19",
    "name": "K2024/38",
    "bidEhmYield": "9,25",
    "askYield": "",
    "currency": "HUF",
    "maturityInDays_val": 261,
    "issueDate": "2023.09.19",
    "longName": "K240919"
}