{
    "askPrice": "",
    "green": 0,
    "coupon": "8,00 %",
    "accruedInterest": "4,2740",
    "settleDate": "2024.04.02",
    "askEhmYield": "",
    "bidYield": "10,08",
    "rawName": "K2024/38",
    "bidPrice": "99,0000",
    "coupon_val": 8,
    "maturityInDays": "170 nap",
    "securityType": "1MÁP",
    "maturityDate": "2024.09.19",
    "name": "K2024/38",
    "bidEhmYield": "9,78",
    "askYield": "",
    "currency": "HUF",
    "maturityInDays_val": 170,
    "issueDate": "2023.09.19",
    "longName": "K240919"
}