{
    "askPrice": "",
    "green": 0,
    "coupon": "8,00 %",
    "accruedInterest": "3,3973",
    "settleDate": "2024.02.21",
    "askEhmYield": "",
    "bidYield": "9,65",
    "rawName": "K2024/38",
    "bidPrice": "99,0000",
    "coupon_val": 8,
    "maturityInDays": "211 nap",
    "securityType": "1MÁP",
    "maturityDate": "2024.09.19",
    "name": "K2024/38",
    "bidEhmYield": "9,47",
    "askYield": "",
    "currency": "HUF",
    "maturityInDays_val": 211,
    "issueDate": "2023.09.19",
    "longName": "K240919"
}