{
    "askPrice": "",
    "green": 0,
    "coupon": "8,00 %",
    "accruedInterest": "3,8356",
    "settleDate": "2024.03.12",
    "askEhmYield": "",
    "bidYield": "9,82",
    "rawName": "K2024/38",
    "bidPrice": "99,0000",
    "coupon_val": 8,
    "maturityInDays": "191 nap",
    "securityType": "1MÁP",
    "maturityDate": "2024.09.19",
    "name": "K2024/38",
    "bidEhmYield": "9,60",
    "askYield": "",
    "currency": "HUF",
    "maturityInDays_val": 191,
    "issueDate": "2023.09.19",
    "longName": "K240919"
}