{
    "askPrice": "",
    "green": 0,
    "coupon": "8,00 %",
    "accruedInterest": "4,4055",
    "settleDate": "2024.04.08",
    "askEhmYield": "",
    "bidYield": "10,16",
    "rawName": "K2024/38",
    "bidPrice": "99,0000",
    "coupon_val": 8,
    "maturityInDays": "164 nap",
    "securityType": "1MÁP",
    "maturityDate": "2024.09.19",
    "name": "K2024/38",
    "bidEhmYield": "9,84",
    "askYield": "",
    "currency": "HUF",
    "maturityInDays_val": 164,
    "issueDate": "2023.09.19",
    "longName": "K240919"
}