{
    "askPrice": "",
    "green": 0,
    "coupon": "8,00 %",
    "accruedInterest": "3,2000",
    "settleDate": "2024.02.12",
    "askEhmYield": "",
    "bidYield": "9,59",
    "rawName": "K2024/38",
    "bidPrice": "99,0000",
    "coupon_val": 8,
    "maturityInDays": "220 nap",
    "securityType": "1MÁP",
    "maturityDate": "2024.09.19",
    "name": "K2024/38",
    "bidEhmYield": "9,42",
    "askYield": "",
    "currency": "HUF",
    "maturityInDays_val": 220,
    "issueDate": "2023.09.19",
    "longName": "K240919"
}