{
    "askPrice": "",
    "green": 0,
    "coupon": null,
    "accruedInterest": 0,
    "settleDate": "2022.10.15",
    "askEhmYield": "",
    "bidYield": "",
    "rawName": "2028/I",
    "bidPrice": "",
    "maturityInDays": "1957 nap",
    "securityType": "PMÁP",
    "maturityDate": "2028.02.23",
    "name": "2028/I",
    "bidEhmYield": "",
    "askYield": "",
    "currency": "HUF",
    "maturityInDays_val": 1957,
    "longName": "A280223I22"
}