{
    "askPrice": "",
    "green": 0,
    "coupon": null,
    "accruedInterest": "3,83",
    "settleDate": "2022.10.06",
    "askEhmYield": "",
    "bidYield": "",
    "rawName": "2028/I",
    "bidPrice": "99,00",
    "maturityInDays": "1966 nap",
    "securityType": "PMÁP",
    "maturityDate": "2028.02.23",
    "name": "2028/I",
    "bidEhmYield": "",
    "askYield": "",
    "currency": "HUF",
    "maturityInDays_val": 1966,
    "longName": "A280223I22"
}