{
    "askPrice": "",
    "green": 0,
    "coupon": null,
    "accruedInterest": "3,02",
    "settleDate": "2022.08.22",
    "askEhmYield": "",
    "bidYield": "",
    "rawName": "2028/I",
    "bidPrice": "99,00",
    "maturityInDays": "2011 nap",
    "securityType": "PMÁP",
    "maturityDate": "2028.02.23",
    "name": "2028/I",
    "bidEhmYield": "",
    "askYield": "",
    "currency": "HUF",
    "maturityInDays_val": 2011,
    "longName": "A280223I22"
}