{
    "askPrice": "",
    "green": 0,
    "coupon": null,
    "accruedInterest": "11,2219",
    "settleDate": "2023.11.06",
    "askEhmYield": "",
    "bidYield": "",
    "rawName": "2028/I",
    "bidPrice": "99,0000",
    "maturityInDays": "1570 nap",
    "securityType": "PMÁP",
    "maturityDate": "2028.02.23",
    "name": "2028/I",
    "bidEhmYield": "",
    "askYield": "",
    "currency": "HUF",
    "maturityInDays_val": 1570,
    "issueDate": "2022.03.08",
    "longName": "A280223I22"
}