{
    "askPrice": "",
    "green": 0,
    "coupon": "3,00 %",
    "accruedInterest": "1,36",
    "settleDate": "2022.08.29",
    "askEhmYield": "",
    "bidYield": "",
    "rawName": "K2023/11",
    "bidPrice": "99,50",
    "coupon_val": 3,
    "maturityInDays": "200 nap",
    "securityType": "1MÁP",
    "maturityDate": "2023.03.17",
    "name": "K2023/11",
    "bidEhmYield": "3,88",
    "askYield": "",
    "currency": "HUF",
    "maturityInDays_val": 200,
    "longName": "K230317"
}