{
    "askPrice": "",
    "green": 0,
    "coupon": "3,00 %",
    "accruedInterest": "2,1616",
    "settleDate": "2022.12.05",
    "askEhmYield": "",
    "bidYield": "4,79",
    "rawName": "K2023/11",
    "bidPrice": "99,5000",
    "coupon_val": 3,
    "maturityInDays": "102 nap",
    "securityType": "1MÁP",
    "maturityDate": "2023.03.17",
    "name": "K2023/11",
    "bidEhmYield": "4,71",
    "askYield": "",
    "currency": "HUF",
    "maturityInDays_val": 102,
    "issueDate": "2022.03.17",
    "longName": "K230317"
}