{
    "askPrice": "",
    "green": 0,
    "coupon": "3,00 %",
    "accruedInterest": "1,08",
    "settleDate": "2022.07.27",
    "askEhmYield": "",
    "bidYield": "",
    "rawName": "K2023/11",
    "bidPrice": "99,50",
    "coupon_val": 3,
    "maturityInDays": "233 nap",
    "securityType": "1MÁP",
    "maturityDate": "2023.03.17",
    "name": "K2023/11",
    "bidEhmYield": "3,76",
    "askYield": "",
    "currency": "HUF",
    "maturityInDays_val": 233,
    "longName": "K230317"
}