{
    "askPrice": "",
    "green": 0,
    "coupon": "3,00 %",
    "accruedInterest": "1,62",
    "settleDate": "2022.09.30",
    "askEhmYield": "",
    "bidYield": "",
    "rawName": "K2023/11",
    "bidPrice": "99,50",
    "coupon_val": 3,
    "maturityInDays": "168 nap",
    "securityType": "1MÁP",
    "maturityDate": "2023.03.17",
    "name": "K2023/11",
    "bidEhmYield": "4,04",
    "askYield": "",
    "currency": "HUF",
    "maturityInDays_val": 168,
    "longName": "K230317"
}