{
    "askPrice": "",
    "green": 0,
    "coupon": "3,00 %",
    "accruedInterest": "2,1041",
    "settleDate": "2022.11.28",
    "askEhmYield": "",
    "bidYield": "4,68",
    "rawName": "K2023/11",
    "bidPrice": "99,5000",
    "coupon_val": 3,
    "maturityInDays": "109 nap",
    "securityType": "1MÁP",
    "maturityDate": "2023.03.17",
    "name": "K2023/11",
    "bidEhmYield": "4,60",
    "askYield": "",
    "currency": "HUF",
    "maturityInDays_val": 109,
    "issueDate": "2022.03.17",
    "longName": "K230317"
}