{
    "askPrice": "",
    "green": 0,
    "coupon": "3,00 %",
    "accruedInterest": "1,91",
    "settleDate": "2022.11.04",
    "askEhmYield": "",
    "bidYield": "4,37",
    "rawName": "K2023/11",
    "bidPrice": "99,50",
    "coupon_val": 3,
    "maturityInDays": "133 nap",
    "securityType": "1MÁP",
    "maturityDate": "2023.03.17",
    "name": "K2023/11",
    "bidEhmYield": "4,31",
    "askYield": "",
    "currency": "HUF",
    "maturityInDays_val": 133,
    "issueDate": "2022-03-17",
    "longName": "K230317"
}