{
    "askPrice": "",
    "green": 0,
    "coupon": "3,00 %",
    "accruedInterest": "2,3425",
    "settleDate": "2022.12.27",
    "askEhmYield": "",
    "bidYield": "7,68",
    "rawName": "K2023/11",
    "bidPrice": "99,0000",
    "coupon_val": 3,
    "maturityInDays": "80 nap",
    "securityType": "1MÁP",
    "maturityDate": "2023.03.17",
    "name": "K2023/11",
    "bidEhmYield": "7,46",
    "askYield": "",
    "currency": "HUF",
    "maturityInDays_val": 80,
    "issueDate": "2022.03.17",
    "longName": "K230317"
}