{
    "askPrice": "",
    "green": 0,
    "coupon": "3,00 %",
    "accruedInterest": "2,4493",
    "settleDate": "2023.01.09",
    "askEhmYield": "",
    "bidYield": "8,62",
    "rawName": "K2023/11",
    "bidPrice": "99,0000",
    "coupon_val": 3,
    "maturityInDays": "67 nap",
    "securityType": "1MÁP",
    "maturityDate": "2023.03.17",
    "name": "K2023/11",
    "bidEhmYield": "8,33",
    "askYield": "",
    "currency": "HUF",
    "maturityInDays_val": 67,
    "issueDate": "2022.03.17",
    "longName": "K230317"
}