{
    "askPrice": "",
    "green": 0,
    "coupon": "3,00 %",
    "accruedInterest": "2,5068",
    "settleDate": "2023.01.16",
    "askEhmYield": "",
    "bidYield": "9,29",
    "rawName": "K2023/11",
    "bidPrice": "99,0000",
    "coupon_val": 3,
    "maturityInDays": "60 nap",
    "securityType": "1MÁP",
    "maturityDate": "2023.03.17",
    "name": "K2023/11",
    "bidEhmYield": "8,95",
    "askYield": "",
    "currency": "HUF",
    "maturityInDays_val": 60,
    "issueDate": "2022.03.17",
    "longName": "K230317"
}