{
    "askPrice": "",
    "green": 0,
    "coupon": "3,50 %",
    "accruedInterest": "1,5543",
    "settleDate": "2023.12.27",
    "askEhmYield": "",
    "bidYield": "5,32",
    "rawName": "N2028/06",
    "bidPrice": "99,5000",
    "coupon_val": 3.5,
    "maturityInDays": "1502 nap",
    "securityType": "MÁP Plusz",
    "maturityDate": "2028.02.06",
    "name": "N2028/06",
    "bidEhmYield": "",
    "askYield": "",
    "currency": "HUF",
    "maturityInDays_val": 1502,
    "issueDate": "2023.02.06",
    "longName": "N280206"
}