{
    "askPrice": "",
    "green": 0,
    "coupon": "3,50 %",
    "accruedInterest": 0,
    "settleDate": "2023.08.04",
    "askEhmYield": "",
    "bidYield": "",
    "rawName": "N2028/06",
    "bidPrice": "",
    "coupon_val": 3.5,
    "maturityInDays": "1647 nap",
    "securityType": "MÁP Plusz",
    "maturityDate": "2028.02.06",
    "name": "N2028/06",
    "bidEhmYield": "",
    "askYield": "",
    "currency": "HUF",
    "maturityInDays_val": 1647,
    "issueDate": "2023.02.06",
    "longName": "N280206"
}