{
    "askPrice": "",
    "green": 0,
    "coupon": "3,50 %",
    "accruedInterest": "0,0109",
    "settleDate": "2023.12.27",
    "askEhmYield": "",
    "bidYield": "5,20",
    "rawName": "N2028/26",
    "bidPrice": "99,5000",
    "coupon_val": 3.5,
    "maturityInDays": "1643 nap",
    "securityType": "MÁP Plusz",
    "maturityDate": "2028.06.26",
    "name": "N2028/26",
    "bidEhmYield": "",
    "askYield": "",
    "currency": "HUF",
    "maturityInDays_val": 1643,
    "issueDate": "2023.06.26",
    "longName": "N280626"
}