{
    "askPrice": "",
    "green": 0,
    "coupon": "3,50 %",
    "accruedInterest": "0,0219",
    "settleDate": "2023.12.28",
    "askEhmYield": "",
    "bidYield": "5,08",
    "rawName": "N2028/26",
    "bidPrice": "100,0000",
    "coupon_val": 3.5,
    "maturityInDays": "1642 nap",
    "securityType": "MÁP Plusz",
    "maturityDate": "2028.06.26",
    "name": "N2028/26",
    "bidEhmYield": "",
    "askYield": "",
    "currency": "HUF",
    "maturityInDays_val": 1642,
    "issueDate": "2023.06.26",
    "longName": "N280626"
}