{
    "askPrice": "",
    "green": 0,
    "coupon": "3,50 %",
    "accruedInterest": "1,4754",
    "settleDate": "2024.05.09",
    "askEhmYield": "",
    "bidYield": "5,31",
    "rawName": "N2028/26",
    "bidPrice": "99,5000",
    "coupon_val": 3.5,
    "maturityInDays": "1509 nap",
    "securityType": "MÁP Plusz",
    "maturityDate": "2028.06.26",
    "name": "N2028/26",
    "bidEhmYield": "",
    "askYield": "",
    "currency": "HUF",
    "maturityInDays_val": 1509,
    "issueDate": "2023.06.26",
    "longName": "N280626"
}