{
    "askPrice": "",
    "green": 0,
    "coupon": "3,50 %",
    "accruedInterest": "0,58",
    "settleDate": "2022.06.30",
    "askEhmYield": "",
    "bidYield": "",
    "rawName": "N2026/45",
    "bidPrice": "99,50",
    "coupon_val": 3.5,
    "maturityInDays": "1592 nap",
    "securityType": "MÁP Plusz",
    "maturityDate": "2026.11.08",
    "name": "N2026/45",
    "bidEhmYield": "",
    "askYield": "",
    "currency": "HUF",
    "maturityInDays_val": 1592,
    "longName": "N261108"
}