{
    "askPrice": "",
    "green": 0,
    "coupon": "3,50 %",
    "accruedInterest": "0,3329",
    "settleDate": "2022.12.05",
    "askEhmYield": "",
    "bidYield": "5,37",
    "rawName": "N2026/45",
    "bidPrice": "99,5000",
    "coupon_val": 3.5,
    "maturityInDays": "1434 nap",
    "securityType": "MÁP Plusz",
    "maturityDate": "2026.11.08",
    "name": "N2026/45",
    "bidEhmYield": "",
    "askYield": "",
    "currency": "HUF",
    "maturityInDays_val": 1434,
    "issueDate": "2021.11.08",
    "longName": "N261108"
}