{
    "askPrice": "",
    "green": 0,
    "coupon": "3,50 %",
    "accruedInterest": "1,95",
    "settleDate": "2022.11.03",
    "askEhmYield": "",
    "bidYield": "5,35",
    "rawName": "N2026/45",
    "bidPrice": "99,50",
    "coupon_val": 3.5,
    "maturityInDays": "1466 nap",
    "securityType": "MÁP Plusz",
    "maturityDate": "2026.11.08",
    "name": "N2026/45",
    "bidEhmYield": "",
    "askYield": "",
    "currency": "HUF",
    "maturityInDays_val": 1466,
    "issueDate": "2021-11-08",
    "longName": "N261108"
}