{
    "askPrice": "",
    "green": 0,
    "coupon": "3,50 %",
    "accruedInterest": "0,3822",
    "settleDate": "2022.12.09",
    "askEhmYield": "",
    "bidYield": "5,38",
    "rawName": "N2026/45",
    "bidPrice": "99,5000",
    "coupon_val": 3.5,
    "maturityInDays": "1430 nap",
    "securityType": "MÁP Plusz",
    "maturityDate": "2026.11.08",
    "name": "N2026/45",
    "bidEhmYield": "",
    "askYield": "",
    "currency": "HUF",
    "maturityInDays_val": 1430,
    "issueDate": "2021.11.08",
    "longName": "N261108"
}