{
    "askPrice": "",
    "green": 0,
    "coupon": "3,50 %",
    "accruedInterest": "0,07",
    "settleDate": "2022.11.14",
    "askEhmYield": "",
    "bidYield": "5,22",
    "rawName": "N2026/45",
    "bidPrice": "100,00",
    "coupon_val": 3.5,
    "maturityInDays": "1455 nap",
    "securityType": "MÁP Plusz",
    "maturityDate": "2026.11.08",
    "name": "N2026/45",
    "bidEhmYield": "",
    "askYield": "",
    "currency": "HUF",
    "maturityInDays_val": 1455,
    "issueDate": "2021-11-08",
    "longName": "N261108"
}