{
    "askPrice": "",
    "green": 0,
    "coupon": "3,50 %",
    "accruedInterest": "2,5137",
    "settleDate": "2024.05.10",
    "askEhmYield": "",
    "bidYield": "5,79",
    "rawName": "N2026/45",
    "bidPrice": "99,5000",
    "coupon_val": 3.5,
    "maturityInDays": "912 nap",
    "securityType": "MÁP Plusz",
    "maturityDate": "2026.11.08",
    "name": "N2026/45",
    "bidEhmYield": "",
    "askYield": "",
    "currency": "HUF",
    "maturityInDays_val": 912,
    "issueDate": "2021.11.08",
    "longName": "N261108"
}