{
    "askPrice": "",
    "green": 0,
    "coupon": "7,00 %",
    "accruedInterest": 0,
    "settleDate": "2022.11.22",
    "askEhmYield": "",
    "bidYield": "7,54",
    "rawName": "K2023/47",
    "bidPrice": "99,5000",
    "coupon_val": 7,
    "maturityInDays": "365 nap",
    "securityType": "1MÁP",
    "maturityDate": "2023.11.22",
    "name": "K2023/47",
    "bidEhmYield": "7,54",
    "askYield": "",
    "currency": "HUF",
    "maturityInDays_val": 365,
    "issueDate": "2022.11.22",
    "longName": "K231122"
}