{
    "askPrice": "",
    "green": 0,
    "coupon": "7,00 %",
    "accruedInterest": "0,3260",
    "settleDate": "2022.12.09",
    "askEhmYield": "",
    "bidYield": "8,12",
    "rawName": "K2023/47",
    "bidPrice": "99,0000",
    "coupon_val": 7,
    "maturityInDays": "348 nap",
    "securityType": "1MÁP",
    "maturityDate": "2023.11.22",
    "name": "K2023/47",
    "bidEhmYield": "8,10",
    "askYield": "",
    "currency": "HUF",
    "maturityInDays_val": 348,
    "issueDate": "2022.11.22",
    "longName": "K231122"
}