{
    "askPrice": "",
    "green": 0,
    "coupon": "7,00 %",
    "accruedInterest": "5,6192",
    "settleDate": "2023.09.11",
    "askEhmYield": "",
    "bidYield": "12,08",
    "rawName": "K2023/47",
    "bidPrice": "99,0000",
    "coupon_val": 7,
    "maturityInDays": "72 nap",
    "securityType": "1MÁP",
    "maturityDate": "2023.11.22",
    "name": "K2023/47",
    "bidEhmYield": "11,54",
    "askYield": "",
    "currency": "HUF",
    "maturityInDays_val": 72,
    "issueDate": "2022.11.22",
    "longName": "K231122"
}