{
    "askPrice": "",
    "green": 0,
    "coupon": "7,00 %",
    "accruedInterest": "6,4822",
    "settleDate": "2023.10.26",
    "askEhmYield": "",
    "bidYield": "21,30",
    "rawName": "K2023/47",
    "bidPrice": "99,0000",
    "coupon_val": 7,
    "maturityInDays": "27 nap",
    "securityType": "1MÁP",
    "maturityDate": "2023.11.22",
    "name": "K2023/47",
    "bidEhmYield": "19,45",
    "askYield": "",
    "currency": "HUF",
    "maturityInDays_val": 27,
    "issueDate": "2022.11.22",
    "longName": "K231122"
}