{
    "askPrice": "",
    "green": 0,
    "coupon": "7,00 %",
    "accruedInterest": "4,0658",
    "settleDate": "2023.06.22",
    "askEhmYield": "",
    "bidYield": "9,35",
    "rawName": "K2023/47",
    "bidPrice": "99,0000",
    "coupon_val": 7,
    "maturityInDays": "153 nap",
    "securityType": "1MÁP",
    "maturityDate": "2023.11.22",
    "name": "K2023/47",
    "bidEhmYield": "9,11",
    "askYield": "",
    "currency": "HUF",
    "maturityInDays_val": 153,
    "issueDate": "2022.11.22",
    "longName": "K231122"
}