{
    "askPrice": "",
    "green": 0,
    "coupon": "7,00 %",
    "accruedInterest": "1,5151",
    "settleDate": "2023.02.09",
    "askEhmYield": "",
    "bidYield": "8,31",
    "rawName": "K2023/47",
    "bidPrice": "99,0000",
    "coupon_val": 7,
    "maturityInDays": "286 nap",
    "securityType": "1MÁP",
    "maturityDate": "2023.11.22",
    "name": "K2023/47",
    "bidEhmYield": "8,23",
    "askYield": "",
    "currency": "HUF",
    "maturityInDays_val": 286,
    "issueDate": "2022.11.22",
    "longName": "K231122"
}