{
    "askPrice": "",
    "green": 0,
    "coupon": "7,00 %",
    "accruedInterest": "6,0219",
    "settleDate": "2023.10.02",
    "askEhmYield": "",
    "bidYield": "14,29",
    "rawName": "K2023/47",
    "bidPrice": "99,0000",
    "coupon_val": 7,
    "maturityInDays": "51 nap",
    "securityType": "1MÁP",
    "maturityDate": "2023.11.22",
    "name": "K2023/47",
    "bidEhmYield": "13,48",
    "askYield": "",
    "currency": "HUF",
    "maturityInDays_val": 51,
    "issueDate": "2022.11.22",
    "longName": "K231122"
}