{
    "askPrice": "",
    "green": 0,
    "coupon": "7,00 %",
    "accruedInterest": "6,2904",
    "settleDate": "2023.10.16",
    "askEhmYield": "",
    "bidYield": "17,22",
    "rawName": "K2023/47",
    "bidPrice": "99,0000",
    "coupon_val": 7,
    "maturityInDays": "37 nap",
    "securityType": "1MÁP",
    "maturityDate": "2023.11.22",
    "name": "K2023/47",
    "bidEhmYield": "16,02",
    "askYield": "",
    "currency": "HUF",
    "maturityInDays_val": 37,
    "issueDate": "2022.11.22",
    "longName": "K231122"
}