{
    "askPrice": "",
    "green": 0,
    "coupon": "7,00 %",
    "accruedInterest": "6,3288",
    "settleDate": "2023.10.18",
    "askEhmYield": "",
    "bidYield": "17,84",
    "rawName": "K2023/47",
    "bidPrice": "99,0000",
    "coupon_val": 7,
    "maturityInDays": "35 nap",
    "securityType": "1MÁP",
    "maturityDate": "2023.11.22",
    "name": "K2023/47",
    "bidEhmYield": "16,55",
    "askYield": "",
    "currency": "HUF",
    "maturityInDays_val": 35,
    "issueDate": "2022.11.22",
    "longName": "K231122"
}