{
    "askPrice": "",
    "green": 0,
    "coupon": "7,00 %",
    "accruedInterest": "4,7178",
    "settleDate": "2023.07.26",
    "askEhmYield": "",
    "bidYield": "10,03",
    "rawName": "K2023/47",
    "bidPrice": "99,0000",
    "coupon_val": 7,
    "maturityInDays": "119 nap",
    "securityType": "1MÁP",
    "maturityDate": "2023.11.22",
    "name": "K2023/47",
    "bidEhmYield": "9,71",
    "askYield": "",
    "currency": "HUF",
    "maturityInDays_val": 119,
    "issueDate": "2022.11.22",
    "longName": "K231122"
}