{
    "askPrice": "",
    "green": 0,
    "coupon": "7,00 %",
    "accruedInterest": "3,8740",
    "settleDate": "2023.06.12",
    "askEhmYield": "",
    "bidYield": "9,21",
    "rawName": "K2023/47",
    "bidPrice": "99,0000",
    "coupon_val": 7,
    "maturityInDays": "163 nap",
    "securityType": "1MÁP",
    "maturityDate": "2023.11.22",
    "name": "K2023/47",
    "bidEhmYield": "8,98",
    "askYield": "",
    "currency": "HUF",
    "maturityInDays_val": 163,
    "issueDate": "2022.11.22",
    "longName": "K231122"
}