{
    "askPrice": "",
    "green": 0,
    "coupon": "7,00 %",
    "accruedInterest": "6,3671",
    "settleDate": "2023.10.20",
    "askEhmYield": "",
    "bidYield": "18,54",
    "rawName": "K2023/47",
    "bidPrice": "99,0000",
    "coupon_val": 7,
    "maturityInDays": "33 nap",
    "securityType": "1MÁP",
    "maturityDate": "2023.11.22",
    "name": "K2023/47",
    "bidEhmYield": "17,14",
    "askYield": "",
    "currency": "HUF",
    "maturityInDays_val": 33,
    "issueDate": "2022.11.22",
    "longName": "K231122"
}