{
    "askPrice": "",
    "green": 0,
    "coupon": "7,00 %",
    "accruedInterest": "6,1945",
    "settleDate": "2023.10.11",
    "askEhmYield": "",
    "bidYield": "15,94",
    "rawName": "K2023/47",
    "bidPrice": "99,0000",
    "coupon_val": 7,
    "maturityInDays": "42 nap",
    "securityType": "1MÁP",
    "maturityDate": "2023.11.22",
    "name": "K2023/47",
    "bidEhmYield": "14,92",
    "askYield": "",
    "currency": "HUF",
    "maturityInDays_val": 42,
    "issueDate": "2022.11.22",
    "longName": "K231122"
}