{
    "askPrice": "",
    "green": 0,
    "coupon": "7,00 %",
    "accruedInterest": "1,7644",
    "settleDate": "2023.02.22",
    "askEhmYield": "",
    "bidYield": "8,36",
    "rawName": "K2023/47",
    "bidPrice": "99,0000",
    "coupon_val": 7,
    "maturityInDays": "273 nap",
    "securityType": "1MÁP",
    "maturityDate": "2023.11.22",
    "name": "K2023/47",
    "bidEhmYield": "8,27",
    "askYield": "",
    "currency": "HUF",
    "maturityInDays_val": 273,
    "issueDate": "2022.11.22",
    "longName": "K231122"
}