{
    "askPrice": "",
    "green": 0,
    "coupon": "7,00 %",
    "accruedInterest": "3,3945",
    "settleDate": "2023.05.18",
    "askEhmYield": "",
    "bidYield": "8,92",
    "rawName": "K2023/47",
    "bidPrice": "99,0000",
    "coupon_val": 7,
    "maturityInDays": "188 nap",
    "securityType": "1MÁP",
    "maturityDate": "2023.11.22",
    "name": "K2023/47",
    "bidEhmYield": "8,73",
    "askYield": "",
    "currency": "HUF",
    "maturityInDays_val": 188,
    "issueDate": "2022.11.22",
    "longName": "K231122"
}