{
    "askPrice": "93,8649",
    "green": 0,
    "coupon": 0,
    "accruedInterest": 0,
    "settleDate": "2024.05.03",
    "askEhmYield": "6,59",
    "bidYield": "7,35",
    "rawName": "D250430",
    "bidPrice": "93,1178",
    "maturityInDays": "362 nap",
    "securityType": "DKJ",
    "maturityDate": "2025.04.30",
    "name": "D250430",
    "bidEhmYield": "7,45",
    "askYield": "6,50",
    "currency": "HUF",
    "maturityInDays_val": 362,
    "issueDate": "2024.04.30",
    "longName": "D250430"
}