{
    "askPrice": "",
    "green": 0,
    "coupon": "9,00 %",
    "accruedInterest": "2,5644",
    "settleDate": "2023.12.04",
    "askEhmYield": "",
    "bidYield": "10,34",
    "rawName": "K2024/34",
    "bidPrice": "99,0000",
    "coupon_val": 9,
    "maturityInDays": "262 nap",
    "securityType": "1MÁP",
    "maturityDate": "2024.08.22",
    "name": "K2024/34",
    "bidEhmYield": "10,20",
    "askYield": "",
    "currency": "HUF",
    "maturityInDays_val": 262,
    "issueDate": "2023.08.22",
    "longName": "K240822"
}