{
    "askPrice": "",
    "green": 0,
    "coupon": "9,00 %",
    "accruedInterest": "1,7014",
    "settleDate": "2023.10.30",
    "askEhmYield": "",
    "bidYield": "10,22",
    "rawName": "K2024/34",
    "bidPrice": "99,0000",
    "coupon_val": 9,
    "maturityInDays": "297 nap",
    "securityType": "1MÁP",
    "maturityDate": "2024.08.22",
    "name": "K2024/34",
    "bidEhmYield": "10,13",
    "askYield": "",
    "currency": "HUF",
    "maturityInDays_val": 297,
    "issueDate": "2023.08.22",
    "longName": "K240822"
}