{
    "askPrice": "",
    "green": 0,
    "coupon": "9,00 %",
    "accruedInterest": "0,2466",
    "settleDate": "2023.09.01",
    "askEhmYield": "",
    "bidYield": "10,09",
    "rawName": "K2024/34",
    "bidPrice": "99,0000",
    "coupon_val": 9,
    "maturityInDays": "356 nap",
    "securityType": "1MÁP",
    "maturityDate": "2024.08.22",
    "name": "K2024/34",
    "bidEhmYield": "10,08",
    "askYield": "",
    "currency": "HUF",
    "maturityInDays_val": 356,
    "issueDate": "2023.08.22",
    "longName": "K240822"
}