{
    "askPrice": "",
    "green": 0,
    "coupon": "9,00 %",
    "accruedInterest": "5,8685",
    "settleDate": "2024.04.17",
    "askEhmYield": "",
    "bidYield": "11,75",
    "rawName": "K2024/34",
    "bidPrice": "99,0000",
    "coupon_val": 9,
    "maturityInDays": "127 nap",
    "securityType": "1MÁP",
    "maturityDate": "2024.08.22",
    "name": "K2024/34",
    "bidEhmYield": "11,25",
    "askYield": "",
    "currency": "HUF",
    "maturityInDays_val": 127,
    "issueDate": "2023.08.22",
    "longName": "K240822"
}