{
    "askPrice": "",
    "green": 0,
    "coupon": "9,00 %",
    "accruedInterest": "4,3151",
    "settleDate": "2024.02.13",
    "askEhmYield": "",
    "bidYield": "10,78",
    "rawName": "K2024/34",
    "bidPrice": "99,0000",
    "coupon_val": 9,
    "maturityInDays": "191 nap",
    "securityType": "1MÁP",
    "maturityDate": "2024.08.22",
    "name": "K2024/34",
    "bidEhmYield": "10,52",
    "askYield": "",
    "currency": "HUF",
    "maturityInDays_val": 191,
    "issueDate": "2023.08.22",
    "longName": "K240822"
}