{
    "askPrice": "",
    "green": 0,
    "coupon": "9,00 %",
    "accruedInterest": "5,4986",
    "settleDate": "2024.04.02",
    "askEhmYield": "",
    "bidYield": "11,45",
    "rawName": "K2024/34",
    "bidPrice": "99,0000",
    "coupon_val": 9,
    "maturityInDays": "142 nap",
    "securityType": "1MÁP",
    "maturityDate": "2024.08.22",
    "name": "K2024/34",
    "bidEhmYield": "11,01",
    "askYield": "",
    "currency": "HUF",
    "maturityInDays_val": 142,
    "issueDate": "2023.08.22",
    "longName": "K240822"
}