{
    "askPrice": "",
    "green": 0,
    "coupon": "9,00 %",
    "accruedInterest": "5,2027",
    "settleDate": "2024.03.21",
    "askEhmYield": "",
    "bidYield": "11,26",
    "rawName": "K2024/34",
    "bidPrice": "99,0000",
    "coupon_val": 9,
    "maturityInDays": "154 nap",
    "securityType": "1MÁP",
    "maturityDate": "2024.08.22",
    "name": "K2024/34",
    "bidEhmYield": "10,85",
    "askYield": "",
    "currency": "HUF",
    "maturityInDays_val": 154,
    "issueDate": "2023.08.22",
    "longName": "K240822"
}