{
    "askPrice": "",
    "green": 0,
    "coupon": "9,00 %",
    "accruedInterest": "7,1260",
    "settleDate": "2023.11.23",
    "askEhmYield": "",
    "bidYield": "13,69",
    "rawName": "K2024/06",
    "bidPrice": "99,0000",
    "coupon_val": 9,
    "maturityInDays": "76 nap",
    "securityType": "1MÁP",
    "maturityDate": "2024.02.07",
    "name": "K2024/06",
    "bidEhmYield": "13,01",
    "askYield": "",
    "currency": "HUF",
    "maturityInDays_val": 76,
    "issueDate": "2023.02.07",
    "longName": "K240207"
}