{
    "askPrice": "",
    "green": 0,
    "coupon": "9,00 %",
    "accruedInterest": "8,0137",
    "settleDate": "2023.12.29",
    "askEhmYield": "",
    "bidYield": "18,27",
    "rawName": "K2024/06",
    "bidPrice": "99,0000",
    "coupon_val": 9,
    "maturityInDays": "40 nap",
    "securityType": "1MÁP",
    "maturityDate": "2024.02.07",
    "name": "K2024/06",
    "bidEhmYield": "16,94",
    "askYield": "",
    "currency": "HUF",
    "maturityInDays_val": 40,
    "issueDate": "2023.02.07",
    "longName": "K240207"
}