{
    "askPrice": "",
    "green": 0,
    "coupon": "9,00 %",
    "accruedInterest": "2,5890",
    "settleDate": "2023.05.23",
    "askEhmYield": "",
    "bidYield": "10,39",
    "rawName": "K2024/06",
    "bidPrice": "99,0000",
    "coupon_val": 9,
    "maturityInDays": "260 nap",
    "securityType": "1MÁP",
    "maturityDate": "2024.02.07",
    "name": "K2024/06",
    "bidEhmYield": "10,24",
    "askYield": "",
    "currency": "HUF",
    "maturityInDays_val": 260,
    "issueDate": "2023.02.07",
    "longName": "K240207"
}