{
    "askPrice": "",
    "green": 0,
    "coupon": "9,00 %",
    "accruedInterest": "5,6712",
    "settleDate": "2023.09.25",
    "askEhmYield": "",
    "bidYield": "11,58",
    "rawName": "K2024/06",
    "bidPrice": "99,0000",
    "coupon_val": 9,
    "maturityInDays": "135 nap",
    "securityType": "1MÁP",
    "maturityDate": "2024.02.07",
    "name": "K2024/06",
    "bidEhmYield": "11,18",
    "askYield": "",
    "currency": "HUF",
    "maturityInDays_val": 135,
    "issueDate": "2023.02.07",
    "longName": "K240207"
}