{
    "askPrice": "",
    "green": 0,
    "coupon": "9,00 %",
    "accruedInterest": "3,1315",
    "settleDate": "2023.06.14",
    "askEhmYield": "",
    "bidYield": "10,50",
    "rawName": "K2024/06",
    "bidPrice": "99,0000",
    "coupon_val": 9,
    "maturityInDays": "238 nap",
    "securityType": "1MÁP",
    "maturityDate": "2024.02.07",
    "name": "K2024/06",
    "bidEhmYield": "10,31",
    "askYield": "",
    "currency": "HUF",
    "maturityInDays_val": 238,
    "issueDate": "2023.02.07",
    "longName": "K240207"
}