{
    "askPrice": "",
    "green": 0,
    "coupon": "9,00 %",
    "accruedInterest": "1,2329",
    "settleDate": "2023.03.29",
    "askEhmYield": "",
    "bidYield": "10,20",
    "rawName": "K2024/06",
    "bidPrice": "99,0000",
    "coupon_val": 9,
    "maturityInDays": "315 nap",
    "securityType": "1MÁP",
    "maturityDate": "2024.02.07",
    "name": "K2024/06",
    "bidEhmYield": "10,14",
    "askYield": "",
    "currency": "HUF",
    "maturityInDays_val": 315,
    "issueDate": "2023.02.07",
    "longName": "K240207"
}