{
    "askPrice": "",
    "green": 0,
    "coupon": "9,00 %",
    "accruedInterest": "5,4986",
    "settleDate": "2023.09.18",
    "askEhmYield": "",
    "bidYield": "11,45",
    "rawName": "K2024/06",
    "bidPrice": "99,0000",
    "coupon_val": 9,
    "maturityInDays": "142 nap",
    "securityType": "1MÁP",
    "maturityDate": "2024.02.07",
    "name": "K2024/06",
    "bidEhmYield": "11,07",
    "askYield": "",
    "currency": "HUF",
    "maturityInDays_val": 142,
    "issueDate": "2023.02.07",
    "longName": "K240207"
}