{
    "askPrice": "",
    "green": 0,
    "coupon": "9,00 %",
    "accruedInterest": "3,8712",
    "settleDate": "2023.07.14",
    "askEhmYield": "",
    "bidYield": "10,69",
    "rawName": "K2024/06",
    "bidPrice": "99,0000",
    "coupon_val": 9,
    "maturityInDays": "208 nap",
    "securityType": "1MÁP",
    "maturityDate": "2024.02.07",
    "name": "K2024/06",
    "bidEhmYield": "10,45",
    "askYield": "",
    "currency": "HUF",
    "maturityInDays_val": 208,
    "issueDate": "2023.02.07",
    "longName": "K240207"
}