{
    "askPrice": "",
    "green": 0,
    "coupon": "9,00 %",
    "accruedInterest": "8,6548",
    "settleDate": "2024.01.24",
    "askEhmYield": "",
    "bidYield": "28,56",
    "rawName": "K2024/06",
    "bidPrice": "99,3000",
    "coupon_val": 9,
    "maturityInDays": "14 nap",
    "securityType": "1MÁP",
    "maturityDate": "2024.02.07",
    "name": "K2024/06",
    "bidEhmYield": "25,24",
    "askYield": "",
    "currency": "HUF",
    "maturityInDays_val": 14,
    "issueDate": "2023.02.07",
    "longName": "K240207"
}