{
    "askPrice": "",
    "green": 0,
    "coupon": "3,50 %",
    "accruedInterest": "0,20",
    "settleDate": "2022.11.17",
    "askEhmYield": "",
    "bidYield": "6,02",
    "rawName": "N2024/22",
    "bidPrice": "99,50",
    "coupon_val": 3.5,
    "maturityInDays": "718 nap",
    "securityType": "MÁP Plusz",
    "maturityDate": "2024.11.04",
    "name": "N2024/22",
    "bidEhmYield": "",
    "askYield": "",
    "currency": "HUF",
    "maturityInDays_val": 718,
    "issueDate": "2019-11-04",
    "longName": "N241104"
}