{
    "askPrice": "",
    "green": 0,
    "coupon": "3,50 %",
    "accruedInterest": "0,06",
    "settleDate": "2022.11.08",
    "askEhmYield": "",
    "bidYield": "5,74",
    "rawName": "N2024/22",
    "bidPrice": "100,00",
    "coupon_val": 3.5,
    "maturityInDays": "727 nap",
    "securityType": "MÁP Plusz",
    "maturityDate": "2024.11.04",
    "name": "N2024/22",
    "bidEhmYield": "",
    "askYield": "",
    "currency": "HUF",
    "maturityInDays_val": 727,
    "issueDate": "2019-11-04",
    "longName": "N241104"
}