{
    "askPrice": "",
    "green": 0,
    "coupon": "3,50 %",
    "accruedInterest": "3,99",
    "settleDate": "2022.08.22",
    "askEhmYield": "",
    "bidYield": "",
    "rawName": "N2024/22",
    "bidPrice": "99,50",
    "coupon_val": 3.5,
    "maturityInDays": "805 nap",
    "securityType": "MÁP Plusz",
    "maturityDate": "2024.11.04",
    "name": "N2024/22",
    "bidEhmYield": "",
    "askYield": "",
    "currency": "HUF",
    "maturityInDays_val": 805,
    "longName": "N241104"
}