{
    "askPrice": "",
    "green": 0,
    "coupon": "3,50 %",
    "accruedInterest": "0,0492",
    "settleDate": "2023.11.07",
    "askEhmYield": "",
    "bidYield": "6,00",
    "rawName": "N2024/22",
    "bidPrice": "100,0000",
    "coupon_val": 3.5,
    "maturityInDays": "363 nap",
    "securityType": "MÁP Plusz",
    "maturityDate": "2024.11.04",
    "name": "N2024/22",
    "bidEhmYield": "",
    "askYield": "",
    "currency": "HUF",
    "maturityInDays_val": 363,
    "issueDate": "2019.11.04",
    "longName": "N241104"
}