{
    "askPrice": "",
    "green": 0,
    "coupon": "3,50 %",
    "accruedInterest": "4,4753",
    "settleDate": "2023.08.28",
    "askEhmYield": "",
    "bidYield": "6,35",
    "rawName": "N2024/22",
    "bidPrice": "99,5000",
    "coupon_val": 3.5,
    "maturityInDays": "434 nap",
    "securityType": "MÁP Plusz",
    "maturityDate": "2024.11.04",
    "name": "N2024/22",
    "bidEhmYield": "",
    "askYield": "",
    "currency": "HUF",
    "maturityInDays_val": 434,
    "issueDate": "2019.11.04",
    "longName": "N241104"
}