{
    "askPrice": "",
    "green": 0,
    "coupon": "3,50 %",
    "accruedInterest": "1,2951",
    "settleDate": "2024.01.22",
    "askEhmYield": "",
    "bidYield": "6,63",
    "rawName": "N2024/22",
    "bidPrice": "99,5000",
    "coupon_val": 3.5,
    "maturityInDays": "287 nap",
    "securityType": "MÁP Plusz",
    "maturityDate": "2024.11.04",
    "name": "N2024/22",
    "bidEhmYield": "",
    "askYield": "",
    "currency": "HUF",
    "maturityInDays_val": 287,
    "issueDate": "2019.11.04",
    "longName": "N241104"
}