{
    "askPrice": "",
    "green": 0,
    "coupon": "3,50 %",
    "accruedInterest": "0,6923",
    "settleDate": "2024.04.17",
    "askEhmYield": "",
    "bidYield": "5,08",
    "rawName": "N2029/06",
    "bidPrice": "99,5000",
    "coupon_val": 3.5,
    "maturityInDays": "1755 nap",
    "securityType": "MÁP Plusz",
    "maturityDate": "2029.02.05",
    "name": "N2029/06",
    "bidEhmYield": "",
    "askYield": "",
    "currency": "HUF",
    "maturityInDays_val": 1755,
    "issueDate": "2024.02.05",
    "longName": "N290205"
}