{
    "askPrice": "",
    "green": 0,
    "coupon": "4,25 %",
    "accruedInterest": "1,8630",
    "settleDate": "2023.01.02",
    "askEhmYield": "",
    "bidYield": "6,06",
    "rawName": "K2023/30",
    "bidPrice": "99,0000",
    "coupon_val": 4.25,
    "maturityInDays": "205 nap",
    "securityType": "1MÁP",
    "maturityDate": "2023.07.26",
    "name": "K2023/30",
    "bidEhmYield": "5,98",
    "askYield": "",
    "currency": "HUF",
    "maturityInDays_val": 205,
    "issueDate": "2022.07.26",
    "longName": "K230726"
}