{
    "askPrice": "",
    "green": 0,
    "coupon": "4,25 %",
    "accruedInterest": "0,24",
    "settleDate": "2022.08.16",
    "askEhmYield": "",
    "bidYield": "",
    "rawName": "K2023/30",
    "bidPrice": "99,50",
    "coupon_val": 4.25,
    "maturityInDays": "344 nap",
    "securityType": "1MÁP",
    "maturityDate": "2023.07.26",
    "name": "K2023/30",
    "bidEhmYield": "4,79",
    "askYield": "",
    "currency": "HUF",
    "maturityInDays_val": 344,
    "longName": "K230726"
}