{
    "askPrice": "",
    "green": 0,
    "coupon": "4,25 %",
    "accruedInterest": "1,33",
    "settleDate": "2022.11.17",
    "askEhmYield": "",
    "bidYield": "4,97",
    "rawName": "K2023/30",
    "bidPrice": "99,50",
    "coupon_val": 4.25,
    "maturityInDays": "251 nap",
    "securityType": "1MÁP",
    "maturityDate": "2023.07.26",
    "name": "K2023/30",
    "bidEhmYield": "4,94",
    "askYield": "",
    "currency": "HUF",
    "maturityInDays_val": 251,
    "issueDate": "2022-07-26",
    "longName": "K230726"
}