{
    "askPrice": "",
    "green": 0,
    "coupon": "4,25 %",
    "accruedInterest": "1,3973",
    "settleDate": "2022.11.23",
    "askEhmYield": "",
    "bidYield": "4,99",
    "rawName": "K2023/30",
    "bidPrice": "99,5000",
    "coupon_val": 4.25,
    "maturityInDays": "245 nap",
    "securityType": "1MÁP",
    "maturityDate": "2023.07.26",
    "name": "K2023/30",
    "bidEhmYield": "4,95",
    "askYield": "",
    "currency": "HUF",
    "maturityInDays_val": 245,
    "issueDate": "2022.07.26",
    "longName": "K230726"
}