{
    "askPrice": "",
    "green": 0,
    "coupon": "4,25 %",
    "accruedInterest": "2,4336",
    "settleDate": "2023.02.20",
    "askEhmYield": "",
    "bidYield": "6,62",
    "rawName": "K2023/30",
    "bidPrice": "99,0000",
    "coupon_val": 4.25,
    "maturityInDays": "156 nap",
    "securityType": "1MÁP",
    "maturityDate": "2023.07.26",
    "name": "K2023/30",
    "bidEhmYield": "6,50",
    "askYield": "",
    "currency": "HUF",
    "maturityInDays_val": 156,
    "issueDate": "2022.07.26",
    "longName": "K230726"
}