{
    "askPrice": "",
    "green": 0,
    "coupon": "4,25 %",
    "accruedInterest": "3,9822",
    "settleDate": "2023.07.03",
    "askEhmYield": "",
    "bidYield": "17,75",
    "rawName": "K2023/30",
    "bidPrice": "99,2000",
    "coupon_val": 4.25,
    "maturityInDays": "23 nap",
    "securityType": "1MÁP",
    "maturityDate": "2023.07.26",
    "name": "K2023/30",
    "bidEhmYield": "16,42",
    "askYield": "",
    "currency": "HUF",
    "maturityInDays_val": 23,
    "issueDate": "2022.07.26",
    "longName": "K230726"
}