{
    "askPrice": "",
    "green": 0,
    "coupon": "4,25 %",
    "accruedInterest": "4,0288",
    "settleDate": "2023.07.07",
    "askEhmYield": "",
    "bidYield": "20,82",
    "rawName": "K2023/30",
    "bidPrice": "99,2000",
    "coupon_val": 4.25,
    "maturityInDays": "19 nap",
    "securityType": "1MÁP",
    "maturityDate": "2023.07.26",
    "name": "K2023/30",
    "bidEhmYield": "19,00",
    "askYield": "",
    "currency": "HUF",
    "maturityInDays_val": 19,
    "issueDate": "2022.07.26",
    "longName": "K230726"
}