{
    "askPrice": "",
    "green": 0,
    "coupon": "3,50 %",
    "accruedInterest": "0,1427",
    "settleDate": "2024.04.02",
    "askEhmYield": "",
    "bidYield": "5,04",
    "rawName": "N2029/12",
    "bidPrice": "99,5000",
    "coupon_val": 3.5,
    "maturityInDays": "1811 nap",
    "securityType": "MÁP Plusz",
    "maturityDate": "2029.03.18",
    "name": "N2029/12",
    "bidEhmYield": "",
    "askYield": "",
    "currency": "HUF",
    "maturityInDays_val": 1811,
    "issueDate": "2024.03.18",
    "longName": "N290318"
}