{
    "askPrice": "",
    "green": 0,
    "coupon": null,
    "accruedInterest": "5,4375",
    "settleDate": "2023.10.04",
    "askEhmYield": "",
    "bidYield": "",
    "rawName": "2028/X_EUR",
    "bidPrice": "99,0000",
    "maturityInDays": "1603 nap",
    "securityType": "PEMÁP",
    "maturityDate": "2028.02.23",
    "name": "2028/X_EUR",
    "bidEhmYield": "",
    "askYield": "",
    "currency": "EUR",
    "maturityInDays_val": 1603,
    "issueDate": "2022.02.17",
    "longName": "C280223X22"
}