{
    "askPrice": "",
    "green": 0,
    "coupon": "3,50 %",
    "accruedInterest": "0,20",
    "settleDate": "2022.11.14",
    "askEhmYield": "",
    "bidYield": "5,04",
    "rawName": "N2027/43",
    "bidPrice": "99,50",
    "coupon_val": 3.5,
    "maturityInDays": "1805 nap",
    "securityType": "MÁP Plusz",
    "maturityDate": "2027.10.24",
    "name": "N2027/43",
    "bidEhmYield": "",
    "askYield": "",
    "currency": "HUF",
    "maturityInDays_val": 1805,
    "issueDate": "2022-10-24",
    "longName": "N271024"
}