{
    "askPrice": "",
    "green": 0,
    "coupon": "3,50 %",
    "accruedInterest": "0,0874",
    "settleDate": "2023.05.02",
    "askEhmYield": "",
    "bidYield": "5,08",
    "rawName": "N2027/43",
    "bidPrice": "100,0000",
    "coupon_val": 3.5,
    "maturityInDays": "1636 nap",
    "securityType": "MÁP Plusz",
    "maturityDate": "2027.10.24",
    "name": "N2027/43",
    "bidEhmYield": "",
    "askYield": "",
    "currency": "HUF",
    "maturityInDays_val": 1636,
    "issueDate": "2022.10.24",
    "longName": "N271024"
}