{
    "askPrice": "",
    "green": 0,
    "coupon": "3,50 %",
    "accruedInterest": "2,3975",
    "settleDate": "2024.05.06",
    "askEhmYield": "",
    "bidYield": "5,49",
    "rawName": "N2027/43",
    "bidPrice": "99,5000",
    "coupon_val": 3.5,
    "maturityInDays": "1266 nap",
    "securityType": "MÁP Plusz",
    "maturityDate": "2027.10.24",
    "name": "N2027/43",
    "bidEhmYield": "",
    "askYield": "",
    "currency": "HUF",
    "maturityInDays_val": 1266,
    "issueDate": "2022.10.24",
    "longName": "N271024"
}