{
    "askPrice": "",
    "green": 0,
    "coupon": "3,50 %",
    "accruedInterest": "1,0041",
    "settleDate": "2024.03.18",
    "askEhmYield": "",
    "bidYield": "5,12",
    "rawName": "N2028/49",
    "bidPrice": "99,5000",
    "coupon_val": 3.5,
    "maturityInDays": "1722 nap",
    "securityType": "MÁP Plusz",
    "maturityDate": "2028.12.04",
    "name": "N2028/49",
    "bidEhmYield": "",
    "askYield": "",
    "currency": "HUF",
    "maturityInDays_val": 1722,
    "issueDate": "2023.12.04",
    "longName": "N281204"
}