{
    "askPrice": "",
    "green": 0,
    "coupon": "2,50 %",
    "accruedInterest": "2,32",
    "settleDate": "2022.08.26",
    "askEhmYield": "",
    "bidYield": "",
    "rawName": "K2022/38",
    "bidPrice": "99,50",
    "coupon_val": 2.5,
    "maturityInDays": "26 nap",
    "securityType": "1MÁP",
    "maturityDate": "2022.09.21",
    "name": "K2022/38",
    "bidEhmYield": "9,35",
    "askYield": "",
    "currency": "HUF",
    "maturityInDays_val": 26,
    "longName": "K220921"
}