{
    "askPrice": "",
    "green": 0,
    "coupon": "2,50 %",
    "accruedInterest": "2,08",
    "settleDate": "2022.07.21",
    "askEhmYield": "",
    "bidYield": "",
    "rawName": "K2022/38",
    "bidPrice": "99,50",
    "coupon_val": 2.5,
    "maturityInDays": "62 nap",
    "securityType": "1MÁP",
    "maturityDate": "2022.09.21",
    "name": "K2022/38",
    "bidEhmYield": "5,36",
    "askYield": "",
    "currency": "HUF",
    "maturityInDays_val": 62,
    "longName": "K220921"
}