{
    "askPrice": "100,00",
    "green": 0,
    "coupon": null,
    "accruedInterest": "0,32",
    "settleDate": "2022.10.10",
    "askEhmYield": "",
    "bidYield": "",
    "rawName": "2029/I",
    "bidPrice": "99,00",
    "maturityInDays": "2326 nap",
    "securityType": "PMÁP",
    "maturityDate": "2029.02.21",
    "name": "2029/I",
    "bidEhmYield": "",
    "askYield": "",
    "currency": "HUF",
    "maturityInDays_val": 2326,
    "longName": "A290221I22"
}