{
    "askPrice": "100,00",
    "green": 0,
    "coupon": null,
    "accruedInterest": "0,39",
    "settleDate": "2022.10.12",
    "askEhmYield": "",
    "bidYield": "",
    "rawName": "2029/I",
    "bidPrice": "99,00",
    "maturityInDays": "2324 nap",
    "securityType": "PMÁP",
    "maturityDate": "2029.02.21",
    "name": "2029/I",
    "bidEhmYield": "",
    "askYield": "",
    "currency": "HUF",
    "maturityInDays_val": 2324,
    "longName": "A290221I22"
}