{
    "askPrice": "",
    "green": 0,
    "coupon": null,
    "accruedInterest": "12,3178",
    "settleDate": "2023.11.29",
    "askEhmYield": "",
    "bidYield": "",
    "rawName": "2029/I",
    "bidPrice": "99,0000",
    "maturityInDays": "1911 nap",
    "securityType": "PMÁP",
    "maturityDate": "2029.02.21",
    "name": "2029/I",
    "bidEhmYield": "",
    "askYield": "",
    "currency": "HUF",
    "maturityInDays_val": 1911,
    "issueDate": "2022.09.30",
    "longName": "A290221I22"
}