{
    "askPrice": "",
    "green": 0,
    "coupon": null,
    "accruedInterest": "15,9123",
    "settleDate": "2024.02.19",
    "askEhmYield": "",
    "bidYield": "",
    "rawName": "2029/I",
    "bidPrice": "",
    "maturityInDays": "1829 nap",
    "securityType": "PMÁP",
    "maturityDate": "2029.02.21",
    "name": "2029/I",
    "bidEhmYield": "",
    "askYield": "",
    "currency": "HUF",
    "maturityInDays_val": 1829,
    "issueDate": "2022.09.30",
    "longName": "A290221I22"
}