{
    "askPrice": "",
    "green": 0,
    "coupon": "3,50 %",
    "accruedInterest": "3,82",
    "settleDate": "2022.11.02",
    "askEhmYield": "",
    "bidYield": "5,89",
    "rawName": "N2025/04",
    "bidPrice": "99,50",
    "coupon_val": 3.5,
    "maturityInDays": "817 nap",
    "securityType": "MÁP Plusz",
    "maturityDate": "2025.01.27",
    "name": "N2025/04",
    "bidEhmYield": "",
    "askYield": "",
    "currency": "HUF",
    "maturityInDays_val": 817,
    "issueDate": "2020-01-27",
    "longName": "N250127"
}