{
    "askPrice": "",
    "green": 0,
    "coupon": "3,50 %",
    "accruedInterest": "3,07",
    "settleDate": "2022.09.08",
    "askEhmYield": "",
    "bidYield": "",
    "rawName": "N2025/04",
    "bidPrice": "99,50",
    "coupon_val": 3.5,
    "maturityInDays": "872 nap",
    "securityType": "MÁP Plusz",
    "maturityDate": "2025.01.27",
    "name": "N2025/04",
    "bidEhmYield": "",
    "askYield": "",
    "currency": "HUF",
    "maturityInDays_val": 872,
    "longName": "N250127"
}