{
    "askPrice": "",
    "green": 0,
    "coupon": "3,50 %",
    "accruedInterest": "1,6575",
    "settleDate": "2023.05.17",
    "askEhmYield": "",
    "bidYield": "6,09",
    "rawName": "N2025/04",
    "bidPrice": "99,5000",
    "coupon_val": 3.5,
    "maturityInDays": "621 nap",
    "securityType": "MÁP Plusz",
    "maturityDate": "2025.01.27",
    "name": "N2025/04",
    "bidEhmYield": "",
    "askYield": "",
    "currency": "HUF",
    "maturityInDays_val": 621,
    "issueDate": "2020.01.27",
    "longName": "N250127"
}