{
    "askPrice": "",
    "green": 0,
    "coupon": "3,50 %",
    "accruedInterest": "4,4151",
    "settleDate": "2023.11.16",
    "askEhmYield": "",
    "bidYield": "6,34",
    "rawName": "N2025/04",
    "bidPrice": "99,5000",
    "coupon_val": 3.5,
    "maturityInDays": "438 nap",
    "securityType": "MÁP Plusz",
    "maturityDate": "2025.01.27",
    "name": "N2025/04",
    "bidEhmYield": "",
    "askYield": "",
    "currency": "HUF",
    "maturityInDays_val": 438,
    "issueDate": "2020.01.27",
    "longName": "N250127"
}