{
    "askPrice": "",
    "green": 0,
    "coupon": "3,50 %",
    "accruedInterest": "0,9508",
    "settleDate": "2024.03.25",
    "askEhmYield": "",
    "bidYield": "6,60",
    "rawName": "N2025/04",
    "bidPrice": "99,5000",
    "coupon_val": 3.5,
    "maturityInDays": "308 nap",
    "securityType": "MÁP Plusz",
    "maturityDate": "2025.01.27",
    "name": "N2025/04",
    "bidEhmYield": "",
    "askYield": "",
    "currency": "HUF",
    "maturityInDays_val": 308,
    "issueDate": "2020.01.27",
    "longName": "N250127"
}