{
    "askPrice": "97,4779",
    "green": 0,
    "coupon": 0,
    "accruedInterest": 0,
    "settleDate": "2023.02.13",
    "askEhmYield": "14,53",
    "bidYield": "15,23",
    "rawName": "D230419",
    "bidPrice": "97,3237",
    "maturityInDays": "65 nap",
    "securityType": "DKJ",
    "maturityDate": "2023.04.19",
    "name": "D230419",
    "bidEhmYield": "15,44",
    "askYield": "14,33",
    "currency": "HUF",
    "maturityInDays_val": 65,
    "issueDate": "2022.04.20",
    "longName": "D230419"
}