{
    "askPrice": "97,1691",
    "green": 0,
    "coupon": 0,
    "accruedInterest": 0,
    "settleDate": "2023.02.02",
    "askEhmYield": "13,99",
    "bidYield": "14,69",
    "rawName": "D230419",
    "bidPrice": "96,9921",
    "maturityInDays": "76 nap",
    "securityType": "DKJ",
    "maturityDate": "2023.04.19",
    "name": "D230419",
    "bidEhmYield": "14,89",
    "askYield": "13,80",
    "currency": "HUF",
    "maturityInDays_val": 76,
    "issueDate": "2022.04.20",
    "longName": "D230419"
}