{
    "askPrice": "99,3750",
    "green": 0,
    "coupon": 0,
    "accruedInterest": 0,
    "settleDate": "2023.04.03",
    "askEhmYield": "14,35",
    "bidYield": "15,39",
    "rawName": "D230419",
    "bidPrice": "99,3206",
    "maturityInDays": "16 nap",
    "securityType": "DKJ",
    "maturityDate": "2023.04.19",
    "name": "D230419",
    "bidEhmYield": "15,60",
    "askYield": "14,15",
    "currency": "HUF",
    "maturityInDays_val": 16,
    "issueDate": "2022.04.20",
    "longName": "D230419"
}