{
    "askPrice": "",
    "green": 0,
    "coupon": 0,
    "accruedInterest": 0,
    "settleDate": "2023.04.11",
    "askEhmYield": "",
    "bidYield": "15,37",
    "rawName": "D230419",
    "bidPrice": "99,6596",
    "maturityInDays": "8 nap",
    "securityType": "DKJ",
    "maturityDate": "2023.04.19",
    "name": "D230419",
    "bidEhmYield": "15,58",
    "askYield": "",
    "currency": "HUF",
    "maturityInDays_val": 8,
    "issueDate": "2022.04.20",
    "longName": "D230419"
}