{
    "askPrice": "96,7314",
    "green": 0,
    "coupon": 0,
    "accruedInterest": 0,
    "settleDate": "2023.01.16",
    "askEhmYield": "13,26",
    "bidYield": "13,90",
    "rawName": "D230419",
    "bidPrice": "96,5336",
    "maturityInDays": "93 nap",
    "securityType": "DKJ",
    "maturityDate": "2023.04.19",
    "name": "D230419",
    "bidEhmYield": "14,09",
    "askYield": "13,08",
    "currency": "HUF",
    "maturityInDays_val": 93,
    "issueDate": "2022.04.20",
    "longName": "D230419"
}