{
    "askPrice": "97,5665",
    "green": 0,
    "coupon": 0,
    "accruedInterest": 0,
    "settleDate": "2023.02.14",
    "askEhmYield": "14,22",
    "bidYield": "14,90",
    "rawName": "D230419",
    "bidPrice": "97,4195",
    "maturityInDays": "64 nap",
    "securityType": "DKJ",
    "maturityDate": "2023.04.19",
    "name": "D230419",
    "bidEhmYield": "15,11",
    "askYield": "14,03",
    "currency": "HUF",
    "maturityInDays_val": 64,
    "issueDate": "2022.04.20",
    "longName": "D230419"
}