{
    "askPrice": "96,8781",
    "green": 0,
    "coupon": 0,
    "accruedInterest": 0,
    "settleDate": "2023.01.19",
    "askEhmYield": "13,07",
    "bidYield": "13,65",
    "rawName": "D230419",
    "bidPrice": "96,7001",
    "maturityInDays": "90 nap",
    "securityType": "DKJ",
    "maturityDate": "2023.04.19",
    "name": "D230419",
    "bidEhmYield": "13,84",
    "askYield": "12,89",
    "currency": "HUF",
    "maturityInDays_val": 90,
    "issueDate": "2022.04.20",
    "longName": "D230419"
}