{
    "askPrice": "97,0689",
    "green": 0,
    "coupon": 0,
    "accruedInterest": 0,
    "settleDate": "2023.01.30",
    "askEhmYield": "13,95",
    "bidYield": "14,65",
    "rawName": "D230419",
    "bidPrice": "96,8853",
    "maturityInDays": "79 nap",
    "securityType": "DKJ",
    "maturityDate": "2023.04.19",
    "name": "D230419",
    "bidEhmYield": "14,85",
    "askYield": "13,76",
    "currency": "HUF",
    "maturityInDays_val": 79,
    "issueDate": "2022.04.20",
    "longName": "D230419"
}