{
    "askPrice": "97,3776",
    "green": 0,
    "coupon": 0,
    "accruedInterest": 0,
    "settleDate": "2023.02.08",
    "askEhmYield": "14,04",
    "bidYield": "14,70",
    "rawName": "D230419",
    "bidPrice": "97,2211",
    "maturityInDays": "70 nap",
    "securityType": "DKJ",
    "maturityDate": "2023.04.19",
    "name": "D230419",
    "bidEhmYield": "14,90",
    "askYield": "13,85",
    "currency": "HUF",
    "maturityInDays_val": 70,
    "issueDate": "2022.04.20",
    "longName": "D230419"
}