{
    "askPrice": "",
    "green": 0,
    "coupon": 0,
    "accruedInterest": 0,
    "settleDate": "2023.04.14",
    "askEhmYield": "",
    "bidYield": "14,98",
    "rawName": "D230419",
    "bidPrice": "99,7924",
    "maturityInDays": "5 nap",
    "securityType": "DKJ",
    "maturityDate": "2023.04.19",
    "name": "D230419",
    "bidEhmYield": "15,19",
    "askYield": "",
    "currency": "HUF",
    "maturityInDays_val": 5,
    "issueDate": "2022.04.20",
    "longName": "D230419"
}