{
    "askPrice": "",
    "green": 0,
    "coupon": "4,25 %",
    "accruedInterest": "2,63",
    "settleDate": "2022.11.17",
    "askEhmYield": "",
    "bidYield": "5,54",
    "rawName": "K2023/14",
    "bidPrice": "99,50",
    "coupon_val": 4.25,
    "maturityInDays": "139 nap",
    "securityType": "1MÁP",
    "maturityDate": "2023.04.05",
    "name": "K2023/14",
    "bidEhmYield": "5,45",
    "askYield": "",
    "currency": "HUF",
    "maturityInDays_val": 139,
    "issueDate": "2022-04-05",
    "longName": "K230405"
}