{
    "askPrice": "",
    "green": 0,
    "coupon": "4,25 %",
    "accruedInterest": "2,05",
    "settleDate": "2022.09.28",
    "askEhmYield": "",
    "bidYield": "",
    "rawName": "K2023/14",
    "bidPrice": "99,50",
    "coupon_val": 4.25,
    "maturityInDays": "189 nap",
    "securityType": "1MÁP",
    "maturityDate": "2023.04.05",
    "name": "K2023/14",
    "bidEhmYield": "5,14",
    "askYield": "",
    "currency": "HUF",
    "maturityInDays_val": 189,
    "longName": "K230405"
}