{
    "askPrice": "",
    "green": 0,
    "coupon": "4,25 %",
    "accruedInterest": "1,29",
    "settleDate": "2022.07.25",
    "askEhmYield": "",
    "bidYield": "",
    "rawName": "K2023/14",
    "bidPrice": "99,50",
    "coupon_val": 4.25,
    "maturityInDays": "254 nap",
    "securityType": "1MÁP",
    "maturityDate": "2023.04.05",
    "name": "K2023/14",
    "bidEhmYield": "4,93",
    "askYield": "",
    "currency": "HUF",
    "maturityInDays_val": 254,
    "longName": "K230405"
}