{
    "askPrice": "",
    "green": 0,
    "coupon": "4,25 %",
    "accruedInterest": "2,8411",
    "settleDate": "2022.12.05",
    "askEhmYield": "",
    "bidYield": "5,73",
    "rawName": "K2023/14",
    "bidPrice": "99,5000",
    "coupon_val": 4.25,
    "maturityInDays": "121 nap",
    "securityType": "1MÁP",
    "maturityDate": "2023.04.05",
    "name": "K2023/14",
    "bidEhmYield": "5,63",
    "askYield": "",
    "currency": "HUF",
    "maturityInDays_val": 121,
    "issueDate": "2022.04.05",
    "longName": "K230405"
}