{
    "askPrice": "",
    "green": 0,
    "coupon": "4,25 %",
    "accruedInterest": "3,7726",
    "settleDate": "2023.02.23",
    "askEhmYield": "",
    "bidYield": "13,55",
    "rawName": "K2023/14",
    "bidPrice": "99,0000",
    "coupon_val": 4.25,
    "maturityInDays": "41 nap",
    "securityType": "1MÁP",
    "maturityDate": "2023.04.05",
    "name": "K2023/14",
    "bidEhmYield": "12,80",
    "askYield": "",
    "currency": "HUF",
    "maturityInDays_val": 41,
    "issueDate": "2022.04.05",
    "longName": "K230405"
}