{
    "askPrice": "",
    "green": 0,
    "coupon": "3,50 %",
    "accruedInterest": "0,15",
    "settleDate": "2022.11.18",
    "askEhmYield": "",
    "bidYield": "5,04",
    "rawName": "N2027/44",
    "bidPrice": "99,50",
    "coupon_val": 3.5,
    "maturityInDays": "1810 nap",
    "securityType": "MÁP Plusz",
    "maturityDate": "2027.11.02",
    "name": "N2027/44",
    "bidEhmYield": "",
    "askYield": "",
    "currency": "HUF",
    "maturityInDays_val": 1810,
    "issueDate": "2022-11-02",
    "longName": "N271102"
}