{
    "askPrice": "",
    "green": 0,
    "coupon": "3,50 %",
    "accruedInterest": "0,4544",
    "settleDate": "2022.12.19",
    "askEhmYield": "",
    "bidYield": "5,06",
    "rawName": "N2027/44",
    "bidPrice": "99,5000",
    "coupon_val": 3.5,
    "maturityInDays": "1779 nap",
    "securityType": "MÁP Plusz",
    "maturityDate": "2027.11.02",
    "name": "N2027/44",
    "bidEhmYield": "",
    "askYield": "",
    "currency": "HUF",
    "maturityInDays_val": 1779,
    "issueDate": "2022.11.02",
    "longName": "N271102"
}