{
    "askPrice": "",
    "green": 0,
    "coupon": "3,50 %",
    "accruedInterest": "0,0326",
    "settleDate": "2023.05.05",
    "askEhmYield": "",
    "bidYield": "5,08",
    "rawName": "N2027/44",
    "bidPrice": "100,0000",
    "coupon_val": 3.5,
    "maturityInDays": "1642 nap",
    "securityType": "MÁP Plusz",
    "maturityDate": "2027.11.02",
    "name": "N2027/44",
    "bidEhmYield": "",
    "askYield": "",
    "currency": "HUF",
    "maturityInDays_val": 1642,
    "issueDate": "2022.11.02",
    "longName": "N271102"
}