{
    "askPrice": "",
    "green": 0,
    "coupon": "3,50 %",
    "accruedInterest": "1,2935",
    "settleDate": "2023.08.29",
    "askEhmYield": "",
    "bidYield": "5,30",
    "rawName": "N2027/44",
    "bidPrice": "99,5000",
    "coupon_val": 3.5,
    "maturityInDays": "1526 nap",
    "securityType": "MÁP Plusz",
    "maturityDate": "2027.11.02",
    "name": "N2027/44",
    "bidEhmYield": "",
    "askYield": "",
    "currency": "HUF",
    "maturityInDays_val": 1526,
    "issueDate": "2022.11.02",
    "longName": "N271102"
}