{
    "askPrice": "",
    "green": 0,
    "coupon": "3,50 %",
    "accruedInterest": "1,6727",
    "settleDate": "2023.04.24",
    "askEhmYield": "",
    "bidYield": "5,19",
    "rawName": "N2027/44",
    "bidPrice": "99,5000",
    "coupon_val": 3.5,
    "maturityInDays": "1653 nap",
    "securityType": "MÁP Plusz",
    "maturityDate": "2027.11.02",
    "name": "N2027/44",
    "bidEhmYield": "",
    "askYield": "",
    "currency": "HUF",
    "maturityInDays_val": 1653,
    "issueDate": "2022.11.02",
    "longName": "N271102"
}