{
    "askPrice": "",
    "green": 0,
    "coupon": "3,50 %",
    "accruedInterest": "0,3152",
    "settleDate": "2023.05.31",
    "askEhmYield": "",
    "bidYield": "5,22",
    "rawName": "N2027/44",
    "bidPrice": "99,5000",
    "coupon_val": 3.5,
    "maturityInDays": "1616 nap",
    "securityType": "MÁP Plusz",
    "maturityDate": "2027.11.02",
    "name": "N2027/44",
    "bidEhmYield": "",
    "askYield": "",
    "currency": "HUF",
    "maturityInDays_val": 1616,
    "issueDate": "2022.11.02",
    "longName": "N271102"
}