{
    "askPrice": "",
    "green": 0,
    "coupon": "3,50 %",
    "accruedInterest": "1,9674",
    "settleDate": "2023.10.30",
    "askEhmYield": "",
    "bidYield": "",
    "rawName": "N2027/44",
    "bidPrice": "",
    "coupon_val": 3.5,
    "maturityInDays": "1464 nap",
    "securityType": "MÁP Plusz",
    "maturityDate": "2027.11.02",
    "name": "N2027/44",
    "bidEhmYield": "",
    "askYield": "",
    "currency": "HUF",
    "maturityInDays_val": 1464,
    "issueDate": "2022.11.02",
    "longName": "N271102"
}