{
    "askPrice": "98,2318",
    "green": 0,
    "coupon": 0,
    "accruedInterest": 0,
    "settleDate": "2023.11.30",
    "askEhmYield": "7,30",
    "bidYield": "8,43",
    "rawName": "D240228",
    "bidPrice": "97,9360",
    "maturityInDays": "90 nap",
    "securityType": "DKJ",
    "maturityDate": "2024.02.28",
    "name": "D240228",
    "bidEhmYield": "8,55",
    "askYield": "7,20",
    "currency": "HUF",
    "maturityInDays_val": 90,
    "issueDate": "2023.11.29",
    "longName": "D240228"
}