{
    "askPrice": "99,0900",
    "green": 0,
    "coupon": 0,
    "accruedInterest": 0,
    "settleDate": "2024.01.02",
    "askEhmYield": "5,88",
    "bidYield": "7,15",
    "rawName": "D240228",
    "bidPrice": "98,8806",
    "maturityInDays": "57 nap",
    "securityType": "DKJ",
    "maturityDate": "2024.02.28",
    "name": "D240228",
    "bidEhmYield": "7,25",
    "askYield": "5,80",
    "currency": "HUF",
    "maturityInDays_val": 57,
    "issueDate": "2023.11.29",
    "longName": "D240228"
}