{
    "askPrice": "99,0638",
    "green": 0,
    "coupon": 0,
    "accruedInterest": 0,
    "settleDate": "2023.12.27",
    "askEhmYield": "5,48",
    "bidYield": "6,65",
    "rawName": "D240228",
    "bidPrice": "98,8496",
    "maturityInDays": "63 nap",
    "securityType": "DKJ",
    "maturityDate": "2024.02.28",
    "name": "D240228",
    "bidEhmYield": "6,74",
    "askYield": "5,40",
    "currency": "HUF",
    "maturityInDays_val": 63,
    "issueDate": "2023.11.29",
    "longName": "D240228"
}