{
    "askPrice": "99,3384",
    "green": 0,
    "coupon": 0,
    "accruedInterest": 0,
    "settleDate": "2024.01.22",
    "askEhmYield": "6,57",
    "bidYield": "7,80",
    "rawName": "D240228",
    "bidPrice": "99,2047",
    "maturityInDays": "37 nap",
    "securityType": "DKJ",
    "maturityDate": "2024.02.28",
    "name": "D240228",
    "bidEhmYield": "7,91",
    "askYield": "6,48",
    "currency": "HUF",
    "maturityInDays_val": 37,
    "issueDate": "2023.11.29",
    "longName": "D240228"
}