{
    "askPrice": "99,0848",
    "green": 0,
    "coupon": 0,
    "accruedInterest": 0,
    "settleDate": "2024.01.09",
    "askEhmYield": "6,74",
    "bidYield": "7,90",
    "rawName": "D240228",
    "bidPrice": "98,9147",
    "maturityInDays": "50 nap",
    "securityType": "DKJ",
    "maturityDate": "2024.02.28",
    "name": "D240228",
    "bidEhmYield": "8,01",
    "askYield": "6,65",
    "currency": "HUF",
    "maturityInDays_val": 50,
    "issueDate": "2023.11.29",
    "longName": "D240228"
}