{
    "askPrice": "",
    "green": 0,
    "coupon": 0,
    "accruedInterest": 0,
    "settleDate": "2024.01.29",
    "askEhmYield": "",
    "bidYield": "7,60",
    "rawName": "D240228",
    "bidPrice": "99,3707",
    "maturityInDays": "30 nap",
    "securityType": "DKJ",
    "maturityDate": "2024.02.28",
    "name": "D240228",
    "bidEhmYield": "7,70",
    "askYield": "",
    "currency": "HUF",
    "maturityInDays_val": 30,
    "issueDate": "2023.11.29",
    "longName": "D240228"
}