{
    "askPrice": "99,3591",
    "green": 0,
    "coupon": 0,
    "accruedInterest": 0,
    "settleDate": "2024.01.23",
    "askEhmYield": "6,54",
    "bidYield": "7,80",
    "rawName": "D240228",
    "bidPrice": "99,2260",
    "maturityInDays": "36 nap",
    "securityType": "DKJ",
    "maturityDate": "2024.02.28",
    "name": "D240228",
    "bidEhmYield": "7,91",
    "askYield": "6,45",
    "currency": "HUF",
    "maturityInDays_val": 36,
    "issueDate": "2023.11.29",
    "longName": "D240228"
}