{
    "askPrice": "98,2679",
    "green": 0,
    "coupon": 0,
    "accruedInterest": 0,
    "settleDate": "2023.01.11",
    "askEhmYield": "13,13",
    "bidYield": "13,82",
    "rawName": "D230301",
    "bidPrice": "98,1537",
    "maturityInDays": "49 nap",
    "securityType": "DKJ",
    "maturityDate": "2023.03.01",
    "name": "D230301",
    "bidEhmYield": "14,01",
    "askYield": "12,95",
    "currency": "HUF",
    "maturityInDays_val": 49,
    "issueDate": "2022.11.30",
    "longName": "D230301"
}