{
    "askPrice": "98,9756",
    "green": 0,
    "coupon": 0,
    "accruedInterest": 0,
    "settleDate": "2023.02.02",
    "askEhmYield": "13,99",
    "bidYield": "14,69",
    "rawName": "D230301",
    "bidPrice": "98,9103",
    "maturityInDays": "27 nap",
    "securityType": "DKJ",
    "maturityDate": "2023.03.01",
    "name": "D230301",
    "bidEhmYield": "14,89",
    "askYield": "13,80",
    "currency": "HUF",
    "maturityInDays_val": 27,
    "issueDate": "2022.11.30",
    "longName": "D230301"
}