{
    "askPrice": "98,4324",
    "green": 0,
    "coupon": 0,
    "accruedInterest": 0,
    "settleDate": "2023.01.16",
    "askEhmYield": "13,21",
    "bidYield": "13,90",
    "rawName": "D230301",
    "bidPrice": "98,3295",
    "maturityInDays": "44 nap",
    "securityType": "DKJ",
    "maturityDate": "2023.03.01",
    "name": "D230301",
    "bidEhmYield": "14,09",
    "askYield": "13,03",
    "currency": "HUF",
    "maturityInDays_val": 44,
    "issueDate": "2022.11.30",
    "longName": "D230301"
}