{
    "askPrice": "99,1229",
    "green": 0,
    "coupon": 0,
    "accruedInterest": 0,
    "settleDate": "2023.02.06",
    "askEhmYield": "14,04",
    "bidYield": "14,65",
    "rawName": "D230301",
    "bidPrice": "99,0727",
    "maturityInDays": "23 nap",
    "securityType": "DKJ",
    "maturityDate": "2023.03.01",
    "name": "D230301",
    "bidEhmYield": "14,85",
    "askYield": "13,85",
    "currency": "HUF",
    "maturityInDays_val": 23,
    "issueDate": "2022.11.30",
    "longName": "D230301"
}