{
    "askPrice": "",
    "green": 0,
    "coupon": "4,25 %",
    "accruedInterest": "2,13",
    "settleDate": "2022.10.26",
    "askEhmYield": "",
    "bidYield": "5,24",
    "rawName": "K2023/17",
    "bidPrice": "99,50",
    "coupon_val": 4.25,
    "maturityInDays": "182 nap",
    "securityType": "1MÁP",
    "maturityDate": "2023.04.26",
    "name": "K2023/17",
    "bidEhmYield": "5,17",
    "askYield": "",
    "currency": "HUF",
    "maturityInDays_val": 182,
    "longName": "K230426"
}