{
    "askPrice": "",
    "green": 0,
    "coupon": "4,25 %",
    "accruedInterest": "2,5267",
    "settleDate": "2022.11.29",
    "askEhmYield": "",
    "bidYield": "5,46",
    "rawName": "K2023/17",
    "bidPrice": "99,5000",
    "coupon_val": 4.25,
    "maturityInDays": "148 nap",
    "securityType": "1MÁP",
    "maturityDate": "2023.04.26",
    "name": "K2023/17",
    "bidEhmYield": "5,37",
    "askYield": "",
    "currency": "HUF",
    "maturityInDays_val": 148,
    "issueDate": "2022.04.26",
    "longName": "K230426"
}