{
    "askPrice": "",
    "green": 0,
    "coupon": "4,25 %",
    "accruedInterest": "1,80",
    "settleDate": "2022.09.28",
    "askEhmYield": "",
    "bidYield": "",
    "rawName": "K2023/17",
    "bidPrice": "99,50",
    "coupon_val": 4.25,
    "maturityInDays": "210 nap",
    "securityType": "1MÁP",
    "maturityDate": "2023.04.26",
    "name": "K2023/17",
    "bidEhmYield": "5,05",
    "askYield": "",
    "currency": "HUF",
    "maturityInDays_val": 210,
    "longName": "K230426"
}