{
    "askPrice": "",
    "green": 0,
    "coupon": "4,25 %",
    "accruedInterest": "0,91",
    "settleDate": "2022.07.13",
    "askEhmYield": "",
    "bidYield": "",
    "rawName": "K2023/17",
    "bidPrice": "99,50",
    "coupon_val": 4.25,
    "maturityInDays": "287 nap",
    "securityType": "1MÁP",
    "maturityDate": "2023.04.26",
    "name": "K2023/17",
    "bidEhmYield": "4,87",
    "askYield": "",
    "currency": "HUF",
    "maturityInDays_val": 287,
    "longName": "K230426"
}