{
    "askPrice": "",
    "green": 0,
    "coupon": "4,25 %",
    "accruedInterest": "3,1904",
    "settleDate": "2023.01.25",
    "askEhmYield": "",
    "bidYield": "8,33",
    "rawName": "K2023/17",
    "bidPrice": "99,0000",
    "coupon_val": 4.25,
    "maturityInDays": "91 nap",
    "securityType": "1MÁP",
    "maturityDate": "2023.04.26",
    "name": "K2023/17",
    "bidEhmYield": "8,08",
    "askYield": "",
    "currency": "HUF",
    "maturityInDays_val": 91,
    "issueDate": "2022.04.26",
    "longName": "K230426"
}