{
    "askPrice": "",
    "green": 0,
    "coupon": "4,25 %",
    "accruedInterest": "3,4349",
    "settleDate": "2023.02.15",
    "askEhmYield": "",
    "bidYield": "9,59",
    "rawName": "K2023/17",
    "bidPrice": "99,0000",
    "coupon_val": 4.25,
    "maturityInDays": "70 nap",
    "securityType": "1MÁP",
    "maturityDate": "2023.04.26",
    "name": "K2023/17",
    "bidEhmYield": "9,24",
    "askYield": "",
    "currency": "HUF",
    "maturityInDays_val": 70,
    "issueDate": "2022.04.26",
    "longName": "K230426"
}