{
    "askPrice": "",
    "green": 0,
    "coupon": "4,25 %",
    "accruedInterest": "3,6212",
    "settleDate": "2023.03.03",
    "askEhmYield": "",
    "bidYield": "11,23",
    "rawName": "K2023/17",
    "bidPrice": "99,0000",
    "coupon_val": 4.25,
    "maturityInDays": "54 nap",
    "securityType": "1MÁP",
    "maturityDate": "2023.04.26",
    "name": "K2023/17",
    "bidEhmYield": "10,73",
    "askYield": "",
    "currency": "HUF",
    "maturityInDays_val": 54,
    "issueDate": "2022.04.26",
    "longName": "K230426"
}