{
    "askPrice": "",
    "green": 0,
    "coupon": "4,25 %",
    "accruedInterest": "3,3301",
    "settleDate": "2023.02.06",
    "askEhmYield": "",
    "bidYield": "8,97",
    "rawName": "K2023/17",
    "bidPrice": "99,0000",
    "coupon_val": 4.25,
    "maturityInDays": "79 nap",
    "securityType": "1MÁP",
    "maturityDate": "2023.04.26",
    "name": "K2023/17",
    "bidEhmYield": "8,67",
    "askYield": "",
    "currency": "HUF",
    "maturityInDays_val": 79,
    "issueDate": "2022.04.26",
    "longName": "K230426"
}