{
    "askPrice": "",
    "green": 0,
    "coupon": "4,25 %",
    "accruedInterest": "3,1089",
    "settleDate": "2023.01.18",
    "askEhmYield": "",
    "bidYield": "8,04",
    "rawName": "K2023/17",
    "bidPrice": "99,0000",
    "coupon_val": 4.25,
    "maturityInDays": "98 nap",
    "securityType": "1MÁP",
    "maturityDate": "2023.04.26",
    "name": "K2023/17",
    "bidEhmYield": "7,81",
    "askYield": "",
    "currency": "HUF",
    "maturityInDays_val": 98,
    "issueDate": "2022.04.26",
    "longName": "K230426"
}