{
    "askPrice": "",
    "green": 0,
    "coupon": "4,25 %",
    "accruedInterest": "2,1425",
    "settleDate": "2022.11.24",
    "askEhmYield": "",
    "bidYield": "5,24",
    "rawName": "K2023/21",
    "bidPrice": "99,5000",
    "coupon_val": 4.25,
    "maturityInDays": "181 nap",
    "securityType": "1MÁP",
    "maturityDate": "2023.05.24",
    "name": "K2023/21",
    "bidEhmYield": "5,17",
    "askYield": "",
    "currency": "HUF",
    "maturityInDays_val": 181,
    "issueDate": "2022.05.24",
    "longName": "K230524"
}