{
    "askPrice": "",
    "green": 0,
    "coupon": "4,25 %",
    "accruedInterest": "1,75",
    "settleDate": "2022.10.21",
    "askEhmYield": "",
    "bidYield": "5,09",
    "rawName": "K2023/21",
    "bidPrice": "99,50",
    "coupon_val": 4.25,
    "maturityInDays": "215 nap",
    "securityType": "1MÁP",
    "maturityDate": "2023.05.24",
    "name": "K2023/21",
    "bidEhmYield": "5,04",
    "askYield": "",
    "currency": "HUF",
    "maturityInDays_val": 215,
    "longName": "K230524"
}