{
    "askPrice": "",
    "green": 0,
    "coupon": "4,25 %",
    "accruedInterest": "1,49",
    "settleDate": "2022.09.29",
    "askEhmYield": "",
    "bidYield": "",
    "rawName": "K2023/21",
    "bidPrice": "99,50",
    "coupon_val": 4.25,
    "maturityInDays": "237 nap",
    "securityType": "1MÁP",
    "maturityDate": "2023.05.24",
    "name": "K2023/21",
    "bidEhmYield": "4,97",
    "askYield": "",
    "currency": "HUF",
    "maturityInDays_val": 237,
    "longName": "K230524"
}