{
    "askPrice": "",
    "green": 0,
    "coupon": "4,25 %",
    "accruedInterest": "2,3171",
    "settleDate": "2022.12.09",
    "askEhmYield": "",
    "bidYield": "6,48",
    "rawName": "K2023/21",
    "bidPrice": "99,0000",
    "coupon_val": 4.25,
    "maturityInDays": "166 nap",
    "securityType": "1MÁP",
    "maturityDate": "2023.05.24",
    "name": "K2023/21",
    "bidEhmYield": "6,36",
    "askYield": "",
    "currency": "HUF",
    "maturityInDays_val": 166,
    "issueDate": "2022.05.24",
    "longName": "K230524"
}