{
    "askPrice": "",
    "green": 0,
    "coupon": "4,25 %",
    "accruedInterest": "1,91",
    "settleDate": "2022.11.04",
    "askEhmYield": "",
    "bidYield": "5,14",
    "rawName": "K2023/21",
    "bidPrice": "99,50",
    "coupon_val": 4.25,
    "maturityInDays": "201 nap",
    "securityType": "1MÁP",
    "maturityDate": "2023.05.24",
    "name": "K2023/21",
    "bidEhmYield": "5,09",
    "askYield": "",
    "currency": "HUF",
    "maturityInDays_val": 201,
    "issueDate": "2022-05-24",
    "longName": "K230524"
}