{
    "askPrice": "",
    "green": 0,
    "coupon": "4,25 %",
    "accruedInterest": "1,54",
    "settleDate": "2022.10.03",
    "askEhmYield": "",
    "bidYield": "",
    "rawName": "K2023/21",
    "bidPrice": "99,50",
    "coupon_val": 4.25,
    "maturityInDays": "233 nap",
    "securityType": "1MÁP",
    "maturityDate": "2023.05.24",
    "name": "K2023/21",
    "bidEhmYield": "4,98",
    "askYield": "",
    "currency": "HUF",
    "maturityInDays_val": 233,
    "longName": "K230524"
}