{
    "askPrice": "",
    "green": 0,
    "coupon": "4,25 %",
    "accruedInterest": "0,68",
    "settleDate": "2022.07.21",
    "askEhmYield": "",
    "bidYield": "",
    "rawName": "K2023/21",
    "bidPrice": "99,50",
    "coupon_val": 4.25,
    "maturityInDays": "307 nap",
    "securityType": "1MÁP",
    "maturityDate": "2023.05.24",
    "name": "K2023/21",
    "bidEhmYield": "4,84",
    "askYield": "",
    "currency": "HUF",
    "maturityInDays_val": 307,
    "longName": "K230524"
}