{
    "askPrice": "",
    "green": 0,
    "coupon": "4,25 %",
    "accruedInterest": "3,9007",
    "settleDate": "2023.04.24",
    "askEhmYield": "",
    "bidYield": "17,18",
    "rawName": "K2023/21",
    "bidPrice": "99,0000",
    "coupon_val": 4.25,
    "maturityInDays": "30 nap",
    "securityType": "1MÁP",
    "maturityDate": "2023.05.24",
    "name": "K2023/21",
    "bidEhmYield": "15,95",
    "askYield": "",
    "currency": "HUF",
    "maturityInDays_val": 30,
    "issueDate": "2022.05.24",
    "longName": "K230524"
}