{
    "askPrice": "",
    "green": 0,
    "coupon": "4,25 %",
    "accruedInterest": "3,2021",
    "settleDate": "2023.02.23",
    "askEhmYield": "",
    "bidYield": "8,38",
    "rawName": "K2023/21",
    "bidPrice": "99,0000",
    "coupon_val": 4.25,
    "maturityInDays": "90 nap",
    "securityType": "1MÁP",
    "maturityDate": "2023.05.24",
    "name": "K2023/21",
    "bidEhmYield": "8,13",
    "askYield": "",
    "currency": "HUF",
    "maturityInDays_val": 90,
    "issueDate": "2022.05.24",
    "longName": "K230524"
}