{
    "askPrice": "",
    "green": 0,
    "coupon": "3,50 %",
    "accruedInterest": "0,6885",
    "settleDate": "2024.02.28",
    "askEhmYield": "",
    "bidYield": "5,09",
    "rawName": "N2028/51",
    "bidPrice": "99,5000",
    "coupon_val": 3.5,
    "maturityInDays": "1755 nap",
    "securityType": "MÁP Plusz",
    "maturityDate": "2028.12.18",
    "name": "N2028/51",
    "bidEhmYield": "",
    "askYield": "",
    "currency": "HUF",
    "maturityInDays_val": 1755,
    "issueDate": "2023.12.18",
    "longName": "N281218"
}