{
    "askPrice": "",
    "green": 0,
    "coupon": "3,50 %",
    "accruedInterest": "1,00",
    "settleDate": "2022.08.15",
    "askEhmYield": "",
    "bidYield": "",
    "rawName": "N2027/18",
    "bidPrice": "99,50",
    "coupon_val": 3.5,
    "maturityInDays": "1721 nap",
    "securityType": "MÁP Plusz",
    "maturityDate": "2027.05.02",
    "name": "N2027/18",
    "bidEhmYield": "",
    "askYield": "",
    "currency": "HUF",
    "maturityInDays_val": 1721,
    "longName": "N270502"
}