{
    "askPrice": "",
    "green": 0,
    "coupon": "3,50 %",
    "accruedInterest": "0,08",
    "settleDate": "2022.11.09",
    "askEhmYield": "",
    "bidYield": "5,08",
    "rawName": "N2027/18",
    "bidPrice": "100,00",
    "coupon_val": 3.5,
    "maturityInDays": "1635 nap",
    "securityType": "MÁP Plusz",
    "maturityDate": "2027.05.02",
    "name": "N2027/18",
    "bidEhmYield": "",
    "askYield": "",
    "currency": "HUF",
    "maturityInDays_val": 1635,
    "issueDate": "2022-05-02",
    "longName": "N270502"
}