{
    "askPrice": "",
    "green": 0,
    "coupon": "3,50 %",
    "accruedInterest": "2,6189",
    "settleDate": "2023.12.01",
    "askEhmYield": "",
    "bidYield": "5,51",
    "rawName": "N2027/18",
    "bidPrice": "99,5000",
    "coupon_val": 3.5,
    "maturityInDays": "1248 nap",
    "securityType": "MÁP Plusz",
    "maturityDate": "2027.05.02",
    "name": "N2027/18",
    "bidEhmYield": "",
    "askYield": "",
    "currency": "HUF",
    "maturityInDays_val": 1248,
    "issueDate": "2022.05.02",
    "longName": "N270502"
}