{
    "askPrice": "",
    "green": 0,
    "coupon": "3,50 %",
    "accruedInterest": "0,8287",
    "settleDate": "2023.01.16",
    "askEhmYield": "",
    "bidYield": "5,26",
    "rawName": "N2027/18",
    "bidPrice": "99,5000",
    "coupon_val": 3.5,
    "maturityInDays": "1567 nap",
    "securityType": "MÁP Plusz",
    "maturityDate": "2027.05.02",
    "name": "N2027/18",
    "bidEhmYield": "",
    "askYield": "",
    "currency": "HUF",
    "maturityInDays_val": 1567,
    "issueDate": "2022.05.02",
    "longName": "N270502"
}