{
    "askPrice": "",
    "green": 0,
    "coupon": "3,50 %",
    "accruedInterest": "3,8607",
    "settleDate": "2024.03.11",
    "askEhmYield": "",
    "bidYield": "5,61",
    "rawName": "N2027/18",
    "bidPrice": "99,5000",
    "coupon_val": 3.5,
    "maturityInDays": "1147 nap",
    "securityType": "MÁP Plusz",
    "maturityDate": "2027.05.02",
    "name": "N2027/18",
    "bidEhmYield": "",
    "askYield": "",
    "currency": "HUF",
    "maturityInDays_val": 1147,
    "issueDate": "2022.05.02",
    "longName": "N270502"
}