{
    "askPrice": "",
    "green": 0,
    "coupon": "3,50 %",
    "accruedInterest": "1,73",
    "settleDate": "2022.11.08",
    "askEhmYield": "",
    "bidYield": "5,45",
    "rawName": "N2026/25",
    "bidPrice": "99,50",
    "coupon_val": 3.5,
    "maturityInDays": "1321 nap",
    "securityType": "MÁP Plusz",
    "maturityDate": "2026.06.21",
    "name": "N2026/25",
    "bidEhmYield": "",
    "askYield": "",
    "currency": "HUF",
    "maturityInDays_val": 1321,
    "issueDate": "2021-06-21",
    "longName": "N260621"
}