{
    "askPrice": "",
    "green": 0,
    "coupon": "3,50 %",
    "accruedInterest": "0,42",
    "settleDate": "2022.07.25",
    "askEhmYield": "",
    "bidYield": "",
    "rawName": "N2026/25",
    "bidPrice": "99,50",
    "coupon_val": 3.5,
    "maturityInDays": "1427 nap",
    "securityType": "MÁP Plusz",
    "maturityDate": "2026.06.21",
    "name": "N2026/25",
    "bidEhmYield": "",
    "askYield": "",
    "currency": "HUF",
    "maturityInDays_val": 1427,
    "longName": "N260621"
}