{
    "askPrice": "",
    "green": 0,
    "coupon": "3,50 %",
    "accruedInterest": "3,1438",
    "settleDate": "2023.03.03",
    "askEhmYield": "",
    "bidYield": "5,55",
    "rawName": "N2026/25",
    "bidPrice": "99,5000",
    "coupon_val": 3.5,
    "maturityInDays": "1206 nap",
    "securityType": "MÁP Plusz",
    "maturityDate": "2026.06.21",
    "name": "N2026/25",
    "bidEhmYield": "",
    "askYield": "",
    "currency": "HUF",
    "maturityInDays_val": 1206,
    "issueDate": "2021.06.21",
    "longName": "N260621"
}