{
    "askPrice": "",
    "green": 0,
    "coupon": "3,50 %",
    "accruedInterest": "1,8989",
    "settleDate": "2023.11.07",
    "askEhmYield": "",
    "bidYield": "5,75",
    "rawName": "N2026/25",
    "bidPrice": "99,5000",
    "coupon_val": 3.5,
    "maturityInDays": "957 nap",
    "securityType": "MÁP Plusz",
    "maturityDate": "2026.06.21",
    "name": "N2026/25",
    "bidEhmYield": "",
    "askYield": "",
    "currency": "HUF",
    "maturityInDays_val": 957,
    "issueDate": "2021.06.21",
    "longName": "N260621"
}