{
    "askPrice": "",
    "green": 0,
    "coupon": "3,50 %",
    "accruedInterest": "3,4153",
    "settleDate": "2024.02.26",
    "askEhmYield": "",
    "bidYield": "5,86",
    "rawName": "N2026/25",
    "bidPrice": "99,5000",
    "coupon_val": 3.5,
    "maturityInDays": "846 nap",
    "securityType": "MÁP Plusz",
    "maturityDate": "2026.06.21",
    "name": "N2026/25",
    "bidEhmYield": "",
    "askYield": "",
    "currency": "HUF",
    "maturityInDays_val": 846,
    "issueDate": "2021.06.21",
    "longName": "N260621"
}