{
    "askPrice": "",
    "green": 0,
    "coupon": null,
    "accruedInterest": "4,74",
    "settleDate": "2022.11.09",
    "askEhmYield": "",
    "bidYield": "",
    "rawName": "2024/P",
    "bidPrice": "99,00",
    "maturityInDays": "532 nap",
    "securityType": "BMÁP",
    "maturityDate": "2024.04.24",
    "name": "2024/P",
    "bidEhmYield": "",
    "askYield": "",
    "currency": "HUF",
    "maturityInDays_val": 532,
    "issueDate": "2018-01-26",
    "longName": "A240424P18"
}