{
    "askPrice": "",
    "green": 0,
    "coupon": null,
    "accruedInterest": "1,57",
    "settleDate": "2022.06.29",
    "askEhmYield": "",
    "bidYield": "",
    "rawName": "2024/P",
    "bidPrice": "99,00",
    "maturityInDays": "665 nap",
    "securityType": "BMÁP",
    "maturityDate": "2024.04.24",
    "name": "2024/P",
    "bidEhmYield": "",
    "askYield": "",
    "currency": "HUF",
    "maturityInDays_val": 665,
    "longName": "A240424P18"
}