{
    "askPrice": "",
    "green": 0,
    "coupon": null,
    "accruedInterest": "1,7360",
    "settleDate": "2023.05.30",
    "askEhmYield": "",
    "bidYield": "",
    "rawName": "2024/P",
    "bidPrice": "99,0000",
    "maturityInDays": "330 nap",
    "securityType": "BMÁP",
    "maturityDate": "2024.04.24",
    "name": "2024/P",
    "bidEhmYield": "",
    "askYield": "",
    "currency": "HUF",
    "maturityInDays_val": 330,
    "issueDate": "2018.01.26",
    "longName": "A240424P18"
}