{
    "askPrice": "",
    "green": 0,
    "coupon": null,
    "accruedInterest": "13,8398",
    "settleDate": "2024.02.05",
    "askEhmYield": "",
    "bidYield": "",
    "rawName": "2024/P",
    "bidPrice": "99,0000",
    "maturityInDays": "79 nap",
    "securityType": "BMÁP",
    "maturityDate": "2024.04.24",
    "name": "2024/P",
    "bidEhmYield": "",
    "askYield": "",
    "currency": "HUF",
    "maturityInDays_val": 79,
    "issueDate": "2018.01.26",
    "longName": "A240424P18"
}