{
    "askPrice": "",
    "green": 0,
    "coupon": "3,50 %",
    "accruedInterest": "1,6359",
    "settleDate": "2024.01.26",
    "askEhmYield": "",
    "bidYield": "5,19",
    "rawName": "N2028/32",
    "bidPrice": "99,5000",
    "coupon_val": 3.5,
    "maturityInDays": "1655 nap",
    "securityType": "MÁP Plusz",
    "maturityDate": "2028.08.07",
    "name": "N2028/32",
    "bidEhmYield": "",
    "askYield": "",
    "currency": "HUF",
    "maturityInDays_val": 1655,
    "issueDate": "2023.08.07",
    "longName": "N280807"
}