{
    "askPrice": "",
    "green": 0,
    "coupon": "6,50 %",
    "accruedInterest": "0,4096",
    "settleDate": "2024.03.14",
    "askEhmYield": "",
    "bidYield": "7,61",
    "rawName": "K2025/08",
    "bidPrice": "99,0000",
    "coupon_val": 6.5,
    "maturityInDays": "343 nap",
    "securityType": "1MÁP",
    "maturityDate": "2025.02.20",
    "name": "K2025/08",
    "bidEhmYield": "7,59",
    "askYield": "",
    "currency": "HUF",
    "maturityInDays_val": 343,
    "issueDate": "2024.02.20",
    "longName": "K250220"
}