{
    "askPrice": "",
    "green": 0,
    "coupon": null,
    "accruedInterest": "4,05",
    "settleDate": "2022.09.02",
    "askEhmYield": "",
    "bidYield": "",
    "rawName": "2027/I",
    "bidPrice": "99,00",
    "maturityInDays": "1664 nap",
    "securityType": "PMÁP",
    "maturityDate": "2027.03.24",
    "name": "2027/I",
    "bidEhmYield": "",
    "askYield": "",
    "currency": "HUF",
    "maturityInDays_val": 1664,
    "longName": "A270324I22"
}