{
    "askPrice": "",
    "green": 0,
    "coupon": null,
    "accruedInterest": "2,88",
    "settleDate": "2022.06.29",
    "askEhmYield": "",
    "bidYield": "",
    "rawName": "2027/I",
    "bidPrice": "99,00",
    "maturityInDays": "1729 nap",
    "securityType": "PMÁP",
    "maturityDate": "2027.03.24",
    "name": "2027/I",
    "bidEhmYield": "",
    "askYield": "",
    "currency": "HUF",
    "maturityInDays_val": 1729,
    "longName": "A270324I22"
}