{
    "askPrice": "",
    "green": 0,
    "coupon": null,
    "accruedInterest": "3,74",
    "settleDate": "2022.08.16",
    "askEhmYield": "",
    "bidYield": "",
    "rawName": "2027/I",
    "bidPrice": "99,00",
    "maturityInDays": "1681 nap",
    "securityType": "PMÁP",
    "maturityDate": "2027.03.24",
    "name": "2027/I",
    "bidEhmYield": "",
    "askYield": "",
    "currency": "HUF",
    "maturityInDays_val": 1681,
    "longName": "A270324I22"
}