{
    "askPrice": "",
    "green": 0,
    "coupon": null,
    "accruedInterest": "0,2186",
    "settleDate": "2023.03.29",
    "askEhmYield": "",
    "bidYield": "",
    "rawName": "2027/I",
    "bidPrice": "99,0000",
    "maturityInDays": "1456 nap",
    "securityType": "PMÁP",
    "maturityDate": "2027.03.24",
    "name": "2027/I",
    "bidEhmYield": "",
    "askYield": "",
    "currency": "HUF",
    "maturityInDays_val": 1456,
    "issueDate": "2022.01.21",
    "longName": "A270324I22"
}