{
    "askPrice": "",
    "green": 0,
    "coupon": null,
    "accruedInterest": "7,0159",
    "settleDate": "2023.02.13",
    "askEhmYield": "",
    "bidYield": "",
    "rawName": "2027/I",
    "bidPrice": "99,0000",
    "maturityInDays": "1500 nap",
    "securityType": "PMÁP",
    "maturityDate": "2027.03.24",
    "name": "2027/I",
    "bidEhmYield": "",
    "askYield": "",
    "currency": "HUF",
    "maturityInDays_val": 1500,
    "issueDate": "2022.01.21",
    "longName": "A270324I22"
}