{
    "askPrice": "79,73",
    "green": 0,
    "coupon": "2,75 %",
    "accruedInterest": "1,43",
    "settleDate": "2022.06.30",
    "askEhmYield": "8,35",
    "bidYield": "8,95",
    "rawName": "2026/D",
    "bidPrice": "77,88",
    "coupon_val": 2.75,
    "maturityInDays": "1636 nap",
    "securityType": "KTV",
    "maturityDate": "2026.12.22",
    "name": "2026/D",
    "bidEhmYield": "8,95",
    "askYield": "8,35",
    "currency": "HUF",
    "maturityInDays_val": 1636,
    "longName": "A261222D17"
}