{
    "askPrice": "77,8989",
    "green": 0,
    "coupon": "2,75 %",
    "accruedInterest": "0,0452",
    "settleDate": "2022.12.28",
    "askEhmYield": "9,69",
    "bidYield": "10,50",
    "rawName": "2026/D",
    "bidPrice": "75,7762",
    "coupon_val": 2.75,
    "maturityInDays": "1455 nap",
    "securityType": "KTV",
    "maturityDate": "2026.12.22",
    "name": "2026/D",
    "bidEhmYield": "10,49",
    "askYield": "9,70",
    "currency": "HUF",
    "maturityInDays_val": 1455,
    "issueDate": "2017.05.24",
    "longName": "A261222D17"
}