{
    "askPrice": "73,53",
    "green": 0,
    "coupon": "2,75 %",
    "accruedInterest": "2,18",
    "settleDate": "2022.10.07",
    "askEhmYield": "10,92",
    "bidYield": "11,52",
    "rawName": "2026/D",
    "bidPrice": "71,96",
    "coupon_val": 2.75,
    "maturityInDays": "1537 nap",
    "securityType": "KTV",
    "maturityDate": "2026.12.22",
    "name": "2026/D",
    "bidEhmYield": "11,52",
    "askYield": "10,92",
    "currency": "HUF",
    "maturityInDays_val": 1537,
    "longName": "A261222D17"
}