{
    "askPrice": "76,94",
    "green": 0,
    "coupon": "2,75 %",
    "accruedInterest": "1,63",
    "settleDate": "2022.07.27",
    "askEhmYield": "9,37",
    "bidYield": "9,97",
    "rawName": "2026/D",
    "bidPrice": "75,20",
    "coupon_val": 2.75,
    "maturityInDays": "1609 nap",
    "securityType": "KTV",
    "maturityDate": "2026.12.22",
    "name": "2026/D",
    "bidEhmYield": "9,97",
    "askYield": "9,37",
    "currency": "HUF",
    "maturityInDays_val": 1609,
    "longName": "A261222D17"
}