{
    "askPrice": "81,11",
    "green": 0,
    "coupon": "2,75 %",
    "accruedInterest": "1,42",
    "settleDate": "2022.06.28",
    "askEhmYield": "7,91",
    "bidYield": "8,51",
    "rawName": "2026/D",
    "bidPrice": "79,21",
    "coupon_val": 2.75,
    "maturityInDays": "1638 nap",
    "securityType": "KTV",
    "maturityDate": "2026.12.22",
    "name": "2026/D",
    "bidEhmYield": "8,51",
    "askYield": "7,91",
    "currency": "HUF",
    "maturityInDays_val": 1638,
    "longName": "A261222D17"
}