{
    "askPrice": "76,0114",
    "green": 0,
    "coupon": "2,75 %",
    "accruedInterest": "0,0603",
    "settleDate": "2022.12.30",
    "askEhmYield": "10,41",
    "bidYield": "11,25",
    "rawName": "2026/D",
    "bidPrice": "73,8817",
    "coupon_val": 2.75,
    "maturityInDays": "1453 nap",
    "securityType": "KTV",
    "maturityDate": "2026.12.22",
    "name": "2026/D",
    "bidEhmYield": "11,24",
    "askYield": "10,42",
    "currency": "HUF",
    "maturityInDays_val": 1453,
    "issueDate": "2017.05.24",
    "longName": "A261222D17"
}