{
    "askPrice": "71,86",
    "green": 0,
    "coupon": "2,75 %",
    "accruedInterest": "2,37",
    "settleDate": "2022.11.02",
    "askEhmYield": "11,70",
    "bidYield": "12,44",
    "rawName": "2026/D",
    "bidPrice": "70,04",
    "coupon_val": 2.75,
    "maturityInDays": "1511 nap",
    "securityType": "KTV",
    "maturityDate": "2026.12.22",
    "name": "2026/D",
    "bidEhmYield": "12,43",
    "askYield": "11,71",
    "currency": "HUF",
    "maturityInDays_val": 1511,
    "issueDate": "2017-05-24",
    "longName": "A261222D17"
}