{
    "askPrice": "77,3982",
    "green": 0,
    "coupon": "2,75 %",
    "accruedInterest": "2,6747",
    "settleDate": "2022.12.12",
    "askEhmYield": "9,80",
    "bidYield": "10,65",
    "rawName": "2026/D",
    "bidPrice": "75,1656",
    "coupon_val": 2.75,
    "maturityInDays": "1471 nap",
    "securityType": "KTV",
    "maturityDate": "2026.12.22",
    "name": "2026/D",
    "bidEhmYield": "10,64",
    "askYield": "9,81",
    "currency": "HUF",
    "maturityInDays_val": 1471,
    "issueDate": "2017.05.24",
    "longName": "A261222D17"
}