{
    "askPrice": "80,0305",
    "green": 0,
    "coupon": "2,75 %",
    "accruedInterest": "2,6219",
    "settleDate": "2022.12.05",
    "askEhmYield": "8,82",
    "bidYield": "9,60",
    "rawName": "2026/D",
    "bidPrice": "77,8807",
    "coupon_val": 2.75,
    "maturityInDays": "1478 nap",
    "securityType": "KTV",
    "maturityDate": "2026.12.22",
    "name": "2026/D",
    "bidEhmYield": "9,59",
    "askYield": "8,83",
    "currency": "HUF",
    "maturityInDays_val": 1478,
    "issueDate": "2017.05.24",
    "longName": "A261222D17"
}