{
    "askPrice": "80,40",
    "green": 0,
    "coupon": "2,75 %",
    "accruedInterest": "1,46",
    "settleDate": "2022.07.04",
    "askEhmYield": "8,15",
    "bidYield": "8,75",
    "rawName": "2026/D",
    "bidPrice": "78,54",
    "coupon_val": 2.75,
    "maturityInDays": "1632 nap",
    "securityType": "KTV",
    "maturityDate": "2026.12.22",
    "name": "2026/D",
    "bidEhmYield": "8,75",
    "askYield": "8,15",
    "currency": "HUF",
    "maturityInDays_val": 1632,
    "longName": "A261222D17"
}