{
    "askPrice": "76,92",
    "green": 0,
    "coupon": "2,75 %",
    "accruedInterest": "1,76",
    "settleDate": "2022.08.12",
    "askEhmYield": "9,44",
    "bidYield": "10,04",
    "rawName": "2026/D",
    "bidPrice": "75,20",
    "coupon_val": 2.75,
    "maturityInDays": "1593 nap",
    "securityType": "KTV",
    "maturityDate": "2026.12.22",
    "name": "2026/D",
    "bidEhmYield": "10,04",
    "askYield": "9,44",
    "currency": "HUF",
    "maturityInDays_val": 1593,
    "longName": "A261222D17"
}