{
    "askPrice": "79,3321",
    "green": 0,
    "coupon": "2,75 %",
    "accruedInterest": "2,6445",
    "settleDate": "2022.12.08",
    "askEhmYield": "9,08",
    "bidYield": "9,90",
    "rawName": "2026/D",
    "bidPrice": "77,1025",
    "coupon_val": 2.75,
    "maturityInDays": "1475 nap",
    "securityType": "KTV",
    "maturityDate": "2026.12.22",
    "name": "2026/D",
    "bidEhmYield": "9,89",
    "askYield": "9,09",
    "currency": "HUF",
    "maturityInDays_val": 1475,
    "issueDate": "2017.05.24",
    "longName": "A261222D17"
}