{
    "askPrice": "77,9589",
    "green": 0,
    "coupon": "2,75 %",
    "accruedInterest": "2,6521",
    "settleDate": "2022.12.09",
    "askEhmYield": "9,58",
    "bidYield": "10,37",
    "rawName": "2026/D",
    "bidPrice": "75,8594",
    "coupon_val": 2.75,
    "maturityInDays": "1474 nap",
    "securityType": "KTV",
    "maturityDate": "2026.12.22",
    "name": "2026/D",
    "bidEhmYield": "10,36",
    "askYield": "9,59",
    "currency": "HUF",
    "maturityInDays_val": 1474,
    "issueDate": "2017.05.24",
    "longName": "A261222D17"
}