{
    "askPrice": "74,11",
    "green": 0,
    "coupon": "2,75 %",
    "accruedInterest": "1,91",
    "settleDate": "2022.09.02",
    "askEhmYield": "10,53",
    "bidYield": "11,13",
    "rawName": "2026/D",
    "bidPrice": "72,48",
    "coupon_val": 2.75,
    "maturityInDays": "1572 nap",
    "securityType": "KTV",
    "maturityDate": "2026.12.22",
    "name": "2026/D",
    "bidEhmYield": "11,13",
    "askYield": "10,53",
    "currency": "HUF",
    "maturityInDays_val": 1572,
    "longName": "A261222D17"
}