{
    "askPrice": "74,14",
    "green": 0,
    "coupon": "2,75 %",
    "accruedInterest": "2,15",
    "settleDate": "2022.10.03",
    "askEhmYield": "10,67",
    "bidYield": "11,27",
    "rawName": "2026/D",
    "bidPrice": "72,55",
    "coupon_val": 2.75,
    "maturityInDays": "1541 nap",
    "securityType": "KTV",
    "maturityDate": "2026.12.22",
    "name": "2026/D",
    "bidEhmYield": "11,27",
    "askYield": "10,67",
    "currency": "HUF",
    "maturityInDays_val": 1541,
    "longName": "A261222D17"
}