{
    "askPrice": "80,6678",
    "green": 0,
    "coupon": "2,75 %",
    "accruedInterest": "2,5315",
    "settleDate": "2022.11.23",
    "askEhmYield": "8,55",
    "bidYield": "9,26",
    "rawName": "2026/D",
    "bidPrice": "78,6743",
    "coupon_val": 2.75,
    "maturityInDays": "1490 nap",
    "securityType": "KTV",
    "maturityDate": "2026.12.22",
    "name": "2026/D",
    "bidEhmYield": "9,25",
    "askYield": "8,56",
    "currency": "HUF",
    "maturityInDays_val": 1490,
    "issueDate": "2017.05.24",
    "longName": "A261222D17"
}