{
    "askPrice": "79,80",
    "green": 0,
    "coupon": "2,75 %",
    "accruedInterest": "1,36",
    "settleDate": "2022.06.21",
    "askEhmYield": "8,30",
    "bidYield": "8,90",
    "rawName": "2026/D",
    "bidPrice": "77,94",
    "coupon_val": 2.75,
    "maturityInDays": "1645 nap",
    "securityType": "KTV",
    "maturityDate": "2026.12.22",
    "name": "2026/D",
    "bidEhmYield": "8,90",
    "askYield": "8,30",
    "currency": "HUF",
    "maturityInDays_val": 1645,
    "longName": "A261222D17"
}