{
    "askPrice": "76,2599",
    "green": 0,
    "coupon": "2,75 %",
    "accruedInterest": "0,0829",
    "settleDate": "2023.01.02",
    "askEhmYield": "10,33",
    "bidYield": "11,02",
    "rawName": "2026/D",
    "bidPrice": "74,5055",
    "coupon_val": 2.75,
    "maturityInDays": "1450 nap",
    "securityType": "KTV",
    "maturityDate": "2026.12.22",
    "name": "2026/D",
    "bidEhmYield": "11,01",
    "askYield": "10,34",
    "currency": "HUF",
    "maturityInDays_val": 1450,
    "issueDate": "2017.05.24",
    "longName": "A261222D17"
}