{
    "askPrice": "88,9872",
    "green": 0,
    "coupon": "2,75 %",
    "accruedInterest": "2,5240",
    "settleDate": "2023.11.22",
    "askEhmYield": "6,82",
    "bidYield": "7,52",
    "rawName": "2026/D",
    "bidPrice": "87,2892",
    "coupon_val": 2.75,
    "maturityInDays": "1126 nap",
    "securityType": "KTV",
    "maturityDate": "2026.12.22",
    "name": "2026/D",
    "bidEhmYield": "7,51",
    "askYield": "6,83",
    "currency": "HUF",
    "maturityInDays_val": 1126,
    "issueDate": "2017.05.24",
    "longName": "A261222D17"
}