{
    "askPrice": "85,9825",
    "green": 0,
    "coupon": "2,75 %",
    "accruedInterest": "2,3055",
    "settleDate": "2023.10.24",
    "askEhmYield": "7,92",
    "bidYield": "8,60",
    "rawName": "2026/D",
    "bidPrice": "84,3667",
    "coupon_val": 2.75,
    "maturityInDays": "1155 nap",
    "securityType": "KTV",
    "maturityDate": "2026.12.22",
    "name": "2026/D",
    "bidEhmYield": "8,59",
    "askYield": "7,93",
    "currency": "HUF",
    "maturityInDays_val": 1155,
    "issueDate": "2017.05.24",
    "longName": "A261222D17"
}