{
    "askPrice": "80,8662",
    "green": 0,
    "coupon": "2,75 %",
    "accruedInterest": "1,1377",
    "settleDate": "2023.05.22",
    "askEhmYield": "9,24",
    "bidYield": "10,01",
    "rawName": "2026/D",
    "bidPrice": "78,9535",
    "coupon_val": 2.75,
    "maturityInDays": "1310 nap",
    "securityType": "KTV",
    "maturityDate": "2026.12.22",
    "name": "2026/D",
    "bidEhmYield": "10,00",
    "askYield": "9,25",
    "currency": "HUF",
    "maturityInDays_val": 1310,
    "issueDate": "2017.05.24",
    "longName": "A261222D17"
}