{
    "askPrice": "79,8794",
    "green": 0,
    "coupon": "2,75 %",
    "accruedInterest": "0,7233",
    "settleDate": "2023.03.28",
    "askEhmYield": "9,36",
    "bidYield": "10,20",
    "rawName": "2026/D",
    "bidPrice": "77,7422",
    "coupon_val": 2.75,
    "maturityInDays": "1365 nap",
    "securityType": "KTV",
    "maturityDate": "2026.12.22",
    "name": "2026/D",
    "bidEhmYield": "10,19",
    "askYield": "9,37",
    "currency": "HUF",
    "maturityInDays_val": 1365,
    "issueDate": "2017.05.24",
    "longName": "A261222D17"
}