{
    "askPrice": "80,5377",
    "green": 0,
    "coupon": "2,75 %",
    "accruedInterest": "1,0623",
    "settleDate": "2023.05.12",
    "askEhmYield": "9,32",
    "bidYield": "10,13",
    "rawName": "2026/D",
    "bidPrice": "78,5216",
    "coupon_val": 2.75,
    "maturityInDays": "1320 nap",
    "securityType": "KTV",
    "maturityDate": "2026.12.22",
    "name": "2026/D",
    "bidEhmYield": "10,12",
    "askYield": "9,33",
    "currency": "HUF",
    "maturityInDays_val": 1320,
    "issueDate": "2017.05.24",
    "longName": "A261222D17"
}