{
    "askPrice": "86,1911",
    "green": 0,
    "coupon": "2,75 %",
    "accruedInterest": "2,1397",
    "settleDate": "2023.10.02",
    "askEhmYield": "7,74",
    "bidYield": "8,38",
    "rawName": "2026/D",
    "bidPrice": "84,6365",
    "coupon_val": 2.75,
    "maturityInDays": "1177 nap",
    "securityType": "KTV",
    "maturityDate": "2026.12.22",
    "name": "2026/D",
    "bidEhmYield": "8,37",
    "askYield": "7,75",
    "currency": "HUF",
    "maturityInDays_val": 1177,
    "issueDate": "2017.05.24",
    "longName": "A261222D17"
}