{
    "askPrice": "81,1781",
    "green": 0,
    "coupon": "2,75 %",
    "accruedInterest": "0,1884",
    "settleDate": "2023.01.16",
    "askEhmYield": "8,58",
    "bidYield": "9,41",
    "rawName": "2026/D",
    "bidPrice": "78,9136",
    "coupon_val": 2.75,
    "maturityInDays": "1436 nap",
    "securityType": "KTV",
    "maturityDate": "2026.12.22",
    "name": "2026/D",
    "bidEhmYield": "9,40",
    "askYield": "8,59",
    "currency": "HUF",
    "maturityInDays_val": 1436,
    "issueDate": "2017.05.24",
    "longName": "A261222D17"
}