{
    "askPrice": "80,2955",
    "green": 0,
    "coupon": "2,75 %",
    "accruedInterest": "1,0397",
    "settleDate": "2023.05.09",
    "askEhmYield": "9,40",
    "bidYield": "10,23",
    "rawName": "2026/D",
    "bidPrice": "78,2334",
    "coupon_val": 2.75,
    "maturityInDays": "1323 nap",
    "securityType": "KTV",
    "maturityDate": "2026.12.22",
    "name": "2026/D",
    "bidEhmYield": "10,22",
    "askYield": "9,41",
    "currency": "HUF",
    "maturityInDays_val": 1323,
    "issueDate": "2017.05.24",
    "longName": "A261222D17"
}