{
    "askPrice": "78,1970",
    "green": 0,
    "coupon": "2,75 %",
    "accruedInterest": "0,6630",
    "settleDate": "2023.03.20",
    "askEhmYield": "9,97",
    "bidYield": "10,82",
    "rawName": "2026/D",
    "bidPrice": "76,0813",
    "coupon_val": 2.75,
    "maturityInDays": "1373 nap",
    "securityType": "KTV",
    "maturityDate": "2026.12.22",
    "name": "2026/D",
    "bidEhmYield": "10,81",
    "askYield": "9,98",
    "currency": "HUF",
    "maturityInDays_val": 1373,
    "issueDate": "2017.05.24",
    "longName": "A261222D17"
}