{
    "askPrice": "89,9502",
    "green": 0,
    "coupon": "2,75 %",
    "accruedInterest": "2,6671",
    "settleDate": "2023.12.11",
    "askEhmYield": "6,50",
    "bidYield": "7,17",
    "rawName": "2026/D",
    "bidPrice": "88,3292",
    "coupon_val": 2.75,
    "maturityInDays": "1107 nap",
    "securityType": "KTV",
    "maturityDate": "2026.12.22",
    "name": "2026/D",
    "bidEhmYield": "7,16",
    "askYield": "6,51",
    "currency": "HUF",
    "maturityInDays_val": 1107,
    "issueDate": "2017.05.24",
    "longName": "A261222D17"
}