{
    "askPrice": "84,0985",
    "green": 0,
    "coupon": "2,75 %",
    "accruedInterest": "1,7705",
    "settleDate": "2023.08.14",
    "askEhmYield": "8,36",
    "bidYield": "9,07",
    "rawName": "2026/D",
    "bidPrice": "82,3595",
    "coupon_val": 2.75,
    "maturityInDays": "1226 nap",
    "securityType": "KTV",
    "maturityDate": "2026.12.22",
    "name": "2026/D",
    "bidEhmYield": "9,06",
    "askYield": "8,37",
    "currency": "HUF",
    "maturityInDays_val": 1226,
    "issueDate": "2017.05.24",
    "longName": "A261222D17"
}