{
    "askPrice": "85,9326",
    "green": 0,
    "coupon": "2,75 %",
    "accruedInterest": "1,8986",
    "settleDate": "2023.08.31",
    "askEhmYield": "7,71",
    "bidYield": "8,44",
    "rawName": "2026/D",
    "bidPrice": "84,1183",
    "coupon_val": 2.75,
    "maturityInDays": "1209 nap",
    "securityType": "KTV",
    "maturityDate": "2026.12.22",
    "name": "2026/D",
    "bidEhmYield": "8,43",
    "askYield": "7,72",
    "currency": "HUF",
    "maturityInDays_val": 1209,
    "issueDate": "2017.05.24",
    "longName": "A261222D17"
}