{
    "askPrice": "79,4292",
    "green": 0,
    "coupon": "2,75 %",
    "accruedInterest": "0,3089",
    "settleDate": "2023.02.01",
    "askEhmYield": "9,28",
    "bidYield": "10,10",
    "rawName": "2026/D",
    "bidPrice": "77,2770",
    "coupon_val": 2.75,
    "maturityInDays": "1420 nap",
    "securityType": "KTV",
    "maturityDate": "2026.12.22",
    "name": "2026/D",
    "bidEhmYield": "10,09",
    "askYield": "9,29",
    "currency": "HUF",
    "maturityInDays_val": 1420,
    "issueDate": "2017.05.24",
    "longName": "A261222D17"
}