{
    "askPrice": "89,4849",
    "green": 0,
    "coupon": "2,75 %",
    "accruedInterest": "2,6295",
    "settleDate": "2023.12.06",
    "askEhmYield": "6,67",
    "bidYield": "7,36",
    "rawName": "2026/D",
    "bidPrice": "87,8196",
    "coupon_val": 2.75,
    "maturityInDays": "1112 nap",
    "securityType": "KTV",
    "maturityDate": "2026.12.22",
    "name": "2026/D",
    "bidEhmYield": "7,35",
    "askYield": "6,68",
    "currency": "HUF",
    "maturityInDays_val": 1112,
    "issueDate": "2017.05.24",
    "longName": "A261222D17"
}