{
    "askPrice": "86,1211",
    "green": 0,
    "coupon": "2,75 %",
    "accruedInterest": "2,3507",
    "settleDate": "2023.10.30",
    "askEhmYield": "7,89",
    "bidYield": "8,57",
    "rawName": "2026/D",
    "bidPrice": "84,5103",
    "coupon_val": 2.75,
    "maturityInDays": "1149 nap",
    "securityType": "KTV",
    "maturityDate": "2026.12.22",
    "name": "2026/D",
    "bidEhmYield": "8,56",
    "askYield": "7,90",
    "currency": "HUF",
    "maturityInDays_val": 1149,
    "issueDate": "2017.05.24",
    "longName": "A261222D17"
}