{
    "askPrice": "80,7756",
    "green": 0,
    "coupon": "2,75 %",
    "accruedInterest": "0,9870",
    "settleDate": "2023.05.02",
    "askEhmYield": "9,18",
    "bidYield": "10,02",
    "rawName": "2026/D",
    "bidPrice": "78,6616",
    "coupon_val": 2.75,
    "maturityInDays": "1330 nap",
    "securityType": "KTV",
    "maturityDate": "2026.12.22",
    "name": "2026/D",
    "bidEhmYield": "10,01",
    "askYield": "9,19",
    "currency": "HUF",
    "maturityInDays_val": 1330,
    "issueDate": "2017.05.24",
    "longName": "A261222D17"
}