{
    "askPrice": "83,8463",
    "green": 0,
    "coupon": "2,75 %",
    "accruedInterest": "1,6199",
    "settleDate": "2023.07.25",
    "askEhmYield": "8,37",
    "bidYield": "9,16",
    "rawName": "2026/D",
    "bidPrice": "81,8881",
    "coupon_val": 2.75,
    "maturityInDays": "1246 nap",
    "securityType": "KTV",
    "maturityDate": "2026.12.22",
    "name": "2026/D",
    "bidEhmYield": "9,15",
    "askYield": "8,38",
    "currency": "HUF",
    "maturityInDays_val": 1246,
    "issueDate": "2017.05.24",
    "longName": "A261222D17"
}