{
    "askPrice": "78,9699",
    "green": 0,
    "coupon": "2,75 %",
    "accruedInterest": "0,6932",
    "settleDate": "2023.03.24",
    "askEhmYield": "9,69",
    "bidYield": "10,50",
    "rawName": "2026/D",
    "bidPrice": "76,9332",
    "coupon_val": 2.75,
    "maturityInDays": "1369 nap",
    "securityType": "KTV",
    "maturityDate": "2026.12.22",
    "name": "2026/D",
    "bidEhmYield": "10,49",
    "askYield": "9,70",
    "currency": "HUF",
    "maturityInDays_val": 1369,
    "issueDate": "2017.05.24",
    "longName": "A261222D17"
}