{
    "askPrice": "",
    "green": 0,
    "coupon": "2,75 %",
    "accruedInterest": 0,
    "settleDate": "2023.12.21",
    "askEhmYield": "",
    "bidYield": "",
    "rawName": "2026/D",
    "bidPrice": "",
    "coupon_val": 2.75,
    "maturityInDays": "1097 nap",
    "securityType": "KTV",
    "maturityDate": "2026.12.22",
    "name": "2026/D",
    "bidEhmYield": "",
    "askYield": "",
    "currency": "HUF",
    "maturityInDays_val": 1097,
    "issueDate": "2017.05.24",
    "longName": "A261222D17"
}