{
    "askPrice": "80,4733",
    "green": 0,
    "coupon": "2,75 %",
    "accruedInterest": "0,1658",
    "settleDate": "2023.01.13",
    "askEhmYield": "8,82",
    "bidYield": "9,63",
    "rawName": "2026/D",
    "bidPrice": "78,2833",
    "coupon_val": 2.75,
    "maturityInDays": "1439 nap",
    "securityType": "KTV",
    "maturityDate": "2026.12.22",
    "name": "2026/D",
    "bidEhmYield": "9,62",
    "askYield": "8,83",
    "currency": "HUF",
    "maturityInDays_val": 1439,
    "issueDate": "2017.05.24",
    "longName": "A261222D17"
}