{
    "askPrice": "86,8480",
    "green": 0,
    "coupon": "2,75 %",
    "accruedInterest": "1,9890",
    "settleDate": "2023.09.12",
    "askEhmYield": "7,40",
    "bidYield": "8,08",
    "rawName": "2026/D",
    "bidPrice": "85,1510",
    "coupon_val": 2.75,
    "maturityInDays": "1197 nap",
    "securityType": "KTV",
    "maturityDate": "2026.12.22",
    "name": "2026/D",
    "bidEhmYield": "8,07",
    "askYield": "7,41",
    "currency": "HUF",
    "maturityInDays_val": 1197,
    "issueDate": "2017.05.24",
    "longName": "A261222D17"
}