{
    "askPrice": "91,9007",
    "green": 0,
    "coupon": "2,75 %",
    "accruedInterest": "0,0376",
    "settleDate": "2023.12.27",
    "askEhmYield": "5,77",
    "bidYield": "6,47",
    "rawName": "2026/D",
    "bidPrice": "90,1819",
    "coupon_val": 2.75,
    "maturityInDays": "1091 nap",
    "securityType": "KTV",
    "maturityDate": "2026.12.22",
    "name": "2026/D",
    "bidEhmYield": "6,46",
    "askYield": "5,78",
    "currency": "HUF",
    "maturityInDays_val": 1091,
    "issueDate": "2017.05.24",
    "longName": "A261222D17"
}