{
    "askPrice": "84,1681",
    "green": 0,
    "coupon": "2,75 %",
    "accruedInterest": "1,7329",
    "settleDate": "2023.08.09",
    "askEhmYield": "8,31",
    "bidYield": "9,05",
    "rawName": "2026/D",
    "bidPrice": "82,3463",
    "coupon_val": 2.75,
    "maturityInDays": "1231 nap",
    "securityType": "KTV",
    "maturityDate": "2026.12.22",
    "name": "2026/D",
    "bidEhmYield": "9,04",
    "askYield": "8,32",
    "currency": "HUF",
    "maturityInDays_val": 1231,
    "issueDate": "2017.05.24",
    "longName": "A261222D17"
}