{
    "askPrice": "83,6945",
    "green": 0,
    "coupon": "2,75 %",
    "accruedInterest": "1,4315",
    "settleDate": "2023.06.30",
    "askEhmYield": "8,32",
    "bidYield": "9,10",
    "rawName": "2026/D",
    "bidPrice": "81,7273",
    "coupon_val": 2.75,
    "maturityInDays": "1271 nap",
    "securityType": "KTV",
    "maturityDate": "2026.12.22",
    "name": "2026/D",
    "bidEhmYield": "9,09",
    "askYield": "8,33",
    "currency": "HUF",
    "maturityInDays_val": 1271,
    "issueDate": "2017.05.24",
    "longName": "A261222D17"
}