{
    "askPrice": "89,9780",
    "green": 0,
    "coupon": "2,75 %",
    "accruedInterest": "0,9693",
    "settleDate": "2024.04.29",
    "askEhmYield": "7,01",
    "bidYield": "7,66",
    "rawName": "2026/D",
    "bidPrice": "88,5992",
    "coupon_val": 2.75,
    "maturityInDays": "967 nap",
    "securityType": "KTV",
    "maturityDate": "2026.12.22",
    "name": "2026/D",
    "bidEhmYield": "7,65",
    "askYield": "7,02",
    "currency": "HUF",
    "maturityInDays_val": 967,
    "issueDate": "2017.05.24",
    "longName": "A261222D17"
}