{
    "askPrice": "90,2856",
    "green": 0,
    "coupon": "2,75 %",
    "accruedInterest": "0,8791",
    "settleDate": "2024.04.17",
    "askEhmYield": "6,82",
    "bidYield": "7,48",
    "rawName": "2026/D",
    "bidPrice": "88,8616",
    "coupon_val": 2.75,
    "maturityInDays": "979 nap",
    "securityType": "KTV",
    "maturityDate": "2026.12.22",
    "name": "2026/D",
    "bidEhmYield": "7,47",
    "askYield": "6,83",
    "currency": "HUF",
    "maturityInDays_val": 979,
    "issueDate": "2017.05.24",
    "longName": "A261222D17"
}