{
    "askPrice": "92,2256",
    "green": 0,
    "coupon": "2,75 %",
    "accruedInterest": "0,4583",
    "settleDate": "2024.02.21",
    "askEhmYield": "5,79",
    "bidYield": "6,48",
    "rawName": "2026/D",
    "bidPrice": "90,6072",
    "coupon_val": 2.75,
    "maturityInDays": "1035 nap",
    "securityType": "KTV",
    "maturityDate": "2026.12.22",
    "name": "2026/D",
    "bidEhmYield": "6,47",
    "askYield": "5,80",
    "currency": "HUF",
    "maturityInDays_val": 1035,
    "issueDate": "2017.05.24",
    "longName": "A261222D17"
}