{
    "askPrice": "91,8391",
    "green": 0,
    "coupon": "2,75 %",
    "accruedInterest": "0,6537",
    "settleDate": "2024.03.18",
    "askEhmYield": "6,03",
    "bidYield": "6,72",
    "rawName": "2026/D",
    "bidPrice": "90,2691",
    "coupon_val": 2.75,
    "maturityInDays": "1009 nap",
    "securityType": "KTV",
    "maturityDate": "2026.12.22",
    "name": "2026/D",
    "bidEhmYield": "6,71",
    "askYield": "6,04",
    "currency": "HUF",
    "maturityInDays_val": 1009,
    "issueDate": "2017.05.24",
    "longName": "A261222D17"
}