{
    "askPrice": "91,1062",
    "green": 0,
    "coupon": "2,75 %",
    "accruedInterest": "1,0745",
    "settleDate": "2024.05.13",
    "askEhmYield": "6,55",
    "bidYield": "7,22",
    "rawName": "2026/D",
    "bidPrice": "89,6804",
    "coupon_val": 2.75,
    "maturityInDays": "953 nap",
    "securityType": "KTV",
    "maturityDate": "2026.12.22",
    "name": "2026/D",
    "bidEhmYield": "7,21",
    "askYield": "6,56",
    "currency": "HUF",
    "maturityInDays_val": 953,
    "issueDate": "2017.05.24",
    "longName": "A261222D17"
}