{
    "askPrice": "92,0951",
    "green": 0,
    "coupon": "2,75 %",
    "accruedInterest": "0,2855",
    "settleDate": "2024.01.29",
    "askEhmYield": "5,78",
    "bidYield": "6,43",
    "rawName": "2026/D",
    "bidPrice": "90,5413",
    "coupon_val": 2.75,
    "maturityInDays": "1058 nap",
    "securityType": "KTV",
    "maturityDate": "2026.12.22",
    "name": "2026/D",
    "bidEhmYield": "6,42",
    "askYield": "5,79",
    "currency": "HUF",
    "maturityInDays_val": 1058,
    "issueDate": "2017.05.24",
    "longName": "A261222D17"
}