{
    "askPrice": "92,4077",
    "green": 0,
    "coupon": "2,75 %",
    "accruedInterest": "0,4734",
    "settleDate": "2024.02.23",
    "askEhmYield": "5,72",
    "bidYield": "6,42",
    "rawName": "2026/D",
    "bidPrice": "90,7644",
    "coupon_val": 2.75,
    "maturityInDays": "1033 nap",
    "securityType": "KTV",
    "maturityDate": "2026.12.22",
    "name": "2026/D",
    "bidEhmYield": "6,41",
    "askYield": "5,73",
    "currency": "HUF",
    "maturityInDays_val": 1033,
    "issueDate": "2017.05.24",
    "longName": "A261222D17"
}