{
    "askPrice": "92,0730",
    "green": 0,
    "coupon": "2,75 %",
    "accruedInterest": "0,3156",
    "settleDate": "2024.02.02",
    "askEhmYield": "5,80",
    "bidYield": "6,48",
    "rawName": "2026/D",
    "bidPrice": "90,4536",
    "coupon_val": 2.75,
    "maturityInDays": "1054 nap",
    "securityType": "KTV",
    "maturityDate": "2026.12.22",
    "name": "2026/D",
    "bidEhmYield": "6,47",
    "askYield": "5,81",
    "currency": "HUF",
    "maturityInDays_val": 1054,
    "issueDate": "2017.05.24",
    "longName": "A261222D17"
}