{
    "askPrice": "90,9761",
    "green": 0,
    "coupon": "2,75 %",
    "accruedInterest": "1,0369",
    "settleDate": "2024.05.08",
    "askEhmYield": "6,59",
    "bidYield": "7,28",
    "rawName": "2026/D",
    "bidPrice": "89,5030",
    "coupon_val": 2.75,
    "maturityInDays": "958 nap",
    "securityType": "KTV",
    "maturityDate": "2026.12.22",
    "name": "2026/D",
    "bidEhmYield": "7,27",
    "askYield": "6,60",
    "currency": "HUF",
    "maturityInDays_val": 958,
    "issueDate": "2017.05.24",
    "longName": "A261222D17"
}