{
    "askPrice": "",
    "green": 0,
    "coupon": "3,50 %",
    "accruedInterest": "1,00",
    "settleDate": "2022.10.10",
    "askEhmYield": "",
    "bidYield": "",
    "rawName": "N2027/02",
    "bidPrice": "99,50",
    "coupon_val": 3.5,
    "maturityInDays": "1553 nap",
    "securityType": "MÁP Plusz",
    "maturityDate": "2027.01.10",
    "name": "N2027/02",
    "bidEhmYield": "",
    "askYield": "",
    "currency": "HUF",
    "maturityInDays_val": 1553,
    "longName": "N270110"
}