{
    "askPrice": "",
    "green": 0,
    "coupon": "3,50 %",
    "accruedInterest": "3,5753",
    "settleDate": "2023.10.27",
    "askEhmYield": "",
    "bidYield": "5,58",
    "rawName": "N2027/02",
    "bidPrice": "99,5000",
    "coupon_val": 3.5,
    "maturityInDays": "1171 nap",
    "securityType": "MÁP Plusz",
    "maturityDate": "2027.01.10",
    "name": "N2027/02",
    "bidEhmYield": "",
    "askYield": "",
    "currency": "HUF",
    "maturityInDays_val": 1171,
    "issueDate": "2022.01.10",
    "longName": "N270110"
}