{
    "askPrice": "",
    "green": 0,
    "coupon": "3,50 %",
    "accruedInterest": "1,4071",
    "settleDate": "2024.04.22",
    "askEhmYield": "",
    "bidYield": "5,73",
    "rawName": "N2027/02",
    "bidPrice": "99,5000",
    "coupon_val": 3.5,
    "maturityInDays": "993 nap",
    "securityType": "MÁP Plusz",
    "maturityDate": "2027.01.10",
    "name": "N2027/02",
    "bidEhmYield": "",
    "askYield": "",
    "currency": "HUF",
    "maturityInDays_val": 993,
    "issueDate": "2022.01.10",
    "longName": "N270110"
}