{
    "askPrice": "",
    "green": 0,
    "coupon": "3,50 %",
    "accruedInterest": "1,5574",
    "settleDate": "2024.05.03",
    "askEhmYield": "",
    "bidYield": "5,74",
    "rawName": "N2027/02",
    "bidPrice": "99,5000",
    "coupon_val": 3.5,
    "maturityInDays": "982 nap",
    "securityType": "MÁP Plusz",
    "maturityDate": "2027.01.10",
    "name": "N2027/02",
    "bidEhmYield": "",
    "askYield": "",
    "currency": "HUF",
    "maturityInDays_val": 982,
    "issueDate": "2022.01.10",
    "longName": "N270110"
}