{
    "askPrice": "",
    "green": 0,
    "coupon": "3,50 %",
    "accruedInterest": "0,0273",
    "settleDate": "2024.01.12",
    "askEhmYield": "",
    "bidYield": "5,48",
    "rawName": "N2027/02",
    "bidPrice": "100,0000",
    "coupon_val": 3.5,
    "maturityInDays": "1094 nap",
    "securityType": "MÁP Plusz",
    "maturityDate": "2027.01.10",
    "name": "N2027/02",
    "bidEhmYield": "",
    "askYield": "",
    "currency": "HUF",
    "maturityInDays_val": 1094,
    "issueDate": "2022.01.10",
    "longName": "N270110"
}