{
    "askPrice": "",
    "green": 0,
    "coupon": "3,50 %",
    "accruedInterest": "2,53",
    "settleDate": "2022.11.03",
    "askEhmYield": "",
    "bidYield": "5,50",
    "rawName": "N2026/15",
    "bidPrice": "99,50",
    "coupon_val": 3.5,
    "maturityInDays": "1256 nap",
    "securityType": "MÁP Plusz",
    "maturityDate": "2026.04.12",
    "name": "N2026/15",
    "bidEhmYield": "",
    "askYield": "",
    "currency": "HUF",
    "maturityInDays_val": 1256,
    "issueDate": "2021-04-12",
    "longName": "N260412"
}