{
    "askPrice": "",
    "green": 0,
    "coupon": "3,50 %",
    "accruedInterest": "3,0575",
    "settleDate": "2022.12.16",
    "askEhmYield": "",
    "bidYield": "5,54",
    "rawName": "N2026/15",
    "bidPrice": "99,5000",
    "coupon_val": 3.5,
    "maturityInDays": "1213 nap",
    "securityType": "MÁP Plusz",
    "maturityDate": "2026.04.12",
    "name": "N2026/15",
    "bidEhmYield": "",
    "askYield": "",
    "currency": "HUF",
    "maturityInDays_val": 1213,
    "issueDate": "2021.04.12",
    "longName": "N260412"
}