{
    "askPrice": "",
    "green": 0,
    "coupon": "3,50 %",
    "accruedInterest": "1,90",
    "settleDate": "2022.09.13",
    "askEhmYield": "",
    "bidYield": "",
    "rawName": "N2026/15",
    "bidPrice": "99,50",
    "coupon_val": 3.5,
    "maturityInDays": "1307 nap",
    "securityType": "MÁP Plusz",
    "maturityDate": "2026.04.12",
    "name": "N2026/15",
    "bidEhmYield": "",
    "askYield": "",
    "currency": "HUF",
    "maturityInDays_val": 1307,
    "longName": "N260412"
}