{
    "askPrice": "",
    "green": 0,
    "coupon": "3,50 %",
    "accruedInterest": "0,5874",
    "settleDate": "2023.05.25",
    "askEhmYield": "",
    "bidYield": "5,69",
    "rawName": "N2026/15",
    "bidPrice": "99,5000",
    "coupon_val": 3.5,
    "maturityInDays": "1053 nap",
    "securityType": "MÁP Plusz",
    "maturityDate": "2026.04.12",
    "name": "N2026/15",
    "bidEhmYield": "",
    "askYield": "",
    "currency": "HUF",
    "maturityInDays_val": 1053,
    "issueDate": "2021.04.12",
    "longName": "N260412"
}