{
    "askPrice": "",
    "green": 0,
    "coupon": "3,50 %",
    "accruedInterest": "2,5546",
    "settleDate": "2023.10.16",
    "askEhmYield": "",
    "bidYield": "5,79",
    "rawName": "N2026/15",
    "bidPrice": "99,5000",
    "coupon_val": 3.5,
    "maturityInDays": "909 nap",
    "securityType": "MÁP Plusz",
    "maturityDate": "2026.04.12",
    "name": "N2026/15",
    "bidEhmYield": "",
    "askYield": "",
    "currency": "HUF",
    "maturityInDays_val": 909,
    "issueDate": "2021.04.12",
    "longName": "N260412"
}