{
    "askPrice": "",
    "green": 0,
    "coupon": "3,50 %",
    "accruedInterest": "4,0437",
    "settleDate": "2024.02.02",
    "askEhmYield": "",
    "bidYield": "5,91",
    "rawName": "N2026/15",
    "bidPrice": "99,5000",
    "coupon_val": 3.5,
    "maturityInDays": "800 nap",
    "securityType": "MÁP Plusz",
    "maturityDate": "2026.04.12",
    "name": "N2026/15",
    "bidEhmYield": "",
    "askYield": "",
    "currency": "HUF",
    "maturityInDays_val": 800,
    "issueDate": "2021.04.12",
    "longName": "N260412"
}