{
    "askPrice": "",
    "green": 0,
    "coupon": "7,00 %",
    "accruedInterest": "0,92",
    "settleDate": "2022.11.14",
    "askEhmYield": "",
    "bidYield": "7,58",
    "rawName": "K2023/39",
    "bidPrice": "99,50",
    "coupon_val": 7,
    "maturityInDays": "317 nap",
    "securityType": "1MÁP",
    "maturityDate": "2023.09.27",
    "name": "K2023/39",
    "bidEhmYield": "7,54",
    "askYield": "",
    "currency": "HUF",
    "maturityInDays_val": 317,
    "issueDate": "2022-09-27",
    "longName": "K230927"
}