{
    "askPrice": "",
    "green": 0,
    "coupon": "7,00 %",
    "accruedInterest": "6,7315",
    "settleDate": "2023.09.13",
    "askEhmYield": "",
    "bidYield": "26,75",
    "rawName": "K2023/39",
    "bidPrice": "99,3000",
    "coupon_val": 7,
    "maturityInDays": "14 nap",
    "securityType": "1MÁP",
    "maturityDate": "2023.09.27",
    "name": "K2023/39",
    "bidEhmYield": "23,81",
    "askYield": "",
    "currency": "HUF",
    "maturityInDays_val": 14,
    "issueDate": "2022.09.27",
    "longName": "K230927"
}