{
    "askPrice": "",
    "green": 0,
    "coupon": "7,00 %",
    "accruedInterest": "6,3096",
    "settleDate": "2023.08.22",
    "askEhmYield": "",
    "bidYield": "17,52",
    "rawName": "K2023/39",
    "bidPrice": "99,0000",
    "coupon_val": 7,
    "maturityInDays": "36 nap",
    "securityType": "1MÁP",
    "maturityDate": "2023.09.27",
    "name": "K2023/39",
    "bidEhmYield": "16,27",
    "askYield": "",
    "currency": "HUF",
    "maturityInDays_val": 36,
    "issueDate": "2022.09.27",
    "longName": "K230927"
}