{
    "askPrice": "",
    "green": 0,
    "coupon": "7,00 %",
    "accruedInterest": "6,0411",
    "settleDate": "2023.08.08",
    "askEhmYield": "",
    "bidYield": "14,44",
    "rawName": "K2023/39",
    "bidPrice": "99,0000",
    "coupon_val": 7,
    "maturityInDays": "50 nap",
    "securityType": "1MÁP",
    "maturityDate": "2023.09.27",
    "name": "K2023/39",
    "bidEhmYield": "13,61",
    "askYield": "",
    "currency": "HUF",
    "maturityInDays_val": 50,
    "issueDate": "2022.09.27",
    "longName": "K230927"
}