{
    "askPrice": "",
    "green": 0,
    "coupon": "7,00 %",
    "accruedInterest": "1,9178",
    "settleDate": "2023.01.05",
    "askEhmYield": "",
    "bidYield": "8,39",
    "rawName": "K2023/39",
    "bidPrice": "99,0000",
    "coupon_val": 7,
    "maturityInDays": "265 nap",
    "securityType": "1MÁP",
    "maturityDate": "2023.09.27",
    "name": "K2023/39",
    "bidEhmYield": "8,30",
    "askYield": "",
    "currency": "HUF",
    "maturityInDays_val": 265,
    "issueDate": "2022.09.27",
    "longName": "K230927"
}