{
    "askPrice": "",
    "green": 0,
    "coupon": "7,00 %",
    "accruedInterest": "4,0466",
    "settleDate": "2023.04.26",
    "askEhmYield": "",
    "bidYield": "9,33",
    "rawName": "K2023/39",
    "bidPrice": "99,0000",
    "coupon_val": 7,
    "maturityInDays": "154 nap",
    "securityType": "1MÁP",
    "maturityDate": "2023.09.27",
    "name": "K2023/39",
    "bidEhmYield": "9,09",
    "askYield": "",
    "currency": "HUF",
    "maturityInDays_val": 154,
    "issueDate": "2022.09.27",
    "longName": "K230927"
}