{
    "askPrice": "",
    "green": 0,
    "coupon": "7,00 %",
    "accruedInterest": "4,9479",
    "settleDate": "2023.06.12",
    "askEhmYield": "",
    "bidYield": "10,38",
    "rawName": "K2023/39",
    "bidPrice": "99,0000",
    "coupon_val": 7,
    "maturityInDays": "107 nap",
    "securityType": "1MÁP",
    "maturityDate": "2023.09.27",
    "name": "K2023/39",
    "bidEhmYield": "10,02",
    "askYield": "",
    "currency": "HUF",
    "maturityInDays_val": 107,
    "issueDate": "2022.09.27",
    "longName": "K230927"
}