{
    "askPrice": "",
    "green": 0,
    "coupon": "7,00 %",
    "accruedInterest": "3,0685",
    "settleDate": "2023.03.06",
    "askEhmYield": "",
    "bidYield": "8,76",
    "rawName": "K2023/39",
    "bidPrice": "99,0000",
    "coupon_val": 7,
    "maturityInDays": "205 nap",
    "securityType": "1MÁP",
    "maturityDate": "2023.09.27",
    "name": "K2023/39",
    "bidEhmYield": "8,60",
    "askYield": "",
    "currency": "HUF",
    "maturityInDays_val": 205,
    "issueDate": "2022.09.27",
    "longName": "K230927"
}