{
    "askPrice": "",
    "green": 0,
    "coupon": "3,50 %",
    "accruedInterest": "0,93",
    "settleDate": "2022.11.14",
    "askEhmYield": "",
    "bidYield": "5,11",
    "rawName": "N2027/32",
    "bidPrice": "99,50",
    "coupon_val": 3.5,
    "maturityInDays": "1728 nap",
    "securityType": "MÁP Plusz",
    "maturityDate": "2027.08.08",
    "name": "N2027/32",
    "bidEhmYield": "",
    "askYield": "",
    "currency": "HUF",
    "maturityInDays_val": 1728,
    "issueDate": "2022-08-08",
    "longName": "N270808"
}