{
    "askPrice": "",
    "green": 0,
    "coupon": "3,50 %",
    "accruedInterest": "1,4016",
    "settleDate": "2023.11.30",
    "askEhmYield": "",
    "bidYield": "5,43",
    "rawName": "N2027/32",
    "bidPrice": "99,5000",
    "coupon_val": 3.5,
    "maturityInDays": "1347 nap",
    "securityType": "MÁP Plusz",
    "maturityDate": "2027.08.08",
    "name": "N2027/32",
    "bidEhmYield": "",
    "askYield": "",
    "currency": "HUF",
    "maturityInDays_val": 1347,
    "issueDate": "2022.08.08",
    "longName": "N270808"
}