{
    "askPrice": "",
    "green": 0,
    "coupon": "3,50 %",
    "accruedInterest": "0,5193",
    "settleDate": "2023.03.27",
    "askEhmYield": "",
    "bidYield": "5,24",
    "rawName": "N2027/32",
    "bidPrice": "99,5000",
    "coupon_val": 3.5,
    "maturityInDays": "1595 nap",
    "securityType": "MÁP Plusz",
    "maturityDate": "2027.08.08",
    "name": "N2027/32",
    "bidEhmYield": "",
    "askYield": "",
    "currency": "HUF",
    "maturityInDays_val": 1595,
    "issueDate": "2022.08.08",
    "longName": "N270808"
}