{
    "askPrice": "",
    "green": 0,
    "coupon": "3,50 %",
    "accruedInterest": "1,7310",
    "settleDate": "2023.02.06",
    "askEhmYield": "",
    "bidYield": "",
    "rawName": "N2027/32",
    "bidPrice": "",
    "coupon_val": 3.5,
    "maturityInDays": "1644 nap",
    "securityType": "MÁP Plusz",
    "maturityDate": "2027.08.08",
    "name": "N2027/32",
    "bidEhmYield": "",
    "askYield": "",
    "currency": "HUF",
    "maturityInDays_val": 1644,
    "issueDate": "2022.08.08",
    "longName": "N270808"
}