{
    "askPrice": "",
    "green": 0,
    "coupon": "3,50 %",
    "accruedInterest": "1,03",
    "settleDate": "2022.11.17",
    "askEhmYield": "",
    "bidYield": "5,28",
    "rawName": "N2027/07",
    "bidPrice": "99,50",
    "coupon_val": 3.5,
    "maturityInDays": "1550 nap",
    "securityType": "MÁP Plusz",
    "maturityDate": "2027.02.14",
    "name": "N2027/07",
    "bidEhmYield": "",
    "askYield": "",
    "currency": "HUF",
    "maturityInDays_val": 1550,
    "issueDate": "2022-02-14",
    "longName": "N270214"
}