{
    "askPrice": "",
    "green": 0,
    "coupon": "3,50 %",
    "accruedInterest": "0,03",
    "settleDate": "2022.08.17",
    "askEhmYield": "",
    "bidYield": "",
    "rawName": "N2027/07",
    "bidPrice": "100,00",
    "coupon_val": 3.5,
    "maturityInDays": "1642 nap",
    "securityType": "MÁP Plusz",
    "maturityDate": "2027.02.14",
    "name": "N2027/07",
    "bidEhmYield": "",
    "askYield": "",
    "currency": "HUF",
    "maturityInDays_val": 1642,
    "longName": "N270214"
}