{
    "askPrice": "",
    "green": 0,
    "coupon": "3,50 %",
    "accruedInterest": "0,62",
    "settleDate": "2022.10.10",
    "askEhmYield": "",
    "bidYield": "",
    "rawName": "N2027/07",
    "bidPrice": "99,50",
    "coupon_val": 3.5,
    "maturityInDays": "1588 nap",
    "securityType": "MÁP Plusz",
    "maturityDate": "2027.02.14",
    "name": "N2027/07",
    "bidEhmYield": "",
    "askYield": "",
    "currency": "HUF",
    "maturityInDays_val": 1588,
    "longName": "N270214"
}