{
    "askPrice": "",
    "green": 0,
    "coupon": "3,50 %",
    "accruedInterest": "0,35",
    "settleDate": "2022.09.15",
    "askEhmYield": "",
    "bidYield": "",
    "rawName": "N2027/07",
    "bidPrice": "99,50",
    "coupon_val": 3.5,
    "maturityInDays": "1613 nap",
    "securityType": "MÁP Plusz",
    "maturityDate": "2027.02.14",
    "name": "N2027/07",
    "bidEhmYield": "",
    "askYield": "",
    "currency": "HUF",
    "maturityInDays_val": 1613,
    "longName": "N270214"
}