{
    "askPrice": "",
    "green": 0,
    "coupon": "3,50 %",
    "accruedInterest": "0,6041",
    "settleDate": "2023.04.04",
    "askEhmYield": "",
    "bidYield": "5,39",
    "rawName": "N2027/07",
    "bidPrice": "99,5000",
    "coupon_val": 3.5,
    "maturityInDays": "1412 nap",
    "securityType": "MÁP Plusz",
    "maturityDate": "2027.02.14",
    "name": "N2027/07",
    "bidEhmYield": "",
    "askYield": "",
    "currency": "HUF",
    "maturityInDays_val": 1412,
    "issueDate": "2022.02.14",
    "longName": "N270214"
}