{
    "askPrice": "",
    "green": 0,
    "coupon": "3,50 %",
    "accruedInterest": "0,0123",
    "settleDate": "2023.02.15",
    "askEhmYield": "",
    "bidYield": "5,22",
    "rawName": "N2027/07",
    "bidPrice": "100,0000",
    "coupon_val": 3.5,
    "maturityInDays": "1460 nap",
    "securityType": "MÁP Plusz",
    "maturityDate": "2027.02.14",
    "name": "N2027/07",
    "bidEhmYield": "",
    "askYield": "",
    "currency": "HUF",
    "maturityInDays_val": 1460,
    "issueDate": "2022.02.14",
    "longName": "N270214"
}