{
    "askPrice": "",
    "green": 0,
    "coupon": "3,50 %",
    "accruedInterest": "3,1315",
    "settleDate": "2023.10.26",
    "askEhmYield": "",
    "bidYield": "5,55",
    "rawName": "N2027/07",
    "bidPrice": "99,5000",
    "coupon_val": 3.5,
    "maturityInDays": "1207 nap",
    "securityType": "MÁP Plusz",
    "maturityDate": "2027.02.14",
    "name": "N2027/07",
    "bidEhmYield": "",
    "askYield": "",
    "currency": "HUF",
    "maturityInDays_val": 1207,
    "issueDate": "2022.02.14",
    "longName": "N270214"
}