{
    "askPrice": "",
    "green": 0,
    "coupon": "2,50 %",
    "accruedInterest": "2,41",
    "settleDate": "2022.07.21",
    "askEhmYield": "",
    "bidYield": "",
    "rawName": "K2022/31",
    "bidPrice": "99,80",
    "coupon_val": 2.5,
    "maturityInDays": "13 nap",
    "securityType": "1MÁP",
    "maturityDate": "2022.08.03",
    "name": "K2022/31",
    "bidEhmYield": "7,94",
    "askYield": "",
    "currency": "HUF",
    "maturityInDays_val": 13,
    "longName": "K220803"
}