{
    "askPrice": "",
    "green": 0,
    "coupon": "3,50 %",
    "accruedInterest": "0,6196",
    "settleDate": "2023.08.28",
    "askEhmYield": "",
    "bidYield": "5,25",
    "rawName": "N2028/01",
    "bidPrice": "99,5000",
    "coupon_val": 3.5,
    "maturityInDays": "1588 nap",
    "securityType": "MÁP Plusz",
    "maturityDate": "2028.01.02",
    "name": "N2028/01",
    "bidEhmYield": "",
    "askYield": "",
    "currency": "HUF",
    "maturityInDays_val": 1588,
    "issueDate": "2023.01.02",
    "longName": "N280102"
}