{
    "askPrice": "",
    "green": 0,
    "coupon": "3,50 %",
    "accruedInterest": "0,0543",
    "settleDate": "2023.07.07",
    "askEhmYield": "",
    "bidYield": "5,08",
    "rawName": "N2028/01",
    "bidPrice": "100,0000",
    "coupon_val": 3.5,
    "maturityInDays": "1640 nap",
    "securityType": "MÁP Plusz",
    "maturityDate": "2028.01.02",
    "name": "N2028/01",
    "bidEhmYield": "",
    "askYield": "",
    "currency": "HUF",
    "maturityInDays_val": 1640,
    "issueDate": "2023.01.02",
    "longName": "N280102"
}