{
    "askPrice": "",
    "green": 0,
    "coupon": "3,50 %",
    "accruedInterest": "1,5276",
    "settleDate": "2023.06.09",
    "askEhmYield": "",
    "bidYield": "5,17",
    "rawName": "N2028/01",
    "bidPrice": "99,5000",
    "coupon_val": 3.5,
    "maturityInDays": "1668 nap",
    "securityType": "MÁP Plusz",
    "maturityDate": "2028.01.02",
    "name": "N2028/01",
    "bidEhmYield": "",
    "askYield": "",
    "currency": "HUF",
    "maturityInDays_val": 1668,
    "issueDate": "2023.01.02",
    "longName": "N280102"
}