{
    "askPrice": "",
    "green": 0,
    "coupon": "8,00 %",
    "accruedInterest": "1,2055",
    "settleDate": "2023.11.27",
    "askEhmYield": "",
    "bidYield": "9,19",
    "rawName": "K2024/40",
    "bidPrice": "99,0000",
    "coupon_val": 8,
    "maturityInDays": "311 nap",
    "securityType": "1MÁP",
    "maturityDate": "2024.10.03",
    "name": "K2024/40",
    "bidEhmYield": "9,13",
    "askYield": "",
    "currency": "HUF",
    "maturityInDays_val": 311,
    "issueDate": "2023.10.03",
    "longName": "K241003"
}