{
    "askPrice": "",
    "green": 0,
    "coupon": "8,00 %",
    "accruedInterest": "2,8055",
    "settleDate": "2024.02.08",
    "askEhmYield": "",
    "bidYield": "9,48",
    "rawName": "K2024/40",
    "bidPrice": "99,0000",
    "coupon_val": 8,
    "maturityInDays": "238 nap",
    "securityType": "1MÁP",
    "maturityDate": "2024.10.03",
    "name": "K2024/40",
    "bidEhmYield": "9,33",
    "askYield": "",
    "currency": "HUF",
    "maturityInDays_val": 238,
    "issueDate": "2023.10.03",
    "longName": "K241003"
}