{
    "askPrice": "",
    "green": 0,
    "coupon": "8,00 %",
    "accruedInterest": "3,0685",
    "settleDate": "2024.02.20",
    "askEhmYield": "",
    "bidYield": "9,55",
    "rawName": "K2024/40",
    "bidPrice": "99,0000",
    "coupon_val": 8,
    "maturityInDays": "226 nap",
    "securityType": "1MÁP",
    "maturityDate": "2024.10.03",
    "name": "K2024/40",
    "bidEhmYield": "9,39",
    "askYield": "",
    "currency": "HUF",
    "maturityInDays_val": 226,
    "issueDate": "2023.10.03",
    "longName": "K241003"
}