{
    "askPrice": "",
    "green": 0,
    "coupon": "3,50 %",
    "accruedInterest": "0,9606",
    "settleDate": "2023.06.29",
    "askEhmYield": "",
    "bidYield": "5,12",
    "rawName": "N2028/12",
    "bidPrice": "99,5000",
    "coupon_val": 3.5,
    "maturityInDays": "1726 nap",
    "securityType": "MÁP Plusz",
    "maturityDate": "2028.03.20",
    "name": "N2028/12",
    "bidEhmYield": "",
    "askYield": "",
    "currency": "HUF",
    "maturityInDays_val": 1726,
    "issueDate": "2023.03.20",
    "longName": "N280320"
}