{
    "askPrice": "",
    "green": 0,
    "coupon": "3,50 %",
    "accruedInterest": "0,0616",
    "settleDate": "2024.03.25",
    "askEhmYield": "",
    "bidYield": "5,22",
    "rawName": "N2028/12",
    "bidPrice": "100,0000",
    "coupon_val": 3.5,
    "maturityInDays": "1456 nap",
    "securityType": "MÁP Plusz",
    "maturityDate": "2028.03.20",
    "name": "N2028/12",
    "bidEhmYield": "",
    "askYield": "",
    "currency": "HUF",
    "maturityInDays_val": 1456,
    "issueDate": "2023.03.20",
    "longName": "N280320"
}