{
    "askPrice": "",
    "green": 0,
    "coupon": "3,50 %",
    "accruedInterest": "2,51",
    "settleDate": "2022.11.10",
    "askEhmYield": "",
    "bidYield": "5,79",
    "rawName": "N2025/19",
    "bidPrice": "99,50",
    "coupon_val": 3.5,
    "maturityInDays": "913 nap",
    "securityType": "MÁP Plusz",
    "maturityDate": "2025.05.11",
    "name": "N2025/19",
    "bidEhmYield": "",
    "askYield": "",
    "currency": "HUF",
    "maturityInDays_val": 913,
    "issueDate": "2020-05-11",
    "longName": "N250511"
}