{
    "askPrice": "",
    "green": 0,
    "coupon": "3,50 %",
    "accruedInterest": "1,71",
    "settleDate": "2022.09.13",
    "askEhmYield": "",
    "bidYield": "",
    "rawName": "N2025/19",
    "bidPrice": "99,50",
    "coupon_val": 3.5,
    "maturityInDays": "971 nap",
    "securityType": "MÁP Plusz",
    "maturityDate": "2025.05.11",
    "name": "N2025/19",
    "bidEhmYield": "",
    "askYield": "",
    "currency": "HUF",
    "maturityInDays_val": 971,
    "longName": "N250511"
}