{
    "askPrice": "",
    "green": 0,
    "coupon": "3,50 %",
    "accruedInterest": "2,6986",
    "settleDate": "2022.11.24",
    "askEhmYield": "",
    "bidYield": "5,80",
    "rawName": "N2025/19",
    "bidPrice": "99,5000",
    "coupon_val": 3.5,
    "maturityInDays": "899 nap",
    "securityType": "MÁP Plusz",
    "maturityDate": "2025.05.11",
    "name": "N2025/19",
    "bidEhmYield": "",
    "askYield": "",
    "currency": "HUF",
    "maturityInDays_val": 899,
    "issueDate": "2020.05.11",
    "longName": "N250511"
}