{
    "askPrice": "",
    "green": 0,
    "coupon": "3,50 %",
    "accruedInterest": "3,1407",
    "settleDate": "2023.12.06",
    "askEhmYield": "",
    "bidYield": "6,19",
    "rawName": "N2025/19",
    "bidPrice": "99,5000",
    "coupon_val": 3.5,
    "maturityInDays": "522 nap",
    "securityType": "MÁP Plusz",
    "maturityDate": "2025.05.11",
    "name": "N2025/19",
    "bidEhmYield": "",
    "askYield": "",
    "currency": "HUF",
    "maturityInDays_val": 522,
    "issueDate": "2020.05.11",
    "longName": "N250511"
}