{
    "askPrice": "",
    "green": 0,
    "coupon": "3,50 %",
    "accruedInterest": "0,2855",
    "settleDate": "2023.05.30",
    "askEhmYield": "",
    "bidYield": "6,03",
    "rawName": "N2025/19",
    "bidPrice": "99,5000",
    "coupon_val": 3.5,
    "maturityInDays": "712 nap",
    "securityType": "MÁP Plusz",
    "maturityDate": "2025.05.11",
    "name": "N2025/19",
    "bidEhmYield": "",
    "askYield": "",
    "currency": "HUF",
    "maturityInDays_val": 712,
    "issueDate": "2020.05.11",
    "longName": "N250511"
}