{
    "askPrice": "",
    "green": 0,
    "coupon": "3,50 %",
    "accruedInterest": "4,7808",
    "settleDate": "2023.04.25",
    "askEhmYield": "",
    "bidYield": "5,99",
    "rawName": "N2025/19",
    "bidPrice": "99,5000",
    "coupon_val": 3.5,
    "maturityInDays": "747 nap",
    "securityType": "MÁP Plusz",
    "maturityDate": "2025.05.11",
    "name": "N2025/19",
    "bidEhmYield": "",
    "askYield": "",
    "currency": "HUF",
    "maturityInDays_val": 747,
    "issueDate": "2020.05.11",
    "longName": "N250511"
}