{
    "askPrice": "",
    "green": 0,
    "coupon": "3,50 %",
    "accruedInterest": "0,28",
    "settleDate": "2022.10.25",
    "askEhmYield": "",
    "bidYield": "5,05",
    "rawName": "N2027/39",
    "bidPrice": "99,50",
    "coupon_val": 3.5,
    "maturityInDays": "1797 nap",
    "securityType": "MÁP Plusz",
    "maturityDate": "2027.09.26",
    "name": "N2027/39",
    "bidEhmYield": "",
    "askYield": "",
    "currency": "HUF",
    "maturityInDays_val": 1797,
    "longName": "N270926"
}