{
    "askPrice": "",
    "green": 0,
    "coupon": "3,50 %",
    "accruedInterest": "0,7283",
    "settleDate": "2023.06.01",
    "askEhmYield": "",
    "bidYield": "5,25",
    "rawName": "N2027/39",
    "bidPrice": "99,5000",
    "coupon_val": 3.5,
    "maturityInDays": "1578 nap",
    "securityType": "MÁP Plusz",
    "maturityDate": "2027.09.26",
    "name": "N2027/39",
    "bidEhmYield": "",
    "askYield": "",
    "currency": "HUF",
    "maturityInDays_val": 1578,
    "issueDate": "2022.09.26",
    "longName": "N270926"
}