{
    "askPrice": "",
    "green": 0,
    "coupon": "3,50 %",
    "accruedInterest": 0,
    "settleDate": "2023.09.25",
    "askEhmYield": "",
    "bidYield": "",
    "rawName": "N2027/39",
    "bidPrice": "",
    "coupon_val": 3.5,
    "maturityInDays": "1462 nap",
    "securityType": "MÁP Plusz",
    "maturityDate": "2027.09.26",
    "name": "N2027/39",
    "bidEhmYield": "",
    "askYield": "",
    "currency": "HUF",
    "maturityInDays_val": 1462,
    "issueDate": "2022.09.26",
    "longName": "N270926"
}