{
    "askPrice": "",
    "green": 0,
    "coupon": "3,50 %",
    "accruedInterest": "1,2182",
    "settleDate": "2023.01.30",
    "askEhmYield": "",
    "bidYield": "5,14",
    "rawName": "N2027/39",
    "bidPrice": "99,5000",
    "coupon_val": 3.5,
    "maturityInDays": "1700 nap",
    "securityType": "MÁP Plusz",
    "maturityDate": "2027.09.26",
    "name": "N2027/39",
    "bidEhmYield": "",
    "askYield": "",
    "currency": "HUF",
    "maturityInDays_val": 1700,
    "issueDate": "2022.09.26",
    "longName": "N270926"
}