{
    "askPrice": "",
    "green": 0,
    "coupon": "3,50 %",
    "accruedInterest": "1,4508",
    "settleDate": "2024.01.22",
    "askEhmYield": "",
    "bidYield": "5,43",
    "rawName": "N2027/39",
    "bidPrice": "99,5000",
    "coupon_val": 3.5,
    "maturityInDays": "1343 nap",
    "securityType": "MÁP Plusz",
    "maturityDate": "2027.09.26",
    "name": "N2027/39",
    "bidEhmYield": "",
    "askYield": "",
    "currency": "HUF",
    "maturityInDays_val": 1343,
    "issueDate": "2022.09.26",
    "longName": "N270926"
}