{
    "askPrice": "97,0503",
    "green": 0,
    "coupon": 0,
    "accruedInterest": 0,
    "settleDate": "2023.02.06",
    "askEhmYield": "14,04",
    "bidYield": "14,65",
    "rawName": "D230426",
    "bidPrice": "96,8853",
    "maturityInDays": "79 nap",
    "securityType": "DKJ",
    "maturityDate": "2023.04.26",
    "name": "D230426",
    "bidEhmYield": "14,85",
    "askYield": "13,85",
    "currency": "HUF",
    "maturityInDays_val": 79,
    "issueDate": "2023.01.25",
    "longName": "D230426"
}