{
    "askPrice": "97,8404",
    "green": 0,
    "coupon": 0,
    "accruedInterest": 0,
    "settleDate": "2023.02.27",
    "askEhmYield": "13,89",
    "bidYield": "15,00",
    "rawName": "D230426",
    "bidPrice": "97,6404",
    "maturityInDays": "58 nap",
    "securityType": "DKJ",
    "maturityDate": "2023.04.26",
    "name": "D230426",
    "bidEhmYield": "15,21",
    "askYield": "13,70",
    "currency": "HUF",
    "maturityInDays_val": 58,
    "issueDate": "2023.01.25",
    "longName": "D230426"
}