{
    "askPrice": "98,0948",
    "green": 0,
    "coupon": 0,
    "accruedInterest": 0,
    "settleDate": "2023.03.06",
    "askEhmYield": "13,90",
    "bidYield": "15,05",
    "rawName": "D230426",
    "bidPrice": "97,9124",
    "maturityInDays": "51 nap",
    "securityType": "DKJ",
    "maturityDate": "2023.04.26",
    "name": "D230426",
    "bidEhmYield": "15,26",
    "askYield": "13,71",
    "currency": "HUF",
    "maturityInDays_val": 51,
    "issueDate": "2023.01.25",
    "longName": "D230426"
}