{
    "askPrice": "",
    "green": 0,
    "coupon": 0,
    "accruedInterest": 0,
    "settleDate": "2023.04.04",
    "askEhmYield": "",
    "bidYield": "15,39",
    "rawName": "D230426",
    "bidPrice": "99,0683",
    "maturityInDays": "22 nap",
    "securityType": "DKJ",
    "maturityDate": "2023.04.26",
    "name": "D230426",
    "bidEhmYield": "15,60",
    "askYield": "",
    "currency": "HUF",
    "maturityInDays_val": 22,
    "issueDate": "2023.01.25",
    "longName": "D230426"
}