{
    "askPrice": "",
    "green": 0,
    "coupon": 0,
    "accruedInterest": 0,
    "settleDate": "2023.04.12",
    "askEhmYield": "",
    "bidYield": "14,81",
    "rawName": "D230426",
    "bidPrice": "99,4274",
    "maturityInDays": "14 nap",
    "securityType": "DKJ",
    "maturityDate": "2023.04.26",
    "name": "D230426",
    "bidEhmYield": "15,01",
    "askYield": "",
    "currency": "HUF",
    "maturityInDays_val": 14,
    "issueDate": "2023.01.25",
    "longName": "D230426"
}