{
    "askPrice": "97,6920",
    "green": 0,
    "coupon": 0,
    "accruedInterest": 0,
    "settleDate": "2023.02.22",
    "askEhmYield": "13,69",
    "bidYield": "14,80",
    "rawName": "D230426",
    "bidPrice": "97,4754",
    "maturityInDays": "63 nap",
    "securityType": "DKJ",
    "maturityDate": "2023.04.26",
    "name": "D230426",
    "bidEhmYield": "15,01",
    "askYield": "13,50",
    "currency": "HUF",
    "maturityInDays_val": 63,
    "issueDate": "2023.01.25",
    "longName": "D230426"
}