{
    "askPrice": "98,6335",
    "green": 0,
    "coupon": 0,
    "accruedInterest": 0,
    "settleDate": "2023.03.22",
    "askEhmYield": "14,45",
    "bidYield": "15,45",
    "rawName": "D230426",
    "bidPrice": "98,5201",
    "maturityInDays": "35 nap",
    "securityType": "DKJ",
    "maturityDate": "2023.04.26",
    "name": "D230426",
    "bidEhmYield": "15,67",
    "askYield": "14,25",
    "currency": "HUF",
    "maturityInDays_val": 35,
    "issueDate": "2023.01.25",
    "longName": "D230426"
}