{
    "askPrice": "",
    "green": 0,
    "coupon": "3,50 %",
    "accruedInterest": "1,6164",
    "settleDate": "2022.12.27",
    "askEhmYield": "",
    "bidYield": "5,74",
    "rawName": "N2025/35",
    "bidPrice": "99,5000",
    "coupon_val": 3.5,
    "maturityInDays": "978 nap",
    "securityType": "MÁP Plusz",
    "maturityDate": "2025.08.31",
    "name": "N2025/35",
    "bidEhmYield": "",
    "askYield": "",
    "currency": "HUF",
    "maturityInDays_val": 978,
    "issueDate": "2020.08.31",
    "longName": "N250831"
}