{
    "askPrice": "",
    "green": 0,
    "coupon": "3,50 %",
    "accruedInterest": "0,99",
    "settleDate": "2022.11.11",
    "askEhmYield": "",
    "bidYield": "5,71",
    "rawName": "N2025/35",
    "bidPrice": "99,50",
    "coupon_val": 3.5,
    "maturityInDays": "1024 nap",
    "securityType": "MÁP Plusz",
    "maturityDate": "2025.08.31",
    "name": "N2025/35",
    "bidEhmYield": "",
    "askYield": "",
    "currency": "HUF",
    "maturityInDays_val": 1024,
    "issueDate": "2020-08-31",
    "longName": "N250831"
}