{
    "askPrice": "",
    "green": 0,
    "coupon": "3,50 %",
    "accruedInterest": "0,36",
    "settleDate": "2022.09.26",
    "askEhmYield": "",
    "bidYield": "",
    "rawName": "N2025/35",
    "bidPrice": "99,50",
    "coupon_val": 3.5,
    "maturityInDays": "1070 nap",
    "securityType": "MÁP Plusz",
    "maturityDate": "2025.08.31",
    "name": "N2025/35",
    "bidEhmYield": "",
    "askYield": "",
    "currency": "HUF",
    "maturityInDays_val": 1070,
    "longName": "N250831"
}