{
    "askPrice": "",
    "green": 0,
    "coupon": "3,50 %",
    "accruedInterest": "3,1918",
    "settleDate": "2023.04.21",
    "askEhmYield": "",
    "bidYield": "5,84",
    "rawName": "N2025/35",
    "bidPrice": "99,5000",
    "coupon_val": 3.5,
    "maturityInDays": "863 nap",
    "securityType": "MÁP Plusz",
    "maturityDate": "2025.08.31",
    "name": "N2025/35",
    "bidEhmYield": "",
    "askYield": "",
    "currency": "HUF",
    "maturityInDays_val": 863,
    "issueDate": "2020.08.31",
    "longName": "N250831"
}