{
    "askPrice": "",
    "green": 0,
    "coupon": "3,50 %",
    "accruedInterest": "2,6027",
    "settleDate": "2023.03.09",
    "askEhmYield": "",
    "bidYield": "5,80",
    "rawName": "N2025/35",
    "bidPrice": "99,5000",
    "coupon_val": 3.5,
    "maturityInDays": "906 nap",
    "securityType": "MÁP Plusz",
    "maturityDate": "2025.08.31",
    "name": "N2025/35",
    "bidEhmYield": "",
    "askYield": "",
    "currency": "HUF",
    "maturityInDays_val": 906,
    "issueDate": "2020.08.31",
    "longName": "N250831"
}