{
    "askPrice": "",
    "green": 0,
    "coupon": "3,50 %",
    "accruedInterest": "3,2609",
    "settleDate": "2024.04.04",
    "askEhmYield": "",
    "bidYield": "6,20",
    "rawName": "N2025/35",
    "bidPrice": "99,5000",
    "coupon_val": 3.5,
    "maturityInDays": "514 nap",
    "securityType": "MÁP Plusz",
    "maturityDate": "2025.08.31",
    "name": "N2025/35",
    "bidEhmYield": "",
    "askYield": "",
    "currency": "HUF",
    "maturityInDays_val": 514,
    "issueDate": "2020.08.31",
    "longName": "N250831"
}