{
    "askPrice": "",
    "green": 0,
    "coupon": "3,50 %",
    "accruedInterest": "2,1639",
    "settleDate": "2024.01.22",
    "askEhmYield": "",
    "bidYield": "6,12",
    "rawName": "N2025/35",
    "bidPrice": "99,5000",
    "coupon_val": 3.5,
    "maturityInDays": "587 nap",
    "securityType": "MÁP Plusz",
    "maturityDate": "2025.08.31",
    "name": "N2025/35",
    "bidEhmYield": "",
    "askYield": "",
    "currency": "HUF",
    "maturityInDays_val": 587,
    "issueDate": "2020.08.31",
    "longName": "N250831"
}