{
    "askPrice": "",
    "green": 0,
    "coupon": 0,
    "accruedInterest": 0,
    "settleDate": "2023.03.23",
    "askEhmYield": "",
    "bidYield": "15,88",
    "rawName": "D230405",
    "bidPrice": "99,4298",
    "maturityInDays": "13 nap",
    "securityType": "DKJ",
    "maturityDate": "2023.04.05",
    "name": "D230405",
    "bidEhmYield": "16,10",
    "askYield": "",
    "currency": "HUF",
    "maturityInDays_val": 13,
    "issueDate": "2023.01.04",
    "longName": "D230405"
}