{
    "askPrice": "97,1133",
    "green": 0,
    "coupon": 0,
    "accruedInterest": 0,
    "settleDate": "2023.01.13",
    "askEhmYield": "13,23",
    "bidYield": "13,90",
    "rawName": "D230405",
    "bidPrice": "96,9311",
    "maturityInDays": "82 nap",
    "securityType": "DKJ",
    "maturityDate": "2023.04.05",
    "name": "D230405",
    "bidEhmYield": "14,09",
    "askYield": "13,05",
    "currency": "HUF",
    "maturityInDays_val": 82,
    "issueDate": "2023.01.04",
    "longName": "D230405"
}