{
    "askPrice": "97,6419",
    "green": 0,
    "coupon": 0,
    "accruedInterest": 0,
    "settleDate": "2023.02.01",
    "askEhmYield": "13,99",
    "bidYield": "14,69",
    "rawName": "D230405",
    "bidPrice": "97,4937",
    "maturityInDays": "63 nap",
    "securityType": "DKJ",
    "maturityDate": "2023.04.05",
    "name": "D230405",
    "bidEhmYield": "14,89",
    "askYield": "13,80",
    "currency": "HUF",
    "maturityInDays_val": 63,
    "issueDate": "2023.01.04",
    "longName": "D230405"
}