{
    "askPrice": "97,4849",
    "green": 0,
    "coupon": 0,
    "accruedInterest": 0,
    "settleDate": "2023.01.23",
    "askEhmYield": "13,08",
    "bidYield": "13,80",
    "rawName": "D230405",
    "bidPrice": "97,3141",
    "maturityInDays": "72 nap",
    "securityType": "DKJ",
    "maturityDate": "2023.04.05",
    "name": "D230405",
    "bidEhmYield": "13,99",
    "askYield": "12,90",
    "currency": "HUF",
    "maturityInDays_val": 72,
    "issueDate": "2023.01.04",
    "longName": "D230405"
}