{
    "askPrice": "",
    "green": 0,
    "coupon": 0,
    "accruedInterest": 0,
    "settleDate": "2023.03.28",
    "askEhmYield": "",
    "bidYield": "15,70",
    "rawName": "D230405",
    "bidPrice": "99,6523",
    "maturityInDays": "8 nap",
    "securityType": "DKJ",
    "maturityDate": "2023.04.05",
    "name": "D230405",
    "bidEhmYield": "15,92",
    "askYield": "",
    "currency": "HUF",
    "maturityInDays_val": 8,
    "issueDate": "2023.01.04",
    "longName": "D230405"
}