{
    "askPrice": "97,8910",
    "green": 0,
    "coupon": 0,
    "accruedInterest": 0,
    "settleDate": "2023.02.08",
    "askEhmYield": "14,04",
    "bidYield": "14,70",
    "rawName": "D230405",
    "bidPrice": "97,7645",
    "maturityInDays": "56 nap",
    "securityType": "DKJ",
    "maturityDate": "2023.04.05",
    "name": "D230405",
    "bidEhmYield": "14,90",
    "askYield": "13,85",
    "currency": "HUF",
    "maturityInDays_val": 56,
    "issueDate": "2023.01.04",
    "longName": "D230405"
}