{
    "askPrice": "",
    "green": 0,
    "coupon": null,
    "accruedInterest": "3,31",
    "settleDate": "2022.08.25",
    "askEhmYield": "",
    "bidYield": "",
    "rawName": "2025/I",
    "bidPrice": "99,00",
    "maturityInDays": "910 nap",
    "securityType": "PMÁP",
    "maturityDate": "2025.02.20",
    "name": "2025/I",
    "bidEhmYield": "",
    "askYield": "",
    "currency": "HUF",
    "maturityInDays_val": 910,
    "longName": "A250220I19"
}