{
    "askPrice": "",
    "green": 0,
    "coupon": null,
    "accruedInterest": "2,39",
    "settleDate": "2022.07.04",
    "askEhmYield": "",
    "bidYield": "",
    "rawName": "2025/I",
    "bidPrice": "99,00",
    "maturityInDays": "962 nap",
    "securityType": "PMÁP",
    "maturityDate": "2025.02.20",
    "name": "2025/I",
    "bidEhmYield": "",
    "askYield": "",
    "currency": "HUF",
    "maturityInDays_val": 962,
    "longName": "A250220I19"
}