{
    "askPrice": "",
    "green": 0,
    "coupon": null,
    "accruedInterest": "4,77",
    "settleDate": "2022.11.15",
    "askEhmYield": "",
    "bidYield": "",
    "rawName": "2025/I",
    "bidPrice": "99,00",
    "maturityInDays": "828 nap",
    "securityType": "PMÁP",
    "maturityDate": "2025.02.20",
    "name": "2025/I",
    "bidEhmYield": "",
    "askYield": "",
    "currency": "HUF",
    "maturityInDays_val": 828,
    "issueDate": "2019-11-05",
    "longName": "A250220I19"
}