{
    "askPrice": "",
    "green": 0,
    "coupon": null,
    "accruedInterest": "1,6553",
    "settleDate": "2023.03.30",
    "askEhmYield": "",
    "bidYield": "",
    "rawName": "2025/I",
    "bidPrice": "99,0000",
    "maturityInDays": "693 nap",
    "securityType": "PMÁP",
    "maturityDate": "2025.02.20",
    "name": "2025/I",
    "bidEhmYield": "",
    "askYield": "",
    "currency": "HUF",
    "maturityInDays_val": 693,
    "issueDate": "2019.11.05",
    "longName": "A250220I19"
}