{
    "askPrice": "",
    "green": 0,
    "coupon": null,
    "accruedInterest": "12,5022",
    "settleDate": "2023.12.04",
    "askEhmYield": "",
    "bidYield": "",
    "rawName": "2025/I",
    "bidPrice": "99,0000",
    "maturityInDays": "444 nap",
    "securityType": "PMÁP",
    "maturityDate": "2025.02.20",
    "name": "2025/I",
    "bidEhmYield": "",
    "askYield": "",
    "currency": "HUF",
    "maturityInDays_val": 444,
    "issueDate": "2019.11.05",
    "longName": "A250220I19"
}