{
    "askPrice": "",
    "green": 0,
    "coupon": "3,00 %",
    "accruedInterest": "2,47",
    "settleDate": "2022.10.18",
    "askEhmYield": "",
    "bidYield": "5,88",
    "rawName": "K2022/51",
    "bidPrice": "99,50",
    "coupon_val": 3,
    "maturityInDays": "64 nap",
    "securityType": "1MÁP",
    "maturityDate": "2022.12.21",
    "name": "K2022/51",
    "bidEhmYield": "5,74",
    "askYield": "",
    "currency": "HUF",
    "maturityInDays_val": 64,
    "longName": "K221221"
}