{
    "askPrice": "",
    "green": 0,
    "coupon": "3,00 %",
    "accruedInterest": "2,9507",
    "settleDate": "2022.12.15",
    "askEhmYield": "",
    "bidYield": "46,92",
    "rawName": "K2022/51",
    "bidPrice": "99,4000",
    "coupon_val": 3,
    "maturityInDays": "6 nap",
    "securityType": "1MÁP",
    "maturityDate": "2022.12.21",
    "name": "K2022/51",
    "bidEhmYield": "38,59",
    "askYield": "",
    "currency": "HUF",
    "maturityInDays_val": 6,
    "issueDate": "2021.12.21",
    "longName": "K221221"
}