{
    "askPrice": "",
    "green": 0,
    "coupon": "3,00 %",
    "accruedInterest": "2,72",
    "settleDate": "2022.11.17",
    "askEhmYield": "",
    "bidYield": "8,50",
    "rawName": "K2022/51",
    "bidPrice": "99,50",
    "coupon_val": 3,
    "maturityInDays": "34 nap",
    "securityType": "1MÁP",
    "maturityDate": "2022.12.21",
    "name": "K2022/51",
    "bidEhmYield": "8,19",
    "askYield": "",
    "currency": "HUF",
    "maturityInDays_val": 34,
    "issueDate": "2021-12-21",
    "longName": "K221221"
}