{
    "askPrice": "",
    "green": 0,
    "coupon": "3,00 %",
    "accruedInterest": "1,55",
    "settleDate": "2022.06.28",
    "askEhmYield": "",
    "bidYield": "",
    "rawName": "K2022/51",
    "bidPrice": "99,50",
    "coupon_val": 3,
    "maturityInDays": "176 nap",
    "securityType": "1MÁP",
    "maturityDate": "2022.12.21",
    "name": "K2022/51",
    "bidEhmYield": "4,00",
    "askYield": "",
    "currency": "HUF",
    "maturityInDays_val": 176,
    "longName": "K221221"
}