{
    "askPrice": "",
    "green": 0,
    "coupon": "3,50 %",
    "accruedInterest": "4,12",
    "settleDate": "2022.11.10",
    "askEhmYield": "",
    "bidYield": "5,92",
    "rawName": "N2025/02",
    "bidPrice": "99,50",
    "coupon_val": 3.5,
    "maturityInDays": "795 nap",
    "securityType": "MÁP Plusz",
    "maturityDate": "2025.01.13",
    "name": "N2025/02",
    "bidEhmYield": "",
    "askYield": "",
    "currency": "HUF",
    "maturityInDays_val": 795,
    "issueDate": "2020-01-13",
    "longName": "N250113"
}