{
    "askPrice": "",
    "green": 0,
    "coupon": "3,50 %",
    "accruedInterest": "4,6164",
    "settleDate": "2022.12.16",
    "askEhmYield": "",
    "bidYield": "5,97",
    "rawName": "N2025/02",
    "bidPrice": "99,5000",
    "coupon_val": 3.5,
    "maturityInDays": "759 nap",
    "securityType": "MÁP Plusz",
    "maturityDate": "2025.01.13",
    "name": "N2025/02",
    "bidEhmYield": "",
    "askYield": "",
    "currency": "HUF",
    "maturityInDays_val": 759,
    "issueDate": "2020.01.13",
    "longName": "N250113"
}