{
    "askPrice": "",
    "green": 0,
    "coupon": "3,50 %",
    "accruedInterest": "4,18",
    "settleDate": "2022.11.14",
    "askEhmYield": "",
    "bidYield": "5,93",
    "rawName": "N2025/02",
    "bidPrice": "99,50",
    "coupon_val": 3.5,
    "maturityInDays": "791 nap",
    "securityType": "MÁP Plusz",
    "maturityDate": "2025.01.13",
    "name": "N2025/02",
    "bidEhmYield": "",
    "askYield": "",
    "currency": "HUF",
    "maturityInDays_val": 791,
    "issueDate": "2020-01-13",
    "longName": "N250113"
}