{
    "askPrice": "",
    "green": 0,
    "coupon": "3,50 %",
    "accruedInterest": "0,1055",
    "settleDate": "2023.01.20",
    "askEhmYield": "",
    "bidYield": "5,74",
    "rawName": "N2025/02",
    "bidPrice": "100,0000",
    "coupon_val": 3.5,
    "maturityInDays": "724 nap",
    "securityType": "MÁP Plusz",
    "maturityDate": "2025.01.13",
    "name": "N2025/02",
    "bidEhmYield": "",
    "askYield": "",
    "currency": "HUF",
    "maturityInDays_val": 724,
    "issueDate": "2020.01.13",
    "longName": "N250113"
}