{
    "askPrice": "",
    "green": 0,
    "coupon": "3,50 %",
    "accruedInterest": "5,2589",
    "settleDate": "2023.12.28",
    "askEhmYield": "",
    "bidYield": "6,48",
    "rawName": "N2025/02",
    "bidPrice": "99,5000",
    "coupon_val": 3.5,
    "maturityInDays": "382 nap",
    "securityType": "MÁP Plusz",
    "maturityDate": "2025.01.13",
    "name": "N2025/02",
    "bidEhmYield": "",
    "askYield": "",
    "currency": "HUF",
    "maturityInDays_val": 382,
    "issueDate": "2020.01.13",
    "longName": "N250113"
}