{
    "askPrice": "",
    "green": 0,
    "coupon": "3,50 %",
    "accruedInterest": "0,5082",
    "settleDate": "2024.02.13",
    "askEhmYield": "",
    "bidYield": "6,56",
    "rawName": "N2025/02",
    "bidPrice": "99,5000",
    "coupon_val": 3.5,
    "maturityInDays": "335 nap",
    "securityType": "MÁP Plusz",
    "maturityDate": "2025.01.13",
    "name": "N2025/02",
    "bidEhmYield": "",
    "askYield": "",
    "currency": "HUF",
    "maturityInDays_val": 335,
    "issueDate": "2020.01.13",
    "longName": "N250113"
}