{
    "askPrice": "",
    "green": 0,
    "coupon": "3,50 %",
    "accruedInterest": "0,79",
    "settleDate": "2022.11.02",
    "askEhmYield": "",
    "bidYield": "5,40",
    "rawName": "N2026/35",
    "bidPrice": "99,50",
    "coupon_val": 3.5,
    "maturityInDays": "1397 nap",
    "securityType": "MÁP Plusz",
    "maturityDate": "2026.08.30",
    "name": "N2026/35",
    "bidEhmYield": "",
    "askYield": "",
    "currency": "HUF",
    "maturityInDays_val": 1397,
    "issueDate": "2021-08-30",
    "longName": "N260830"
}