{
    "askPrice": "",
    "green": 0,
    "coupon": "3,50 %",
    "accruedInterest": "1,9126",
    "settleDate": "2024.01.17",
    "askEhmYield": "",
    "bidYield": "5,76",
    "rawName": "N2026/35",
    "bidPrice": "99,5000",
    "coupon_val": 3.5,
    "maturityInDays": "956 nap",
    "securityType": "MÁP Plusz",
    "maturityDate": "2026.08.30",
    "name": "N2026/35",
    "bidEhmYield": "",
    "askYield": "",
    "currency": "HUF",
    "maturityInDays_val": 956,
    "issueDate": "2021.08.30",
    "longName": "N260830"
}