{
    "askPrice": "",
    "green": 0,
    "coupon": "3,50 %",
    "accruedInterest": "3,0738",
    "settleDate": "2024.04.11",
    "askEhmYield": "",
    "bidYield": "5,83",
    "rawName": "N2026/35",
    "bidPrice": "99,5000",
    "coupon_val": 3.5,
    "maturityInDays": "871 nap",
    "securityType": "MÁP Plusz",
    "maturityDate": "2026.08.30",
    "name": "N2026/35",
    "bidEhmYield": "",
    "askYield": "",
    "currency": "HUF",
    "maturityInDays_val": 871,
    "issueDate": "2021.08.30",
    "longName": "N260830"
}