{
    "askPrice": "",
    "green": 0,
    "coupon": null,
    "accruedInterest": "3,6393",
    "settleDate": "2023.12.14",
    "askEhmYield": "",
    "bidYield": "",
    "rawName": "2025/Y_EUR",
    "bidPrice": "",
    "maturityInDays": "734 nap",
    "securityType": "PEMÁP",
    "maturityDate": "2025.12.17",
    "name": "2025/Y_EUR",
    "bidEhmYield": "",
    "askYield": "",
    "currency": "EUR",
    "maturityInDays_val": 734,
    "issueDate": "2021.12.14",
    "longName": "C251217Y21"
}