{
    "askPrice": "",
    "green": 0,
    "coupon": null,
    "accruedInterest": "0,5257",
    "settleDate": "2023.07.13",
    "askEhmYield": "",
    "bidYield": "",
    "rawName": "2025/Y_EUR",
    "bidPrice": "99,0000",
    "maturityInDays": "888 nap",
    "securityType": "PEMÁP",
    "maturityDate": "2025.12.17",
    "name": "2025/Y_EUR",
    "bidEhmYield": "",
    "askYield": "",
    "currency": "EUR",
    "maturityInDays_val": 888,
    "issueDate": "2021.12.14",
    "longName": "C251217Y21"
}