{
    "askPrice": "",
    "green": 0,
    "coupon": "3,50 %",
    "accruedInterest": "1,47",
    "settleDate": "2022.10.28",
    "askEhmYield": "",
    "bidYield": "5,73",
    "rawName": "N2025/28",
    "bidPrice": "99,50",
    "coupon_val": 3.5,
    "maturityInDays": "989 nap",
    "securityType": "MÁP Plusz",
    "maturityDate": "2025.07.13",
    "name": "N2025/28",
    "bidEhmYield": "",
    "askYield": "",
    "currency": "HUF",
    "maturityInDays_val": 989,
    "longName": "N250713"
}