{
    "askPrice": "",
    "green": 0,
    "coupon": "3,50 %",
    "accruedInterest": "1,75",
    "settleDate": "2022.11.18",
    "askEhmYield": "",
    "bidYield": "5,75",
    "rawName": "N2025/28",
    "bidPrice": "99,50",
    "coupon_val": 3.5,
    "maturityInDays": "968 nap",
    "securityType": "MÁP Plusz",
    "maturityDate": "2025.07.13",
    "name": "N2025/28",
    "bidEhmYield": "",
    "askYield": "",
    "currency": "HUF",
    "maturityInDays_val": 968,
    "issueDate": "2020-07-13",
    "longName": "N250713"
}