{
    "askPrice": "",
    "green": 0,
    "coupon": "3,50 %",
    "accruedInterest": "0,89",
    "settleDate": "2022.09.16",
    "askEhmYield": "",
    "bidYield": "",
    "rawName": "N2025/28",
    "bidPrice": "99,50",
    "coupon_val": 3.5,
    "maturityInDays": "1031 nap",
    "securityType": "MÁP Plusz",
    "maturityDate": "2025.07.13",
    "name": "N2025/28",
    "bidEhmYield": "",
    "askYield": "",
    "currency": "HUF",
    "maturityInDays_val": 1031,
    "longName": "N250713"
}