{
    "askPrice": "",
    "green": 0,
    "coupon": "3,50 %",
    "accruedInterest": "3,6438",
    "settleDate": "2023.04.05",
    "askEhmYield": "",
    "bidYield": "5,88",
    "rawName": "N2025/28",
    "bidPrice": "99,5000",
    "coupon_val": 3.5,
    "maturityInDays": "830 nap",
    "securityType": "MÁP Plusz",
    "maturityDate": "2025.07.13",
    "name": "N2025/28",
    "bidEhmYield": "",
    "askYield": "",
    "currency": "HUF",
    "maturityInDays_val": 830,
    "issueDate": "2020.07.13",
    "longName": "N250713"
}