{
    "askPrice": "",
    "green": 0,
    "coupon": "3,50 %",
    "accruedInterest": "1,6981",
    "settleDate": "2023.11.03",
    "askEhmYield": "",
    "bidYield": "6,09",
    "rawName": "N2025/28",
    "bidPrice": "99,5000",
    "coupon_val": 3.5,
    "maturityInDays": "618 nap",
    "securityType": "MÁP Plusz",
    "maturityDate": "2025.07.13",
    "name": "N2025/28",
    "bidEhmYield": "",
    "askYield": "",
    "currency": "HUF",
    "maturityInDays_val": 618,
    "issueDate": "2020.07.13",
    "longName": "N250713"
}