{
    "askPrice": "",
    "green": 0,
    "coupon": "3,50 %",
    "accruedInterest": "2,9303",
    "settleDate": "2024.01.24",
    "askEhmYield": "",
    "bidYield": "6,17",
    "rawName": "N2025/28",
    "bidPrice": "99,5000",
    "coupon_val": 3.5,
    "maturityInDays": "536 nap",
    "securityType": "MÁP Plusz",
    "maturityDate": "2025.07.13",
    "name": "N2025/28",
    "bidEhmYield": "",
    "askYield": "",
    "currency": "HUF",
    "maturityInDays_val": 536,
    "issueDate": "2020.07.13",
    "longName": "N250713"
}