{
    "askPrice": "",
    "green": 0,
    "coupon": "3,50 %",
    "accruedInterest": "4,4781",
    "settleDate": "2024.05.06",
    "askEhmYield": "",
    "bidYield": "6,35",
    "rawName": "N2025/28",
    "bidPrice": "99,5000",
    "coupon_val": 3.5,
    "maturityInDays": "433 nap",
    "securityType": "MÁP Plusz",
    "maturityDate": "2025.07.13",
    "name": "N2025/28",
    "bidEhmYield": "",
    "askYield": "",
    "currency": "HUF",
    "maturityInDays_val": 433,
    "issueDate": "2020.07.13",
    "longName": "N250713"
}