{
    "askPrice": "",
    "green": 0,
    "coupon": "3,50 %",
    "accruedInterest": "0,1749",
    "settleDate": "2024.05.10",
    "askEhmYield": "",
    "bidYield": "5,21",
    "rawName": "N2028/43",
    "bidPrice": "99,5000",
    "coupon_val": 3.5,
    "maturityInDays": "1628 nap",
    "securityType": "MÁP Plusz",
    "maturityDate": "2028.10.24",
    "name": "N2028/43",
    "bidEhmYield": "",
    "askYield": "",
    "currency": "HUF",
    "maturityInDays_val": 1628,
    "issueDate": "2023.10.24",
    "longName": "N281024"
}