{
    "askPrice": "",
    "green": 0,
    "coupon": "3,50 %",
    "accruedInterest": "1,7115",
    "settleDate": "2024.05.09",
    "askEhmYield": "",
    "bidYield": "",
    "rawName": "N2028/46",
    "bidPrice": "",
    "coupon_val": 3.5,
    "maturityInDays": "1649 nap",
    "securityType": "MÁP Plusz",
    "maturityDate": "2028.11.13",
    "name": "N2028/46",
    "bidEhmYield": "",
    "askYield": "",
    "currency": "HUF",
    "maturityInDays_val": 1649,
    "issueDate": "2023.11.13",
    "longName": "N281113"
}