{
    "askPrice": "",
    "green": 0,
    "coupon": "3,50 %",
    "accruedInterest": "1,3750",
    "settleDate": "2024.04.04",
    "askEhmYield": "",
    "bidYield": "5,16",
    "rawName": "N2028/46",
    "bidPrice": "99,5000",
    "coupon_val": 3.5,
    "maturityInDays": "1684 nap",
    "securityType": "MÁP Plusz",
    "maturityDate": "2028.11.13",
    "name": "N2028/46",
    "bidEhmYield": "",
    "askYield": "",
    "currency": "HUF",
    "maturityInDays_val": 1684,
    "issueDate": "2023.11.13",
    "longName": "N281113"
}