{
    "askPrice": "",
    "green": 0,
    "coupon": "3,50 %",
    "accruedInterest": "1,0411",
    "settleDate": "2022.12.20",
    "askEhmYield": "",
    "bidYield": "5,71",
    "rawName": "N2025/40",
    "bidPrice": "99,5000",
    "coupon_val": 3.5,
    "maturityInDays": "1020 nap",
    "securityType": "MÁP Plusz",
    "maturityDate": "2025.10.05",
    "name": "N2025/40",
    "bidEhmYield": "",
    "askYield": "",
    "currency": "HUF",
    "maturityInDays_val": 1020,
    "issueDate": "2020.10.05",
    "longName": "N251005"
}