{
    "askPrice": "",
    "green": 0,
    "coupon": "3,50 %",
    "accruedInterest": "3,35",
    "settleDate": "2022.07.04",
    "askEhmYield": "",
    "bidYield": "",
    "rawName": "N2025/40",
    "bidPrice": "99,50",
    "coupon_val": 3.5,
    "maturityInDays": "1189 nap",
    "securityType": "MÁP Plusz",
    "maturityDate": "2025.10.05",
    "name": "N2025/40",
    "bidEhmYield": "",
    "askYield": "",
    "currency": "HUF",
    "maturityInDays_val": 1189,
    "longName": "N251005"
}