{
    "askPrice": "",
    "green": 0,
    "coupon": "3,50 %",
    "accruedInterest": "0,30",
    "settleDate": "2022.10.27",
    "askEhmYield": "",
    "bidYield": "5,68",
    "rawName": "N2025/40",
    "bidPrice": "99,50",
    "coupon_val": 3.5,
    "maturityInDays": "1074 nap",
    "securityType": "MÁP Plusz",
    "maturityDate": "2025.10.05",
    "name": "N2025/40",
    "bidEhmYield": "",
    "askYield": "",
    "currency": "HUF",
    "maturityInDays_val": 1074,
    "longName": "N251005"
}