{
    "askPrice": "",
    "green": 0,
    "coupon": "3,50 %",
    "accruedInterest": "0,3757",
    "settleDate": "2023.10.30",
    "askEhmYield": "",
    "bidYield": "6,03",
    "rawName": "N2025/40",
    "bidPrice": "99,5000",
    "coupon_val": 3.5,
    "maturityInDays": "706 nap",
    "securityType": "MÁP Plusz",
    "maturityDate": "2025.10.05",
    "name": "N2025/40",
    "bidEhmYield": "",
    "askYield": "",
    "currency": "HUF",
    "maturityInDays_val": 706,
    "issueDate": "2020.10.05",
    "longName": "N251005"
}