{
    "askPrice": "",
    "green": 0,
    "coupon": "3,50 %",
    "accruedInterest": "2,4795",
    "settleDate": "2023.04.04",
    "askEhmYield": "",
    "bidYield": "5,79",
    "rawName": "N2025/40",
    "bidPrice": "99,5000",
    "coupon_val": 3.5,
    "maturityInDays": "915 nap",
    "securityType": "MÁP Plusz",
    "maturityDate": "2025.10.05",
    "name": "N2025/40",
    "bidEhmYield": "",
    "askYield": "",
    "currency": "HUF",
    "maturityInDays_val": 915,
    "issueDate": "2020.10.05",
    "longName": "N251005"
}