{
    "askPrice": "",
    "green": 0,
    "coupon": "3,50 %",
    "accruedInterest": "2,30",
    "settleDate": "2022.11.02",
    "askEhmYield": "",
    "bidYield": "5,78",
    "rawName": "N2025/20",
    "bidPrice": "99,50",
    "coupon_val": 3.5,
    "maturityInDays": "928 nap",
    "securityType": "MÁP Plusz",
    "maturityDate": "2025.05.18",
    "name": "N2025/20",
    "bidEhmYield": "",
    "askYield": "",
    "currency": "HUF",
    "maturityInDays_val": 928,
    "issueDate": "2020-05-18",
    "longName": "N250518"
}