{
    "askPrice": "",
    "green": 0,
    "coupon": "3,50 %",
    "accruedInterest": "0,8415",
    "settleDate": "2023.07.13",
    "askEhmYield": "",
    "bidYield": "6,05",
    "rawName": "N2025/20",
    "bidPrice": "99,5000",
    "coupon_val": 3.5,
    "maturityInDays": "675 nap",
    "securityType": "MÁP Plusz",
    "maturityDate": "2025.05.18",
    "name": "N2025/20",
    "bidEhmYield": "",
    "askYield": "",
    "currency": "HUF",
    "maturityInDays_val": 675,
    "issueDate": "2020.05.18",
    "longName": "N250518"
}