{
    "askPrice": "",
    "green": 0,
    "coupon": "3,50 %",
    "accruedInterest": "3,6712",
    "settleDate": "2023.02.10",
    "askEhmYield": "",
    "bidYield": "5,88",
    "rawName": "N2025/20",
    "bidPrice": "99,5000",
    "coupon_val": 3.5,
    "maturityInDays": "828 nap",
    "securityType": "MÁP Plusz",
    "maturityDate": "2025.05.18",
    "name": "N2025/20",
    "bidEhmYield": "",
    "askYield": "",
    "currency": "HUF",
    "maturityInDays_val": 828,
    "issueDate": "2020.05.18",
    "longName": "N250518"
}