{
    "askPrice": "",
    "green": 0,
    "coupon": "3,50 %",
    "accruedInterest": "3,4563",
    "settleDate": "2024.01.03",
    "askEhmYield": "",
    "bidYield": "6,22",
    "rawName": "N2025/20",
    "bidPrice": "99,5000",
    "coupon_val": 3.5,
    "maturityInDays": "501 nap",
    "securityType": "MÁP Plusz",
    "maturityDate": "2025.05.18",
    "name": "N2025/20",
    "bidEhmYield": "",
    "askYield": "",
    "currency": "HUF",
    "maturityInDays_val": 501,
    "issueDate": "2020.05.18",
    "longName": "N250518"
}