{
    "askPrice": "",
    "green": 0,
    "coupon": "3,50 %",
    "accruedInterest": "5,4249",
    "settleDate": "2024.05.13",
    "askEhmYield": "",
    "bidYield": "6,52",
    "rawName": "N2025/20",
    "bidPrice": "99,5000",
    "coupon_val": 3.5,
    "maturityInDays": "370 nap",
    "securityType": "MÁP Plusz",
    "maturityDate": "2025.05.18",
    "name": "N2025/20",
    "bidEhmYield": "",
    "askYield": "",
    "currency": "HUF",
    "maturityInDays_val": 370,
    "issueDate": "2020.05.18",
    "longName": "N250518"
}