{
    "askPrice": "",
    "green": 0,
    "coupon": "3,50 %",
    "accruedInterest": "0,6120",
    "settleDate": "2023.12.12",
    "askEhmYield": "",
    "bidYield": "5,25",
    "rawName": "N2028/16",
    "bidPrice": "99,5000",
    "coupon_val": 3.5,
    "maturityInDays": "1588 nap",
    "securityType": "MÁP Plusz",
    "maturityDate": "2028.04.17",
    "name": "N2028/16",
    "bidEhmYield": "",
    "askYield": "",
    "currency": "HUF",
    "maturityInDays_val": 1588,
    "issueDate": "2023.04.17",
    "longName": "N280417"
}