{
    "askPrice": "",
    "green": 0,
    "coupon": "3,50 %",
    "accruedInterest": "0,0616",
    "settleDate": "2024.04.22",
    "askEhmYield": "",
    "bidYield": "5,22",
    "rawName": "N2028/16",
    "bidPrice": "100,0000",
    "coupon_val": 3.5,
    "maturityInDays": "1456 nap",
    "securityType": "MÁP Plusz",
    "maturityDate": "2028.04.17",
    "name": "N2028/16",
    "bidEhmYield": "",
    "askYield": "",
    "currency": "HUF",
    "maturityInDays_val": 1456,
    "issueDate": "2023.04.17",
    "longName": "N280417"
}