{
    "askPrice": "",
    "green": 0,
    "coupon": "3,50 %",
    "accruedInterest": "0,2342",
    "settleDate": "2024.05.06",
    "askEhmYield": "",
    "bidYield": "5,37",
    "rawName": "N2028/16",
    "bidPrice": "99,5000",
    "coupon_val": 3.5,
    "maturityInDays": "1442 nap",
    "securityType": "MÁP Plusz",
    "maturityDate": "2028.04.17",
    "name": "N2028/16",
    "bidEhmYield": "",
    "askYield": "",
    "currency": "HUF",
    "maturityInDays_val": 1442,
    "issueDate": "2023.04.17",
    "longName": "N280417"
}