{
    "askPrice": "",
    "green": 0,
    "coupon": "3,50 %",
    "accruedInterest": "1,9781",
    "settleDate": "2024.04.15",
    "askEhmYield": "",
    "bidYield": "",
    "rawName": "N2028/16",
    "bidPrice": "",
    "coupon_val": 3.5,
    "maturityInDays": "1463 nap",
    "securityType": "MÁP Plusz",
    "maturityDate": "2028.04.17",
    "name": "N2028/16",
    "bidEhmYield": "",
    "askYield": "",
    "currency": "HUF",
    "maturityInDays_val": 1463,
    "issueDate": "2023.04.17",
    "longName": "N280417"
}