{
    "askPrice": "100,0000",
    "green": 0,
    "coupon": null,
    "accruedInterest": "0,2190",
    "settleDate": "2023.10.30",
    "askEhmYield": "",
    "bidYield": "",
    "rawName": "2026/O",
    "bidPrice": "99,0000",
    "maturityInDays": "1087 nap",
    "securityType": "BMÁP",
    "maturityDate": "2026.10.21",
    "name": "2026/O",
    "bidEhmYield": "",
    "askYield": "",
    "currency": "HUF",
    "maturityInDays_val": 1087,
    "issueDate": "2023.02.22",
    "longName": "A261021O23"
}