{
    "askPrice": "100,0000",
    "green": 0,
    "coupon": null,
    "accruedInterest": "2,4502",
    "settleDate": "2023.10.03",
    "askEhmYield": "",
    "bidYield": "",
    "rawName": "2026/O",
    "bidPrice": "99,0000",
    "maturityInDays": "1114 nap",
    "securityType": "BMÁP",
    "maturityDate": "2026.10.21",
    "name": "2026/O",
    "bidEhmYield": "",
    "askYield": "",
    "currency": "HUF",
    "maturityInDays_val": 1114,
    "issueDate": "2023.02.22",
    "longName": "A261021O23"
}