{
    "askPrice": "",
    "green": 0,
    "coupon": null,
    "accruedInterest": "1,0105",
    "settleDate": "2024.03.08",
    "askEhmYield": "",
    "bidYield": "",
    "rawName": "2026/O",
    "bidPrice": "99,0000",
    "maturityInDays": "957 nap",
    "securityType": "BMÁP",
    "maturityDate": "2026.10.21",
    "name": "2026/O",
    "bidEhmYield": "",
    "askYield": "",
    "currency": "HUF",
    "maturityInDays_val": 957,
    "issueDate": "2023.02.22",
    "longName": "A261021O23"
}