{
    "askPrice": "",
    "green": 0,
    "coupon": null,
    "accruedInterest": "0,2150",
    "settleDate": "2024.01.31",
    "askEhmYield": "",
    "bidYield": "",
    "rawName": "2026/O",
    "bidPrice": "99,0000",
    "maturityInDays": "994 nap",
    "securityType": "BMÁP",
    "maturityDate": "2026.10.21",
    "name": "2026/O",
    "bidEhmYield": "",
    "askYield": "",
    "currency": "HUF",
    "maturityInDays_val": 994,
    "issueDate": "2023.02.22",
    "longName": "A261021O23"
}