{
    "askPrice": "",
    "green": 0,
    "coupon": "8,00 %",
    "accruedInterest": "1,3808",
    "settleDate": "2024.02.13",
    "askEhmYield": "",
    "bidYield": "9,21",
    "rawName": "K2024/50",
    "bidPrice": "99,0000",
    "coupon_val": 8,
    "maturityInDays": "303 nap",
    "securityType": "1MÁP",
    "maturityDate": "2024.12.12",
    "name": "K2024/50",
    "bidEhmYield": "9,14",
    "askYield": "",
    "currency": "HUF",
    "maturityInDays_val": 303,
    "issueDate": "2023.12.12",
    "longName": "K241212"
}