{
    "askPrice": "",
    "green": 0,
    "coupon": "8,00 %",
    "accruedInterest": "2,5863",
    "settleDate": "2024.04.09",
    "askEhmYield": "",
    "bidYield": "9,47",
    "rawName": "K2024/50",
    "bidPrice": "99,0000",
    "coupon_val": 8,
    "maturityInDays": "247 nap",
    "securityType": "1MÁP",
    "maturityDate": "2024.12.12",
    "name": "K2024/50",
    "bidEhmYield": "9,30",
    "askYield": "",
    "currency": "HUF",
    "maturityInDays_val": 247,
    "issueDate": "2023.12.12",
    "longName": "K241212"
}