{
    "askPrice": "",
    "green": 0,
    "coupon": "8,00 %",
    "accruedInterest": "2,2575",
    "settleDate": "2024.03.25",
    "askEhmYield": "",
    "bidYield": "9,40",
    "rawName": "K2024/50",
    "bidPrice": "99,0000",
    "coupon_val": 8,
    "maturityInDays": "262 nap",
    "securityType": "1MÁP",
    "maturityDate": "2024.12.12",
    "name": "K2024/50",
    "bidEhmYield": "9,24",
    "askYield": "",
    "currency": "HUF",
    "maturityInDays_val": 262,
    "issueDate": "2023.12.12",
    "longName": "K241212"
}