{
    "askPrice": "",
    "green": 0,
    "coupon": "8,00 %",
    "accruedInterest": "0,9644",
    "settleDate": "2024.01.25",
    "askEhmYield": "",
    "bidYield": "9,16",
    "rawName": "K2024/50",
    "bidPrice": "99,0000",
    "coupon_val": 8,
    "maturityInDays": "322 nap",
    "securityType": "1MÁP",
    "maturityDate": "2024.12.12",
    "name": "K2024/50",
    "bidEhmYield": "9,11",
    "askYield": "",
    "currency": "HUF",
    "maturityInDays_val": 322,
    "issueDate": "2023.12.12",
    "longName": "K241212"
}