{
    "askPrice": "",
    "green": 0,
    "coupon": "3,50 %",
    "accruedInterest": "1,03",
    "settleDate": "2022.10.24",
    "askEhmYield": "",
    "bidYield": "5,71",
    "rawName": "N2025/32",
    "bidPrice": "99,50",
    "coupon_val": 3.5,
    "maturityInDays": "1021 nap",
    "securityType": "MÁP Plusz",
    "maturityDate": "2025.08.10",
    "name": "N2025/32",
    "bidEhmYield": "",
    "askYield": "",
    "currency": "HUF",
    "maturityInDays_val": 1021,
    "longName": "N250810"
}