{
    "askPrice": "",
    "green": 0,
    "coupon": "3,50 %",
    "accruedInterest": "1,15",
    "settleDate": "2022.11.02",
    "askEhmYield": "",
    "bidYield": "5,72",
    "rawName": "N2025/32",
    "bidPrice": "99,50",
    "coupon_val": 3.5,
    "maturityInDays": "1012 nap",
    "securityType": "MÁP Plusz",
    "maturityDate": "2025.08.10",
    "name": "N2025/32",
    "bidEhmYield": "",
    "askYield": "",
    "currency": "HUF",
    "maturityInDays_val": 1012,
    "issueDate": "2020-08-10",
    "longName": "N250810"
}