{
    "askPrice": "",
    "green": 0,
    "coupon": "3,50 %",
    "accruedInterest": "4,39",
    "settleDate": "2022.08.01",
    "askEhmYield": "",
    "bidYield": "",
    "rawName": "N2025/32",
    "bidPrice": "99,50",
    "coupon_val": 3.5,
    "maturityInDays": "1105 nap",
    "securityType": "MÁP Plusz",
    "maturityDate": "2025.08.10",
    "name": "N2025/32",
    "bidEhmYield": "",
    "askYield": "",
    "currency": "HUF",
    "maturityInDays_val": 1105,
    "longName": "N250810"
}