{
    "askPrice": "",
    "green": 0,
    "coupon": "3,50 %",
    "accruedInterest": "0,0902",
    "settleDate": "2023.08.16",
    "askEhmYield": "",
    "bidYield": "5,74",
    "rawName": "N2025/32",
    "bidPrice": "100,0000",
    "coupon_val": 3.5,
    "maturityInDays": "725 nap",
    "securityType": "MÁP Plusz",
    "maturityDate": "2025.08.10",
    "name": "N2025/32",
    "bidEhmYield": "",
    "askYield": "",
    "currency": "HUF",
    "maturityInDays_val": 725,
    "issueDate": "2020.08.10",
    "longName": "N250810"
}