{
    "askPrice": "",
    "green": 0,
    "coupon": "3,50 %",
    "accruedInterest": "3,9041",
    "settleDate": "2023.05.22",
    "askEhmYield": "",
    "bidYield": "5,90",
    "rawName": "N2025/32",
    "bidPrice": "99,5000",
    "coupon_val": 3.5,
    "maturityInDays": "811 nap",
    "securityType": "MÁP Plusz",
    "maturityDate": "2025.08.10",
    "name": "N2025/32",
    "bidEhmYield": "",
    "askYield": "",
    "currency": "HUF",
    "maturityInDays_val": 811,
    "issueDate": "2020.08.10",
    "longName": "N250810"
}