{
    "askPrice": "",
    "green": 0,
    "coupon": "3,50 %",
    "accruedInterest": "3,7418",
    "settleDate": "2024.04.15",
    "askEhmYield": "",
    "bidYield": "6,25",
    "rawName": "N2025/32",
    "bidPrice": "99,5000",
    "coupon_val": 3.5,
    "maturityInDays": "482 nap",
    "securityType": "MÁP Plusz",
    "maturityDate": "2025.08.10",
    "name": "N2025/32",
    "bidEhmYield": "",
    "askYield": "",
    "currency": "HUF",
    "maturityInDays_val": 482,
    "issueDate": "2020.08.10",
    "longName": "N250810"
}