{
    "askPrice": "",
    "green": 0,
    "coupon": "3,50 %",
    "accruedInterest": "2,5246",
    "settleDate": "2024.01.25",
    "askEhmYield": "",
    "bidYield": "6,14",
    "rawName": "N2025/32",
    "bidPrice": "99,5000",
    "coupon_val": 3.5,
    "maturityInDays": "563 nap",
    "securityType": "MÁP Plusz",
    "maturityDate": "2025.08.10",
    "name": "N2025/32",
    "bidEhmYield": "",
    "askYield": "",
    "currency": "HUF",
    "maturityInDays_val": 563,
    "issueDate": "2020.08.10",
    "longName": "N250810"
}