{
    "askPrice": "",
    "green": 0,
    "coupon": "3,50 %",
    "accruedInterest": "0,9171",
    "settleDate": "2022.12.20",
    "askEhmYield": "",
    "bidYield": "5,27",
    "rawName": "N2027/13",
    "bidPrice": "99,5000",
    "coupon_val": 3.5,
    "maturityInDays": "1559 nap",
    "securityType": "MÁP Plusz",
    "maturityDate": "2027.03.28",
    "name": "N2027/13",
    "bidEhmYield": "",
    "askYield": "",
    "currency": "HUF",
    "maturityInDays_val": 1559,
    "issueDate": "2022.03.28",
    "longName": "N270328"
}