{
    "askPrice": "",
    "green": 0,
    "coupon": "3,50 %",
    "accruedInterest": "1,60",
    "settleDate": "2022.09.12",
    "askEhmYield": "",
    "bidYield": "",
    "rawName": "N2027/13",
    "bidPrice": "99,50",
    "coupon_val": 3.5,
    "maturityInDays": "1658 nap",
    "securityType": "MÁP Plusz",
    "maturityDate": "2027.03.28",
    "name": "N2027/13",
    "bidEhmYield": "",
    "askYield": "",
    "currency": "HUF",
    "maturityInDays_val": 1658,
    "longName": "N270328"
}