{
    "askPrice": "",
    "green": 0,
    "coupon": "3,50 %",
    "accruedInterest": "0,09",
    "settleDate": "2022.10.06",
    "askEhmYield": "",
    "bidYield": "",
    "rawName": "N2027/13",
    "bidPrice": "99,50",
    "coupon_val": 3.5,
    "maturityInDays": "1634 nap",
    "securityType": "MÁP Plusz",
    "maturityDate": "2027.03.28",
    "name": "N2027/13",
    "bidEhmYield": "",
    "askYield": "",
    "currency": "HUF",
    "maturityInDays_val": 1634,
    "longName": "N270328"
}