{
    "askPrice": "",
    "green": 0,
    "coupon": "3,50 %",
    "accruedInterest": "1,9672",
    "settleDate": "2023.09.04",
    "askEhmYield": "",
    "bidYield": "5,46",
    "rawName": "N2027/13",
    "bidPrice": "99,5000",
    "coupon_val": 3.5,
    "maturityInDays": "1301 nap",
    "securityType": "MÁP Plusz",
    "maturityDate": "2027.03.28",
    "name": "N2027/13",
    "bidEhmYield": "",
    "askYield": "",
    "currency": "HUF",
    "maturityInDays_val": 1301,
    "issueDate": "2022.03.28",
    "longName": "N270328"
}