{
    "askPrice": "",
    "green": 0,
    "coupon": "3,50 %",
    "accruedInterest": "0,0685",
    "settleDate": "2024.04.02",
    "askEhmYield": "",
    "bidYield": "5,48",
    "rawName": "N2027/13",
    "bidPrice": "100,0000",
    "coupon_val": 3.5,
    "maturityInDays": "1090 nap",
    "securityType": "MÁP Plusz",
    "maturityDate": "2027.03.28",
    "name": "N2027/13",
    "bidEhmYield": "",
    "askYield": "",
    "currency": "HUF",
    "maturityInDays_val": 1090,
    "issueDate": "2022.03.28",
    "longName": "N270328"
}