{
    "askPrice": "",
    "green": 0,
    "coupon": "3,50 %",
    "accruedInterest": "2,93",
    "settleDate": "2022.08.22",
    "askEhmYield": "",
    "bidYield": "",
    "rawName": "N2025/03",
    "bidPrice": "99,50",
    "coupon_val": 3.5,
    "maturityInDays": "882 nap",
    "securityType": "MÁP Plusz",
    "maturityDate": "2025.01.20",
    "name": "N2025/03",
    "bidEhmYield": "",
    "askYield": "",
    "currency": "HUF",
    "maturityInDays_val": 882,
    "longName": "N250120"
}