{
    "askPrice": "",
    "green": 0,
    "coupon": "3,50 %",
    "accruedInterest": "1,2658",
    "settleDate": "2023.04.14",
    "askEhmYield": "",
    "bidYield": "6,07",
    "rawName": "N2025/03",
    "bidPrice": "99,5000",
    "coupon_val": 3.5,
    "maturityInDays": "647 nap",
    "securityType": "MÁP Plusz",
    "maturityDate": "2025.01.20",
    "name": "N2025/03",
    "bidEhmYield": "",
    "askYield": "",
    "currency": "HUF",
    "maturityInDays_val": 647,
    "issueDate": "2020.01.20",
    "longName": "N250120"
}