{
    "askPrice": "",
    "green": 0,
    "coupon": "3,50 %",
    "accruedInterest": "4,4904",
    "settleDate": "2023.11.14",
    "askEhmYield": "",
    "bidYield": "6,35",
    "rawName": "N2025/03",
    "bidPrice": "99,5000",
    "coupon_val": 3.5,
    "maturityInDays": "433 nap",
    "securityType": "MÁP Plusz",
    "maturityDate": "2025.01.20",
    "name": "N2025/03",
    "bidEhmYield": "",
    "askYield": "",
    "currency": "HUF",
    "maturityInDays_val": 433,
    "issueDate": "2020.01.20",
    "longName": "N250120"
}