{
    "askPrice": "",
    "green": 0,
    "coupon": "3,50 %",
    "accruedInterest": "3,9027",
    "settleDate": "2023.10.06",
    "askEhmYield": "",
    "bidYield": "6,27",
    "rawName": "N2025/03",
    "bidPrice": "99,5000",
    "coupon_val": 3.5,
    "maturityInDays": "472 nap",
    "securityType": "MÁP Plusz",
    "maturityDate": "2025.01.20",
    "name": "N2025/03",
    "bidEhmYield": "",
    "askYield": "",
    "currency": "HUF",
    "maturityInDays_val": 472,
    "issueDate": "2020.01.20",
    "longName": "N250120"
}