{
    "askPrice": "",
    "green": 0,
    "coupon": "3,50 %",
    "accruedInterest": "0,2623",
    "settleDate": "2024.02.05",
    "askEhmYield": "",
    "bidYield": "6,55",
    "rawName": "N2025/03",
    "bidPrice": "99,5000",
    "coupon_val": 3.5,
    "maturityInDays": "350 nap",
    "securityType": "MÁP Plusz",
    "maturityDate": "2025.01.20",
    "name": "N2025/03",
    "bidEhmYield": "",
    "askYield": "",
    "currency": "HUF",
    "maturityInDays_val": 350,
    "issueDate": "2020.01.20",
    "longName": "N250120"
}