{
    "askPrice": "",
    "green": 0,
    "coupon": "3,50 %",
    "accruedInterest": "0,6393",
    "settleDate": "2024.02.28",
    "askEhmYield": "",
    "bidYield": "6,57",
    "rawName": "N2025/03",
    "bidPrice": "99,5000",
    "coupon_val": 3.5,
    "maturityInDays": "327 nap",
    "securityType": "MÁP Plusz",
    "maturityDate": "2025.01.20",
    "name": "N2025/03",
    "bidEhmYield": "",
    "askYield": "",
    "currency": "HUF",
    "maturityInDays_val": 327,
    "issueDate": "2020.01.20",
    "longName": "N250120"
}