{
    "askPrice": "",
    "green": 0,
    "coupon": "2,50 %",
    "accruedInterest": "2,45",
    "settleDate": "2022.07.12",
    "askEhmYield": "",
    "bidYield": "",
    "rawName": "K2022/29",
    "bidPrice": "99,90",
    "coupon_val": 2.5,
    "maturityInDays": "8 nap",
    "securityType": "1MÁP",
    "maturityDate": "2022.07.20",
    "name": "K2022/29",
    "bidEhmYield": "6,90",
    "askYield": "",
    "currency": "HUF",
    "maturityInDays_val": 8,
    "longName": "K220720"
}