{
    "askPrice": "97,8312",
    "green": 0,
    "coupon": 0,
    "accruedInterest": 0,
    "settleDate": "2023.01.30",
    "askEhmYield": "13,95",
    "bidYield": "14,65",
    "rawName": "D230329",
    "bidPrice": "97,6941",
    "maturityInDays": "58 nap",
    "securityType": "DKJ",
    "maturityDate": "2023.03.29",
    "name": "D230329",
    "bidEhmYield": "14,85",
    "askYield": "13,76",
    "currency": "HUF",
    "maturityInDays_val": 58,
    "issueDate": "2022.12.28",
    "longName": "D230329"
}