{
    "askPrice": "97,9648",
    "green": 0,
    "coupon": 0,
    "accruedInterest": 0,
    "settleDate": "2023.02.03",
    "askEhmYield": "14,04",
    "bidYield": "14,70",
    "rawName": "D230329",
    "bidPrice": "97,8426",
    "maturityInDays": "54 nap",
    "securityType": "DKJ",
    "maturityDate": "2023.03.29",
    "name": "D230329",
    "bidEhmYield": "14,90",
    "askYield": "13,85",
    "currency": "HUF",
    "maturityInDays_val": 54,
    "issueDate": "2022.12.28",
    "longName": "D230329"
}