{
    "askPrice": "97,5890",
    "green": 0,
    "coupon": 0,
    "accruedInterest": 0,
    "settleDate": "2023.01.19",
    "askEhmYield": "13,07",
    "bidYield": "13,65",
    "rawName": "D230329",
    "bidPrice": "97,4505",
    "maturityInDays": "69 nap",
    "securityType": "DKJ",
    "maturityDate": "2023.03.29",
    "name": "D230329",
    "bidEhmYield": "13,84",
    "askYield": "12,89",
    "currency": "HUF",
    "maturityInDays_val": 69,
    "issueDate": "2022.12.28",
    "longName": "D230329"
}