{
    "askPrice": "97,8266",
    "green": 0,
    "coupon": 0,
    "accruedInterest": 0,
    "settleDate": "2023.01.26",
    "askEhmYield": "13,08",
    "bidYield": "13,78",
    "rawName": "D230329",
    "bidPrice": "97,6818",
    "maturityInDays": "62 nap",
    "securityType": "DKJ",
    "maturityDate": "2023.03.29",
    "name": "D230329",
    "bidEhmYield": "13,97",
    "askYield": "12,90",
    "currency": "HUF",
    "maturityInDays_val": 62,
    "issueDate": "2022.12.28",
    "longName": "D230329"
}