{
    "askPrice": "",
    "green": 0,
    "coupon": 0,
    "accruedInterest": 0,
    "settleDate": "2023.03.20",
    "askEhmYield": "",
    "bidYield": "15,03",
    "rawName": "D230329",
    "bidPrice": "99,6257",
    "maturityInDays": "9 nap",
    "securityType": "DKJ",
    "maturityDate": "2023.03.29",
    "name": "D230329",
    "bidEhmYield": "15,24",
    "askYield": "",
    "currency": "HUF",
    "maturityInDays_val": 9,
    "issueDate": "2022.12.28",
    "longName": "D230329"
}