{
    "askPrice": "",
    "green": 0,
    "coupon": "6,00 %",
    "accruedInterest": "0,2795",
    "settleDate": "2024.05.03",
    "askEhmYield": "",
    "bidYield": "7,11",
    "rawName": "K2025/16",
    "bidPrice": "99,0000",
    "coupon_val": 6,
    "maturityInDays": "348 nap",
    "securityType": "1MÁP",
    "maturityDate": "2025.04.16",
    "name": "K2025/16",
    "bidEhmYield": "7,10",
    "askYield": "",
    "currency": "HUF",
    "maturityInDays_val": 348,
    "issueDate": "2024.04.16",
    "longName": "K250416"
}