{
    "askPrice": "100,0000",
    "green": 0,
    "coupon": null,
    "accruedInterest": "0,0219",
    "settleDate": "2024.03.21",
    "askEhmYield": "",
    "bidYield": "",
    "rawName": "2027/U_EUR",
    "bidPrice": "99,0000",
    "maturityInDays": "1280 nap",
    "securityType": "EMÁP",
    "maturityDate": "2027.09.22",
    "name": "2027/U_EUR",
    "bidEhmYield": "",
    "askYield": "",
    "currency": "EUR",
    "maturityInDays_val": 1280,
    "issueDate": "2024.03.19",
    "longName": "C270922U24"
}