{
    "askPrice": "",
    "green": 0,
    "coupon": "7,00 %",
    "accruedInterest": "0,1151",
    "settleDate": "2022.12.19",
    "askEhmYield": "",
    "bidYield": "8,09",
    "rawName": "K2023/50",
    "bidPrice": "99,0000",
    "coupon_val": 7,
    "maturityInDays": "359 nap",
    "securityType": "1MÁP",
    "maturityDate": "2023.12.13",
    "name": "K2023/50",
    "bidEhmYield": "8,09",
    "askYield": "",
    "currency": "HUF",
    "maturityInDays_val": 359,
    "issueDate": "2022.12.13",
    "longName": "K231213"
}