{
    "askPrice": "",
    "green": 0,
    "coupon": "7,00 %",
    "accruedInterest": "0,2685",
    "settleDate": "2022.12.27",
    "askEhmYield": "",
    "bidYield": "8,11",
    "rawName": "K2023/50",
    "bidPrice": "99,0000",
    "coupon_val": 7,
    "maturityInDays": "351 nap",
    "securityType": "1MÁP",
    "maturityDate": "2023.12.13",
    "name": "K2023/50",
    "bidEhmYield": "8,10",
    "askYield": "",
    "currency": "HUF",
    "maturityInDays_val": 351,
    "issueDate": "2022.12.13",
    "longName": "K231213"
}