{
    "askPrice": "",
    "green": 0,
    "coupon": "7,00 %",
    "accruedInterest": "1,9945",
    "settleDate": "2023.03.27",
    "askEhmYield": "",
    "bidYield": "8,41",
    "rawName": "K2023/50",
    "bidPrice": "99,0000",
    "coupon_val": 7,
    "maturityInDays": "261 nap",
    "securityType": "1MÁP",
    "maturityDate": "2023.12.13",
    "name": "K2023/50",
    "bidEhmYield": "8,32",
    "askYield": "",
    "currency": "HUF",
    "maturityInDays_val": 261,
    "issueDate": "2022.12.13",
    "longName": "K231213"
}