{
    "askPrice": "",
    "green": 0,
    "coupon": "7,00 %",
    "accruedInterest": "5,0247",
    "settleDate": "2023.09.01",
    "askEhmYield": "",
    "bidYield": "10,51",
    "rawName": "K2023/50",
    "bidPrice": "99,0000",
    "coupon_val": 7,
    "maturityInDays": "103 nap",
    "securityType": "1MÁP",
    "maturityDate": "2023.12.13",
    "name": "K2023/50",
    "bidEhmYield": "10,14",
    "askYield": "",
    "currency": "HUF",
    "maturityInDays_val": 103,
    "issueDate": "2022.12.13",
    "longName": "K231213"
}