{
    "askPrice": "",
    "green": 0,
    "coupon": "7,00 %",
    "accruedInterest": "5,2932",
    "settleDate": "2023.09.15",
    "askEhmYield": "",
    "bidYield": "11,08",
    "rawName": "K2023/50",
    "bidPrice": "99,0000",
    "coupon_val": 7,
    "maturityInDays": "89 nap",
    "securityType": "1MÁP",
    "maturityDate": "2023.12.13",
    "name": "K2023/50",
    "bidEhmYield": "10,64",
    "askYield": "",
    "currency": "HUF",
    "maturityInDays_val": 89,
    "issueDate": "2022.12.13",
    "longName": "K231213"
}