{
    "askPrice": "",
    "green": 0,
    "coupon": "7,00 %",
    "accruedInterest": "4,5452",
    "settleDate": "2023.08.07",
    "askEhmYield": "",
    "bidYield": "9,81",
    "rawName": "K2023/50",
    "bidPrice": "99,0000",
    "coupon_val": 7,
    "maturityInDays": "128 nap",
    "securityType": "1MÁP",
    "maturityDate": "2023.12.13",
    "name": "K2023/50",
    "bidEhmYield": "9,51",
    "askYield": "",
    "currency": "HUF",
    "maturityInDays_val": 128,
    "issueDate": "2022.12.13",
    "longName": "K231213"
}