{
    "askPrice": "",
    "green": 0,
    "coupon": "3,50 %",
    "accruedInterest": "1,17",
    "settleDate": "2022.08.18",
    "askEhmYield": "",
    "bidYield": "",
    "rawName": "N2026/44",
    "bidPrice": "99,50",
    "coupon_val": 3.5,
    "maturityInDays": "1537 nap",
    "securityType": "MÁP Plusz",
    "maturityDate": "2026.11.02",
    "name": "N2026/44",
    "bidEhmYield": "",
    "askYield": "",
    "currency": "HUF",
    "maturityInDays_val": 1537,
    "longName": "N261102"
}