{
    "askPrice": "",
    "green": 0,
    "coupon": "3,50 %",
    "accruedInterest": "0,15",
    "settleDate": "2022.11.14",
    "askEhmYield": "",
    "bidYield": "5,37",
    "rawName": "N2026/44",
    "bidPrice": "99,50",
    "coupon_val": 3.5,
    "maturityInDays": "1449 nap",
    "securityType": "MÁP Plusz",
    "maturityDate": "2026.11.02",
    "name": "N2026/44",
    "bidEhmYield": "",
    "askYield": "",
    "currency": "HUF",
    "maturityInDays_val": 1449,
    "issueDate": "2021-11-02",
    "longName": "N261102"
}