{
    "askPrice": "",
    "green": 0,
    "coupon": "3,50 %",
    "accruedInterest": "0,84",
    "settleDate": "2022.07.18",
    "askEhmYield": "",
    "bidYield": "",
    "rawName": "N2026/44",
    "bidPrice": "99,50",
    "coupon_val": 3.5,
    "maturityInDays": "1568 nap",
    "securityType": "MÁP Plusz",
    "maturityDate": "2026.11.02",
    "name": "N2026/44",
    "bidEhmYield": "",
    "askYield": "",
    "currency": "HUF",
    "maturityInDays_val": 1568,
    "longName": "N261102"
}