{
    "askPrice": "",
    "green": 0,
    "coupon": "3,50 %",
    "accruedInterest": "0,06",
    "settleDate": "2022.11.07",
    "askEhmYield": "",
    "bidYield": "5,22",
    "rawName": "N2026/44",
    "bidPrice": "100,00",
    "coupon_val": 3.5,
    "maturityInDays": "1456 nap",
    "securityType": "MÁP Plusz",
    "maturityDate": "2026.11.02",
    "name": "N2026/44",
    "bidEhmYield": "",
    "askYield": "",
    "currency": "HUF",
    "maturityInDays_val": 1456,
    "issueDate": "2021-11-02",
    "longName": "N261102"
}