{
    "askPrice": "",
    "green": 0,
    "coupon": "3,50 %",
    "accruedInterest": "0,3575",
    "settleDate": "2022.12.01",
    "askEhmYield": "",
    "bidYield": "5,38",
    "rawName": "N2026/44",
    "bidPrice": "99,5000",
    "coupon_val": 3.5,
    "maturityInDays": "1432 nap",
    "securityType": "MÁP Plusz",
    "maturityDate": "2026.11.02",
    "name": "N2026/44",
    "bidEhmYield": "",
    "askYield": "",
    "currency": "HUF",
    "maturityInDays_val": 1432,
    "issueDate": "2021.11.02",
    "longName": "N261102"
}