{
    "askPrice": "",
    "green": 0,
    "coupon": "3,50 %",
    "accruedInterest": "3,7110",
    "settleDate": "2023.08.30",
    "askEhmYield": "",
    "bidYield": "5,59",
    "rawName": "N2026/44",
    "bidPrice": "99,5000",
    "coupon_val": 3.5,
    "maturityInDays": "1160 nap",
    "securityType": "MÁP Plusz",
    "maturityDate": "2026.11.02",
    "name": "N2026/44",
    "bidEhmYield": "",
    "askYield": "",
    "currency": "HUF",
    "maturityInDays_val": 1160,
    "issueDate": "2021.11.02",
    "longName": "N261102"
}