{
    "askPrice": "",
    "green": 0,
    "coupon": "3,50 %",
    "accruedInterest": "0,8333",
    "settleDate": "2024.01.02",
    "askEhmYield": "",
    "bidYield": "5,70",
    "rawName": "N2026/44",
    "bidPrice": "99,5000",
    "coupon_val": 3.5,
    "maturityInDays": "1035 nap",
    "securityType": "MÁP Plusz",
    "maturityDate": "2026.11.02",
    "name": "N2026/44",
    "bidEhmYield": "",
    "askYield": "",
    "currency": "HUF",
    "maturityInDays_val": 1035,
    "issueDate": "2021.11.02",
    "longName": "N261102"
}