{
    "askPrice": "",
    "green": 0,
    "coupon": "3,50 %",
    "accruedInterest": "0,0546",
    "settleDate": "2023.11.06",
    "askEhmYield": "",
    "bidYield": "5,48",
    "rawName": "N2026/44",
    "bidPrice": "100,0000",
    "coupon_val": 3.5,
    "maturityInDays": "1092 nap",
    "securityType": "MÁP Plusz",
    "maturityDate": "2026.11.02",
    "name": "N2026/44",
    "bidEhmYield": "",
    "askYield": "",
    "currency": "HUF",
    "maturityInDays_val": 1092,
    "issueDate": "2021.11.02",
    "longName": "N261102"
}