{
    "askPrice": "",
    "green": 0,
    "coupon": "3,50 %",
    "accruedInterest": "1,9945",
    "settleDate": "2024.03.27",
    "askEhmYield": "",
    "bidYield": "5,76",
    "rawName": "N2026/44",
    "bidPrice": "99,5000",
    "coupon_val": 3.5,
    "maturityInDays": "950 nap",
    "securityType": "MÁP Plusz",
    "maturityDate": "2026.11.02",
    "name": "N2026/44",
    "bidEhmYield": "",
    "askYield": "",
    "currency": "HUF",
    "maturityInDays_val": 950,
    "issueDate": "2021.11.02",
    "longName": "N261102"
}