{
    "askPrice": "",
    "green": 0,
    "coupon": "3,50 %",
    "accruedInterest": "3,4384",
    "settleDate": "2022.11.22",
    "askEhmYield": "",
    "bidYield": "3,06",
    "rawName": "N2025/11",
    "bidPrice": "99,5000",
    "coupon_val": 3.5,
    "maturityInDays": "845 nap",
    "securityType": "MÁP Plusz",
    "maturityDate": "2025.03.16",
    "name": "N2025/11",
    "bidEhmYield": "",
    "askYield": "",
    "currency": "HUF",
    "maturityInDays_val": 845,
    "issueDate": "2020.03.16",
    "longName": "N250316"
}