{
    "askPrice": "",
    "green": 0,
    "coupon": "3,50 %",
    "accruedInterest": "3,7534",
    "settleDate": "2022.12.15",
    "askEhmYield": "",
    "bidYield": "3,01",
    "rawName": "N2025/11",
    "bidPrice": "99,5000",
    "coupon_val": 3.5,
    "maturityInDays": "822 nap",
    "securityType": "MÁP Plusz",
    "maturityDate": "2025.03.16",
    "name": "N2025/11",
    "bidEhmYield": "",
    "askYield": "",
    "currency": "HUF",
    "maturityInDays_val": 822,
    "issueDate": "2020.03.16",
    "longName": "N250316"
}