{
    "askPrice": "",
    "green": 0,
    "coupon": "3,50 %",
    "accruedInterest": "3,29",
    "settleDate": "2022.11.11",
    "askEhmYield": "",
    "bidYield": "3,09",
    "rawName": "N2025/11",
    "bidPrice": "99,50",
    "coupon_val": 3.5,
    "maturityInDays": "856 nap",
    "securityType": "MÁP Plusz",
    "maturityDate": "2025.03.16",
    "name": "N2025/11",
    "bidEhmYield": "",
    "askYield": "",
    "currency": "HUF",
    "maturityInDays_val": 856,
    "issueDate": "2020-03-16",
    "longName": "N250316"
}