{
    "askPrice": "",
    "green": 0,
    "coupon": "3,50 %",
    "accruedInterest": "3,04",
    "settleDate": "2022.10.24",
    "askEhmYield": "",
    "bidYield": "3,13",
    "rawName": "N2025/11",
    "bidPrice": "99,50",
    "coupon_val": 3.5,
    "maturityInDays": "874 nap",
    "securityType": "MÁP Plusz",
    "maturityDate": "2025.03.16",
    "name": "N2025/11",
    "bidEhmYield": "",
    "askYield": "",
    "currency": "HUF",
    "maturityInDays_val": 874,
    "longName": "N250316"
}