{
    "askPrice": "",
    "green": 0,
    "coupon": "3,50 %",
    "accruedInterest": "2,2691",
    "settleDate": "2023.08.14",
    "askEhmYield": "",
    "bidYield": "1,99",
    "rawName": "N2025/11",
    "bidPrice": "99,5000",
    "coupon_val": 3.5,
    "maturityInDays": "580 nap",
    "securityType": "MÁP Plusz",
    "maturityDate": "2025.03.16",
    "name": "N2025/11",
    "bidEhmYield": "",
    "askYield": "",
    "currency": "HUF",
    "maturityInDays_val": 580,
    "issueDate": "2020.03.16",
    "longName": "N250316"
}