{
    "askPrice": "",
    "green": 0,
    "coupon": "3,50 %",
    "accruedInterest": "1,7732",
    "settleDate": "2023.07.12",
    "askEhmYield": "",
    "bidYield": "2,19",
    "rawName": "N2025/11",
    "bidPrice": "99,5000",
    "coupon_val": 3.5,
    "maturityInDays": "613 nap",
    "securityType": "MÁP Plusz",
    "maturityDate": "2025.03.16",
    "name": "N2025/11",
    "bidEhmYield": "",
    "askYield": "",
    "currency": "HUF",
    "maturityInDays_val": 613,
    "issueDate": "2020.03.16",
    "longName": "N250316"
}