{
    "askPrice": "",
    "green": 0,
    "coupon": "3,50 %",
    "accruedInterest": "4,5984",
    "settleDate": "2024.01.16",
    "askEhmYield": "",
    "bidYield": "0,69",
    "rawName": "N2025/11",
    "bidPrice": "99,5000",
    "coupon_val": 3.5,
    "maturityInDays": "425 nap",
    "securityType": "MÁP Plusz",
    "maturityDate": "2025.03.16",
    "name": "N2025/11",
    "bidEhmYield": "",
    "askYield": "",
    "currency": "HUF",
    "maturityInDays_val": 425,
    "issueDate": "2020.03.16",
    "longName": "N250316"
}