{
    "askPrice": "",
    "green": 0,
    "coupon": "3,50 %",
    "accruedInterest": "1,50",
    "settleDate": "2022.08.26",
    "askEhmYield": "",
    "bidYield": "",
    "rawName": "N2026/41",
    "bidPrice": "99,50",
    "coupon_val": 3.5,
    "maturityInDays": "1507 nap",
    "securityType": "MÁP Plusz",
    "maturityDate": "2026.10.11",
    "name": "N2026/41",
    "bidEhmYield": "",
    "askYield": "",
    "currency": "HUF",
    "maturityInDays_val": 1507,
    "longName": "N261011"
}