{
    "askPrice": "",
    "green": 0,
    "coupon": "3,50 %",
    "accruedInterest": "0,9493",
    "settleDate": "2022.12.27",
    "askEhmYield": "",
    "bidYield": "5,41",
    "rawName": "N2026/41",
    "bidPrice": "99,5000",
    "coupon_val": 3.5,
    "maturityInDays": "1384 nap",
    "securityType": "MÁP Plusz",
    "maturityDate": "2026.10.11",
    "name": "N2026/41",
    "bidEhmYield": "",
    "askYield": "",
    "currency": "HUF",
    "maturityInDays_val": 1384,
    "issueDate": "2021.10.11",
    "longName": "N261011"
}