{
    "askPrice": "",
    "green": 0,
    "coupon": "3,50 %",
    "accruedInterest": "0,0820",
    "settleDate": "2023.10.17",
    "askEhmYield": "",
    "bidYield": "5,48",
    "rawName": "N2026/41",
    "bidPrice": "100,0000",
    "coupon_val": 3.5,
    "maturityInDays": "1090 nap",
    "securityType": "MÁP Plusz",
    "maturityDate": "2026.10.11",
    "name": "N2026/41",
    "bidEhmYield": "",
    "askYield": "",
    "currency": "HUF",
    "maturityInDays_val": 1090,
    "issueDate": "2021.10.11",
    "longName": "N261011"
}