{
    "askPrice": "",
    "green": 0,
    "coupon": "3,50 %",
    "accruedInterest": "3,8342",
    "settleDate": "2023.08.18",
    "askEhmYield": "",
    "bidYield": "5,60",
    "rawName": "N2026/41",
    "bidPrice": "99,5000",
    "coupon_val": 3.5,
    "maturityInDays": "1150 nap",
    "securityType": "MÁP Plusz",
    "maturityDate": "2026.10.11",
    "name": "N2026/41",
    "bidEhmYield": "",
    "askYield": "",
    "currency": "HUF",
    "maturityInDays_val": 1150,
    "issueDate": "2021.10.11",
    "longName": "N261011"
}