{
    "askPrice": "",
    "green": 0,
    "coupon": "3,50 %",
    "accruedInterest": "2,7869",
    "settleDate": "2024.05.02",
    "askEhmYield": "",
    "bidYield": "5,81",
    "rawName": "N2026/41",
    "bidPrice": "99,5000",
    "coupon_val": 3.5,
    "maturityInDays": "892 nap",
    "securityType": "MÁP Plusz",
    "maturityDate": "2026.10.11",
    "name": "N2026/41",
    "bidEhmYield": "",
    "askYield": "",
    "currency": "HUF",
    "maturityInDays_val": 892,
    "issueDate": "2021.10.11",
    "longName": "N261011"
}