{
    "askPrice": "",
    "green": 0,
    "coupon": "2,50 %",
    "accruedInterest": "2,45",
    "settleDate": "2022.11.02",
    "askEhmYield": "",
    "bidYield": "7,82",
    "rawName": "K2022/45",
    "bidPrice": "99,90",
    "coupon_val": 2.5,
    "maturityInDays": "7 nap",
    "securityType": "1MÁP",
    "maturityDate": "2022.11.09",
    "name": "K2022/45",
    "bidEhmYield": "7,54",
    "askYield": "",
    "currency": "HUF",
    "maturityInDays_val": 7,
    "issueDate": "2021-11-09",
    "longName": "K221109"
}