{
    "askPrice": "",
    "green": 0,
    "coupon": "2,50 %",
    "accruedInterest": "1,58",
    "settleDate": "2022.06.28",
    "askEhmYield": "",
    "bidYield": "",
    "rawName": "K2022/45",
    "bidPrice": "99,50",
    "coupon_val": 2.5,
    "maturityInDays": "134 nap",
    "securityType": "1MÁP",
    "maturityDate": "2022.11.09",
    "name": "K2022/45",
    "bidEhmYield": "3,82",
    "askYield": "",
    "currency": "HUF",
    "maturityInDays_val": 134,
    "longName": "K221109"
}