{
    "askPrice": "",
    "green": 0,
    "coupon": "2,50 %",
    "accruedInterest": "1,93",
    "settleDate": "2022.08.18",
    "askEhmYield": "",
    "bidYield": "",
    "rawName": "K2022/45",
    "bidPrice": "99,50",
    "coupon_val": 2.5,
    "maturityInDays": "83 nap",
    "securityType": "1MÁP",
    "maturityDate": "2022.11.09",
    "name": "K2022/45",
    "bidEhmYield": "4,63",
    "askYield": "",
    "currency": "HUF",
    "maturityInDays_val": 83,
    "longName": "K221109"
}