{
    "askPrice": "",
    "green": 0,
    "coupon": "2,50 %",
    "accruedInterest": "2,40",
    "settleDate": "2022.10.26",
    "askEhmYield": "",
    "bidYield": "7,83",
    "rawName": "K2022/45",
    "bidPrice": "99,80",
    "coupon_val": 2.5,
    "maturityInDays": "14 nap",
    "securityType": "1MÁP",
    "maturityDate": "2022.11.09",
    "name": "K2022/45",
    "bidEhmYield": "7,55",
    "askYield": "",
    "currency": "HUF",
    "maturityInDays_val": 14,
    "longName": "K221109"
}