{
    "askPrice": "",
    "green": 0,
    "coupon": "3,50 %",
    "accruedInterest": "4,6712",
    "settleDate": "2022.11.29",
    "askEhmYield": "",
    "bidYield": "5,98",
    "rawName": "N2024/29",
    "bidPrice": "99,5000",
    "coupon_val": 3.5,
    "maturityInDays": "755 nap",
    "securityType": "MÁP Plusz",
    "maturityDate": "2024.12.23",
    "name": "N2024/29",
    "bidEhmYield": "",
    "askYield": "",
    "currency": "HUF",
    "maturityInDays_val": 755,
    "issueDate": "2019.12.23",
    "longName": "N241223"
}