{
    "askPrice": "",
    "green": 0,
    "coupon": "3,50 %",
    "accruedInterest": "4,23",
    "settleDate": "2022.10.28",
    "askEhmYield": "",
    "bidYield": "5,93",
    "rawName": "N2024/29",
    "bidPrice": "99,50",
    "coupon_val": 3.5,
    "maturityInDays": "787 nap",
    "securityType": "MÁP Plusz",
    "maturityDate": "2024.12.23",
    "name": "N2024/29",
    "bidEhmYield": "",
    "askYield": "",
    "currency": "HUF",
    "maturityInDays_val": 787,
    "longName": "N241223"
}