{
    "askPrice": "",
    "green": 0,
    "coupon": "3,50 %",
    "accruedInterest": "0,1507",
    "settleDate": "2023.01.02",
    "askEhmYield": "",
    "bidYield": "5,74",
    "rawName": "N2024/29",
    "bidPrice": "100,0000",
    "coupon_val": 3.5,
    "maturityInDays": "721 nap",
    "securityType": "MÁP Plusz",
    "maturityDate": "2024.12.23",
    "name": "N2024/29",
    "bidEhmYield": "",
    "askYield": "",
    "currency": "HUF",
    "maturityInDays_val": 721,
    "issueDate": "2019.12.23",
    "longName": "N241223"
}