{
    "askPrice": "",
    "green": 0,
    "coupon": "3,50 %",
    "accruedInterest": "1,0164",
    "settleDate": "2024.02.23",
    "askEhmYield": "",
    "bidYield": "6,60",
    "rawName": "N2024/29",
    "bidPrice": "99,5000",
    "coupon_val": 3.5,
    "maturityInDays": "304 nap",
    "securityType": "MÁP Plusz",
    "maturityDate": "2024.12.23",
    "name": "N2024/29",
    "bidEhmYield": "",
    "askYield": "",
    "currency": "HUF",
    "maturityInDays_val": 304,
    "issueDate": "2019.12.23",
    "longName": "N241223"
}