{
    "askPrice": "",
    "green": 0,
    "coupon": "3,50 %",
    "accruedInterest": "0,62",
    "settleDate": "2022.11.02",
    "askEhmYield": "",
    "bidYield": "5,08",
    "rawName": "N2027/35",
    "bidPrice": "99,50",
    "coupon_val": 3.5,
    "maturityInDays": "1761 nap",
    "securityType": "MÁP Plusz",
    "maturityDate": "2027.08.29",
    "name": "N2027/35",
    "bidEhmYield": "",
    "askYield": "",
    "currency": "HUF",
    "maturityInDays_val": 1761,
    "issueDate": "2022-08-29",
    "longName": "N270829"
}