{
    "askPrice": "",
    "green": 0,
    "coupon": "3,50 %",
    "accruedInterest": "0,34",
    "settleDate": "2022.10.04",
    "askEhmYield": "",
    "bidYield": "",
    "rawName": "N2027/35",
    "bidPrice": "99,50",
    "coupon_val": 3.5,
    "maturityInDays": "1790 nap",
    "securityType": "MÁP Plusz",
    "maturityDate": "2027.08.29",
    "name": "N2027/35",
    "bidEhmYield": "",
    "askYield": "",
    "currency": "HUF",
    "maturityInDays_val": 1790,
    "longName": "N270829"
}