{
    "askPrice": "",
    "green": 0,
    "coupon": "3,50 %",
    "accruedInterest": "0,2705",
    "settleDate": "2023.09.20",
    "askEhmYield": "",
    "bidYield": "5,37",
    "rawName": "N2027/35",
    "bidPrice": "99,5000",
    "coupon_val": 3.5,
    "maturityInDays": "1439 nap",
    "securityType": "MÁP Plusz",
    "maturityDate": "2027.08.29",
    "name": "N2027/35",
    "bidEhmYield": "",
    "askYield": "",
    "currency": "HUF",
    "maturityInDays_val": 1439,
    "issueDate": "2022.08.29",
    "longName": "N270829"
}