{
    "askPrice": "",
    "green": 0,
    "coupon": "3,50 %",
    "accruedInterest": "1,0574",
    "settleDate": "2023.11.23",
    "askEhmYield": "",
    "bidYield": "5,41",
    "rawName": "N2027/35",
    "bidPrice": "99,5000",
    "coupon_val": 3.5,
    "maturityInDays": "1375 nap",
    "securityType": "MÁP Plusz",
    "maturityDate": "2027.08.29",
    "name": "N2027/35",
    "bidEhmYield": "",
    "askYield": "",
    "currency": "HUF",
    "maturityInDays_val": 1375,
    "issueDate": "2022.08.29",
    "longName": "N270829"
}