{
    "askPrice": "",
    "green": 0,
    "coupon": "9,00 %",
    "accruedInterest": "2,9589",
    "settleDate": "2023.10.11",
    "askEhmYield": "",
    "bidYield": "10,42",
    "rawName": "K2024/24",
    "bidPrice": "99,0000",
    "coupon_val": 9,
    "maturityInDays": "246 nap",
    "securityType": "1MÁP",
    "maturityDate": "2024.06.13",
    "name": "K2024/24",
    "bidEhmYield": "10,25",
    "askYield": "",
    "currency": "HUF",
    "maturityInDays_val": 246,
    "issueDate": "2023.06.13",
    "longName": "K240613"
}