{
    "askPrice": "",
    "green": 0,
    "coupon": "9,00 %",
    "accruedInterest": "5,0055",
    "settleDate": "2024.01.02",
    "askEhmYield": "",
    "bidYield": "11,07",
    "rawName": "K2024/24",
    "bidPrice": "99,0000",
    "coupon_val": 9,
    "maturityInDays": "163 nap",
    "securityType": "1MÁP",
    "maturityDate": "2024.06.13",
    "name": "K2024/24",
    "bidEhmYield": "10,75",
    "askYield": "",
    "currency": "HUF",
    "maturityInDays_val": 163,
    "issueDate": "2023.06.13",
    "longName": "K240613"
}