{
    "askPrice": "",
    "green": 0,
    "coupon": "9,00 %",
    "accruedInterest": "4,8575",
    "settleDate": "2023.12.27",
    "askEhmYield": "",
    "bidYield": "11,00",
    "rawName": "K2024/24",
    "bidPrice": "99,0000",
    "coupon_val": 9,
    "maturityInDays": "169 nap",
    "securityType": "1MÁP",
    "maturityDate": "2024.06.13",
    "name": "K2024/24",
    "bidEhmYield": "10,69",
    "askYield": "",
    "currency": "HUF",
    "maturityInDays_val": 169,
    "issueDate": "2023.06.13",
    "longName": "K240613"
}