{
    "askPrice": "",
    "green": 0,
    "coupon": "9,00 %",
    "accruedInterest": "6,5342",
    "settleDate": "2024.03.04",
    "askEhmYield": "",
    "bidYield": "12,39",
    "rawName": "K2024/24",
    "bidPrice": "99,0000",
    "coupon_val": 9,
    "maturityInDays": "101 nap",
    "securityType": "1MÁP",
    "maturityDate": "2024.06.13",
    "name": "K2024/24",
    "bidEhmYield": "11,87",
    "askYield": "",
    "currency": "HUF",
    "maturityInDays_val": 101,
    "issueDate": "2023.06.13",
    "longName": "K240613"
}