{
    "askPrice": "",
    "green": 0,
    "coupon": "9,00 %",
    "accruedInterest": "7,5452",
    "settleDate": "2024.04.15",
    "askEhmYield": "",
    "bidYield": "15,13",
    "rawName": "K2024/24",
    "bidPrice": "99,0000",
    "coupon_val": 9,
    "maturityInDays": "59 nap",
    "securityType": "1MÁP",
    "maturityDate": "2024.06.13",
    "name": "K2024/24",
    "bidEhmYield": "14,11",
    "askYield": "",
    "currency": "HUF",
    "maturityInDays_val": 59,
    "issueDate": "2023.06.13",
    "longName": "K240613"
}