{
    "askPrice": "",
    "green": 0,
    "coupon": "9,00 %",
    "accruedInterest": "6,2877",
    "settleDate": "2024.02.23",
    "askEhmYield": "",
    "bidYield": "12,07",
    "rawName": "K2024/24",
    "bidPrice": "99,0000",
    "coupon_val": 9,
    "maturityInDays": "111 nap",
    "securityType": "1MÁP",
    "maturityDate": "2024.06.13",
    "name": "K2024/24",
    "bidEhmYield": "11,59",
    "askYield": "",
    "currency": "HUF",
    "maturityInDays_val": 111,
    "issueDate": "2023.06.13",
    "longName": "K240613"
}