{
    "askPrice": "",
    "green": 0,
    "coupon": "9,00 %",
    "accruedInterest": "6,0658",
    "settleDate": "2024.02.14",
    "askEhmYield": "",
    "bidYield": "11,83",
    "rawName": "K2024/24",
    "bidPrice": "99,0000",
    "coupon_val": 9,
    "maturityInDays": "120 nap",
    "securityType": "1MÁP",
    "maturityDate": "2024.06.13",
    "name": "K2024/24",
    "bidEhmYield": "11,39",
    "askYield": "",
    "currency": "HUF",
    "maturityInDays_val": 120,
    "issueDate": "2023.06.13",
    "longName": "K240613"
}