{
    "askPrice": "",
    "green": 0,
    "coupon": "4,75 %",
    "accruedInterest": "0,8979",
    "settleDate": "2022.11.21",
    "askEhmYield": "",
    "bidYield": "5,37",
    "rawName": "K2023/37",
    "bidPrice": "99,5000",
    "coupon_val": 4.75,
    "maturityInDays": "296 nap",
    "securityType": "1MÁP",
    "maturityDate": "2023.09.13",
    "name": "K2023/37",
    "bidEhmYield": "5,35",
    "askYield": "",
    "currency": "HUF",
    "maturityInDays_val": 296,
    "issueDate": "2022.09.13",
    "longName": "K230913"
}