{
    "askPrice": "",
    "green": 0,
    "coupon": "4,75 %",
    "accruedInterest": "1,0932",
    "settleDate": "2022.12.06",
    "askEhmYield": "",
    "bidYield": "5,40",
    "rawName": "K2023/37",
    "bidPrice": "99,5000",
    "coupon_val": 4.75,
    "maturityInDays": "281 nap",
    "securityType": "1MÁP",
    "maturityDate": "2023.09.13",
    "name": "K2023/37",
    "bidEhmYield": "5,37",
    "askYield": "",
    "currency": "HUF",
    "maturityInDays_val": 281,
    "issueDate": "2022.09.13",
    "longName": "K230913"
}