{
    "askPrice": "",
    "green": 0,
    "coupon": "4,75 %",
    "accruedInterest": "0,49",
    "settleDate": "2022.10.21",
    "askEhmYield": "",
    "bidYield": "5,32",
    "rawName": "K2023/37",
    "bidPrice": "99,50",
    "coupon_val": 4.75,
    "maturityInDays": "327 nap",
    "securityType": "1MÁP",
    "maturityDate": "2023.09.13",
    "name": "K2023/37",
    "bidEhmYield": "5,31",
    "askYield": "",
    "currency": "HUF",
    "maturityInDays_val": 327,
    "longName": "K230913"
}