{
    "askPrice": "",
    "green": 0,
    "coupon": "4,75 %",
    "accruedInterest": "0,81",
    "settleDate": "2022.11.14",
    "askEhmYield": "",
    "bidYield": "5,36",
    "rawName": "K2023/37",
    "bidPrice": "99,50",
    "coupon_val": 4.75,
    "maturityInDays": "303 nap",
    "securityType": "1MÁP",
    "maturityDate": "2023.09.13",
    "name": "K2023/37",
    "bidEhmYield": "5,34",
    "askYield": "",
    "currency": "HUF",
    "maturityInDays_val": 303,
    "issueDate": "2022-09-13",
    "longName": "K230913"
}