{
    "askPrice": "",
    "green": 0,
    "coupon": "4,75 %",
    "accruedInterest": "0,08",
    "settleDate": "2022.09.19",
    "askEhmYield": "",
    "bidYield": "",
    "rawName": "K2023/37",
    "bidPrice": "99,50",
    "coupon_val": 4.75,
    "maturityInDays": "359 nap",
    "securityType": "1MÁP",
    "maturityDate": "2023.09.13",
    "name": "K2023/37",
    "bidEhmYield": "5,28",
    "askYield": "",
    "currency": "HUF",
    "maturityInDays_val": 359,
    "longName": "K230913"
}