{
    "askPrice": "",
    "green": 0,
    "coupon": "4,75 %",
    "accruedInterest": "2,2904",
    "settleDate": "2023.03.08",
    "askEhmYield": "",
    "bidYield": "6,70",
    "rawName": "K2023/37",
    "bidPrice": "99,0000",
    "coupon_val": 4.75,
    "maturityInDays": "189 nap",
    "securityType": "1MÁP",
    "maturityDate": "2023.09.13",
    "name": "K2023/37",
    "bidEhmYield": "6,60",
    "askYield": "",
    "currency": "HUF",
    "maturityInDays_val": 189,
    "issueDate": "2022.09.13",
    "longName": "K230913"
}