{
    "askPrice": "",
    "green": 0,
    "coupon": "4,75 %",
    "accruedInterest": "2,7329",
    "settleDate": "2023.04.11",
    "askEhmYield": "",
    "bidYield": "7,12",
    "rawName": "K2023/37",
    "bidPrice": "99,0000",
    "coupon_val": 4.75,
    "maturityInDays": "155 nap",
    "securityType": "1MÁP",
    "maturityDate": "2023.09.13",
    "name": "K2023/37",
    "bidEhmYield": "6,98",
    "askYield": "",
    "currency": "HUF",
    "maturityInDays_val": 155,
    "issueDate": "2022.09.13",
    "longName": "K230913"
}