{
    "askPrice": "",
    "green": 0,
    "coupon": "4,75 %",
    "accruedInterest": "3,7740",
    "settleDate": "2023.06.30",
    "askEhmYield": "",
    "bidYield": "9,71",
    "rawName": "K2023/37",
    "bidPrice": "99,0000",
    "coupon_val": 4.75,
    "maturityInDays": "75 nap",
    "securityType": "1MÁP",
    "maturityDate": "2023.09.13",
    "name": "K2023/37",
    "bidEhmYield": "9,36",
    "askYield": "",
    "currency": "HUF",
    "maturityInDays_val": 75,
    "issueDate": "2022.09.13",
    "longName": "K230913"
}