{
    "askPrice": "",
    "green": 0,
    "coupon": "4,75 %",
    "accruedInterest": "1,7438",
    "settleDate": "2023.01.25",
    "askEhmYield": "",
    "bidYield": "6,36",
    "rawName": "K2023/37",
    "bidPrice": "99,0000",
    "coupon_val": 4.75,
    "maturityInDays": "231 nap",
    "securityType": "1MÁP",
    "maturityDate": "2023.09.13",
    "name": "K2023/37",
    "bidEhmYield": "6,28",
    "askYield": "",
    "currency": "HUF",
    "maturityInDays_val": 231,
    "issueDate": "2022.09.13",
    "longName": "K230913"
}