{
    "askPrice": "",
    "green": 0,
    "coupon": "4,75 %",
    "accruedInterest": "2,0171",
    "settleDate": "2023.02.15",
    "askEhmYield": "",
    "bidYield": "6,51",
    "rawName": "K2023/37",
    "bidPrice": "99,0000",
    "coupon_val": 4.75,
    "maturityInDays": "210 nap",
    "securityType": "1MÁP",
    "maturityDate": "2023.09.13",
    "name": "K2023/37",
    "bidEhmYield": "6,42",
    "askYield": "",
    "currency": "HUF",
    "maturityInDays_val": 210,
    "issueDate": "2022.09.13",
    "longName": "K230913"
}