{
    "askPrice": "",
    "green": 0,
    "coupon": "4,75 %",
    "accruedInterest": "4,4897",
    "settleDate": "2023.08.24",
    "askEhmYield": "",
    "bidYield": "20,40",
    "rawName": "K2023/37",
    "bidPrice": "99,2000",
    "coupon_val": 4.75,
    "maturityInDays": "20 nap",
    "securityType": "1MÁP",
    "maturityDate": "2023.09.13",
    "name": "K2023/37",
    "bidEhmYield": "18,66",
    "askYield": "",
    "currency": "HUF",
    "maturityInDays_val": 20,
    "issueDate": "2022.09.13",
    "longName": "K230913"
}