{
    "askPrice": "",
    "green": 0,
    "coupon": "4,75 %",
    "accruedInterest": "4,3726",
    "settleDate": "2023.08.15",
    "askEhmYield": "",
    "bidYield": "18,13",
    "rawName": "K2023/37",
    "bidPrice": "99,0000",
    "coupon_val": 4.75,
    "maturityInDays": "29 nap",
    "securityType": "1MÁP",
    "maturityDate": "2023.09.13",
    "name": "K2023/37",
    "bidEhmYield": "16,77",
    "askYield": "",
    "currency": "HUF",
    "maturityInDays_val": 29,
    "issueDate": "2022.09.13",
    "longName": "K230913"
}