{
    "askPrice": "",
    "green": 0,
    "coupon": "4,75 %",
    "accruedInterest": "2,8240",
    "settleDate": "2023.04.18",
    "askEhmYield": "",
    "bidYield": "7,24",
    "rawName": "K2023/37",
    "bidPrice": "99,0000",
    "coupon_val": 4.75,
    "maturityInDays": "148 nap",
    "securityType": "1MÁP",
    "maturityDate": "2023.09.13",
    "name": "K2023/37",
    "bidEhmYield": "7,09",
    "askYield": "",
    "currency": "HUF",
    "maturityInDays_val": 148,
    "issueDate": "2022.09.13",
    "longName": "K230913"
}