{
    "askPrice": "",
    "green": 0,
    "coupon": "4,75 %",
    "accruedInterest": "4,2164",
    "settleDate": "2023.08.03",
    "askEhmYield": "",
    "bidYield": "14,03",
    "rawName": "K2023/37",
    "bidPrice": "99,0000",
    "coupon_val": 4.75,
    "maturityInDays": "41 nap",
    "securityType": "1MÁP",
    "maturityDate": "2023.09.13",
    "name": "K2023/37",
    "bidEhmYield": "13,23",
    "askYield": "",
    "currency": "HUF",
    "maturityInDays_val": 41,
    "issueDate": "2022.09.13",
    "longName": "K230913"
}