{
    "askPrice": "",
    "green": 0,
    "coupon": "4,75 %",
    "accruedInterest": "3,2664",
    "settleDate": "2023.05.22",
    "askEhmYield": "",
    "bidYield": "7,99",
    "rawName": "K2023/37",
    "bidPrice": "99,0000",
    "coupon_val": 4.75,
    "maturityInDays": "114 nap",
    "securityType": "1MÁP",
    "maturityDate": "2023.09.13",
    "name": "K2023/37",
    "bidEhmYield": "7,78",
    "askYield": "",
    "currency": "HUF",
    "maturityInDays_val": 114,
    "issueDate": "2022.09.13",
    "longName": "K230913"
}