{
    "askPrice": "",
    "green": 0,
    "coupon": "4,75 %",
    "accruedInterest": "3,9041",
    "settleDate": "2023.07.10",
    "askEhmYield": "",
    "bidYield": "10,50",
    "rawName": "K2023/37",
    "bidPrice": "99,0000",
    "coupon_val": 4.75,
    "maturityInDays": "65 nap",
    "securityType": "1MÁP",
    "maturityDate": "2023.09.13",
    "name": "K2023/37",
    "bidEhmYield": "10,07",
    "askYield": "",
    "currency": "HUF",
    "maturityInDays_val": 65,
    "issueDate": "2022.09.13",
    "longName": "K230913"
}