{
    "askPrice": "",
    "green": 0,
    "coupon": "4,25 %",
    "accruedInterest": "2,3521",
    "settleDate": "2022.11.21",
    "askEhmYield": "",
    "bidYield": "5,35",
    "rawName": "K2023/18",
    "bidPrice": "99,5000",
    "coupon_val": 4.25,
    "maturityInDays": "163 nap",
    "securityType": "1MÁP",
    "maturityDate": "2023.05.03",
    "name": "K2023/18",
    "bidEhmYield": "5,27",
    "askYield": "",
    "currency": "HUF",
    "maturityInDays_val": 163,
    "issueDate": "2022.05.03",
    "longName": "K230503"
}