{
    "askPrice": "",
    "green": 0,
    "coupon": "4,25 %",
    "accruedInterest": "2,6781",
    "settleDate": "2022.12.19",
    "askEhmYield": "",
    "bidYield": "6,99",
    "rawName": "K2023/18",
    "bidPrice": "99,0000",
    "coupon_val": 4.25,
    "maturityInDays": "135 nap",
    "securityType": "1MÁP",
    "maturityDate": "2023.05.03",
    "name": "K2023/18",
    "bidEhmYield": "6,84",
    "askYield": "",
    "currency": "HUF",
    "maturityInDays_val": 135,
    "issueDate": "2022.05.03",
    "longName": "K230503"
}