{
    "askPrice": "",
    "green": 0,
    "coupon": "4,25 %",
    "accruedInterest": "2,7712",
    "settleDate": "2022.12.27",
    "askEhmYield": "",
    "bidYield": "7,16",
    "rawName": "K2023/18",
    "bidPrice": "99,0000",
    "coupon_val": 4.25,
    "maturityInDays": "127 nap",
    "securityType": "1MÁP",
    "maturityDate": "2023.05.03",
    "name": "K2023/18",
    "bidEhmYield": "7,00",
    "askYield": "",
    "currency": "HUF",
    "maturityInDays_val": 127,
    "issueDate": "2022.05.03",
    "longName": "K230503"
}