{
    "askPrice": "",
    "green": 0,
    "coupon": "4,25 %",
    "accruedInterest": "0,73",
    "settleDate": "2022.07.05",
    "askEhmYield": "",
    "bidYield": "",
    "rawName": "K2023/18",
    "bidPrice": "99,50",
    "coupon_val": 4.25,
    "maturityInDays": "302 nap",
    "securityType": "1MÁP",
    "maturityDate": "2023.05.03",
    "name": "K2023/18",
    "bidEhmYield": "4,84",
    "askYield": "",
    "currency": "HUF",
    "maturityInDays_val": 302,
    "longName": "K230503"
}