{
    "askPrice": "",
    "green": 0,
    "coupon": "4,25 %",
    "accruedInterest": "1,46",
    "settleDate": "2022.09.05",
    "askEhmYield": "",
    "bidYield": "",
    "rawName": "K2023/18",
    "bidPrice": "99,50",
    "coupon_val": 4.25,
    "maturityInDays": "240 nap",
    "securityType": "1MÁP",
    "maturityDate": "2023.05.03",
    "name": "K2023/18",
    "bidEhmYield": "4,96",
    "askYield": "",
    "currency": "HUF",
    "maturityInDays_val": 240,
    "longName": "K230503"
}