{
    "askPrice": "",
    "green": 0,
    "coupon": "4,25 %",
    "accruedInterest": "2,4801",
    "settleDate": "2022.12.02",
    "askEhmYield": "",
    "bidYield": "5,43",
    "rawName": "K2023/18",
    "bidPrice": "99,5000",
    "coupon_val": 4.25,
    "maturityInDays": "152 nap",
    "securityType": "1MÁP",
    "maturityDate": "2023.05.03",
    "name": "K2023/18",
    "bidEhmYield": "5,34",
    "askYield": "",
    "currency": "HUF",
    "maturityInDays_val": 152,
    "issueDate": "2022.05.03",
    "longName": "K230503"
}