{
    "askPrice": "",
    "green": 0,
    "coupon": "4,25 %",
    "accruedInterest": "2,8062",
    "settleDate": "2022.12.30",
    "askEhmYield": "",
    "bidYield": "7,23",
    "rawName": "K2023/18",
    "bidPrice": "99,0000",
    "coupon_val": 4.25,
    "maturityInDays": "124 nap",
    "securityType": "1MÁP",
    "maturityDate": "2023.05.03",
    "name": "K2023/18",
    "bidEhmYield": "7,07",
    "askYield": "",
    "currency": "HUF",
    "maturityInDays_val": 124,
    "issueDate": "2022.05.03",
    "longName": "K230503"
}