{
    "askPrice": "",
    "green": 0,
    "coupon": "4,25 %",
    "accruedInterest": "4,0637",
    "settleDate": "2023.04.17",
    "askEhmYield": "",
    "bidYield": "24,22",
    "rawName": "K2023/18",
    "bidPrice": "99,2000",
    "coupon_val": 4.25,
    "maturityInDays": "16 nap",
    "securityType": "1MÁP",
    "maturityDate": "2023.05.03",
    "name": "K2023/18",
    "bidEhmYield": "21,79",
    "askYield": "",
    "currency": "HUF",
    "maturityInDays_val": 16,
    "issueDate": "2022.05.03",
    "longName": "K230503"
}