{
    "askPrice": "",
    "green": 0,
    "coupon": "4,25 %",
    "accruedInterest": "4,0870",
    "settleDate": "2023.04.19",
    "askEhmYield": "",
    "bidYield": "24,20",
    "rawName": "K2023/18",
    "bidPrice": "99,3000",
    "coupon_val": 4.25,
    "maturityInDays": "14 nap",
    "securityType": "1MÁP",
    "maturityDate": "2023.05.03",
    "name": "K2023/18",
    "bidEhmYield": "21,76",
    "askYield": "",
    "currency": "HUF",
    "maturityInDays_val": 14,
    "issueDate": "2022.05.03",
    "longName": "K230503"
}