{
    "askPrice": "",
    "green": 0,
    "coupon": "4,25 %",
    "accruedInterest": "3,0507",
    "settleDate": "2023.01.20",
    "askEhmYield": "",
    "bidYield": "7,85",
    "rawName": "K2023/18",
    "bidPrice": "99,0000",
    "coupon_val": 4.25,
    "maturityInDays": "103 nap",
    "securityType": "1MÁP",
    "maturityDate": "2023.05.03",
    "name": "K2023/18",
    "bidEhmYield": "7,64",
    "askYield": "",
    "currency": "HUF",
    "maturityInDays_val": 103,
    "issueDate": "2022.05.03",
    "longName": "K230503"
}