{
    "askPrice": "",
    "green": 0,
    "coupon": "3,50 %",
    "accruedInterest": "0,5992",
    "settleDate": "2023.09.11",
    "askEhmYield": "",
    "bidYield": "5,08",
    "rawName": "N2028/28",
    "bidPrice": "99,5000",
    "coupon_val": 3.5,
    "maturityInDays": "1764 nap",
    "securityType": "MÁP Plusz",
    "maturityDate": "2028.07.10",
    "name": "N2028/28",
    "bidEhmYield": "",
    "askYield": "",
    "currency": "HUF",
    "maturityInDays_val": 1764,
    "issueDate": "2023.07.10",
    "longName": "N280710"
}