{
    "askPrice": "",
    "green": 0,
    "coupon": "3,50 %",
    "accruedInterest": "0,2857",
    "settleDate": "2024.02.05",
    "askEhmYield": "",
    "bidYield": "5,22",
    "rawName": "N2028/28",
    "bidPrice": "99,5000",
    "coupon_val": 3.5,
    "maturityInDays": "1617 nap",
    "securityType": "MÁP Plusz",
    "maturityDate": "2028.07.10",
    "name": "N2028/28",
    "bidEhmYield": "",
    "askYield": "",
    "currency": "HUF",
    "maturityInDays_val": 1617,
    "issueDate": "2023.07.10",
    "longName": "N280710"
}