{
    "askPrice": "",
    "green": 0,
    "coupon": "7,00 %",
    "accruedInterest": "0,2493",
    "settleDate": "2022.12.19",
    "askEhmYield": "",
    "bidYield": "8,11",
    "rawName": "K2023/49",
    "bidPrice": "99,0000",
    "coupon_val": 7,
    "maturityInDays": "352 nap",
    "securityType": "1MÁP",
    "maturityDate": "2023.12.06",
    "name": "K2023/49",
    "bidEhmYield": "8,10",
    "askYield": "",
    "currency": "HUF",
    "maturityInDays_val": 352,
    "issueDate": "2022.12.06",
    "longName": "K231206"
}