{
    "askPrice": "",
    "green": 0,
    "coupon": "7,00 %",
    "accruedInterest": "0,7096",
    "settleDate": "2023.01.12",
    "askEhmYield": "",
    "bidYield": "8,17",
    "rawName": "K2023/49",
    "bidPrice": "99,0000",
    "coupon_val": 7,
    "maturityInDays": "328 nap",
    "securityType": "1MÁP",
    "maturityDate": "2023.12.06",
    "name": "K2023/49",
    "bidEhmYield": "8,14",
    "askYield": "",
    "currency": "HUF",
    "maturityInDays_val": 328,
    "issueDate": "2022.12.06",
    "longName": "K231206"
}