{
    "askPrice": "",
    "green": 0,
    "coupon": "7,00 %",
    "accruedInterest": "5,8877",
    "settleDate": "2023.10.09",
    "askEhmYield": "",
    "bidYield": "13,37",
    "rawName": "K2023/49",
    "bidPrice": "99,0000",
    "coupon_val": 7,
    "maturityInDays": "58 nap",
    "securityType": "1MÁP",
    "maturityDate": "2023.12.06",
    "name": "K2023/49",
    "bidEhmYield": "12,67",
    "askYield": "",
    "currency": "HUF",
    "maturityInDays_val": 58,
    "issueDate": "2022.12.06",
    "longName": "K231206"
}