{
    "askPrice": "",
    "green": 0,
    "coupon": "7,00 %",
    "accruedInterest": "2,3205",
    "settleDate": "2023.04.06",
    "askEhmYield": "",
    "bidYield": "8,50",
    "rawName": "K2023/49",
    "bidPrice": "99,0000",
    "coupon_val": 7,
    "maturityInDays": "244 nap",
    "securityType": "1MÁP",
    "maturityDate": "2023.12.06",
    "name": "K2023/49",
    "bidEhmYield": "8,39",
    "askYield": "",
    "currency": "HUF",
    "maturityInDays_val": 244,
    "issueDate": "2022.12.06",
    "longName": "K231206"
}