{
    "askPrice": "",
    "green": 0,
    "coupon": "7,00 %",
    "accruedInterest": "6,1753",
    "settleDate": "2023.10.24",
    "askEhmYield": "",
    "bidYield": "15,72",
    "rawName": "K2023/49",
    "bidPrice": "99,0000",
    "coupon_val": 7,
    "maturityInDays": "43 nap",
    "securityType": "1MÁP",
    "maturityDate": "2023.12.06",
    "name": "K2023/49",
    "bidEhmYield": "14,73",
    "askYield": "",
    "currency": "HUF",
    "maturityInDays_val": 43,
    "issueDate": "2022.12.06",
    "longName": "K231206"
}