{
    "askPrice": "",
    "green": 0,
    "coupon": "7,00 %",
    "accruedInterest": "5,5616",
    "settleDate": "2023.09.22",
    "askEhmYield": "",
    "bidYield": "11,87",
    "rawName": "K2023/49",
    "bidPrice": "99,0000",
    "coupon_val": 7,
    "maturityInDays": "75 nap",
    "securityType": "1MÁP",
    "maturityDate": "2023.12.06",
    "name": "K2023/49",
    "bidEhmYield": "11,35",
    "askYield": "",
    "currency": "HUF",
    "maturityInDays_val": 75,
    "issueDate": "2022.12.06",
    "longName": "K231206"
}