{
    "askPrice": "",
    "green": 0,
    "coupon": "7,00 %",
    "accruedInterest": "1,0932",
    "settleDate": "2023.02.01",
    "askEhmYield": "",
    "bidYield": "8,23",
    "rawName": "K2023/49",
    "bidPrice": "99,0000",
    "coupon_val": 7,
    "maturityInDays": "308 nap",
    "securityType": "1MÁP",
    "maturityDate": "2023.12.06",
    "name": "K2023/49",
    "bidEhmYield": "8,18",
    "askYield": "",
    "currency": "HUF",
    "maturityInDays_val": 308,
    "issueDate": "2022.12.06",
    "longName": "K231206"
}