{
    "askPrice": "",
    "green": 0,
    "coupon": "7,00 %",
    "accruedInterest": "2,5315",
    "settleDate": "2023.04.17",
    "askEhmYield": "",
    "bidYield": "8,57",
    "rawName": "K2023/49",
    "bidPrice": "99,0000",
    "coupon_val": 7,
    "maturityInDays": "233 nap",
    "securityType": "1MÁP",
    "maturityDate": "2023.12.06",
    "name": "K2023/49",
    "bidEhmYield": "8,44",
    "askYield": "",
    "currency": "HUF",
    "maturityInDays_val": 233,
    "issueDate": "2022.12.06",
    "longName": "K231206"
}