{
    "askPrice": "",
    "green": 0,
    "coupon": "7,00 %",
    "accruedInterest": "5,6959",
    "settleDate": "2023.09.29",
    "askEhmYield": "",
    "bidYield": "12,39",
    "rawName": "K2023/49",
    "bidPrice": "99,0000",
    "coupon_val": 7,
    "maturityInDays": "68 nap",
    "securityType": "1MÁP",
    "maturityDate": "2023.12.06",
    "name": "K2023/49",
    "bidEhmYield": "11,81",
    "askYield": "",
    "currency": "HUF",
    "maturityInDays_val": 68,
    "issueDate": "2022.12.06",
    "longName": "K231206"
}