{
    "askPrice": "100,6500",
    "green": 0,
    "coupon": null,
    "accruedInterest": "2,6426",
    "settleDate": "2022.12.22",
    "askEhmYield": "",
    "bidYield": "",
    "rawName": "2023/B",
    "bidPrice": "100,1000",
    "maturityInDays": "216 nap",
    "securityType": "KTV",
    "maturityDate": "2023.07.26",
    "name": "2023/B",
    "bidEhmYield": "",
    "askYield": "",
    "currency": "HUF",
    "maturityInDays_val": 216,
    "issueDate": "2018.01.17",
    "longName": "A230726B18"
}