{
    "askPrice": "101,0500",
    "green": 0,
    "coupon": null,
    "accruedInterest": "1,9008",
    "settleDate": "2022.12.06",
    "askEhmYield": "",
    "bidYield": "",
    "rawName": "2023/B",
    "bidPrice": "100,2500",
    "maturityInDays": "232 nap",
    "securityType": "KTV",
    "maturityDate": "2023.07.26",
    "name": "2023/B",
    "bidEhmYield": "",
    "askYield": "",
    "currency": "HUF",
    "maturityInDays_val": 232,
    "issueDate": "2018.01.17",
    "longName": "A230726B18"
}