{
    "askPrice": "",
    "green": 0,
    "coupon": null,
    "accruedInterest": "2,90",
    "settleDate": "2022.10.24",
    "askEhmYield": "",
    "bidYield": "",
    "rawName": "2023/B",
    "bidPrice": "",
    "maturityInDays": "275 nap",
    "securityType": "KTV",
    "maturityDate": "2023.07.26",
    "name": "2023/B",
    "bidEhmYield": "",
    "askYield": "",
    "currency": "HUF",
    "maturityInDays_val": 275,
    "longName": "A230726B18"
}