{
    "askPrice": "101,50",
    "green": 0,
    "coupon": null,
    "accruedInterest": "1,35",
    "settleDate": "2022.09.06",
    "askEhmYield": "",
    "bidYield": "",
    "rawName": "2023/B",
    "bidPrice": "100,05",
    "maturityInDays": "323 nap",
    "securityType": "KTV",
    "maturityDate": "2023.07.26",
    "name": "2023/B",
    "bidEhmYield": "",
    "askYield": "",
    "currency": "HUF",
    "maturityInDays_val": 323,
    "longName": "A230726B18"
}