{
    "askPrice": "103,05",
    "green": 0,
    "coupon": null,
    "accruedInterest": "0,48",
    "settleDate": "2022.08.10",
    "askEhmYield": "",
    "bidYield": "",
    "rawName": "2023/B",
    "bidPrice": "101,60",
    "maturityInDays": "350 nap",
    "securityType": "KTV",
    "maturityDate": "2023.07.26",
    "name": "2023/B",
    "bidEhmYield": "",
    "askYield": "",
    "currency": "HUF",
    "maturityInDays_val": 350,
    "longName": "A230726B18"
}