{
    "askPrice": "101,70",
    "green": 0,
    "coupon": null,
    "accruedInterest": "0,60",
    "settleDate": "2022.11.08",
    "askEhmYield": "",
    "bidYield": "",
    "rawName": "2023/B",
    "bidPrice": "100,85",
    "maturityInDays": "260 nap",
    "securityType": "KTV",
    "maturityDate": "2023.07.26",
    "name": "2023/B",
    "bidEhmYield": "",
    "askYield": "",
    "currency": "HUF",
    "maturityInDays_val": 260,
    "issueDate": "2018-01-17",
    "longName": "A230726B18"
}