{
    "askPrice": "100,7000",
    "green": 0,
    "coupon": null,
    "accruedInterest": "2,2717",
    "settleDate": "2022.12.14",
    "askEhmYield": "",
    "bidYield": "",
    "rawName": "2023/B",
    "bidPrice": "99,9000",
    "maturityInDays": "224 nap",
    "securityType": "KTV",
    "maturityDate": "2023.07.26",
    "name": "2023/B",
    "bidEhmYield": "",
    "askYield": "",
    "currency": "HUF",
    "maturityInDays_val": 224,
    "issueDate": "2018.01.17",
    "longName": "A230726B18"
}