{
    "askPrice": "101,29",
    "green": 0,
    "coupon": null,
    "accruedInterest": "1,16",
    "settleDate": "2022.06.28",
    "askEhmYield": "",
    "bidYield": "",
    "rawName": "2023/B",
    "bidPrice": "100,00",
    "maturityInDays": "393 nap",
    "securityType": "KTV",
    "maturityDate": "2023.07.26",
    "name": "2023/B",
    "bidEhmYield": "",
    "askYield": "",
    "currency": "HUF",
    "maturityInDays_val": 393,
    "longName": "A230726B18"
}