{
    "askPrice": "103,75",
    "green": 0,
    "coupon": null,
    "accruedInterest": "0,06",
    "settleDate": "2022.07.28",
    "askEhmYield": "",
    "bidYield": "",
    "rawName": "2023/B",
    "bidPrice": "102,45",
    "maturityInDays": "363 nap",
    "securityType": "KTV",
    "maturityDate": "2023.07.26",
    "name": "2023/B",
    "bidEhmYield": "",
    "askYield": "",
    "currency": "HUF",
    "maturityInDays_val": 363,
    "longName": "A230726B18"
}