{
    "askPrice": "103,65",
    "green": 0,
    "coupon": null,
    "accruedInterest": "0,23",
    "settleDate": "2022.08.02",
    "askEhmYield": "",
    "bidYield": "",
    "rawName": "2023/B",
    "bidPrice": "102,35",
    "maturityInDays": "358 nap",
    "securityType": "KTV",
    "maturityDate": "2023.07.26",
    "name": "2023/B",
    "bidEhmYield": "",
    "askYield": "",
    "currency": "HUF",
    "maturityInDays_val": 358,
    "longName": "A230726B18"
}