{
    "askPrice": "",
    "green": 0,
    "coupon": null,
    "accruedInterest": "3,2500",
    "settleDate": "2023.07.07",
    "askEhmYield": "",
    "bidYield": "",
    "rawName": "2023/B",
    "bidPrice": "100,0000",
    "maturityInDays": "19 nap",
    "securityType": "KTV",
    "maturityDate": "2023.07.26",
    "name": "2023/B",
    "bidEhmYield": "",
    "askYield": "",
    "currency": "HUF",
    "maturityInDays_val": 19,
    "issueDate": "2018.01.17",
    "longName": "A230726B18"
}