{
    "askPrice": "100,5500",
    "green": 0,
    "coupon": null,
    "accruedInterest": "3,6444",
    "settleDate": "2023.04.18",
    "askEhmYield": "",
    "bidYield": "",
    "rawName": "2023/B",
    "bidPrice": "99,8500",
    "maturityInDays": "99 nap",
    "securityType": "KTV",
    "maturityDate": "2023.07.26",
    "name": "2023/B",
    "bidEhmYield": "",
    "askYield": "",
    "currency": "HUF",
    "maturityInDays_val": 99,
    "issueDate": "2018.01.17",
    "longName": "A230726B18"
}