{
    "askPrice": "100,1600",
    "green": 0,
    "coupon": null,
    "accruedInterest": "1,1111",
    "settleDate": "2023.02.20",
    "askEhmYield": "",
    "bidYield": "",
    "rawName": "2023/B",
    "bidPrice": "99,5500",
    "maturityInDays": "156 nap",
    "securityType": "KTV",
    "maturityDate": "2023.07.26",
    "name": "2023/B",
    "bidEhmYield": "",
    "askYield": "",
    "currency": "HUF",
    "maturityInDays_val": 156,
    "issueDate": "2018.01.17",
    "longName": "A230726B18"
}