{
    "askPrice": "100,6500",
    "green": 0,
    "coupon": null,
    "accruedInterest": "0,2667",
    "settleDate": "2023.02.01",
    "askEhmYield": "",
    "bidYield": "",
    "rawName": "2023/B",
    "bidPrice": "100,2000",
    "maturityInDays": "175 nap",
    "securityType": "KTV",
    "maturityDate": "2023.07.26",
    "name": "2023/B",
    "bidEhmYield": "",
    "askYield": "",
    "currency": "HUF",
    "maturityInDays_val": 175,
    "issueDate": "2018.01.17",
    "longName": "A230726B18"
}