{
    "askPrice": "100,1000",
    "green": 0,
    "coupon": null,
    "accruedInterest": "1,8222",
    "settleDate": "2023.03.08",
    "askEhmYield": "",
    "bidYield": "",
    "rawName": "2023/B",
    "bidPrice": "99,6000",
    "maturityInDays": "140 nap",
    "securityType": "KTV",
    "maturityDate": "2023.07.26",
    "name": "2023/B",
    "bidEhmYield": "",
    "askYield": "",
    "currency": "HUF",
    "maturityInDays_val": 140,
    "issueDate": "2018.01.17",
    "longName": "A230726B18"
}