{
    "askPrice": "100,4500",
    "green": 0,
    "coupon": null,
    "accruedInterest": "2,6667",
    "settleDate": "2023.03.27",
    "askEhmYield": "",
    "bidYield": "",
    "rawName": "2023/B",
    "bidPrice": "99,7500",
    "maturityInDays": "121 nap",
    "securityType": "KTV",
    "maturityDate": "2023.07.26",
    "name": "2023/B",
    "bidEhmYield": "",
    "askYield": "",
    "currency": "HUF",
    "maturityInDays_val": 121,
    "issueDate": "2018.01.17",
    "longName": "A230726B18"
}