{
    "askPrice": "101,0000",
    "green": 0,
    "coupon": null,
    "accruedInterest": "0,9931",
    "settleDate": "2023.05.18",
    "askEhmYield": "",
    "bidYield": "",
    "rawName": "2023/B",
    "bidPrice": "100,0000",
    "maturityInDays": "69 nap",
    "securityType": "KTV",
    "maturityDate": "2023.07.26",
    "name": "2023/B",
    "bidEhmYield": "",
    "askYield": "",
    "currency": "HUF",
    "maturityInDays_val": 69,
    "issueDate": "2018.01.17",
    "longName": "A230726B18"
}