{
    "askPrice": "100,9300",
    "green": 0,
    "coupon": null,
    "accruedInterest": 0,
    "settleDate": "2023.01.26",
    "askEhmYield": "",
    "bidYield": "",
    "rawName": "2023/B",
    "bidPrice": "100,1600",
    "maturityInDays": "181 nap",
    "securityType": "KTV",
    "maturityDate": "2023.07.26",
    "name": "2023/B",
    "bidEhmYield": "",
    "askYield": "",
    "currency": "HUF",
    "maturityInDays_val": 181,
    "issueDate": "2018.01.17",
    "longName": "A230726B18"
}