{
    "askPrice": "",
    "green": 0,
    "coupon": "2,50 %",
    "accruedInterest": "2,45",
    "settleDate": "2022.06.29",
    "askEhmYield": "",
    "bidYield": "",
    "rawName": "K2022/27",
    "bidPrice": "99,90",
    "coupon_val": 2.5,
    "maturityInDays": "7 nap",
    "securityType": "1MÁP",
    "maturityDate": "2022.07.06",
    "name": "K2022/27",
    "bidEhmYield": "7,53",
    "askYield": "",
    "currency": "HUF",
    "maturityInDays_val": 7,
    "longName": "K220706"
}