{
    "askPrice": "",
    "green": 0,
    "coupon": "3,50 %",
    "accruedInterest": "1,2840",
    "settleDate": "2022.12.07",
    "askEhmYield": "",
    "bidYield": "5,15",
    "rawName": "N2027/30",
    "bidPrice": "99,5000",
    "coupon_val": 3.5,
    "maturityInDays": "1691 nap",
    "securityType": "MÁP Plusz",
    "maturityDate": "2027.07.25",
    "name": "N2027/30",
    "bidEhmYield": "",
    "askYield": "",
    "currency": "HUF",
    "maturityInDays_val": 1691,
    "issueDate": "2022.07.25",
    "longName": "N270725"
}