{
    "askPrice": "",
    "green": 0,
    "coupon": "3,50 %",
    "accruedInterest": "0,76",
    "settleDate": "2022.10.13",
    "askEhmYield": "",
    "bidYield": "",
    "rawName": "N2027/30",
    "bidPrice": "99,50",
    "coupon_val": 3.5,
    "maturityInDays": "1746 nap",
    "securityType": "MÁP Plusz",
    "maturityDate": "2027.07.25",
    "name": "N2027/30",
    "bidEhmYield": "",
    "askYield": "",
    "currency": "HUF",
    "maturityInDays_val": 1746,
    "longName": "N270725"
}