{
    "askPrice": "",
    "green": 0,
    "coupon": "3,50 %",
    "accruedInterest": "1,1984",
    "settleDate": "2022.11.28",
    "askEhmYield": "",
    "bidYield": "5,14",
    "rawName": "N2027/30",
    "bidPrice": "99,5000",
    "coupon_val": 3.5,
    "maturityInDays": "1700 nap",
    "securityType": "MÁP Plusz",
    "maturityDate": "2027.07.25",
    "name": "N2027/30",
    "bidEhmYield": "",
    "askYield": "",
    "currency": "HUF",
    "maturityInDays_val": 1700,
    "issueDate": "2022.07.25",
    "longName": "N270725"
}