{
    "askPrice": "",
    "green": 0,
    "coupon": "3,50 %",
    "accruedInterest": "1,6230",
    "settleDate": "2023.12.04",
    "askEhmYield": "",
    "bidYield": "5,44",
    "rawName": "N2027/30",
    "bidPrice": "99,5000",
    "coupon_val": 3.5,
    "maturityInDays": "1329 nap",
    "securityType": "MÁP Plusz",
    "maturityDate": "2027.07.25",
    "name": "N2027/30",
    "bidEhmYield": "",
    "askYield": "",
    "currency": "HUF",
    "maturityInDays_val": 1329,
    "issueDate": "2022.07.25",
    "longName": "N270725"
}