{
    "askPrice": "",
    "green": 0,
    "coupon": "3,50 %",
    "accruedInterest": "0,3204",
    "settleDate": "2023.02.23",
    "askEhmYield": "",
    "bidYield": "5,22",
    "rawName": "N2027/30",
    "bidPrice": "99,5000",
    "coupon_val": 3.5,
    "maturityInDays": "1613 nap",
    "securityType": "MÁP Plusz",
    "maturityDate": "2027.07.25",
    "name": "N2027/30",
    "bidEhmYield": "",
    "askYield": "",
    "currency": "HUF",
    "maturityInDays_val": 1613,
    "issueDate": "2022.07.25",
    "longName": "N270725"
}