{
    "askPrice": "",
    "green": 0,
    "coupon": "3,50 %",
    "accruedInterest": "1,76",
    "settleDate": "2022.11.02",
    "askEhmYield": "",
    "bidYield": "6,09",
    "rawName": "N2024/05",
    "bidPrice": "99,50",
    "coupon_val": 3.5,
    "maturityInDays": "614 nap",
    "securityType": "MÁP Plusz",
    "maturityDate": "2024.07.08",
    "name": "N2024/05",
    "bidEhmYield": "",
    "askYield": "",
    "currency": "HUF",
    "maturityInDays_val": 614,
    "issueDate": "2019-07-08",
    "longName": "N240708"
}