{
    "askPrice": "",
    "green": 0,
    "coupon": "3,50 %",
    "accruedInterest": "0,53",
    "settleDate": "2022.08.12",
    "askEhmYield": "",
    "bidYield": "",
    "rawName": "N2024/05",
    "bidPrice": "99,50",
    "coupon_val": 3.5,
    "maturityInDays": "696 nap",
    "securityType": "MÁP Plusz",
    "maturityDate": "2024.07.08",
    "name": "N2024/05",
    "bidEhmYield": "",
    "askYield": "",
    "currency": "HUF",
    "maturityInDays_val": 696,
    "longName": "N240708"
}