{
    "askPrice": "",
    "green": 0,
    "coupon": "3,50 %",
    "accruedInterest": "4,5356",
    "settleDate": "2023.05.05",
    "askEhmYield": "",
    "bidYield": "6,36",
    "rawName": "N2024/05",
    "bidPrice": "99,5000",
    "coupon_val": 3.5,
    "maturityInDays": "430 nap",
    "securityType": "MÁP Plusz",
    "maturityDate": "2024.07.08",
    "name": "N2024/05",
    "bidEhmYield": "",
    "askYield": "",
    "currency": "HUF",
    "maturityInDays_val": 430,
    "issueDate": "2019.07.08",
    "longName": "N240708"
}