{
    "askPrice": "",
    "green": 0,
    "coupon": "3,50 %",
    "accruedInterest": "4,1803",
    "settleDate": "2024.03.19",
    "askEhmYield": "",
    "bidYield": "7,57",
    "rawName": "N2024/05",
    "bidPrice": "99,5000",
    "coupon_val": 3.5,
    "maturityInDays": "111 nap",
    "securityType": "MÁP Plusz",
    "maturityDate": "2024.07.08",
    "name": "N2024/05",
    "bidEhmYield": "",
    "askYield": "",
    "currency": "HUF",
    "maturityInDays_val": 111,
    "issueDate": "2019.07.08",
    "longName": "N240708"
}