{
    "askPrice": "92,9135",
    "green": 0,
    "coupon": 0,
    "accruedInterest": 0,
    "settleDate": "2023.11.17",
    "askEhmYield": "8,00",
    "bidYield": "8,65",
    "rawName": "D241030",
    "bidPrice": "92,2836",
    "maturityInDays": "348 nap",
    "securityType": "DKJ",
    "maturityDate": "2024.10.30",
    "name": "D241030",
    "bidEhmYield": "8,77",
    "askYield": "7,89",
    "currency": "HUF",
    "maturityInDays_val": 348,
    "issueDate": "2023.11.02",
    "longName": "D241030"
}