{
    "askPrice": "92,7401",
    "green": 0,
    "coupon": 0,
    "accruedInterest": 0,
    "settleDate": "2023.11.06",
    "askEhmYield": "7,96",
    "bidYield": "8,68",
    "rawName": "D241030",
    "bidPrice": "92,0337",
    "maturityInDays": "359 nap",
    "securityType": "DKJ",
    "maturityDate": "2024.10.30",
    "name": "D241030",
    "bidEhmYield": "8,80",
    "askYield": "7,85",
    "currency": "HUF",
    "maturityInDays_val": 359,
    "issueDate": "2023.11.02",
    "longName": "D241030"
}