{
    "askPrice": "92,7224",
    "green": 0,
    "coupon": 0,
    "accruedInterest": 0,
    "settleDate": "2023.11.14",
    "askEhmYield": "8,16",
    "bidYield": "8,85",
    "rawName": "D241030",
    "bidPrice": "92,0567",
    "maturityInDays": "351 nap",
    "securityType": "DKJ",
    "maturityDate": "2024.10.30",
    "name": "D241030",
    "bidEhmYield": "8,97",
    "askYield": "8,05",
    "currency": "HUF",
    "maturityInDays_val": 351,
    "issueDate": "2023.11.02",
    "longName": "D241030"
}