{
    "askPrice": "94,8157",
    "green": 0,
    "coupon": 0,
    "accruedInterest": 0,
    "settleDate": "2024.01.08",
    "askEhmYield": "6,74",
    "bidYield": "7,42",
    "rawName": "D241030",
    "bidPrice": "94,2499",
    "maturityInDays": "296 nap",
    "securityType": "DKJ",
    "maturityDate": "2024.10.30",
    "name": "D241030",
    "bidEhmYield": "7,52",
    "askYield": "6,65",
    "currency": "HUF",
    "maturityInDays_val": 296,
    "issueDate": "2023.11.02",
    "longName": "D241030"
}