{
    "askPrice": "96,6444",
    "green": 0,
    "coupon": 0,
    "accruedInterest": 0,
    "settleDate": "2024.04.18",
    "askEhmYield": "6,50",
    "bidYield": "7,20",
    "rawName": "D241030",
    "bidPrice": "96,2464",
    "maturityInDays": "195 nap",
    "securityType": "DKJ",
    "maturityDate": "2024.10.30",
    "name": "D241030",
    "bidEhmYield": "7,30",
    "askYield": "6,41",
    "currency": "HUF",
    "maturityInDays_val": 195,
    "issueDate": "2023.11.02",
    "longName": "D241030"
}