{
    "askPrice": "96,3247",
    "green": 0,
    "coupon": 0,
    "accruedInterest": 0,
    "settleDate": "2024.03.27",
    "askEhmYield": "6,42",
    "bidYield": "7,15",
    "rawName": "D241030",
    "bidPrice": "95,8682",
    "maturityInDays": "217 nap",
    "securityType": "DKJ",
    "maturityDate": "2024.10.30",
    "name": "D241030",
    "bidEhmYield": "7,25",
    "askYield": "6,33",
    "currency": "HUF",
    "maturityInDays_val": 217,
    "issueDate": "2023.11.02",
    "longName": "D241030"
}