{
    "askPrice": "95,1206",
    "green": 0,
    "coupon": 0,
    "accruedInterest": 0,
    "settleDate": "2024.01.15",
    "askEhmYield": "6,48",
    "bidYield": "7,20",
    "rawName": "D241030",
    "bidPrice": "94,5358",
    "maturityInDays": "289 nap",
    "securityType": "DKJ",
    "maturityDate": "2024.10.30",
    "name": "D241030",
    "bidEhmYield": "7,30",
    "askYield": "6,39",
    "currency": "HUF",
    "maturityInDays_val": 289,
    "issueDate": "2023.11.02",
    "longName": "D241030"
}