{
    "askPrice": "96,6614",
    "green": 0,
    "coupon": 0,
    "accruedInterest": 0,
    "settleDate": "2024.04.22",
    "askEhmYield": "6,60",
    "bidYield": "7,35",
    "rawName": "D241030",
    "bidPrice": "96,2468",
    "maturityInDays": "191 nap",
    "securityType": "DKJ",
    "maturityDate": "2024.10.30",
    "name": "D241030",
    "bidEhmYield": "7,45",
    "askYield": "6,51",
    "currency": "HUF",
    "maturityInDays_val": 191,
    "issueDate": "2023.11.02",
    "longName": "D241030"
}