{
    "askPrice": "95,4684",
    "green": 0,
    "coupon": 0,
    "accruedInterest": 0,
    "settleDate": "2024.02.06",
    "askEhmYield": "6,49",
    "bidYield": "7,20",
    "rawName": "D241030",
    "bidPrice": "94,9307",
    "maturityInDays": "267 nap",
    "securityType": "DKJ",
    "maturityDate": "2024.10.30",
    "name": "D241030",
    "bidEhmYield": "7,30",
    "askYield": "6,40",
    "currency": "HUF",
    "maturityInDays_val": 267,
    "issueDate": "2023.11.02",
    "longName": "D241030"
}