{
    "askPrice": "95,9509",
    "green": 0,
    "coupon": 0,
    "accruedInterest": 0,
    "settleDate": "2024.03.04",
    "askEhmYield": "6,42",
    "bidYield": "7,10",
    "rawName": "D241030",
    "bidPrice": "95,4806",
    "maturityInDays": "240 nap",
    "securityType": "DKJ",
    "maturityDate": "2024.10.30",
    "name": "D241030",
    "bidEhmYield": "7,20",
    "askYield": "6,33",
    "currency": "HUF",
    "maturityInDays_val": 240,
    "issueDate": "2023.11.02",
    "longName": "D241030"
}