{
    "askPrice": "97,0028",
    "green": 0,
    "coupon": 0,
    "accruedInterest": 0,
    "settleDate": "2024.05.07",
    "askEhmYield": "6,41",
    "bidYield": "7,15",
    "rawName": "D241030",
    "bidPrice": "96,6225",
    "maturityInDays": "176 nap",
    "securityType": "DKJ",
    "maturityDate": "2024.10.30",
    "name": "D241030",
    "bidEhmYield": "7,25",
    "askYield": "6,32",
    "currency": "HUF",
    "maturityInDays_val": 176,
    "issueDate": "2023.11.02",
    "longName": "D241030"
}