{
    "askPrice": "96,6779",
    "green": 0,
    "coupon": 0,
    "accruedInterest": 0,
    "settleDate": "2024.04.25",
    "askEhmYield": "6,67",
    "bidYield": "7,38",
    "rawName": "D241030",
    "bidPrice": "96,2890",
    "maturityInDays": "188 nap",
    "securityType": "DKJ",
    "maturityDate": "2024.10.30",
    "name": "D241030",
    "bidEhmYield": "7,48",
    "askYield": "6,58",
    "currency": "HUF",
    "maturityInDays_val": 188,
    "issueDate": "2023.11.02",
    "longName": "D241030"
}