{
    "askPrice": "96,7920",
    "green": 0,
    "coupon": 0,
    "accruedInterest": 0,
    "settleDate": "2024.04.30",
    "askEhmYield": "6,61",
    "bidYield": "7,30",
    "rawName": "D241030",
    "bidPrice": "96,4219",
    "maturityInDays": "183 nap",
    "securityType": "DKJ",
    "maturityDate": "2024.10.30",
    "name": "D241030",
    "bidEhmYield": "7,40",
    "askYield": "6,52",
    "currency": "HUF",
    "maturityInDays_val": 183,
    "issueDate": "2023.11.02",
    "longName": "D241030"
}