{
    "askPrice": "96,5857",
    "green": 0,
    "coupon": 0,
    "accruedInterest": 0,
    "settleDate": "2024.04.11",
    "askEhmYield": "6,39",
    "bidYield": "7,16",
    "rawName": "D241030",
    "bidPrice": "96,1376",
    "maturityInDays": "202 nap",
    "securityType": "DKJ",
    "maturityDate": "2024.10.30",
    "name": "D241030",
    "bidEhmYield": "7,26",
    "askYield": "6,30",
    "currency": "HUF",
    "maturityInDays_val": 202,
    "issueDate": "2023.11.02",
    "longName": "D241030"
}