{
    "askPrice": "",
    "green": 0,
    "coupon": 0,
    "accruedInterest": 0,
    "settleDate": "2023.05.30",
    "askEhmYield": "",
    "bidYield": "14,30",
    "rawName": "D230621",
    "bidPrice": "99,1337",
    "maturityInDays": "22 nap",
    "securityType": "DKJ",
    "maturityDate": "2023.06.21",
    "name": "D230621",
    "bidEhmYield": "14,50",
    "askYield": "",
    "currency": "HUF",
    "maturityInDays_val": 22,
    "issueDate": "2023.03.22",
    "longName": "D230621"
}