{
    "askPrice": "98,7779",
    "green": 0,
    "coupon": 0,
    "accruedInterest": 0,
    "settleDate": "2023.05.18",
    "askEhmYield": "13,28",
    "bidYield": "14,40",
    "rawName": "D230621",
    "bidPrice": "98,6582",
    "maturityInDays": "34 nap",
    "securityType": "DKJ",
    "maturityDate": "2023.06.21",
    "name": "D230621",
    "bidEhmYield": "14,60",
    "askYield": "13,10",
    "currency": "HUF",
    "maturityInDays_val": 34,
    "issueDate": "2023.03.22",
    "longName": "D230621"
}