{
    "askPrice": "97,0233",
    "green": 0,
    "coupon": 0,
    "accruedInterest": 0,
    "settleDate": "2023.04.04",
    "askEhmYield": "14,36",
    "bidYield": "15,39",
    "rawName": "D230621",
    "bidPrice": "96,7731",
    "maturityInDays": "78 nap",
    "securityType": "DKJ",
    "maturityDate": "2023.06.21",
    "name": "D230621",
    "bidEhmYield": "15,60",
    "askYield": "14,16",
    "currency": "HUF",
    "maturityInDays_val": 78,
    "issueDate": "2023.03.22",
    "longName": "D230621"
}