{
    "askPrice": "97,4793",
    "green": 0,
    "coupon": 0,
    "accruedInterest": 0,
    "settleDate": "2023.04.14",
    "askEhmYield": "13,88",
    "bidYield": "14,98",
    "rawName": "D230621",
    "bidPrice": "97,2483",
    "maturityInDays": "68 nap",
    "securityType": "DKJ",
    "maturityDate": "2023.06.21",
    "name": "D230621",
    "bidEhmYield": "15,19",
    "askYield": "13,69",
    "currency": "HUF",
    "maturityInDays_val": 68,
    "issueDate": "2023.03.22",
    "longName": "D230621"
}