{
    "askPrice": "96,6722",
    "green": 0,
    "coupon": 0,
    "accruedInterest": 0,
    "settleDate": "2023.03.27",
    "askEhmYield": "14,61",
    "bidYield": "15,70",
    "rawName": "D230621",
    "bidPrice": "96,3850",
    "maturityInDays": "86 nap",
    "securityType": "DKJ",
    "maturityDate": "2023.06.21",
    "name": "D230621",
    "bidEhmYield": "15,92",
    "askYield": "14,41",
    "currency": "HUF",
    "maturityInDays_val": 86,
    "issueDate": "2023.03.22",
    "longName": "D230621"
}