{
    "askPrice": "98,1804",
    "green": 0,
    "coupon": 0,
    "accruedInterest": 0,
    "settleDate": "2023.05.04",
    "askEhmYield": "14,09",
    "bidYield": "15,20",
    "rawName": "D230621",
    "bidPrice": "98,0136",
    "maturityInDays": "48 nap",
    "securityType": "DKJ",
    "maturityDate": "2023.06.21",
    "name": "D230621",
    "bidEhmYield": "15,41",
    "askYield": "13,90",
    "currency": "HUF",
    "maturityInDays_val": 48,
    "issueDate": "2023.03.22",
    "longName": "D230621"
}