{
    "askPrice": "98,5855",
    "green": 0,
    "coupon": 0,
    "accruedInterest": 0,
    "settleDate": "2023.05.15",
    "askEhmYield": "14,15",
    "bidYield": "15,25",
    "rawName": "D230621",
    "bidPrice": "98,4568",
    "maturityInDays": "37 nap",
    "securityType": "DKJ",
    "maturityDate": "2023.06.21",
    "name": "D230621",
    "bidEhmYield": "15,46",
    "askYield": "13,96",
    "currency": "HUF",
    "maturityInDays_val": 37,
    "issueDate": "2023.03.22",
    "longName": "D230621"
}