{
    "askPrice": "97,7711",
    "green": 0,
    "coupon": 0,
    "accruedInterest": 0,
    "settleDate": "2023.04.24",
    "askEhmYield": "14,35",
    "bidYield": "15,29",
    "rawName": "D230621",
    "bidPrice": "97,5958",
    "maturityInDays": "58 nap",
    "securityType": "DKJ",
    "maturityDate": "2023.06.21",
    "name": "D230621",
    "bidEhmYield": "15,50",
    "askYield": "14,15",
    "currency": "HUF",
    "maturityInDays_val": 58,
    "issueDate": "2023.03.22",
    "longName": "D230621"
}