{
    "askPrice": "97,6260",
    "green": 0,
    "coupon": 0,
    "accruedInterest": 0,
    "settleDate": "2023.04.20",
    "askEhmYield": "14,32",
    "bidYield": "15,47",
    "rawName": "D230621",
    "bidPrice": "97,4049",
    "maturityInDays": "62 nap",
    "securityType": "DKJ",
    "maturityDate": "2023.06.21",
    "name": "D230621",
    "bidEhmYield": "15,68",
    "askYield": "14,12",
    "currency": "HUF",
    "maturityInDays_val": 62,
    "issueDate": "2023.03.22",
    "longName": "D230621"
}