{
    "askPrice": "",
    "green": 0,
    "coupon": "9,00 %",
    "accruedInterest": "2,4411",
    "settleDate": "2023.06.07",
    "askEhmYield": "",
    "bidYield": "10,36",
    "rawName": "K2024/09",
    "bidPrice": "99,0000",
    "coupon_val": 9,
    "maturityInDays": "266 nap",
    "securityType": "1MÁP",
    "maturityDate": "2024.02.28",
    "name": "K2024/09",
    "bidEhmYield": "10,22",
    "askYield": "",
    "currency": "HUF",
    "maturityInDays_val": 266,
    "issueDate": "2023.02.28",
    "longName": "K240228"
}