{
    "askPrice": "",
    "green": 0,
    "coupon": "9,00 %",
    "accruedInterest": "5,2521",
    "settleDate": "2023.09.29",
    "askEhmYield": "",
    "bidYield": "11,29",
    "rawName": "K2024/09",
    "bidPrice": "99,0000",
    "coupon_val": 9,
    "maturityInDays": "152 nap",
    "securityType": "1MÁP",
    "maturityDate": "2024.02.28",
    "name": "K2024/09",
    "bidEhmYield": "10,94",
    "askYield": "",
    "currency": "HUF",
    "maturityInDays_val": 152,
    "issueDate": "2023.02.28",
    "longName": "K240228"
}