{
    "askPrice": "",
    "green": 0,
    "coupon": "9,00 %",
    "accruedInterest": "4,1178",
    "settleDate": "2023.08.14",
    "askEhmYield": "",
    "bidYield": "10,77",
    "rawName": "K2024/09",
    "bidPrice": "99,0000",
    "coupon_val": 9,
    "maturityInDays": "198 nap",
    "securityType": "1MÁP",
    "maturityDate": "2024.02.28",
    "name": "K2024/09",
    "bidEhmYield": "10,52",
    "askYield": "",
    "currency": "HUF",
    "maturityInDays_val": 198,
    "issueDate": "2023.02.28",
    "longName": "K240228"
}