{
    "askPrice": "",
    "green": 0,
    "coupon": "9,00 %",
    "accruedInterest": "6,0904",
    "settleDate": "2023.11.02",
    "askEhmYield": "",
    "bidYield": "11,96",
    "rawName": "K2024/09",
    "bidPrice": "99,0000",
    "coupon_val": 9,
    "maturityInDays": "118 nap",
    "securityType": "1MÁP",
    "maturityDate": "2024.02.28",
    "name": "K2024/09",
    "bidEhmYield": "11,51",
    "askYield": "",
    "currency": "HUF",
    "maturityInDays_val": 118,
    "issueDate": "2023.02.28",
    "longName": "K240228"
}