{
    "askPrice": "",
    "green": 0,
    "coupon": "9,00 %",
    "accruedInterest": "3,6740",
    "settleDate": "2023.07.27",
    "askEhmYield": "",
    "bidYield": "10,63",
    "rawName": "K2024/09",
    "bidPrice": "99,0000",
    "coupon_val": 9,
    "maturityInDays": "216 nap",
    "securityType": "1MÁP",
    "maturityDate": "2024.02.28",
    "name": "K2024/09",
    "bidEhmYield": "10,41",
    "askYield": "",
    "currency": "HUF",
    "maturityInDays_val": 216,
    "issueDate": "2023.02.28",
    "longName": "K240228"
}