{
    "askPrice": "",
    "green": 0,
    "coupon": "9,00 %",
    "accruedInterest": "1,5534",
    "settleDate": "2023.05.02",
    "askEhmYield": "",
    "bidYield": "10,24",
    "rawName": "K2024/09",
    "bidPrice": "99,0000",
    "coupon_val": 9,
    "maturityInDays": "302 nap",
    "securityType": "1MÁP",
    "maturityDate": "2024.02.28",
    "name": "K2024/09",
    "bidEhmYield": "10,15",
    "askYield": "",
    "currency": "HUF",
    "maturityInDays_val": 302,
    "issueDate": "2023.02.28",
    "longName": "K240228"
}