{
    "askPrice": "",
    "green": 0,
    "coupon": "9,00 %",
    "accruedInterest": "6,7068",
    "settleDate": "2023.11.27",
    "askEhmYield": "",
    "bidYield": "12,80",
    "rawName": "K2024/09",
    "bidPrice": "99,0000",
    "coupon_val": 9,
    "maturityInDays": "93 nap",
    "securityType": "1MÁP",
    "maturityDate": "2024.02.28",
    "name": "K2024/09",
    "bidEhmYield": "12,23",
    "askYield": "",
    "currency": "HUF",
    "maturityInDays_val": 93,
    "issueDate": "2023.02.28",
    "longName": "K240228"
}