{
    "askPrice": "",
    "green": 0,
    "coupon": "9,00 %",
    "accruedInterest": "3,3288",
    "settleDate": "2023.07.13",
    "askEhmYield": "",
    "bidYield": "10,54",
    "rawName": "K2024/09",
    "bidPrice": "99,0000",
    "coupon_val": 9,
    "maturityInDays": "230 nap",
    "securityType": "1MÁP",
    "maturityDate": "2024.02.28",
    "name": "K2024/09",
    "bidEhmYield": "10,35",
    "askYield": "",
    "currency": "HUF",
    "maturityInDays_val": 230,
    "issueDate": "2023.02.28",
    "longName": "K240228"
}