{
    "askPrice": "",
    "green": 0,
    "coupon": "9,00 %",
    "accruedInterest": "4,6849",
    "settleDate": "2023.09.06",
    "askEhmYield": "",
    "bidYield": "10,99",
    "rawName": "K2024/09",
    "bidPrice": "99,0000",
    "coupon_val": 9,
    "maturityInDays": "175 nap",
    "securityType": "1MÁP",
    "maturityDate": "2024.02.28",
    "name": "K2024/09",
    "bidEhmYield": "10,69",
    "askYield": "",
    "currency": "HUF",
    "maturityInDays_val": 175,
    "issueDate": "2023.02.28",
    "longName": "K240228"
}