{
    "askPrice": "",
    "green": 0,
    "coupon": "9,00 %",
    "accruedInterest": "8,7781",
    "settleDate": "2024.02.19",
    "askEhmYield": "",
    "bidYield": "35,93",
    "rawName": "K2024/09",
    "bidPrice": "99,4000",
    "coupon_val": 9,
    "maturityInDays": "9 nap",
    "securityType": "1MÁP",
    "maturityDate": "2024.02.28",
    "name": "K2024/09",
    "bidEhmYield": "30,81",
    "askYield": "",
    "currency": "HUF",
    "maturityInDays_val": 9,
    "issueDate": "2023.02.28",
    "longName": "K240228"
}