{
    "askPrice": "",
    "green": 0,
    "coupon": "9,00 %",
    "accruedInterest": "7,8164",
    "settleDate": "2024.01.11",
    "askEhmYield": "",
    "bidYield": "16,63",
    "rawName": "K2024/09",
    "bidPrice": "99,0000",
    "coupon_val": 9,
    "maturityInDays": "48 nap",
    "securityType": "1MÁP",
    "maturityDate": "2024.02.28",
    "name": "K2024/09",
    "bidEhmYield": "15,54",
    "askYield": "",
    "currency": "HUF",
    "maturityInDays_val": 48,
    "issueDate": "2023.02.28",
    "longName": "K240228"
}