{
    "askPrice": "",
    "green": 0,
    "coupon": "4,25 %",
    "accruedInterest": "1,6534",
    "settleDate": "2022.12.22",
    "askEhmYield": "",
    "bidYield": "5,91",
    "rawName": "K2023/31",
    "bidPrice": "99,0000",
    "coupon_val": 4.25,
    "maturityInDays": "223 nap",
    "securityType": "1MÁP",
    "maturityDate": "2023.08.02",
    "name": "K2023/31",
    "bidEhmYield": "5,85",
    "askYield": "",
    "currency": "HUF",
    "maturityInDays_val": 223,
    "issueDate": "2022.08.02",
    "longName": "K230802"
}