{
    "askPrice": "",
    "green": 0,
    "coupon": "4,25 %",
    "accruedInterest": "0,02",
    "settleDate": "2022.08.04",
    "askEhmYield": "",
    "bidYield": "",
    "rawName": "K2023/31",
    "bidPrice": "99,50",
    "coupon_val": 4.25,
    "maturityInDays": "363 nap",
    "securityType": "1MÁP",
    "maturityDate": "2023.08.02",
    "name": "K2023/31",
    "bidEhmYield": "4,78",
    "askYield": "",
    "currency": "HUF",
    "maturityInDays_val": 363,
    "longName": "K230802"
}