{
    "askPrice": "",
    "green": 0,
    "coupon": "4,25 %",
    "accruedInterest": "1,26",
    "settleDate": "2022.11.18",
    "askEhmYield": "",
    "bidYield": "4,96",
    "rawName": "K2023/31",
    "bidPrice": "99,50",
    "coupon_val": 4.25,
    "maturityInDays": "257 nap",
    "securityType": "1MÁP",
    "maturityDate": "2023.08.02",
    "name": "K2023/31",
    "bidEhmYield": "4,92",
    "askYield": "",
    "currency": "HUF",
    "maturityInDays_val": 257,
    "issueDate": "2022-08-02",
    "longName": "K230802"
}