{
    "askPrice": "",
    "green": 0,
    "coupon": "4,25 %",
    "accruedInterest": "1,5836",
    "settleDate": "2022.12.16",
    "askEhmYield": "",
    "bidYield": "5,87",
    "rawName": "K2023/31",
    "bidPrice": "99,0000",
    "coupon_val": 4.25,
    "maturityInDays": "229 nap",
    "securityType": "1MÁP",
    "maturityDate": "2023.08.02",
    "name": "K2023/31",
    "bidEhmYield": "5,81",
    "askYield": "",
    "currency": "HUF",
    "maturityInDays_val": 229,
    "issueDate": "2022.08.02",
    "longName": "K230802"
}