{
    "askPrice": "",
    "green": 0,
    "coupon": "4,25 %",
    "accruedInterest": "1,4555",
    "settleDate": "2022.12.05",
    "askEhmYield": "",
    "bidYield": "5,00",
    "rawName": "K2023/31",
    "bidPrice": "99,5000",
    "coupon_val": 4.25,
    "maturityInDays": "240 nap",
    "securityType": "1MÁP",
    "maturityDate": "2023.08.02",
    "name": "K2023/31",
    "bidEhmYield": "4,96",
    "askYield": "",
    "currency": "HUF",
    "maturityInDays_val": 240,
    "issueDate": "2022.08.02",
    "longName": "K230802"
}