{
    "askPrice": "",
    "green": 0,
    "coupon": "4,25 %",
    "accruedInterest": "1,7815",
    "settleDate": "2023.01.02",
    "askEhmYield": "",
    "bidYield": "6,00",
    "rawName": "K2023/31",
    "bidPrice": "99,0000",
    "coupon_val": 4.25,
    "maturityInDays": "212 nap",
    "securityType": "1MÁP",
    "maturityDate": "2023.08.02",
    "name": "K2023/31",
    "bidEhmYield": "5,93",
    "askYield": "",
    "currency": "HUF",
    "maturityInDays_val": 212,
    "issueDate": "2022.08.02",
    "longName": "K230802"
}