{
    "askPrice": "",
    "green": 0,
    "coupon": "4,25 %",
    "accruedInterest": "2,4801",
    "settleDate": "2023.03.03",
    "askEhmYield": "",
    "bidYield": "6,68",
    "rawName": "K2023/31",
    "bidPrice": "99,0000",
    "coupon_val": 4.25,
    "maturityInDays": "152 nap",
    "securityType": "1MÁP",
    "maturityDate": "2023.08.02",
    "name": "K2023/31",
    "bidEhmYield": "6,55",
    "askYield": "",
    "currency": "HUF",
    "maturityInDays_val": 152,
    "issueDate": "2022.08.02",
    "longName": "K230802"
}