{
    "askPrice": "",
    "green": 0,
    "coupon": "4,25 %",
    "accruedInterest": "1,8630",
    "settleDate": "2023.01.09",
    "askEhmYield": "",
    "bidYield": "6,06",
    "rawName": "K2023/31",
    "bidPrice": "99,0000",
    "coupon_val": 4.25,
    "maturityInDays": "205 nap",
    "securityType": "1MÁP",
    "maturityDate": "2023.08.02",
    "name": "K2023/31",
    "bidEhmYield": "5,98",
    "askYield": "",
    "currency": "HUF",
    "maturityInDays_val": 205,
    "issueDate": "2022.08.02",
    "longName": "K230802"
}