{
    "askPrice": "",
    "green": 0,
    "coupon": "4,25 %",
    "accruedInterest": "3,5397",
    "settleDate": "2023.06.02",
    "askEhmYield": "",
    "bidYield": "10,40",
    "rawName": "K2023/31",
    "bidPrice": "99,0000",
    "coupon_val": 4.25,
    "maturityInDays": "61 nap",
    "securityType": "1MÁP",
    "maturityDate": "2023.08.02",
    "name": "K2023/31",
    "bidEhmYield": "9,98",
    "askYield": "",
    "currency": "HUF",
    "maturityInDays_val": 61,
    "issueDate": "2022.08.02",
    "longName": "K230802"
}