{
    "askPrice": "",
    "green": 0,
    "coupon": "4,25 %",
    "accruedInterest": "2,4452",
    "settleDate": "2023.02.28",
    "askEhmYield": "",
    "bidYield": "6,63",
    "rawName": "K2023/31",
    "bidPrice": "99,0000",
    "coupon_val": 4.25,
    "maturityInDays": "155 nap",
    "securityType": "1MÁP",
    "maturityDate": "2023.08.02",
    "name": "K2023/31",
    "bidEhmYield": "6,51",
    "askYield": "",
    "currency": "HUF",
    "maturityInDays_val": 155,
    "issueDate": "2022.08.02",
    "longName": "K230802"
}