{
    "askPrice": "",
    "green": 0,
    "coupon": "4,25 %",
    "accruedInterest": "3,0856",
    "settleDate": "2023.04.24",
    "askEhmYield": "",
    "bidYield": "7,96",
    "rawName": "K2023/31",
    "bidPrice": "99,0000",
    "coupon_val": 4.25,
    "maturityInDays": "100 nap",
    "securityType": "1MÁP",
    "maturityDate": "2023.08.02",
    "name": "K2023/31",
    "bidEhmYield": "7,74",
    "askYield": "",
    "currency": "HUF",
    "maturityInDays_val": 100,
    "issueDate": "2022.08.02",
    "longName": "K230802"
}