{
    "askPrice": "",
    "green": 0,
    "coupon": "4,25 %",
    "accruedInterest": "3,5164",
    "settleDate": "2023.05.31",
    "askEhmYield": "",
    "bidYield": "10,20",
    "rawName": "K2023/31",
    "bidPrice": "99,0000",
    "coupon_val": 4.25,
    "maturityInDays": "63 nap",
    "securityType": "1MÁP",
    "maturityDate": "2023.08.02",
    "name": "K2023/31",
    "bidEhmYield": "9,80",
    "askYield": "",
    "currency": "HUF",
    "maturityInDays_val": 63,
    "issueDate": "2022.08.02",
    "longName": "K230802"
}