{
    "askPrice": "",
    "green": 0,
    "coupon": "2,50 %",
    "accruedInterest": "1,77",
    "settleDate": "2022.07.04",
    "askEhmYield": "",
    "bidYield": "",
    "rawName": "K2022/42",
    "bidPrice": "99,50",
    "coupon_val": 2.5,
    "maturityInDays": "107 nap",
    "securityType": "1MÁP",
    "maturityDate": "2022.10.19",
    "name": "K2022/42",
    "bidEhmYield": "4,15",
    "askYield": "",
    "currency": "HUF",
    "maturityInDays_val": 107,
    "longName": "K221019"
}