{
    "askPrice": "",
    "green": 0,
    "coupon": "2,50 %",
    "accruedInterest": "2,21",
    "settleDate": "2022.09.07",
    "askEhmYield": "",
    "bidYield": "",
    "rawName": "K2022/42",
    "bidPrice": "99,50",
    "coupon_val": 2.5,
    "maturityInDays": "42 nap",
    "securityType": "1MÁP",
    "maturityDate": "2022.10.19",
    "name": "K2022/42",
    "bidEhmYield": "6,73",
    "askYield": "",
    "currency": "HUF",
    "maturityInDays_val": 42,
    "longName": "K221019"
}