{
    "askPrice": "",
    "green": 0,
    "coupon": "3,50 %",
    "accruedInterest": "1,89",
    "settleDate": "2022.11.07",
    "askEhmYield": "",
    "bidYield": "5,75",
    "rawName": "N2025/25",
    "bidPrice": "99,50",
    "coupon_val": 3.5,
    "maturityInDays": "958 nap",
    "securityType": "MÁP Plusz",
    "maturityDate": "2025.06.22",
    "name": "N2025/25",
    "bidEhmYield": "",
    "askYield": "",
    "currency": "HUF",
    "maturityInDays_val": 958,
    "issueDate": "2020-06-22",
    "longName": "N250622"
}