{
    "askPrice": "",
    "green": 0,
    "coupon": "3,50 %",
    "accruedInterest": "0,97",
    "settleDate": "2022.09.01",
    "askEhmYield": "",
    "bidYield": "",
    "rawName": "N2025/25",
    "bidPrice": "99,50",
    "coupon_val": 3.5,
    "maturityInDays": "1025 nap",
    "securityType": "MÁP Plusz",
    "maturityDate": "2025.06.22",
    "name": "N2025/25",
    "bidEhmYield": "",
    "askYield": "",
    "currency": "HUF",
    "maturityInDays_val": 1025,
    "longName": "N250622"
}