{
    "askPrice": "",
    "green": 0,
    "coupon": "3,50 %",
    "accruedInterest": "3,5205",
    "settleDate": "2023.03.06",
    "askEhmYield": "",
    "bidYield": "5,87",
    "rawName": "N2025/25",
    "bidPrice": "99,5000",
    "coupon_val": 3.5,
    "maturityInDays": "839 nap",
    "securityType": "MÁP Plusz",
    "maturityDate": "2025.06.22",
    "name": "N2025/25",
    "bidEhmYield": "",
    "askYield": "",
    "currency": "HUF",
    "maturityInDays_val": 839,
    "issueDate": "2020.06.22",
    "longName": "N250622"
}