{
    "askPrice": "",
    "green": 0,
    "coupon": "3,50 %",
    "accruedInterest": "0,8265",
    "settleDate": "2023.08.16",
    "askEhmYield": "",
    "bidYield": "6,05",
    "rawName": "N2025/25",
    "bidPrice": "99,5000",
    "coupon_val": 3.5,
    "maturityInDays": "676 nap",
    "securityType": "MÁP Plusz",
    "maturityDate": "2025.06.22",
    "name": "N2025/25",
    "bidEhmYield": "",
    "askYield": "",
    "currency": "HUF",
    "maturityInDays_val": 676,
    "issueDate": "2020.06.22",
    "longName": "N250622"
}