{
    "askPrice": "",
    "green": 0,
    "coupon": "3,50 %",
    "accruedInterest": "1,8634",
    "settleDate": "2023.10.24",
    "askEhmYield": "",
    "bidYield": "6,10",
    "rawName": "N2025/25",
    "bidPrice": "99,5000",
    "coupon_val": 3.5,
    "maturityInDays": "607 nap",
    "securityType": "MÁP Plusz",
    "maturityDate": "2025.06.22",
    "name": "N2025/25",
    "bidEhmYield": "",
    "askYield": "",
    "currency": "HUF",
    "maturityInDays_val": 607,
    "issueDate": "2020.06.22",
    "longName": "N250622"
}