{
    "askPrice": "",
    "green": 0,
    "coupon": "3,50 %",
    "accruedInterest": "4,7036",
    "settleDate": "2024.04.30",
    "askEhmYield": "",
    "bidYield": "6,38",
    "rawName": "N2025/25",
    "bidPrice": "99,5000",
    "coupon_val": 3.5,
    "maturityInDays": "418 nap",
    "securityType": "MÁP Plusz",
    "maturityDate": "2025.06.22",
    "name": "N2025/25",
    "bidEhmYield": "",
    "askYield": "",
    "currency": "HUF",
    "maturityInDays_val": 418,
    "issueDate": "2020.06.22",
    "longName": "N250622"
}