{
    "askPrice": "",
    "green": 0,
    "coupon": "3,50 %",
    "accruedInterest": "0,1626",
    "settleDate": "2024.05.02",
    "askEhmYield": "",
    "bidYield": "5,04",
    "rawName": "N2029/16",
    "bidPrice": "99,5000",
    "coupon_val": 3.5,
    "maturityInDays": "1809 nap",
    "securityType": "MÁP Plusz",
    "maturityDate": "2029.04.15",
    "name": "N2029/16",
    "bidEhmYield": "",
    "askYield": "",
    "currency": "HUF",
    "maturityInDays_val": 1809,
    "issueDate": "2024.04.15",
    "longName": "N290415"
}