{
    "askPrice": "98,2265",
    "green": 0,
    "coupon": 0,
    "accruedInterest": 0,
    "settleDate": "2023.05.30",
    "askEhmYield": "13,18",
    "bidYield": "14,30",
    "rawName": "D230719",
    "bidPrice": "98,0526",
    "maturityInDays": "50 nap",
    "securityType": "DKJ",
    "maturityDate": "2023.07.19",
    "name": "D230719",
    "bidEhmYield": "14,50",
    "askYield": "13,00",
    "currency": "HUF",
    "maturityInDays_val": 50,
    "issueDate": "2023.04.19",
    "longName": "D230719"
}