{
    "askPrice": "98,2639",
    "green": 0,
    "coupon": 0,
    "accruedInterest": 0,
    "settleDate": "2023.05.31",
    "askEhmYield": "13,16",
    "bidYield": "14,31",
    "rawName": "D230719",
    "bidPrice": "98,0895",
    "maturityInDays": "49 nap",
    "securityType": "DKJ",
    "maturityDate": "2023.07.19",
    "name": "D230719",
    "bidEhmYield": "14,51",
    "askYield": "12,98",
    "currency": "HUF",
    "maturityInDays_val": 49,
    "issueDate": "2023.04.19",
    "longName": "D230719"
}