{
    "askPrice": "99,0570",
    "green": 0,
    "coupon": 0,
    "accruedInterest": 0,
    "settleDate": "2023.06.21",
    "askEhmYield": "12,41",
    "bidYield": "13,55",
    "rawName": "D230719",
    "bidPrice": "98,9571",
    "maturityInDays": "28 nap",
    "securityType": "DKJ",
    "maturityDate": "2023.07.19",
    "name": "D230719",
    "bidEhmYield": "13,74",
    "askYield": "12,24",
    "currency": "HUF",
    "maturityInDays_val": 28,
    "issueDate": "2023.04.19",
    "longName": "D230719"
}