{
    "askPrice": "",
    "green": 0,
    "coupon": "3,50 %",
    "accruedInterest": "0,09",
    "settleDate": "2022.11.17",
    "askEhmYield": "",
    "bidYield": "5,21",
    "rawName": "N2027/19",
    "bidPrice": "99,50",
    "coupon_val": 3.5,
    "maturityInDays": "1634 nap",
    "securityType": "MÁP Plusz",
    "maturityDate": "2027.05.09",
    "name": "N2027/19",
    "bidEhmYield": "",
    "askYield": "",
    "currency": "HUF",
    "maturityInDays_val": 1634,
    "issueDate": "2022-05-09",
    "longName": "N270509"
}