{
    "askPrice": "",
    "green": 0,
    "coupon": "3,50 %",
    "accruedInterest": "1,30",
    "settleDate": "2022.09.23",
    "askEhmYield": "",
    "bidYield": "",
    "rawName": "N2027/19",
    "bidPrice": "99,50",
    "coupon_val": 3.5,
    "maturityInDays": "1689 nap",
    "securityType": "MÁP Plusz",
    "maturityDate": "2027.05.09",
    "name": "N2027/19",
    "bidEhmYield": "",
    "askYield": "",
    "currency": "HUF",
    "maturityInDays_val": 1689,
    "longName": "N270509"
}