{
    "askPrice": "",
    "green": 0,
    "coupon": "3,50 %",
    "accruedInterest": "0,7956",
    "settleDate": "2023.01.20",
    "askEhmYield": "",
    "bidYield": "5,26",
    "rawName": "N2027/19",
    "bidPrice": "99,5000",
    "coupon_val": 3.5,
    "maturityInDays": "1570 nap",
    "securityType": "MÁP Plusz",
    "maturityDate": "2027.05.09",
    "name": "N2027/19",
    "bidEhmYield": "",
    "askYield": "",
    "currency": "HUF",
    "maturityInDays_val": 1570,
    "issueDate": "2022.05.09",
    "longName": "N270509"
}