{
    "askPrice": "",
    "green": 0,
    "coupon": "3,50 %",
    "accruedInterest": "1,4139",
    "settleDate": "2023.09.01",
    "askEhmYield": "",
    "bidYield": "5,43",
    "rawName": "N2027/19",
    "bidPrice": "99,5000",
    "coupon_val": 3.5,
    "maturityInDays": "1346 nap",
    "securityType": "MÁP Plusz",
    "maturityDate": "2027.05.09",
    "name": "N2027/19",
    "bidEhmYield": "",
    "askYield": "",
    "currency": "HUF",
    "maturityInDays_val": 1346,
    "issueDate": "2022.05.09",
    "longName": "N270509"
}