{
    "askPrice": "",
    "green": 0,
    "coupon": "3,50 %",
    "accruedInterest": "3,5164",
    "settleDate": "2024.02.19",
    "askEhmYield": "",
    "bidYield": "5,58",
    "rawName": "N2027/19",
    "bidPrice": "99,5000",
    "coupon_val": 3.5,
    "maturityInDays": "1175 nap",
    "securityType": "MÁP Plusz",
    "maturityDate": "2027.05.09",
    "name": "N2027/19",
    "bidEhmYield": "",
    "askYield": "",
    "currency": "HUF",
    "maturityInDays_val": 1175,
    "issueDate": "2022.05.09",
    "longName": "N270509"
}