{
    "askPrice": "",
    "green": 0,
    "coupon": "7,00 %",
    "accruedInterest": "0,2493",
    "settleDate": "2022.11.28",
    "askEhmYield": "",
    "bidYield": "7,55",
    "rawName": "K2023/46",
    "bidPrice": "99,5000",
    "coupon_val": 7,
    "maturityInDays": "352 nap",
    "securityType": "1MÁP",
    "maturityDate": "2023.11.15",
    "name": "K2023/46",
    "bidEhmYield": "7,54",
    "askYield": "",
    "currency": "HUF",
    "maturityInDays_val": 352,
    "issueDate": "2022.11.15",
    "longName": "K231115"
}