{
    "askPrice": "",
    "green": 0,
    "coupon": "7,00 %",
    "accruedInterest": "0,8247",
    "settleDate": "2022.12.28",
    "askEhmYield": "",
    "bidYield": "8,19",
    "rawName": "K2023/46",
    "bidPrice": "99,0000",
    "coupon_val": 7,
    "maturityInDays": "322 nap",
    "securityType": "1MÁP",
    "maturityDate": "2023.11.15",
    "name": "K2023/46",
    "bidEhmYield": "8,15",
    "askYield": "",
    "currency": "HUF",
    "maturityInDays_val": 322,
    "issueDate": "2022.11.15",
    "longName": "K231115"
}