{
    "askPrice": "",
    "green": 0,
    "coupon": "7,00 %",
    "accruedInterest": "0,1918",
    "settleDate": "2022.11.25",
    "askEhmYield": "",
    "bidYield": "7,54",
    "rawName": "K2023/46",
    "bidPrice": "99,5000",
    "coupon_val": 7,
    "maturityInDays": "355 nap",
    "securityType": "1MÁP",
    "maturityDate": "2023.11.15",
    "name": "K2023/46",
    "bidEhmYield": "7,54",
    "askYield": "",
    "currency": "HUF",
    "maturityInDays_val": 355,
    "issueDate": "2022.11.15",
    "longName": "K231115"
}