{
    "askPrice": "",
    "green": 0,
    "coupon": "7,00 %",
    "accruedInterest": "4,8521",
    "settleDate": "2023.07.26",
    "askEhmYield": "",
    "bidYield": "10,22",
    "rawName": "K2023/46",
    "bidPrice": "99,0000",
    "coupon_val": 7,
    "maturityInDays": "112 nap",
    "securityType": "1MÁP",
    "maturityDate": "2023.11.15",
    "name": "K2023/46",
    "bidEhmYield": "9,88",
    "askYield": "",
    "currency": "HUF",
    "maturityInDays_val": 112,
    "issueDate": "2022.11.15",
    "longName": "K231115"
}