{
    "askPrice": "",
    "green": 0,
    "coupon": "7,00 %",
    "accruedInterest": "6,0986",
    "settleDate": "2023.09.29",
    "askEhmYield": "",
    "bidYield": "14,94",
    "rawName": "K2023/46",
    "bidPrice": "99,0000",
    "coupon_val": 7,
    "maturityInDays": "47 nap",
    "securityType": "1MÁP",
    "maturityDate": "2023.11.15",
    "name": "K2023/46",
    "bidEhmYield": "14,05",
    "askYield": "",
    "currency": "HUF",
    "maturityInDays_val": 47,
    "issueDate": "2022.11.15",
    "longName": "K231115"
}