{
    "askPrice": "",
    "green": 0,
    "coupon": "7,00 %",
    "accruedInterest": "3,2603",
    "settleDate": "2023.05.04",
    "askEhmYield": "",
    "bidYield": "8,85",
    "rawName": "K2023/46",
    "bidPrice": "99,0000",
    "coupon_val": 7,
    "maturityInDays": "195 nap",
    "securityType": "1MÁP",
    "maturityDate": "2023.11.15",
    "name": "K2023/46",
    "bidEhmYield": "8,68",
    "askYield": "",
    "currency": "HUF",
    "maturityInDays_val": 195,
    "issueDate": "2022.11.15",
    "longName": "K231115"
}