{
    "askPrice": "",
    "green": 0,
    "coupon": "7,00 %",
    "accruedInterest": "4,6219",
    "settleDate": "2023.07.14",
    "askEhmYield": "",
    "bidYield": "9,90",
    "rawName": "K2023/46",
    "bidPrice": "99,0000",
    "coupon_val": 7,
    "maturityInDays": "124 nap",
    "securityType": "1MÁP",
    "maturityDate": "2023.11.15",
    "name": "K2023/46",
    "bidEhmYield": "9,60",
    "askYield": "",
    "currency": "HUF",
    "maturityInDays_val": 124,
    "issueDate": "2022.11.15",
    "longName": "K231115"
}