{
    "askPrice": "",
    "green": 0,
    "coupon": "7,00 %",
    "accruedInterest": "6,4630",
    "settleDate": "2023.10.18",
    "askEhmYield": "",
    "bidYield": "20,76",
    "rawName": "K2023/46",
    "bidPrice": "99,0000",
    "coupon_val": 7,
    "maturityInDays": "28 nap",
    "securityType": "1MÁP",
    "maturityDate": "2023.11.15",
    "name": "K2023/46",
    "bidEhmYield": "19,00",
    "askYield": "",
    "currency": "HUF",
    "maturityInDays_val": 28,
    "issueDate": "2022.11.15",
    "longName": "K231115"
}