{
    "askPrice": "",
    "green": 0,
    "coupon": "7,00 %",
    "accruedInterest": "1,2466",
    "settleDate": "2023.01.19",
    "askEhmYield": "",
    "bidYield": "8,26",
    "rawName": "K2023/46",
    "bidPrice": "99,0000",
    "coupon_val": 7,
    "maturityInDays": "300 nap",
    "securityType": "1MÁP",
    "maturityDate": "2023.11.15",
    "name": "K2023/46",
    "bidEhmYield": "8,20",
    "askYield": "",
    "currency": "HUF",
    "maturityInDays_val": 300,
    "issueDate": "2022.11.15",
    "longName": "K231115"
}