{
    "askPrice": "",
    "green": 0,
    "coupon": "7,00 %",
    "accruedInterest": "6,4247",
    "settleDate": "2023.10.16",
    "askEhmYield": "",
    "bidYield": "19,78",
    "rawName": "K2023/46",
    "bidPrice": "99,0000",
    "coupon_val": 7,
    "maturityInDays": "30 nap",
    "securityType": "1MÁP",
    "maturityDate": "2023.11.15",
    "name": "K2023/46",
    "bidEhmYield": "18,18",
    "askYield": "",
    "currency": "HUF",
    "maturityInDays_val": 30,
    "issueDate": "2022.11.15",
    "longName": "K231115"
}