{
    "askPrice": "",
    "green": 0,
    "coupon": "7,00 %",
    "accruedInterest": "3,6822",
    "settleDate": "2023.05.26",
    "askEhmYield": "",
    "bidYield": "9,08",
    "rawName": "K2023/46",
    "bidPrice": "99,0000",
    "coupon_val": 7,
    "maturityInDays": "173 nap",
    "securityType": "1MÁP",
    "maturityDate": "2023.11.15",
    "name": "K2023/46",
    "bidEhmYield": "8,87",
    "askYield": "",
    "currency": "HUF",
    "maturityInDays_val": 173,
    "issueDate": "2022.11.15",
    "longName": "K231115"
}