{
    "askPrice": "",
    "green": 0,
    "coupon": "7,00 %",
    "accruedInterest": "5,1205",
    "settleDate": "2023.08.09",
    "askEhmYield": "",
    "bidYield": "10,69",
    "rawName": "K2023/46",
    "bidPrice": "99,0000",
    "coupon_val": 7,
    "maturityInDays": "98 nap",
    "securityType": "1MÁP",
    "maturityDate": "2023.11.15",
    "name": "K2023/46",
    "bidEhmYield": "10,30",
    "askYield": "",
    "currency": "HUF",
    "maturityInDays_val": 98,
    "issueDate": "2022.11.15",
    "longName": "K231115"
}