{
    "askPrice": "",
    "green": 0,
    "coupon": "7,00 %",
    "accruedInterest": "5,4082",
    "settleDate": "2023.08.24",
    "askEhmYield": "",
    "bidYield": "11,39",
    "rawName": "K2023/46",
    "bidPrice": "99,0000",
    "coupon_val": 7,
    "maturityInDays": "83 nap",
    "securityType": "1MÁP",
    "maturityDate": "2023.11.15",
    "name": "K2023/46",
    "bidEhmYield": "10,92",
    "askYield": "",
    "currency": "HUF",
    "maturityInDays_val": 83,
    "issueDate": "2022.11.15",
    "longName": "K231115"
}