{
    "askPrice": "",
    "green": 0,
    "coupon": "7,00 %",
    "accruedInterest": "1,5342",
    "settleDate": "2023.02.03",
    "askEhmYield": "",
    "bidYield": "8,31",
    "rawName": "K2023/46",
    "bidPrice": "99,0000",
    "coupon_val": 7,
    "maturityInDays": "285 nap",
    "securityType": "1MÁP",
    "maturityDate": "2023.11.15",
    "name": "K2023/46",
    "bidEhmYield": "8,24",
    "askYield": "",
    "currency": "HUF",
    "maturityInDays_val": 285,
    "issueDate": "2022.11.15",
    "longName": "K231115"
}