{
    "askPrice": "98,2975",
    "green": 0,
    "coupon": 0,
    "accruedInterest": 0,
    "settleDate": "2023.06.26",
    "askEhmYield": "10,90",
    "bidYield": "12,04",
    "rawName": "D230823",
    "bidPrice": "98,0971",
    "maturityInDays": "58 nap",
    "securityType": "DKJ",
    "maturityDate": "2023.08.23",
    "name": "D230823",
    "bidEhmYield": "12,21",
    "askYield": "10,75",
    "currency": "HUF",
    "maturityInDays_val": 58,
    "issueDate": "2022.08.24",
    "longName": "D230823"
}