{
    "askPrice": "99,2167",
    "green": 0,
    "coupon": 0,
    "accruedInterest": 0,
    "settleDate": "2023.07.25",
    "askEhmYield": "9,94",
    "bidYield": "11,12",
    "rawName": "D230823",
    "bidPrice": "99,1122",
    "maturityInDays": "29 nap",
    "securityType": "DKJ",
    "maturityDate": "2023.08.23",
    "name": "D230823",
    "bidEhmYield": "11,27",
    "askYield": "9,80",
    "currency": "HUF",
    "maturityInDays_val": 29,
    "issueDate": "2022.08.24",
    "longName": "D230823"
}