{
    "askPrice": "94,8299",
    "green": 0,
    "coupon": 0,
    "accruedInterest": 0,
    "settleDate": "2023.04.04",
    "askEhmYield": "14,11",
    "bidYield": "14,75",
    "rawName": "D230823",
    "bidPrice": "94,5384",
    "maturityInDays": "141 nap",
    "securityType": "DKJ",
    "maturityDate": "2023.08.23",
    "name": "D230823",
    "bidEhmYield": "14,95",
    "askYield": "13,92",
    "currency": "HUF",
    "maturityInDays_val": 141,
    "issueDate": "2022.08.24",
    "longName": "D230823"
}