{
    "askPrice": "94,6107",
    "green": 0,
    "coupon": 0,
    "accruedInterest": 0,
    "settleDate": "2023.03.29",
    "askEhmYield": "14,14",
    "bidYield": "14,75",
    "rawName": "D230823",
    "bidPrice": "94,3192",
    "maturityInDays": "147 nap",
    "securityType": "DKJ",
    "maturityDate": "2023.08.23",
    "name": "D230823",
    "bidEhmYield": "14,95",
    "askYield": "13,95",
    "currency": "HUF",
    "maturityInDays_val": 147,
    "issueDate": "2022.08.24",
    "longName": "D230823"
}