{
    "askPrice": "93,5200",
    "green": 0,
    "coupon": 0,
    "accruedInterest": 0,
    "settleDate": "2023.02.13",
    "askEhmYield": "13,24",
    "bidYield": "13,91",
    "rawName": "D230823",
    "bidPrice": "93,1272",
    "maturityInDays": "191 nap",
    "securityType": "DKJ",
    "maturityDate": "2023.08.23",
    "name": "D230823",
    "bidEhmYield": "14,10",
    "askYield": "13,06",
    "currency": "HUF",
    "maturityInDays_val": 191,
    "issueDate": "2022.08.24",
    "longName": "D230823"
}