{
    "askPrice": "93,2553",
    "green": 0,
    "coupon": 0,
    "accruedInterest": 0,
    "settleDate": "2023.02.06",
    "askEhmYield": "13,33",
    "bidYield": "13,94",
    "rawName": "D230823",
    "bidPrice": "92,8790",
    "maturityInDays": "198 nap",
    "securityType": "DKJ",
    "maturityDate": "2023.08.23",
    "name": "D230823",
    "bidEhmYield": "14,13",
    "askYield": "13,15",
    "currency": "HUF",
    "maturityInDays_val": 198,
    "issueDate": "2022.08.24",
    "longName": "D230823"
}