{
    "askPrice": "97,1219",
    "green": 0,
    "coupon": 0,
    "accruedInterest": 0,
    "settleDate": "2023.06.02",
    "askEhmYield": "13,19",
    "bidYield": "14,33",
    "rawName": "D230823",
    "bidPrice": "96,8391",
    "maturityInDays": "82 nap",
    "securityType": "DKJ",
    "maturityDate": "2023.08.23",
    "name": "D230823",
    "bidEhmYield": "14,53",
    "askYield": "13,01",
    "currency": "HUF",
    "maturityInDays_val": 82,
    "issueDate": "2022.08.24",
    "longName": "D230823"
}