{
    "askPrice": "93,3224",
    "green": 0,
    "coupon": 0,
    "accruedInterest": 0,
    "settleDate": "2023.02.09",
    "askEhmYield": "13,39",
    "bidYield": "14,00",
    "rawName": "D230823",
    "bidPrice": "92,9512",
    "maturityInDays": "195 nap",
    "securityType": "DKJ",
    "maturityDate": "2023.08.23",
    "name": "D230823",
    "bidEhmYield": "14,19",
    "askYield": "13,21",
    "currency": "HUF",
    "maturityInDays_val": 195,
    "issueDate": "2022.08.24",
    "longName": "D230823"
}