{
    "askPrice": "95,2744",
    "green": 0,
    "coupon": 0,
    "accruedInterest": 0,
    "settleDate": "2023.04.17",
    "askEhmYield": "14,14",
    "bidYield": "14,79",
    "rawName": "D230823",
    "bidPrice": "95,0041",
    "maturityInDays": "128 nap",
    "securityType": "DKJ",
    "maturityDate": "2023.08.23",
    "name": "D230823",
    "bidEhmYield": "15,00",
    "askYield": "13,95",
    "currency": "HUF",
    "maturityInDays_val": 128,
    "issueDate": "2022.08.24",
    "longName": "D230823"
}