{
    "askPrice": "99,5058",
    "green": 0,
    "coupon": 0,
    "accruedInterest": 0,
    "settleDate": "2023.08.04",
    "askEhmYield": "9,54",
    "bidYield": "10,73",
    "rawName": "D230823",
    "bidPrice": "99,4369",
    "maturityInDays": "19 nap",
    "securityType": "DKJ",
    "maturityDate": "2023.08.23",
    "name": "D230823",
    "bidEhmYield": "10,88",
    "askYield": "9,41",
    "currency": "HUF",
    "maturityInDays_val": 19,
    "issueDate": "2022.08.24",
    "longName": "D230823"
}