{
    "askPrice": "99,4024",
    "green": 0,
    "coupon": 0,
    "accruedInterest": 0,
    "settleDate": "2023.07.31",
    "askEhmYield": "9,54",
    "bidYield": "10,74",
    "rawName": "D230823",
    "bidPrice": "99,3185",
    "maturityInDays": "23 nap",
    "securityType": "DKJ",
    "maturityDate": "2023.08.23",
    "name": "D230823",
    "bidEhmYield": "10,89",
    "askYield": "9,41",
    "currency": "HUF",
    "maturityInDays_val": 23,
    "issueDate": "2022.08.24",
    "longName": "D230823"
}