{
    "askPrice": "95,5212",
    "green": 0,
    "coupon": 0,
    "accruedInterest": 0,
    "settleDate": "2023.04.24",
    "askEhmYield": "14,14",
    "bidYield": "14,75",
    "rawName": "D230823",
    "bidPrice": "95,2765",
    "maturityInDays": "121 nap",
    "securityType": "DKJ",
    "maturityDate": "2023.08.23",
    "name": "D230823",
    "bidEhmYield": "14,95",
    "askYield": "13,95",
    "currency": "HUF",
    "maturityInDays_val": 121,
    "issueDate": "2022.08.24",
    "longName": "D230823"
}