{
    "askPrice": "97,3100",
    "green": 0,
    "coupon": null,
    "accruedInterest": "2,2201",
    "settleDate": "2022.12.16",
    "askEhmYield": "",
    "bidYield": "",
    "rawName": "2032/B",
    "bidPrice": "94,4338",
    "maturityInDays": "3540 nap",
    "securityType": "KTV",
    "maturityDate": "2032.08.25",
    "name": "2032/B",
    "bidEhmYield": "",
    "askYield": "",
    "currency": "HUF",
    "maturityInDays_val": 3540,
    "issueDate": "2022.10.19",
    "longName": "A320825B22"
}