{
    "askPrice": "97,3500",
    "green": 0,
    "coupon": null,
    "accruedInterest": "1,5311",
    "settleDate": "2022.11.28",
    "askEhmYield": "",
    "bidYield": "",
    "rawName": "2032/B",
    "bidPrice": "94,8400",
    "maturityInDays": "3558 nap",
    "securityType": "KTV",
    "maturityDate": "2032.08.25",
    "name": "2032/B",
    "bidEhmYield": "",
    "askYield": "",
    "currency": "HUF",
    "maturityInDays_val": 3558,
    "issueDate": "2022.10.19",
    "longName": "A320825B22"
}