{
    "askPrice": "97,3000",
    "green": 0,
    "coupon": null,
    "accruedInterest": "1,3014",
    "settleDate": "2022.11.22",
    "askEhmYield": "",
    "bidYield": "",
    "rawName": "2032/B",
    "bidPrice": "94,9500",
    "maturityInDays": "3564 nap",
    "securityType": "KTV",
    "maturityDate": "2032.08.25",
    "name": "2032/B",
    "bidEhmYield": "",
    "askYield": "",
    "currency": "HUF",
    "maturityInDays_val": 3564,
    "issueDate": "2022.10.19",
    "longName": "A320825B22"
}