{
    "askPrice": "97,1366",
    "green": 0,
    "coupon": null,
    "accruedInterest": "2,6794",
    "settleDate": "2022.12.28",
    "askEhmYield": "",
    "bidYield": "",
    "rawName": "2032/B",
    "bidPrice": "94,2100",
    "maturityInDays": "3528 nap",
    "securityType": "KTV",
    "maturityDate": "2032.08.25",
    "name": "2032/B",
    "bidEhmYield": "",
    "askYield": "",
    "currency": "HUF",
    "maturityInDays_val": 3528,
    "issueDate": "2022.10.19",
    "longName": "A320825B22"
}