{
    "askPrice": "97,3100",
    "green": 0,
    "coupon": null,
    "accruedInterest": "2,3349",
    "settleDate": "2022.12.19",
    "askEhmYield": "",
    "bidYield": "",
    "rawName": "2032/B",
    "bidPrice": "94,5500",
    "maturityInDays": "3537 nap",
    "securityType": "KTV",
    "maturityDate": "2032.08.25",
    "name": "2032/B",
    "bidEhmYield": "",
    "askYield": "",
    "currency": "HUF",
    "maturityInDays_val": 3537,
    "issueDate": "2022.10.19",
    "longName": "A320825B22"
}