{
    "askPrice": "98,25",
    "green": 0,
    "coupon": null,
    "accruedInterest": "0,19",
    "settleDate": "2022.10.24",
    "askEhmYield": "",
    "bidYield": "",
    "rawName": "2032/B",
    "bidPrice": "95,72",
    "maturityInDays": "3593 nap",
    "securityType": "KTV",
    "maturityDate": "2032.08.25",
    "name": "2032/B",
    "bidEhmYield": "",
    "askYield": "",
    "currency": "HUF",
    "maturityInDays_val": 3593,
    "longName": "A320825B22"
}