{
    "askPrice": "97,4000",
    "green": 0,
    "coupon": null,
    "accruedInterest": "1,9139",
    "settleDate": "2022.12.08",
    "askEhmYield": "",
    "bidYield": "",
    "rawName": "2032/B",
    "bidPrice": "94,5063",
    "maturityInDays": "3548 nap",
    "securityType": "KTV",
    "maturityDate": "2032.08.25",
    "name": "2032/B",
    "bidEhmYield": "",
    "askYield": "",
    "currency": "HUF",
    "maturityInDays_val": 3548,
    "issueDate": "2022.10.19",
    "longName": "A320825B22"
}