{
    "askPrice": "97,91",
    "green": 0,
    "coupon": null,
    "accruedInterest": "0,31",
    "settleDate": "2022.10.27",
    "askEhmYield": "",
    "bidYield": "",
    "rawName": "2032/B",
    "bidPrice": "95,36",
    "maturityInDays": "3590 nap",
    "securityType": "KTV",
    "maturityDate": "2032.08.25",
    "name": "2032/B",
    "bidEhmYield": "",
    "askYield": "",
    "currency": "HUF",
    "maturityInDays_val": 3590,
    "longName": "A320825B22"
}