{
    "askPrice": "97,67",
    "green": 0,
    "coupon": null,
    "accruedInterest": "0,54",
    "settleDate": "2022.11.02",
    "askEhmYield": "",
    "bidYield": "",
    "rawName": "2032/B",
    "bidPrice": "95,10",
    "maturityInDays": "3584 nap",
    "securityType": "KTV",
    "maturityDate": "2032.08.25",
    "name": "2032/B",
    "bidEhmYield": "",
    "askYield": "",
    "currency": "HUF",
    "maturityInDays_val": 3584,
    "issueDate": "2022-10-19",
    "longName": "A320825B22"
}