{
    "askPrice": "97,2900",
    "green": 0,
    "coupon": null,
    "accruedInterest": "4,7847",
    "settleDate": "2023.02.21",
    "askEhmYield": "",
    "bidYield": "",
    "rawName": "2032/B",
    "bidPrice": "94,3000",
    "maturityInDays": "3473 nap",
    "securityType": "KTV",
    "maturityDate": "2032.08.25",
    "name": "2032/B",
    "bidEhmYield": "",
    "askYield": "",
    "currency": "HUF",
    "maturityInDays_val": 3473,
    "issueDate": "2022.10.19",
    "longName": "A320825B22"
}