{
    "askPrice": "100,4000",
    "green": 0,
    "coupon": null,
    "accruedInterest": "0,0601",
    "settleDate": "2023.11.27",
    "askEhmYield": "",
    "bidYield": "",
    "rawName": "2032/B",
    "bidPrice": "96,9500",
    "maturityInDays": "3194 nap",
    "securityType": "KTV",
    "maturityDate": "2032.08.25",
    "name": "2032/B",
    "bidEhmYield": "",
    "askYield": "",
    "currency": "HUF",
    "maturityInDays_val": 3194,
    "issueDate": "2022.10.19",
    "longName": "A320825B22"
}