{
    "askPrice": "97,2000",
    "green": 0,
    "coupon": null,
    "accruedInterest": "0,2715",
    "settleDate": "2023.03.03",
    "askEhmYield": "",
    "bidYield": "",
    "rawName": "2032/B",
    "bidPrice": "94,2257",
    "maturityInDays": "3463 nap",
    "securityType": "KTV",
    "maturityDate": "2032.08.25",
    "name": "2032/B",
    "bidEhmYield": "",
    "askYield": "",
    "currency": "HUF",
    "maturityInDays_val": 3463,
    "issueDate": "2022.10.19",
    "longName": "A320825B22"
}