{
    "askPrice": "96,7500",
    "green": 0,
    "coupon": null,
    "accruedInterest": "3,3485",
    "settleDate": "2023.05.10",
    "askEhmYield": "",
    "bidYield": "",
    "rawName": "2032/B",
    "bidPrice": "93,9500",
    "maturityInDays": "3395 nap",
    "securityType": "KTV",
    "maturityDate": "2032.08.25",
    "name": "2032/B",
    "bidEhmYield": "",
    "askYield": "",
    "currency": "HUF",
    "maturityInDays_val": 3395,
    "issueDate": "2022.10.19",
    "longName": "A320825B22"
}