{
    "askPrice": "101,3000",
    "green": 0,
    "coupon": null,
    "accruedInterest": "0,1548",
    "settleDate": "2023.08.29",
    "askEhmYield": "",
    "bidYield": "",
    "rawName": "2032/B",
    "bidPrice": "98,1000",
    "maturityInDays": "3284 nap",
    "securityType": "KTV",
    "maturityDate": "2032.08.25",
    "name": "2032/B",
    "bidEhmYield": "",
    "askYield": "",
    "currency": "HUF",
    "maturityInDays_val": 3284,
    "issueDate": "2022.10.19",
    "longName": "A320825B22"
}