{
    "askPrice": "100,7800",
    "green": 0,
    "coupon": null,
    "accruedInterest": "2,1859",
    "settleDate": "2023.07.13",
    "askEhmYield": "",
    "bidYield": "",
    "rawName": "2032/B",
    "bidPrice": "97,7500",
    "maturityInDays": "3331 nap",
    "securityType": "KTV",
    "maturityDate": "2032.08.25",
    "name": "2032/B",
    "bidEhmYield": "",
    "askYield": "",
    "currency": "HUF",
    "maturityInDays_val": 3331,
    "issueDate": "2022.10.19",
    "longName": "A320825B22"
}