{
    "askPrice": "97,3500",
    "green": 0,
    "coupon": null,
    "accruedInterest": "4,0957",
    "settleDate": "2023.02.03",
    "askEhmYield": "",
    "bidYield": "",
    "rawName": "2032/B",
    "bidPrice": "94,4061",
    "maturityInDays": "3491 nap",
    "securityType": "KTV",
    "maturityDate": "2032.08.25",
    "name": "2032/B",
    "bidEhmYield": "",
    "askYield": "",
    "currency": "HUF",
    "maturityInDays_val": 3491,
    "issueDate": "2022.10.19",
    "longName": "A320825B22"
}