{
    "askPrice": "100,7500",
    "green": 0,
    "coupon": null,
    "accruedInterest": "0,8126",
    "settleDate": "2023.09.15",
    "askEhmYield": "",
    "bidYield": "",
    "rawName": "2032/B",
    "bidPrice": "97,6500",
    "maturityInDays": "3267 nap",
    "securityType": "KTV",
    "maturityDate": "2032.08.25",
    "name": "2032/B",
    "bidEhmYield": "",
    "askYield": "",
    "currency": "HUF",
    "maturityInDays_val": 3267,
    "issueDate": "2022.10.19",
    "longName": "A320825B22"
}