{
    "askPrice": "101,3000",
    "green": 0,
    "coupon": null,
    "accruedInterest": "0,7739",
    "settleDate": "2023.09.14",
    "askEhmYield": "",
    "bidYield": "",
    "rawName": "2032/B",
    "bidPrice": "98,0700",
    "maturityInDays": "3268 nap",
    "securityType": "KTV",
    "maturityDate": "2032.08.25",
    "name": "2032/B",
    "bidEhmYield": "",
    "askYield": "",
    "currency": "HUF",
    "maturityInDays_val": 3268,
    "issueDate": "2022.10.19",
    "longName": "A320825B22"
}