{
    "askPrice": "96,9600",
    "green": 0,
    "coupon": null,
    "accruedInterest": "1,3575",
    "settleDate": "2023.03.27",
    "askEhmYield": "",
    "bidYield": "",
    "rawName": "2032/B",
    "bidPrice": "93,9500",
    "maturityInDays": "3439 nap",
    "securityType": "KTV",
    "maturityDate": "2032.08.25",
    "name": "2032/B",
    "bidEhmYield": "",
    "askYield": "",
    "currency": "HUF",
    "maturityInDays_val": 3439,
    "issueDate": "2022.10.19",
    "longName": "A320825B22"
}