{
    "askPrice": "96,8400",
    "green": 0,
    "coupon": null,
    "accruedInterest": "2,3983",
    "settleDate": "2023.04.19",
    "askEhmYield": "",
    "bidYield": "",
    "rawName": "2032/B",
    "bidPrice": "93,8700",
    "maturityInDays": "3416 nap",
    "securityType": "KTV",
    "maturityDate": "2032.08.25",
    "name": "2032/B",
    "bidEhmYield": "",
    "askYield": "",
    "currency": "HUF",
    "maturityInDays_val": 3416,
    "issueDate": "2022.10.19",
    "longName": "A320825B22"
}