{
    "askPrice": "100,8500",
    "green": 0,
    "coupon": null,
    "accruedInterest": "1,4722",
    "settleDate": "2023.06.27",
    "askEhmYield": "",
    "bidYield": "",
    "rawName": "2032/B",
    "bidPrice": "97,8500",
    "maturityInDays": "3347 nap",
    "securityType": "KTV",
    "maturityDate": "2032.08.25",
    "name": "2032/B",
    "bidEhmYield": "",
    "askYield": "",
    "currency": "HUF",
    "maturityInDays_val": 3347,
    "issueDate": "2022.10.19",
    "longName": "A320825B22"
}