{
    "askPrice": "97,0100",
    "green": 0,
    "coupon": null,
    "accruedInterest": "3,4833",
    "settleDate": "2023.01.18",
    "askEhmYield": "",
    "bidYield": "",
    "rawName": "2032/B",
    "bidPrice": "94,2500",
    "maturityInDays": "3507 nap",
    "securityType": "KTV",
    "maturityDate": "2032.08.25",
    "name": "2032/B",
    "bidEhmYield": "",
    "askYield": "",
    "currency": "HUF",
    "maturityInDays_val": 3507,
    "issueDate": "2022.10.19",
    "longName": "A320825B22"
}