{
    "askPrice": "96,6000",
    "green": 0,
    "coupon": null,
    "accruedInterest": "0,2231",
    "settleDate": "2023.05.30",
    "askEhmYield": "",
    "bidYield": "",
    "rawName": "2032/B",
    "bidPrice": "93,7000",
    "maturityInDays": "3375 nap",
    "securityType": "KTV",
    "maturityDate": "2032.08.25",
    "name": "2032/B",
    "bidEhmYield": "",
    "askYield": "",
    "currency": "HUF",
    "maturityInDays_val": 3375,
    "issueDate": "2022.10.19",
    "longName": "A320825B22"
}