{
    "askPrice": "100,7000",
    "green": 0,
    "coupon": null,
    "accruedInterest": "0,0245",
    "settleDate": "2024.02.26",
    "askEhmYield": "",
    "bidYield": "",
    "rawName": "2032/B",
    "bidPrice": "97,1000",
    "maturityInDays": "3103 nap",
    "securityType": "KTV",
    "maturityDate": "2032.08.25",
    "name": "2032/B",
    "bidEhmYield": "",
    "askYield": "",
    "currency": "HUF",
    "maturityInDays_val": 3103,
    "issueDate": "2022.10.19",
    "longName": "A320825B22"
}