{
    "askPrice": "101,4500",
    "green": 0,
    "coupon": null,
    "accruedInterest": "1,3981",
    "settleDate": "2024.04.22",
    "askEhmYield": "",
    "bidYield": "",
    "rawName": "2032/B",
    "bidPrice": "97,6000",
    "maturityInDays": "3047 nap",
    "securityType": "KTV",
    "maturityDate": "2032.08.25",
    "name": "2032/B",
    "bidEhmYield": "",
    "askYield": "",
    "currency": "HUF",
    "maturityInDays_val": 3047,
    "issueDate": "2022.10.19",
    "longName": "A320825B22"
}