{
    "askPrice": "100,7900",
    "green": 0,
    "coupon": null,
    "accruedInterest": "1,1722",
    "settleDate": "2024.01.03",
    "askEhmYield": "",
    "bidYield": "",
    "rawName": "2032/B",
    "bidPrice": "97,2000",
    "maturityInDays": "3157 nap",
    "securityType": "KTV",
    "maturityDate": "2032.08.25",
    "name": "2032/B",
    "bidEhmYield": "",
    "askYield": "",
    "currency": "HUF",
    "maturityInDays_val": 3157,
    "issueDate": "2022.10.19",
    "longName": "A320825B22"
}