{
    "askPrice": "100,8900",
    "green": 0,
    "coupon": null,
    "accruedInterest": "0,4415",
    "settleDate": "2024.03.14",
    "askEhmYield": "",
    "bidYield": "",
    "rawName": "2032/B",
    "bidPrice": "97,2500",
    "maturityInDays": "3086 nap",
    "securityType": "KTV",
    "maturityDate": "2032.08.25",
    "name": "2032/B",
    "bidEhmYield": "",
    "askYield": "",
    "currency": "HUF",
    "maturityInDays_val": 3086,
    "issueDate": "2022.10.19",
    "longName": "A320825B22"
}