{
    "askPrice": "100,6000",
    "green": 0,
    "coupon": null,
    "accruedInterest": "2,0137",
    "settleDate": "2024.01.31",
    "askEhmYield": "",
    "bidYield": "",
    "rawName": "2032/B",
    "bidPrice": "97,0000",
    "maturityInDays": "3129 nap",
    "securityType": "KTV",
    "maturityDate": "2032.08.25",
    "name": "2032/B",
    "bidEhmYield": "",
    "askYield": "",
    "currency": "HUF",
    "maturityInDays_val": 3129,
    "issueDate": "2022.10.19",
    "longName": "A320825B22"
}