{
    "askPrice": "100,8000",
    "green": 0,
    "coupon": null,
    "accruedInterest": "0,1226",
    "settleDate": "2024.03.01",
    "askEhmYield": "",
    "bidYield": "",
    "rawName": "2032/B",
    "bidPrice": "97,1000",
    "maturityInDays": "3099 nap",
    "securityType": "KTV",
    "maturityDate": "2032.08.25",
    "name": "2032/B",
    "bidEhmYield": "",
    "askYield": "",
    "currency": "HUF",
    "maturityInDays_val": 3099,
    "issueDate": "2022.10.19",
    "longName": "A320825B22"
}