{
    "askPrice": "",
    "green": 0,
    "coupon": "3,50 %",
    "accruedInterest": "1,21",
    "settleDate": "2022.08.29",
    "askEhmYield": "",
    "bidYield": "",
    "rawName": "N2025/22",
    "bidPrice": "99,50",
    "coupon_val": 3.5,
    "maturityInDays": "1008 nap",
    "securityType": "MÁP Plusz",
    "maturityDate": "2025.06.02",
    "name": "N2025/22",
    "bidEhmYield": "",
    "askYield": "",
    "currency": "HUF",
    "maturityInDays_val": 1008,
    "longName": "N250602"
}