{
    "askPrice": "",
    "green": 0,
    "coupon": "3,50 %",
    "accruedInterest": "0,68",
    "settleDate": "2022.07.22",
    "askEhmYield": "",
    "bidYield": "",
    "rawName": "N2025/22",
    "bidPrice": "99,50",
    "coupon_val": 3.5,
    "maturityInDays": "1046 nap",
    "securityType": "MÁP Plusz",
    "maturityDate": "2025.06.02",
    "name": "N2025/22",
    "bidEhmYield": "",
    "askYield": "",
    "currency": "HUF",
    "maturityInDays_val": 1046,
    "longName": "N250602"
}