{
    "askPrice": "",
    "green": 0,
    "coupon": "3,50 %",
    "accruedInterest": "2,19",
    "settleDate": "2022.11.09",
    "askEhmYield": "",
    "bidYield": "5,77",
    "rawName": "N2025/22",
    "bidPrice": "99,50",
    "coupon_val": 3.5,
    "maturityInDays": "936 nap",
    "securityType": "MÁP Plusz",
    "maturityDate": "2025.06.02",
    "name": "N2025/22",
    "bidEhmYield": "",
    "askYield": "",
    "currency": "HUF",
    "maturityInDays_val": 936,
    "issueDate": "2020-06-02",
    "longName": "N250602"
}