{
    "askPrice": "",
    "green": 0,
    "coupon": "3,50 %",
    "accruedInterest": "0,4057",
    "settleDate": "2023.06.29",
    "askEhmYield": "",
    "bidYield": "6,03",
    "rawName": "N2025/22",
    "bidPrice": "99,5000",
    "coupon_val": 3.5,
    "maturityInDays": "704 nap",
    "securityType": "MÁP Plusz",
    "maturityDate": "2025.06.02",
    "name": "N2025/22",
    "bidEhmYield": "",
    "askYield": "",
    "currency": "HUF",
    "maturityInDays_val": 704,
    "issueDate": "2020.06.02",
    "longName": "N250602"
}