{
    "askPrice": "",
    "green": 0,
    "coupon": "3,50 %",
    "accruedInterest": "3,7268",
    "settleDate": "2024.02.05",
    "askEhmYield": "",
    "bidYield": "6,25",
    "rawName": "N2025/22",
    "bidPrice": "99,5000",
    "coupon_val": 3.5,
    "maturityInDays": "483 nap",
    "securityType": "MÁP Plusz",
    "maturityDate": "2025.06.02",
    "name": "N2025/22",
    "bidEhmYield": "",
    "askYield": "",
    "currency": "HUF",
    "maturityInDays_val": 483,
    "issueDate": "2020.06.02",
    "longName": "N250602"
}