{
    "askPrice": "",
    "green": 0,
    "coupon": "3,50 %",
    "accruedInterest": "0,10",
    "settleDate": "2022.11.17",
    "askEhmYield": "",
    "bidYield": "5,03",
    "rawName": "N2027/45",
    "bidPrice": "99,50",
    "coupon_val": 3.5,
    "maturityInDays": "1816 nap",
    "securityType": "MÁP Plusz",
    "maturityDate": "2027.11.07",
    "name": "N2027/45",
    "bidEhmYield": "",
    "askYield": "",
    "currency": "HUF",
    "maturityInDays_val": 1816,
    "issueDate": "2022-11-07",
    "longName": "N271107"
}