{
    "askPrice": "",
    "green": 0,
    "coupon": "3,50 %",
    "accruedInterest": "1,6630",
    "settleDate": "2023.04.28",
    "askEhmYield": "",
    "bidYield": "5,19",
    "rawName": "N2027/45",
    "bidPrice": "99,5000",
    "coupon_val": 3.5,
    "maturityInDays": "1654 nap",
    "securityType": "MÁP Plusz",
    "maturityDate": "2027.11.07",
    "name": "N2027/45",
    "bidEhmYield": "",
    "askYield": "",
    "currency": "HUF",
    "maturityInDays_val": 1654,
    "issueDate": "2022.11.07",
    "longName": "N271107"
}