{
    "askPrice": "",
    "green": 0,
    "coupon": "3,50 %",
    "accruedInterest": "0,8152",
    "settleDate": "2023.07.21",
    "askEhmYield": "",
    "bidYield": "5,26",
    "rawName": "N2027/45",
    "bidPrice": "99,5000",
    "coupon_val": 3.5,
    "maturityInDays": "1570 nap",
    "securityType": "MÁP Plusz",
    "maturityDate": "2027.11.07",
    "name": "N2027/45",
    "bidEhmYield": "",
    "askYield": "",
    "currency": "HUF",
    "maturityInDays_val": 1570,
    "issueDate": "2022.11.07",
    "longName": "N271107"
}