{
    "askPrice": "",
    "green": 0,
    "coupon": "3,50 %",
    "accruedInterest": "0,3462",
    "settleDate": "2024.01.02",
    "askEhmYield": "",
    "bidYield": "5,05",
    "rawName": "N2028/48",
    "bidPrice": "99,5000",
    "coupon_val": 3.5,
    "maturityInDays": "1791 nap",
    "securityType": "MÁP Plusz",
    "maturityDate": "2028.11.27",
    "name": "N2028/48",
    "bidEhmYield": "",
    "askYield": "",
    "currency": "HUF",
    "maturityInDays_val": 1791,
    "issueDate": "2023.11.27",
    "longName": "N281127"
}