{
    "askPrice": "",
    "green": 0,
    "coupon": "3,50 %",
    "accruedInterest": "1,1058",
    "settleDate": "2024.03.21",
    "askEhmYield": "",
    "bidYield": "5,13",
    "rawName": "N2028/48",
    "bidPrice": "99,5000",
    "coupon_val": 3.5,
    "maturityInDays": "1712 nap",
    "securityType": "MÁP Plusz",
    "maturityDate": "2028.11.27",
    "name": "N2028/48",
    "bidEhmYield": "",
    "askYield": "",
    "currency": "HUF",
    "maturityInDays_val": 1712,
    "issueDate": "2023.11.27",
    "longName": "N281127"
}