{
    "askPrice": "98,3338",
    "green": 0,
    "coupon": 0,
    "accruedInterest": 0,
    "settleDate": "2024.04.15",
    "askEhmYield": "6,18",
    "bidYield": "6,95",
    "rawName": "D240724",
    "bidPrice": "98,1060",
    "maturityInDays": "100 nap",
    "securityType": "DKJ",
    "maturityDate": "2024.07.24",
    "name": "D240724",
    "bidEhmYield": "7,05",
    "askYield": "6,10",
    "currency": "HUF",
    "maturityInDays_val": 100,
    "issueDate": "2024.03.27",
    "longName": "D240724"
}