{
    "askPrice": "98,6660",
    "green": 0,
    "coupon": 0,
    "accruedInterest": 0,
    "settleDate": "2024.05.07",
    "askEhmYield": "6,33",
    "bidYield": "7,70",
    "rawName": "D240724",
    "bidPrice": "98,3590",
    "maturityInDays": "78 nap",
    "securityType": "DKJ",
    "maturityDate": "2024.07.24",
    "name": "D240724",
    "bidEhmYield": "7,81",
    "askYield": "6,24",
    "currency": "HUF",
    "maturityInDays_val": 78,
    "issueDate": "2024.03.27",
    "longName": "D240724"
}