{
    "askPrice": "98,4397",
    "green": 0,
    "coupon": 0,
    "accruedInterest": 0,
    "settleDate": "2024.04.25",
    "askEhmYield": "6,43",
    "bidYield": "7,80",
    "rawName": "D240724",
    "bidPrice": "98,0873",
    "maturityInDays": "90 nap",
    "securityType": "DKJ",
    "maturityDate": "2024.07.24",
    "name": "D240724",
    "bidEhmYield": "7,91",
    "askYield": "6,34",
    "currency": "HUF",
    "maturityInDays_val": 90,
    "issueDate": "2024.03.27",
    "longName": "D240724"
}