{
    "askPrice": "98,7752",
    "green": 0,
    "coupon": 0,
    "accruedInterest": 0,
    "settleDate": "2024.05.13",
    "askEhmYield": "6,29",
    "bidYield": "7,68",
    "rawName": "D240724",
    "bidPrice": "98,4872",
    "maturityInDays": "72 nap",
    "securityType": "DKJ",
    "maturityDate": "2024.07.24",
    "name": "D240724",
    "bidEhmYield": "7,79",
    "askYield": "6,20",
    "currency": "HUF",
    "maturityInDays_val": 72,
    "issueDate": "2024.03.27",
    "longName": "D240724"
}