{
    "askPrice": "98,2214",
    "green": 0,
    "coupon": 0,
    "accruedInterest": 0,
    "settleDate": "2024.04.09",
    "askEhmYield": "6,24",
    "bidYield": "6,99",
    "rawName": "D240724",
    "bidPrice": "97,9833",
    "maturityInDays": "106 nap",
    "securityType": "DKJ",
    "maturityDate": "2024.07.24",
    "name": "D240724",
    "bidEhmYield": "7,09",
    "askYield": "6,15",
    "currency": "HUF",
    "maturityInDays_val": 106,
    "issueDate": "2024.03.27",
    "longName": "D240724"
}