{
    "askPrice": "98,0699",
    "green": 0,
    "coupon": 0,
    "accruedInterest": 0,
    "settleDate": "2024.04.02",
    "askEhmYield": "6,36",
    "bidYield": "7,08",
    "rawName": "D240724",
    "bidPrice": "97,8260",
    "maturityInDays": "113 nap",
    "securityType": "DKJ",
    "maturityDate": "2024.07.24",
    "name": "D240724",
    "bidEhmYield": "7,18",
    "askYield": "6,27",
    "currency": "HUF",
    "maturityInDays_val": 113,
    "issueDate": "2024.03.27",
    "longName": "D240724"
}