{
    "askPrice": "98,3478",
    "green": 0,
    "coupon": 0,
    "accruedInterest": 0,
    "settleDate": "2024.04.19",
    "askEhmYield": "6,39",
    "bidYield": "7,15",
    "rawName": "D240724",
    "bidPrice": "98,1290",
    "maturityInDays": "96 nap",
    "securityType": "DKJ",
    "maturityDate": "2024.07.24",
    "name": "D240724",
    "bidEhmYield": "7,25",
    "askYield": "6,30",
    "currency": "HUF",
    "maturityInDays_val": 96,
    "issueDate": "2024.03.27",
    "longName": "D240724"
}