{
    "askPrice": "",
    "green": 0,
    "coupon": "9,00 %",
    "accruedInterest": "4,1178",
    "settleDate": "2023.11.20",
    "askEhmYield": "",
    "bidYield": "10,71",
    "rawName": "K2024/23",
    "bidPrice": "99,0000",
    "coupon_val": 9,
    "maturityInDays": "199 nap",
    "securityType": "1MÁP",
    "maturityDate": "2024.06.06",
    "name": "K2024/23",
    "bidEhmYield": "10,46",
    "askYield": "",
    "currency": "HUF",
    "maturityInDays_val": 199,
    "issueDate": "2023.06.06",
    "longName": "K240606"
}