{
    "askPrice": "",
    "green": 0,
    "coupon": "9,00 %",
    "accruedInterest": "3,6000",
    "settleDate": "2023.10.30",
    "askEhmYield": "",
    "bidYield": "10,56",
    "rawName": "K2024/23",
    "bidPrice": "99,0000",
    "coupon_val": 9,
    "maturityInDays": "220 nap",
    "securityType": "1MÁP",
    "maturityDate": "2024.06.06",
    "name": "K2024/23",
    "bidEhmYield": "10,35",
    "askYield": "",
    "currency": "HUF",
    "maturityInDays_val": 220,
    "issueDate": "2023.06.06",
    "longName": "K240606"
}