{
    "askPrice": "",
    "green": 0,
    "coupon": "9,00 %",
    "accruedInterest": "4,2904",
    "settleDate": "2023.11.27",
    "askEhmYield": "",
    "bidYield": "10,77",
    "rawName": "K2024/23",
    "bidPrice": "99,0000",
    "coupon_val": 9,
    "maturityInDays": "192 nap",
    "securityType": "1MÁP",
    "maturityDate": "2024.06.06",
    "name": "K2024/23",
    "bidEhmYield": "10,51",
    "askYield": "",
    "currency": "HUF",
    "maturityInDays_val": 192,
    "issueDate": "2023.06.06",
    "longName": "K240606"
}