{
    "askPrice": "",
    "green": 0,
    "coupon": "9,00 %",
    "accruedInterest": "7,0521",
    "settleDate": "2024.03.18",
    "askEhmYield": "",
    "bidYield": "13,33",
    "rawName": "K2024/23",
    "bidPrice": "99,0000",
    "coupon_val": 9,
    "maturityInDays": "80 nap",
    "securityType": "1MÁP",
    "maturityDate": "2024.06.06",
    "name": "K2024/23",
    "bidEhmYield": "12,68",
    "askYield": "",
    "currency": "HUF",
    "maturityInDays_val": 80,
    "issueDate": "2023.06.06",
    "longName": "K240606"
}