{
    "askPrice": "",
    "green": 0,
    "coupon": "9,00 %",
    "accruedInterest": "7,7178",
    "settleDate": "2024.04.15",
    "askEhmYield": "",
    "bidYield": "16,01",
    "rawName": "K2024/23",
    "bidPrice": "99,0000",
    "coupon_val": 9,
    "maturityInDays": "52 nap",
    "securityType": "1MÁP",
    "maturityDate": "2024.06.06",
    "name": "K2024/23",
    "bidEhmYield": "14,85",
    "askYield": "",
    "currency": "HUF",
    "maturityInDays_val": 52,
    "issueDate": "2023.06.06",
    "longName": "K240606"
}