{
    "askPrice": "",
    "green": 0,
    "coupon": "9,00 %",
    "accruedInterest": "7,4712",
    "settleDate": "2024.04.05",
    "askEhmYield": "",
    "bidYield": "14,82",
    "rawName": "K2024/23",
    "bidPrice": "99,0000",
    "coupon_val": 9,
    "maturityInDays": "62 nap",
    "securityType": "1MÁP",
    "maturityDate": "2024.06.06",
    "name": "K2024/23",
    "bidEhmYield": "13,84",
    "askYield": "",
    "currency": "HUF",
    "maturityInDays_val": 62,
    "issueDate": "2023.06.06",
    "longName": "K240606"
}