{
    "askPrice": "",
    "green": 0,
    "coupon": "9,00 %",
    "accruedInterest": "6,0904",
    "settleDate": "2024.02.08",
    "askEhmYield": "",
    "bidYield": "11,86",
    "rawName": "K2024/23",
    "bidPrice": "99,0000",
    "coupon_val": 9,
    "maturityInDays": "119 nap",
    "securityType": "1MÁP",
    "maturityDate": "2024.06.06",
    "name": "K2024/23",
    "bidEhmYield": "11,41",
    "askYield": "",
    "currency": "HUF",
    "maturityInDays_val": 119,
    "issueDate": "2023.06.06",
    "longName": "K240606"
}