{
    "askPrice": "",
    "green": 0,
    "coupon": "9,00 %",
    "accruedInterest": "8,2356",
    "settleDate": "2024.05.06",
    "askEhmYield": "",
    "bidYield": "21,19",
    "rawName": "K2024/23",
    "bidPrice": "99,0000",
    "coupon_val": 9,
    "maturityInDays": "31 nap",
    "securityType": "1MÁP",
    "maturityDate": "2024.06.06",
    "name": "K2024/23",
    "bidEhmYield": "19,10",
    "askYield": "",
    "currency": "HUF",
    "maturityInDays_val": 31,
    "issueDate": "2023.06.06",
    "longName": "K240606"
}