{
    "askPrice": "",
    "green": 0,
    "coupon": "9,00 %",
    "accruedInterest": "6,7068",
    "settleDate": "2024.03.04",
    "askEhmYield": "",
    "bidYield": "12,65",
    "rawName": "K2024/23",
    "bidPrice": "99,0000",
    "coupon_val": 9,
    "maturityInDays": "94 nap",
    "securityType": "1MÁP",
    "maturityDate": "2024.06.06",
    "name": "K2024/23",
    "bidEhmYield": "12,10",
    "askYield": "",
    "currency": "HUF",
    "maturityInDays_val": 94,
    "issueDate": "2023.06.06",
    "longName": "K240606"
}