{
    "askPrice": "",
    "green": 0,
    "coupon": "2,50 %",
    "accruedInterest": "1,86",
    "settleDate": "2022.07.04",
    "askEhmYield": "",
    "bidYield": "",
    "rawName": "K2022/40",
    "bidPrice": "99,50",
    "coupon_val": 2.5,
    "maturityInDays": "93 nap",
    "securityType": "1MÁP",
    "maturityDate": "2022.10.05",
    "name": "K2022/40",
    "bidEhmYield": "4,40",
    "askYield": "",
    "currency": "HUF",
    "maturityInDays_val": 93,
    "longName": "K221005"
}