{
    "askPrice": "",
    "green": 0,
    "coupon": "2,50 %",
    "accruedInterest": "2,18",
    "settleDate": "2022.08.19",
    "askEhmYield": "",
    "bidYield": "",
    "rawName": "K2022/40",
    "bidPrice": "99,50",
    "coupon_val": 2.5,
    "maturityInDays": "47 nap",
    "securityType": "1MÁP",
    "maturityDate": "2022.10.05",
    "name": "K2022/40",
    "bidEhmYield": "6,28",
    "askYield": "",
    "currency": "HUF",
    "maturityInDays_val": 47,
    "longName": "K221005"
}