{
    "askPrice": "",
    "green": 0,
    "coupon": "2,50 %",
    "accruedInterest": "2,05",
    "settleDate": "2022.08.01",
    "askEhmYield": "",
    "bidYield": "",
    "rawName": "K2022/40",
    "bidPrice": "99,50",
    "coupon_val": 2.5,
    "maturityInDays": "65 nap",
    "securityType": "1MÁP",
    "maturityDate": "2022.10.05",
    "name": "K2022/40",
    "bidEhmYield": "5,23",
    "askYield": "",
    "currency": "HUF",
    "maturityInDays_val": 65,
    "longName": "K221005"
}