{
    "askPrice": "",
    "green": 0,
    "coupon": "9,00 %",
    "accruedInterest": "3,4767",
    "settleDate": "2023.10.11",
    "askEhmYield": "",
    "bidYield": "10,53",
    "rawName": "K2024/21",
    "bidPrice": "99,0000",
    "coupon_val": 9,
    "maturityInDays": "225 nap",
    "securityType": "1MÁP",
    "maturityDate": "2024.05.23",
    "name": "K2024/21",
    "bidEhmYield": "10,33",
    "askYield": "",
    "currency": "HUF",
    "maturityInDays_val": 225,
    "issueDate": "2023.05.23",
    "longName": "K240523"
}