{
    "askPrice": "",
    "green": 0,
    "coupon": "9,00 %",
    "accruedInterest": "1,8740",
    "settleDate": "2023.08.07",
    "askEhmYield": "",
    "bidYield": "10,24",
    "rawName": "K2024/21",
    "bidPrice": "99,0000",
    "coupon_val": 9,
    "maturityInDays": "290 nap",
    "securityType": "1MÁP",
    "maturityDate": "2024.05.23",
    "name": "K2024/21",
    "bidEhmYield": "10,14",
    "askYield": "",
    "currency": "HUF",
    "maturityInDays_val": 290,
    "issueDate": "2023.05.23",
    "longName": "K240523"
}