{
    "askPrice": "",
    "green": 0,
    "coupon": "9,00 %",
    "accruedInterest": "5,5233",
    "settleDate": "2024.01.02",
    "askEhmYield": "",
    "bidYield": "11,38",
    "rawName": "K2024/21",
    "bidPrice": "99,0000",
    "coupon_val": 9,
    "maturityInDays": "142 nap",
    "securityType": "1MÁP",
    "maturityDate": "2024.05.23",
    "name": "K2024/21",
    "bidEhmYield": "11,01",
    "askYield": "",
    "currency": "HUF",
    "maturityInDays_val": 142,
    "issueDate": "2023.05.23",
    "longName": "K240523"
}