{
    "askPrice": "",
    "green": 0,
    "coupon": "9,00 %",
    "accruedInterest": "4,9068",
    "settleDate": "2023.12.08",
    "askEhmYield": "",
    "bidYield": "11,03",
    "rawName": "K2024/21",
    "bidPrice": "99,0000",
    "coupon_val": 9,
    "maturityInDays": "167 nap",
    "securityType": "1MÁP",
    "maturityDate": "2024.05.23",
    "name": "K2024/21",
    "bidEhmYield": "10,71",
    "askYield": "",
    "currency": "HUF",
    "maturityInDays_val": 167,
    "issueDate": "2023.05.23",
    "longName": "K240523"
}