{
    "askPrice": "",
    "green": 0,
    "coupon": "9,00 %",
    "accruedInterest": "8,4329",
    "settleDate": "2024.04.30",
    "askEhmYield": "",
    "bidYield": "22,18",
    "rawName": "K2024/21",
    "bidPrice": "99,2000",
    "coupon_val": 9,
    "maturityInDays": "23 nap",
    "securityType": "1MÁP",
    "maturityDate": "2024.05.23",
    "name": "K2024/21",
    "bidEhmYield": "19,79",
    "askYield": "",
    "currency": "HUF",
    "maturityInDays_val": 23,
    "issueDate": "2023.05.23",
    "longName": "K240523"
}