{
    "askPrice": "",
    "green": 0,
    "coupon": "9,00 %",
    "accruedInterest": "7,9890",
    "settleDate": "2024.04.12",
    "askEhmYield": "",
    "bidYield": "18,03",
    "rawName": "K2024/21",
    "bidPrice": "99,0000",
    "coupon_val": 9,
    "maturityInDays": "41 nap",
    "securityType": "1MÁP",
    "maturityDate": "2024.05.23",
    "name": "K2024/21",
    "bidEhmYield": "16,52",
    "askYield": "",
    "currency": "HUF",
    "maturityInDays_val": 41,
    "issueDate": "2023.05.23",
    "longName": "K240523"
}