{
    "askPrice": "",
    "green": 0,
    "coupon": "9,00 %",
    "accruedInterest": "7,5945",
    "settleDate": "2024.03.27",
    "askEhmYield": "",
    "bidYield": "15,36",
    "rawName": "K2024/21",
    "bidPrice": "99,0000",
    "coupon_val": 9,
    "maturityInDays": "57 nap",
    "securityType": "1MÁP",
    "maturityDate": "2024.05.23",
    "name": "K2024/21",
    "bidEhmYield": "14,30",
    "askYield": "",
    "currency": "HUF",
    "maturityInDays_val": 57,
    "issueDate": "2023.05.23",
    "longName": "K240523"
}