{
    "askPrice": "",
    "green": 0,
    "coupon": "9,00 %",
    "accruedInterest": "8,1370",
    "settleDate": "2024.04.18",
    "askEhmYield": "",
    "bidYield": "19,70",
    "rawName": "K2024/21",
    "bidPrice": "99,0000",
    "coupon_val": 9,
    "maturityInDays": "35 nap",
    "securityType": "1MÁP",
    "maturityDate": "2024.05.23",
    "name": "K2024/21",
    "bidEhmYield": "17,89",
    "askYield": "",
    "currency": "HUF",
    "maturityInDays_val": 35,
    "issueDate": "2023.05.23",
    "longName": "K240523"
}