{
    "askPrice": "",
    "green": 0,
    "coupon": "9,00 %",
    "accruedInterest": "7,2247",
    "settleDate": "2024.03.11",
    "askEhmYield": "",
    "bidYield": "13,76",
    "rawName": "K2024/21",
    "bidPrice": "99,0000",
    "coupon_val": 9,
    "maturityInDays": "73 nap",
    "securityType": "1MÁP",
    "maturityDate": "2024.05.23",
    "name": "K2024/21",
    "bidEhmYield": "13,06",
    "askYield": "",
    "currency": "HUF",
    "maturityInDays_val": 73,
    "issueDate": "2023.05.23",
    "longName": "K240523"
}