{
    "askPrice": "",
    "green": 0,
    "coupon": "9,00 %",
    "accruedInterest": "8,0630",
    "settleDate": "2024.04.15",
    "askEhmYield": "",
    "bidYield": "18,79",
    "rawName": "K2024/21",
    "bidPrice": "99,0000",
    "coupon_val": 9,
    "maturityInDays": "38 nap",
    "securityType": "1MÁP",
    "maturityDate": "2024.05.23",
    "name": "K2024/21",
    "bidEhmYield": "17,15",
    "askYield": "",
    "currency": "HUF",
    "maturityInDays_val": 38,
    "issueDate": "2023.05.23",
    "longName": "K240523"
}