{
    "askPrice": "100,00",
    "green": 0,
    "coupon": null,
    "accruedInterest": "6,19",
    "settleDate": "2022.11.07",
    "askEhmYield": "",
    "bidYield": "",
    "rawName": "2037/S_BABA",
    "bidPrice": "100,00",
    "maturityInDays": "5200 nap",
    "securityType": "BABA",
    "maturityDate": "2037.02.01",
    "name": "2037/S_BABA",
    "bidEhmYield": "",
    "askYield": "",
    "currency": "HUF",
    "maturityInDays_val": 5200,
    "issueDate": "2018-02-01",
    "longName": "A370201S18"
}