{
    "askPrice": "100,00",
    "green": 0,
    "coupon": null,
    "accruedInterest": "5,97",
    "settleDate": "2022.10.28",
    "askEhmYield": "",
    "bidYield": "",
    "rawName": "2037/S_BABA",
    "bidPrice": "100,00",
    "maturityInDays": "5210 nap",
    "securityType": "BABA",
    "maturityDate": "2037.02.01",
    "name": "2037/S_BABA",
    "bidEhmYield": "",
    "askYield": "",
    "currency": "HUF",
    "maturityInDays_val": 5210,
    "longName": "A370201S18"
}