{
    "askPrice": "",
    "green": 0,
    "coupon": null,
    "accruedInterest": 0,
    "settleDate": "2023.01.31",
    "askEhmYield": "",
    "bidYield": "",
    "rawName": "2037/S_BABA",
    "bidPrice": "",
    "maturityInDays": "5115 nap",
    "securityType": "BABA",
    "maturityDate": "2037.02.01",
    "name": "2037/S_BABA",
    "bidEhmYield": "",
    "askYield": "",
    "currency": "HUF",
    "maturityInDays_val": 5115,
    "issueDate": "2018.02.01",
    "longName": "A370201S18"
}