{
    "askPrice": "100,0000",
    "green": 0,
    "coupon": null,
    "accruedInterest": "13,5205",
    "settleDate": "2023.11.10",
    "askEhmYield": "",
    "bidYield": "",
    "rawName": "2037/S_BABA",
    "bidPrice": "100,0000",
    "maturityInDays": "4832 nap",
    "securityType": "BABA",
    "maturityDate": "2037.02.01",
    "name": "2037/S_BABA",
    "bidEhmYield": "",
    "askYield": "",
    "currency": "HUF",
    "maturityInDays_val": 4832,
    "issueDate": "2018.02.01",
    "longName": "A370201S18"
}