{
    "askPrice": "100,0000",
    "green": 0,
    "coupon": null,
    "accruedInterest": "5,1219",
    "settleDate": "2024.05.02",
    "askEhmYield": "",
    "bidYield": "",
    "rawName": "2037/S_BABA",
    "bidPrice": "100,0000",
    "maturityInDays": "4658 nap",
    "securityType": "BABA",
    "maturityDate": "2037.02.01",
    "name": "2037/S_BABA",
    "bidEhmYield": "",
    "askYield": "",
    "currency": "HUF",
    "maturityInDays_val": 4658,
    "issueDate": "2018.02.01",
    "longName": "A370201S18"
}