{
    "askPrice": "",
    "green": 0,
    "coupon": null,
    "accruedInterest": "7,2842",
    "settleDate": "2023.11.21",
    "askEhmYield": "",
    "bidYield": "",
    "rawName": "2031/I",
    "bidPrice": "99,0000",
    "maturityInDays": "2738 nap",
    "securityType": "PMÁP",
    "maturityDate": "2031.05.21",
    "name": "2031/I",
    "bidEhmYield": "",
    "askYield": "",
    "currency": "HUF",
    "maturityInDays_val": 2738,
    "issueDate": "2023.06.02",
    "longName": "A310521I23"
}