{
    "askPrice": "100,0000",
    "green": 0,
    "coupon": null,
    "accruedInterest": "1,1858",
    "settleDate": "2023.06.30",
    "askEhmYield": "",
    "bidYield": "",
    "rawName": "2031/I",
    "bidPrice": "99,0000",
    "maturityInDays": "2882 nap",
    "securityType": "PMÁP",
    "maturityDate": "2031.05.21",
    "name": "2031/I",
    "bidEhmYield": "",
    "askYield": "",
    "currency": "HUF",
    "maturityInDays_val": 2882,
    "issueDate": "2023.06.02",
    "longName": "A310521I23"
}