{
    "askPrice": "",
    "green": 0,
    "coupon": null,
    "accruedInterest": "14,3989",
    "settleDate": "2024.05.07",
    "askEhmYield": "",
    "bidYield": "",
    "rawName": "2031/I",
    "bidPrice": "99,0000",
    "maturityInDays": "2570 nap",
    "securityType": "PMÁP",
    "maturityDate": "2031.05.21",
    "name": "2031/I",
    "bidEhmYield": "",
    "askYield": "",
    "currency": "HUF",
    "maturityInDays_val": 2570,
    "issueDate": "2023.06.02",
    "longName": "A310521I23"
}