{
    "askPrice": "",
    "green": 0,
    "coupon": null,
    "accruedInterest": "13,0014",
    "settleDate": "2024.04.04",
    "askEhmYield": "",
    "bidYield": "",
    "rawName": "2031/I",
    "bidPrice": "99,0000",
    "maturityInDays": "2603 nap",
    "securityType": "PMÁP",
    "maturityDate": "2031.05.21",
    "name": "2031/I",
    "bidEhmYield": "",
    "askYield": "",
    "currency": "HUF",
    "maturityInDays_val": 2603,
    "issueDate": "2023.06.02",
    "longName": "A310521I23"
}