{
    "askPrice": "",
    "green": 0,
    "coupon": "7,00 %",
    "accruedInterest": "1,0548",
    "settleDate": "2022.12.05",
    "askEhmYield": "",
    "bidYield": "7,59",
    "rawName": "K2023/41",
    "bidPrice": "99,5000",
    "coupon_val": 7,
    "maturityInDays": "310 nap",
    "securityType": "1MÁP",
    "maturityDate": "2023.10.11",
    "name": "K2023/41",
    "bidEhmYield": "7,55",
    "askYield": "",
    "currency": "HUF",
    "maturityInDays_val": 310,
    "issueDate": "2022.10.11",
    "longName": "K231011"
}