{
    "askPrice": "",
    "green": 0,
    "coupon": "7,00 %",
    "accruedInterest": "0,58",
    "settleDate": "2022.11.10",
    "askEhmYield": "",
    "bidYield": "7,56",
    "rawName": "K2023/41",
    "bidPrice": "99,50",
    "coupon_val": 7,
    "maturityInDays": "335 nap",
    "securityType": "1MÁP",
    "maturityDate": "2023.10.11",
    "name": "K2023/41",
    "bidEhmYield": "7,54",
    "askYield": "",
    "currency": "HUF",
    "maturityInDays_val": 335,
    "issueDate": "2022-10-11",
    "longName": "K231011"
}