{
    "askPrice": "",
    "green": 0,
    "coupon": "7,00 %",
    "accruedInterest": "0,8630",
    "settleDate": "2022.11.25",
    "askEhmYield": "",
    "bidYield": "7,58",
    "rawName": "K2023/41",
    "bidPrice": "99,5000",
    "coupon_val": 7,
    "maturityInDays": "320 nap",
    "securityType": "1MÁP",
    "maturityDate": "2023.10.11",
    "name": "K2023/41",
    "bidEhmYield": "7,54",
    "askYield": "",
    "currency": "HUF",
    "maturityInDays_val": 320,
    "issueDate": "2022.10.11",
    "longName": "K231011"
}