{
    "askPrice": "",
    "green": 0,
    "coupon": "7,00 %",
    "accruedInterest": "1,3616",
    "settleDate": "2022.12.21",
    "askEhmYield": "",
    "bidYield": "8,28",
    "rawName": "K2023/41",
    "bidPrice": "99,0000",
    "coupon_val": 7,
    "maturityInDays": "294 nap",
    "securityType": "1MÁP",
    "maturityDate": "2023.10.11",
    "name": "K2023/41",
    "bidEhmYield": "8,21",
    "askYield": "",
    "currency": "HUF",
    "maturityInDays_val": 294,
    "issueDate": "2022.10.11",
    "longName": "K231011"
}