{
    "askPrice": "",
    "green": 0,
    "coupon": "7,00 %",
    "accruedInterest": "3,4904",
    "settleDate": "2023.04.11",
    "askEhmYield": "",
    "bidYield": "8,97",
    "rawName": "K2023/41",
    "bidPrice": "99,0000",
    "coupon_val": 7,
    "maturityInDays": "183 nap",
    "securityType": "1MÁP",
    "maturityDate": "2023.10.11",
    "name": "K2023/41",
    "bidEhmYield": "8,78",
    "askYield": "",
    "currency": "HUF",
    "maturityInDays_val": 183,
    "issueDate": "2022.10.11",
    "longName": "K231011"
}