{
    "askPrice": "",
    "green": 0,
    "coupon": "7,00 %",
    "accruedInterest": "2,8575",
    "settleDate": "2023.03.09",
    "askEhmYield": "",
    "bidYield": "8,68",
    "rawName": "K2023/41",
    "bidPrice": "99,0000",
    "coupon_val": 7,
    "maturityInDays": "216 nap",
    "securityType": "1MÁP",
    "maturityDate": "2023.10.11",
    "name": "K2023/41",
    "bidEhmYield": "8,53",
    "askYield": "",
    "currency": "HUF",
    "maturityInDays_val": 216,
    "issueDate": "2022.10.11",
    "longName": "K231011"
}