{
    "askPrice": "",
    "green": 0,
    "coupon": "7,00 %",
    "accruedInterest": "1,6110",
    "settleDate": "2023.01.03",
    "askEhmYield": "",
    "bidYield": "8,33",
    "rawName": "K2023/41",
    "bidPrice": "99,0000",
    "coupon_val": 7,
    "maturityInDays": "281 nap",
    "securityType": "1MÁP",
    "maturityDate": "2023.10.11",
    "name": "K2023/41",
    "bidEhmYield": "8,25",
    "askYield": "",
    "currency": "HUF",
    "maturityInDays_val": 281,
    "issueDate": "2022.10.11",
    "longName": "K231011"
}