{
    "askPrice": "",
    "green": 0,
    "coupon": "7,00 %",
    "accruedInterest": "4,4301",
    "settleDate": "2023.05.30",
    "askEhmYield": "",
    "bidYield": "9,68",
    "rawName": "K2023/41",
    "bidPrice": "99,0000",
    "coupon_val": 7,
    "maturityInDays": "134 nap",
    "securityType": "1MÁP",
    "maturityDate": "2023.10.11",
    "name": "K2023/41",
    "bidEhmYield": "9,40",
    "askYield": "",
    "currency": "HUF",
    "maturityInDays_val": 134,
    "issueDate": "2022.10.11",
    "longName": "K231011"
}