{
    "askPrice": "",
    "green": 0,
    "coupon": "7,00 %",
    "accruedInterest": "5,3699",
    "settleDate": "2023.07.18",
    "askEhmYield": "",
    "bidYield": "11,28",
    "rawName": "K2023/41",
    "bidPrice": "99,0000",
    "coupon_val": 7,
    "maturityInDays": "85 nap",
    "securityType": "1MÁP",
    "maturityDate": "2023.10.11",
    "name": "K2023/41",
    "bidEhmYield": "10,82",
    "askYield": "",
    "currency": "HUF",
    "maturityInDays_val": 85,
    "issueDate": "2022.10.11",
    "longName": "K231011"
}