{
    "askPrice": "",
    "green": 0,
    "coupon": "7,00 %",
    "accruedInterest": "1,8603",
    "settleDate": "2023.01.16",
    "askEhmYield": "",
    "bidYield": "8,38",
    "rawName": "K2023/41",
    "bidPrice": "99,0000",
    "coupon_val": 7,
    "maturityInDays": "268 nap",
    "securityType": "1MÁP",
    "maturityDate": "2023.10.11",
    "name": "K2023/41",
    "bidEhmYield": "8,29",
    "askYield": "",
    "currency": "HUF",
    "maturityInDays_val": 268,
    "issueDate": "2022.10.11",
    "longName": "K231011"
}