{
    "askPrice": "",
    "green": 0,
    "coupon": "7,00 %",
    "accruedInterest": "2,6658",
    "settleDate": "2023.02.27",
    "askEhmYield": "",
    "bidYield": "8,61",
    "rawName": "K2023/41",
    "bidPrice": "99,0000",
    "coupon_val": 7,
    "maturityInDays": "226 nap",
    "securityType": "1MÁP",
    "maturityDate": "2023.10.11",
    "name": "K2023/41",
    "bidEhmYield": "8,47",
    "askYield": "",
    "currency": "HUF",
    "maturityInDays_val": 226,
    "issueDate": "2022.10.11",
    "longName": "K231011"
}