{
    "askPrice": "",
    "green": 0,
    "coupon": "7,00 %",
    "accruedInterest": "5,2356",
    "settleDate": "2023.07.11",
    "askEhmYield": "",
    "bidYield": "10,94",
    "rawName": "K2023/41",
    "bidPrice": "99,0000",
    "coupon_val": 7,
    "maturityInDays": "92 nap",
    "securityType": "1MÁP",
    "maturityDate": "2023.10.11",
    "name": "K2023/41",
    "bidEhmYield": "10,52",
    "askYield": "",
    "currency": "HUF",
    "maturityInDays_val": 92,
    "issueDate": "2022.10.11",
    "longName": "K231011"
}