{
    "askPrice": "",
    "green": 0,
    "coupon": "3,50 %",
    "accruedInterest": "0,25",
    "settleDate": "2022.09.13",
    "askEhmYield": "",
    "bidYield": "",
    "rawName": "N2027/08",
    "bidPrice": "99,50",
    "coupon_val": 3.5,
    "maturityInDays": "1622 nap",
    "securityType": "MÁP Plusz",
    "maturityDate": "2027.02.21",
    "name": "N2027/08",
    "bidEhmYield": "",
    "askYield": "",
    "currency": "HUF",
    "maturityInDays_val": 1622,
    "longName": "N270221"
}