{
    "askPrice": "",
    "green": 0,
    "coupon": "3,50 %",
    "accruedInterest": "0,12",
    "settleDate": "2022.09.01",
    "askEhmYield": "",
    "bidYield": "",
    "rawName": "N2027/08",
    "bidPrice": "99,50",
    "coupon_val": 3.5,
    "maturityInDays": "1634 nap",
    "securityType": "MÁP Plusz",
    "maturityDate": "2027.02.21",
    "name": "N2027/08",
    "bidEhmYield": "",
    "askYield": "",
    "currency": "HUF",
    "maturityInDays_val": 1634,
    "longName": "N270221"
}