{
    "askPrice": "",
    "green": 0,
    "coupon": "3,50 %",
    "accruedInterest": "0,97",
    "settleDate": "2022.11.18",
    "askEhmYield": "",
    "bidYield": "5,27",
    "rawName": "N2027/08",
    "bidPrice": "99,50",
    "coupon_val": 3.5,
    "maturityInDays": "1556 nap",
    "securityType": "MÁP Plusz",
    "maturityDate": "2027.02.21",
    "name": "N2027/08",
    "bidEhmYield": "",
    "askYield": "",
    "currency": "HUF",
    "maturityInDays_val": 1556,
    "issueDate": "2022-02-21",
    "longName": "N270221"
}