{
    "askPrice": "",
    "green": 0,
    "coupon": "3,50 %",
    "accruedInterest": 0,
    "settleDate": "2023.02.20",
    "askEhmYield": "",
    "bidYield": "",
    "rawName": "N2027/08",
    "bidPrice": "",
    "coupon_val": 3.5,
    "maturityInDays": "1462 nap",
    "securityType": "MÁP Plusz",
    "maturityDate": "2027.02.21",
    "name": "N2027/08",
    "bidEhmYield": "",
    "askYield": "",
    "currency": "HUF",
    "maturityInDays_val": 1462,
    "issueDate": "2022.02.21",
    "longName": "N270221"
}