{
    "askPrice": "",
    "green": 0,
    "coupon": "3,50 %",
    "accruedInterest": "3,0452",
    "settleDate": "2023.10.26",
    "askEhmYield": "",
    "bidYield": "5,54",
    "rawName": "N2027/08",
    "bidPrice": "99,5000",
    "coupon_val": 3.5,
    "maturityInDays": "1214 nap",
    "securityType": "MÁP Plusz",
    "maturityDate": "2027.02.21",
    "name": "N2027/08",
    "bidEhmYield": "",
    "askYield": "",
    "currency": "HUF",
    "maturityInDays_val": 1214,
    "issueDate": "2022.02.21",
    "longName": "N270221"
}