{
    "askPrice": "",
    "green": 0,
    "coupon": "3,50 %",
    "accruedInterest": "1,3315",
    "settleDate": "2023.06.09",
    "askEhmYield": "",
    "bidYield": "5,43",
    "rawName": "N2027/08",
    "bidPrice": "99,5000",
    "coupon_val": 3.5,
    "maturityInDays": "1353 nap",
    "securityType": "MÁP Plusz",
    "maturityDate": "2027.02.21",
    "name": "N2027/08",
    "bidEhmYield": "",
    "askYield": "",
    "currency": "HUF",
    "maturityInDays_val": 1353,
    "issueDate": "2022.02.21",
    "longName": "N270221"
}