{
    "askPrice": "",
    "green": 0,
    "coupon": "3,50 %",
    "accruedInterest": "0,0137",
    "settleDate": "2024.02.22",
    "askEhmYield": "",
    "bidYield": "5,48",
    "rawName": "N2027/08",
    "bidPrice": "100,0000",
    "coupon_val": 3.5,
    "maturityInDays": "1095 nap",
    "securityType": "MÁP Plusz",
    "maturityDate": "2027.02.21",
    "name": "N2027/08",
    "bidEhmYield": "",
    "askYield": "",
    "currency": "HUF",
    "maturityInDays_val": 1095,
    "issueDate": "2022.02.21",
    "longName": "N270221"
}