{
    "askPrice": "",
    "green": 0,
    "coupon": "4,25 %",
    "accruedInterest": "1,8048",
    "settleDate": "2022.11.23",
    "askEhmYield": "",
    "bidYield": "5,11",
    "rawName": "K2023/25",
    "bidPrice": "99,5000",
    "coupon_val": 4.25,
    "maturityInDays": "210 nap",
    "securityType": "1MÁP",
    "maturityDate": "2023.06.21",
    "name": "K2023/25",
    "bidEhmYield": "5,05",
    "askYield": "",
    "currency": "HUF",
    "maturityInDays_val": 210,
    "issueDate": "2022.06.21",
    "longName": "K230621"
}