{
    "askPrice": "",
    "green": 0,
    "coupon": "4,25 %",
    "accruedInterest": "1,62",
    "settleDate": "2022.11.07",
    "askEhmYield": "",
    "bidYield": "5,05",
    "rawName": "K2023/25",
    "bidPrice": "99,50",
    "coupon_val": 4.25,
    "maturityInDays": "226 nap",
    "securityType": "1MÁP",
    "maturityDate": "2023.06.21",
    "name": "K2023/25",
    "bidEhmYield": "5,00",
    "askYield": "",
    "currency": "HUF",
    "maturityInDays_val": 226,
    "issueDate": "2022-06-21",
    "longName": "K230621"
}