{
    "askPrice": "",
    "green": 0,
    "coupon": "4,25 %",
    "accruedInterest": "0,48",
    "settleDate": "2022.08.01",
    "askEhmYield": "",
    "bidYield": "",
    "rawName": "K2023/25",
    "bidPrice": "99,50",
    "coupon_val": 4.25,
    "maturityInDays": "324 nap",
    "securityType": "1MÁP",
    "maturityDate": "2023.06.21",
    "name": "K2023/25",
    "bidEhmYield": "4,81",
    "askYield": "",
    "currency": "HUF",
    "maturityInDays_val": 324,
    "longName": "K230621"
}