{
    "askPrice": "",
    "green": 0,
    "coupon": "4,25 %",
    "accruedInterest": "2,0260",
    "settleDate": "2022.12.12",
    "askEhmYield": "",
    "bidYield": "6,19",
    "rawName": "K2023/25",
    "bidPrice": "99,0000",
    "coupon_val": 4.25,
    "maturityInDays": "191 nap",
    "securityType": "1MÁP",
    "maturityDate": "2023.06.21",
    "name": "K2023/25",
    "bidEhmYield": "6,10",
    "askYield": "",
    "currency": "HUF",
    "maturityInDays_val": 191,
    "issueDate": "2022.06.21",
    "longName": "K230621"
}