{
    "askPrice": "",
    "green": 0,
    "coupon": "4,25 %",
    "accruedInterest": "1,07",
    "settleDate": "2022.09.21",
    "askEhmYield": "",
    "bidYield": "",
    "rawName": "K2023/25",
    "bidPrice": "99,50",
    "coupon_val": 4.25,
    "maturityInDays": "273 nap",
    "securityType": "1MÁP",
    "maturityDate": "2023.06.21",
    "name": "K2023/25",
    "bidEhmYield": "4,89",
    "askYield": "",
    "currency": "HUF",
    "maturityInDays_val": 273,
    "longName": "K230621"
}