{
    "askPrice": "",
    "green": 0,
    "coupon": "4,25 %",
    "accruedInterest": "1,16",
    "settleDate": "2022.09.29",
    "askEhmYield": "",
    "bidYield": "",
    "rawName": "K2023/25",
    "bidPrice": "99,50",
    "coupon_val": 4.25,
    "maturityInDays": "265 nap",
    "securityType": "1MÁP",
    "maturityDate": "2023.06.21",
    "name": "K2023/25",
    "bidEhmYield": "4,91",
    "askYield": "",
    "currency": "HUF",
    "maturityInDays_val": 265,
    "longName": "K230621"
}