{
    "askPrice": "",
    "green": 0,
    "coupon": "4,25 %",
    "accruedInterest": "3,6678",
    "settleDate": "2023.05.02",
    "askEhmYield": "",
    "bidYield": "11,81",
    "rawName": "K2023/25",
    "bidPrice": "99,0000",
    "coupon_val": 4.25,
    "maturityInDays": "50 nap",
    "securityType": "1MÁP",
    "maturityDate": "2023.06.21",
    "name": "K2023/25",
    "bidEhmYield": "11,25",
    "askYield": "",
    "currency": "HUF",
    "maturityInDays_val": 50,
    "issueDate": "2022.06.21",
    "longName": "K230621"
}