{
    "askPrice": "",
    "green": 0,
    "coupon": "4,25 %",
    "accruedInterest": "2,7014",
    "settleDate": "2023.02.08",
    "askEhmYield": "",
    "bidYield": "7,03",
    "rawName": "K2023/25",
    "bidPrice": "99,0000",
    "coupon_val": 4.25,
    "maturityInDays": "133 nap",
    "securityType": "1MÁP",
    "maturityDate": "2023.06.21",
    "name": "K2023/25",
    "bidEhmYield": "6,88",
    "askYield": "",
    "currency": "HUF",
    "maturityInDays_val": 133,
    "issueDate": "2022.06.21",
    "longName": "K230621"
}