{
    "askPrice": "",
    "green": 0,
    "coupon": "4,25 %",
    "accruedInterest": "2,3753",
    "settleDate": "2023.01.11",
    "askEhmYield": "",
    "bidYield": "6,54",
    "rawName": "K2023/25",
    "bidPrice": "99,0000",
    "coupon_val": 4.25,
    "maturityInDays": "161 nap",
    "securityType": "1MÁP",
    "maturityDate": "2023.06.21",
    "name": "K2023/25",
    "bidEhmYield": "6,43",
    "askYield": "",
    "currency": "HUF",
    "maturityInDays_val": 161,
    "issueDate": "2022.06.21",
    "longName": "K230621"
}