{
    "askPrice": "",
    "green": 0,
    "coupon": "4,25 %",
    "accruedInterest": "3,2486",
    "settleDate": "2023.03.27",
    "askEhmYield": "",
    "bidYield": "8,58",
    "rawName": "K2023/25",
    "bidPrice": "99,0000",
    "coupon_val": 4.25,
    "maturityInDays": "86 nap",
    "securityType": "1MÁP",
    "maturityDate": "2023.06.21",
    "name": "K2023/25",
    "bidEhmYield": "8,31",
    "askYield": "",
    "currency": "HUF",
    "maturityInDays_val": 86,
    "issueDate": "2022.06.21",
    "longName": "K230621"
}