{
    "askPrice": "",
    "green": 0,
    "coupon": "4,25 %",
    "accruedInterest": "2,9226",
    "settleDate": "2023.02.27",
    "askEhmYield": "",
    "bidYield": "7,50",
    "rawName": "K2023/25",
    "bidPrice": "99,0000",
    "coupon_val": 4.25,
    "maturityInDays": "114 nap",
    "securityType": "1MÁP",
    "maturityDate": "2023.06.21",
    "name": "K2023/25",
    "bidEhmYield": "7,31",
    "askYield": "",
    "currency": "HUF",
    "maturityInDays_val": 114,
    "issueDate": "2022.06.21",
    "longName": "K230621"
}