{
    "askPrice": "",
    "green": 0,
    "coupon": "4,25 %",
    "accruedInterest": "3,0158",
    "settleDate": "2023.03.07",
    "askEhmYield": "",
    "bidYield": "7,75",
    "rawName": "K2023/25",
    "bidPrice": "99,0000",
    "coupon_val": 4.25,
    "maturityInDays": "106 nap",
    "securityType": "1MÁP",
    "maturityDate": "2023.06.21",
    "name": "K2023/25",
    "bidEhmYield": "7,54",
    "askYield": "",
    "currency": "HUF",
    "maturityInDays_val": 106,
    "issueDate": "2022.06.21",
    "longName": "K230621"
}