{
    "askPrice": "97,9544",
    "green": 0,
    "coupon": 0,
    "accruedInterest": 0,
    "settleDate": "2023.08.30",
    "askEhmYield": "9,07",
    "bidYield": "10,23",
    "rawName": "D231122",
    "bidPrice": "97,6686",
    "maturityInDays": "84 nap",
    "securityType": "DKJ",
    "maturityDate": "2023.11.22",
    "name": "D231122",
    "bidEhmYield": "10,37",
    "askYield": "8,95",
    "currency": "HUF",
    "maturityInDays_val": 84,
    "issueDate": "2023.08.23",
    "longName": "D231122"
}