{
    "askPrice": "97,9396",
    "green": 0,
    "coupon": 0,
    "accruedInterest": 0,
    "settleDate": "2023.08.29",
    "askEhmYield": "9,03",
    "bidYield": "10,17",
    "rawName": "D231122",
    "bidPrice": "97,6551",
    "maturityInDays": "85 nap",
    "securityType": "DKJ",
    "maturityDate": "2023.11.22",
    "name": "D231122",
    "bidEhmYield": "10,31",
    "askYield": "8,91",
    "currency": "HUF",
    "maturityInDays_val": 85,
    "issueDate": "2023.08.23",
    "longName": "D231122"
}