{
    "askPrice": "99,0677",
    "green": 0,
    "coupon": 0,
    "accruedInterest": 0,
    "settleDate": "2023.10.09",
    "askEhmYield": "7,81",
    "bidYield": "9,00",
    "rawName": "D231122",
    "bidPrice": "98,9120",
    "maturityInDays": "44 nap",
    "securityType": "DKJ",
    "maturityDate": "2023.11.22",
    "name": "D231122",
    "bidEhmYield": "9,12",
    "askYield": "7,70",
    "currency": "HUF",
    "maturityInDays_val": 44,
    "issueDate": "2023.08.23",
    "longName": "D231122"
}