{
    "askPrice": "99,2851",
    "green": 0,
    "coupon": 0,
    "accruedInterest": 0,
    "settleDate": "2023.10.17",
    "askEhmYield": "7,30",
    "bidYield": "8,48",
    "rawName": "D231122",
    "bidPrice": "99,1591",
    "maturityInDays": "36 nap",
    "securityType": "DKJ",
    "maturityDate": "2023.11.22",
    "name": "D231122",
    "bidEhmYield": "8,60",
    "askYield": "7,20",
    "currency": "HUF",
    "maturityInDays_val": 36,
    "issueDate": "2023.08.23",
    "longName": "D231122"
}