{
    "askPrice": "",
    "green": 0,
    "coupon": 0,
    "accruedInterest": 0,
    "settleDate": "2023.10.30",
    "askEhmYield": "",
    "bidYield": "8,71",
    "rawName": "D231122",
    "bidPrice": "99,4466",
    "maturityInDays": "23 nap",
    "securityType": "DKJ",
    "maturityDate": "2023.11.22",
    "name": "D231122",
    "bidEhmYield": "8,83",
    "askYield": "",
    "currency": "HUF",
    "maturityInDays_val": 23,
    "issueDate": "2023.08.23",
    "longName": "D231122"
}