{
    "askPrice": "",
    "green": 0,
    "coupon": 0,
    "accruedInterest": 0,
    "settleDate": "2023.11.06",
    "askEhmYield": "",
    "bidYield": "8,99",
    "rawName": "D231122",
    "bidPrice": "99,6020",
    "maturityInDays": "16 nap",
    "securityType": "DKJ",
    "maturityDate": "2023.11.22",
    "name": "D231122",
    "bidEhmYield": "9,12",
    "askYield": "",
    "currency": "HUF",
    "maturityInDays_val": 16,
    "issueDate": "2023.08.23",
    "longName": "D231122"
}