{
    "askPrice": "98,2636",
    "green": 0,
    "coupon": 0,
    "accruedInterest": 0,
    "settleDate": "2023.09.12",
    "askEhmYield": "9,08",
    "bidYield": "10,25",
    "rawName": "D231122",
    "bidPrice": "98,0185",
    "maturityInDays": "71 nap",
    "securityType": "DKJ",
    "maturityDate": "2023.11.22",
    "name": "D231122",
    "bidEhmYield": "10,39",
    "askYield": "8,96",
    "currency": "HUF",
    "maturityInDays_val": 71,
    "issueDate": "2023.08.23",
    "longName": "D231122"
}