{
    "askPrice": "",
    "green": 0,
    "coupon": "4,25 %",
    "accruedInterest": "1,05",
    "settleDate": "2022.11.07",
    "askEhmYield": "",
    "bidYield": "4,92",
    "rawName": "K2023/32",
    "bidPrice": "99,50",
    "coupon_val": 4.25,
    "maturityInDays": "275 nap",
    "securityType": "1MÁP",
    "maturityDate": "2023.08.09",
    "name": "K2023/32",
    "bidEhmYield": "4,89",
    "askYield": "",
    "currency": "HUF",
    "maturityInDays_val": 275,
    "issueDate": "2022-08-09",
    "longName": "K230809"
}