{
    "askPrice": "",
    "green": 0,
    "coupon": "4,25 %",
    "accruedInterest": "1,3856",
    "settleDate": "2022.12.06",
    "askEhmYield": "",
    "bidYield": "4,99",
    "rawName": "K2023/32",
    "bidPrice": "99,5000",
    "coupon_val": 4.25,
    "maturityInDays": "246 nap",
    "securityType": "1MÁP",
    "maturityDate": "2023.08.09",
    "name": "K2023/32",
    "bidEhmYield": "4,95",
    "askYield": "",
    "currency": "HUF",
    "maturityInDays_val": 246,
    "issueDate": "2022.08.09",
    "longName": "K230809"
}