{
    "askPrice": "",
    "green": 0,
    "coupon": "4,25 %",
    "accruedInterest": "0,23",
    "settleDate": "2022.08.29",
    "askEhmYield": "",
    "bidYield": "",
    "rawName": "K2023/32",
    "bidPrice": "99,50",
    "coupon_val": 4.25,
    "maturityInDays": "345 nap",
    "securityType": "1MÁP",
    "maturityDate": "2023.08.09",
    "name": "K2023/32",
    "bidEhmYield": "4,79",
    "askYield": "",
    "currency": "HUF",
    "maturityInDays_val": 345,
    "longName": "K230809"
}