{
    "askPrice": "",
    "green": 0,
    "coupon": "4,25 %",
    "accruedInterest": "2,8644",
    "settleDate": "2023.04.12",
    "askEhmYield": "",
    "bidYield": "7,36",
    "rawName": "K2023/32",
    "bidPrice": "99,0000",
    "coupon_val": 4.25,
    "maturityInDays": "119 nap",
    "securityType": "1MÁP",
    "maturityDate": "2023.08.09",
    "name": "K2023/32",
    "bidEhmYield": "7,18",
    "askYield": "",
    "currency": "HUF",
    "maturityInDays_val": 119,
    "issueDate": "2022.08.09",
    "longName": "K230809"
}