{
    "askPrice": "",
    "green": 0,
    "coupon": "4,25 %",
    "accruedInterest": "3,8308",
    "settleDate": "2023.07.04",
    "askEhmYield": "",
    "bidYield": "14,91",
    "rawName": "K2023/32",
    "bidPrice": "99,0000",
    "coupon_val": 4.25,
    "maturityInDays": "36 nap",
    "securityType": "1MÁP",
    "maturityDate": "2023.08.09",
    "name": "K2023/32",
    "bidEhmYield": "13,99",
    "askYield": "",
    "currency": "HUF",
    "maturityInDays_val": 36,
    "issueDate": "2022.08.09",
    "longName": "K230809"
}