{
    "askPrice": "",
    "green": 0,
    "coupon": "4,25 %",
    "accruedInterest": "2,0377",
    "settleDate": "2023.01.31",
    "askEhmYield": "",
    "bidYield": "6,20",
    "rawName": "K2023/32",
    "bidPrice": "99,0000",
    "coupon_val": 4.25,
    "maturityInDays": "190 nap",
    "securityType": "1MÁP",
    "maturityDate": "2023.08.09",
    "name": "K2023/32",
    "bidEhmYield": "6,11",
    "askYield": "",
    "currency": "HUF",
    "maturityInDays_val": 190,
    "issueDate": "2022.08.09",
    "longName": "K230809"
}