{
    "askPrice": "",
    "green": 0,
    "coupon": "4,25 %",
    "accruedInterest": "2,8527",
    "settleDate": "2023.04.11",
    "askEhmYield": "",
    "bidYield": "7,33",
    "rawName": "K2023/32",
    "bidPrice": "99,0000",
    "coupon_val": 4.25,
    "maturityInDays": "120 nap",
    "securityType": "1MÁP",
    "maturityDate": "2023.08.09",
    "name": "K2023/32",
    "bidEhmYield": "7,16",
    "askYield": "",
    "currency": "HUF",
    "maturityInDays_val": 120,
    "issueDate": "2022.08.09",
    "longName": "K230809"
}