{
    "askPrice": "",
    "green": 0,
    "coupon": null,
    "accruedInterest": "3,19",
    "settleDate": "2022.06.30",
    "askEhmYield": "",
    "bidYield": "",
    "rawName": "2022/J",
    "bidPrice": "99,00",
    "maturityInDays": "145 nap",
    "securityType": "PMÁP",
    "maturityDate": "2022.11.22",
    "name": "2022/J",
    "bidEhmYield": "",
    "askYield": "",
    "currency": "HUF",
    "maturityInDays_val": 145,
    "longName": "A221122J17"
}