{
    "askPrice": "",
    "green": 0,
    "coupon": null,
    "accruedInterest": "5,01",
    "settleDate": "2022.11.02",
    "askEhmYield": "",
    "bidYield": "",
    "rawName": "2022/J",
    "bidPrice": "99,00",
    "maturityInDays": "20 nap",
    "securityType": "PMÁP",
    "maturityDate": "2022.11.22",
    "name": "2022/J",
    "bidEhmYield": "",
    "askYield": "",
    "currency": "HUF",
    "maturityInDays_val": 20,
    "issueDate": "2017-05-16",
    "longName": "A221122J17"
}