{
    "askPrice": "",
    "green": 0,
    "coupon": null,
    "accruedInterest": "4,68",
    "settleDate": "2022.10.10",
    "askEhmYield": "",
    "bidYield": "",
    "rawName": "2022/J",
    "bidPrice": "99,00",
    "maturityInDays": "43 nap",
    "securityType": "PMÁP",
    "maturityDate": "2022.11.22",
    "name": "2022/J",
    "bidEhmYield": "",
    "askYield": "",
    "currency": "HUF",
    "maturityInDays_val": 43,
    "longName": "A221122J17"
}