{
    "askPrice": "",
    "green": 0,
    "coupon": null,
    "accruedInterest": "0,5565",
    "settleDate": "2024.05.13",
    "askEhmYield": "",
    "bidYield": "",
    "rawName": "2026/U_EUR",
    "bidPrice": "99,0000",
    "maturityInDays": "863 nap",
    "securityType": "EMÁP",
    "maturityDate": "2026.09.23",
    "name": "2026/U_EUR",
    "bidEhmYield": "",
    "askYield": "",
    "currency": "EUR",
    "maturityInDays_val": 863,
    "issueDate": "2023.03.20",
    "longName": "C260923U23"
}