{
    "askPrice": "",
    "green": 0,
    "coupon": "3,50 %",
    "accruedInterest": "0,53",
    "settleDate": "2022.08.29",
    "askEhmYield": "",
    "bidYield": "",
    "rawName": "N2027/27",
    "bidPrice": "99,50",
    "coupon_val": 3.5,
    "maturityInDays": "1770 nap",
    "securityType": "MÁP Plusz",
    "maturityDate": "2027.07.04",
    "name": "N2027/27",
    "bidEhmYield": "",
    "askYield": "",
    "currency": "HUF",
    "maturityInDays_val": 1770,
    "longName": "N270704"
}