{
    "askPrice": "",
    "green": 0,
    "coupon": "3,50 %",
    "accruedInterest": "1,10",
    "settleDate": "2022.10.28",
    "askEhmYield": "",
    "bidYield": "5,13",
    "rawName": "N2027/27",
    "bidPrice": "99,50",
    "coupon_val": 3.5,
    "maturityInDays": "1710 nap",
    "securityType": "MÁP Plusz",
    "maturityDate": "2027.07.04",
    "name": "N2027/27",
    "bidEhmYield": "",
    "askYield": "",
    "currency": "HUF",
    "maturityInDays_val": 1710,
    "longName": "N270704"
}