{
    "askPrice": "",
    "green": 0,
    "coupon": "3,50 %",
    "accruedInterest": "1,21",
    "settleDate": "2022.11.08",
    "askEhmYield": "",
    "bidYield": "5,14",
    "rawName": "N2027/27",
    "bidPrice": "99,50",
    "coupon_val": 3.5,
    "maturityInDays": "1699 nap",
    "securityType": "MÁP Plusz",
    "maturityDate": "2027.07.04",
    "name": "N2027/27",
    "bidEhmYield": "",
    "askYield": "",
    "currency": "HUF",
    "maturityInDays_val": 1699,
    "issueDate": "2022-07-04",
    "longName": "N270704"
}