{
    "askPrice": "",
    "green": 0,
    "coupon": "3,50 %",
    "accruedInterest": "0,3689",
    "settleDate": "2023.08.03",
    "askEhmYield": "",
    "bidYield": "5,38",
    "rawName": "N2027/27",
    "bidPrice": "99,5000",
    "coupon_val": 3.5,
    "maturityInDays": "1431 nap",
    "securityType": "MÁP Plusz",
    "maturityDate": "2027.07.04",
    "name": "N2027/27",
    "bidEhmYield": "",
    "askYield": "",
    "currency": "HUF",
    "maturityInDays_val": 1431,
    "issueDate": "2022.07.04",
    "longName": "N270704"
}