{
    "askPrice": "",
    "green": 0,
    "coupon": "3,50 %",
    "accruedInterest": "1,8320",
    "settleDate": "2023.11.30",
    "askEhmYield": "",
    "bidYield": "5,46",
    "rawName": "N2027/27",
    "bidPrice": "99,5000",
    "coupon_val": 3.5,
    "maturityInDays": "1312 nap",
    "securityType": "MÁP Plusz",
    "maturityDate": "2027.07.04",
    "name": "N2027/27",
    "bidEhmYield": "",
    "askYield": "",
    "currency": "HUF",
    "maturityInDays_val": 1312,
    "issueDate": "2022.07.04",
    "longName": "N270704"
}