{
    "askPrice": "",
    "green": 0,
    "coupon": "3,50 %",
    "accruedInterest": "3,2090",
    "settleDate": "2024.03.21",
    "askEhmYield": "",
    "bidYield": "5,55",
    "rawName": "N2027/27",
    "bidPrice": "99,5000",
    "coupon_val": 3.5,
    "maturityInDays": "1200 nap",
    "securityType": "MÁP Plusz",
    "maturityDate": "2027.07.04",
    "name": "N2027/27",
    "bidEhmYield": "",
    "askYield": "",
    "currency": "HUF",
    "maturityInDays_val": 1200,
    "issueDate": "2022.07.04",
    "longName": "N270704"
}