{
    "askPrice": "",
    "green": 0,
    "coupon": "7,00 %",
    "accruedInterest": "1,1123",
    "settleDate": "2022.12.15",
    "askEhmYield": "",
    "bidYield": "8,23",
    "rawName": "K2023/42",
    "bidPrice": "99,0000",
    "coupon_val": 7,
    "maturityInDays": "307 nap",
    "securityType": "1MÁP",
    "maturityDate": "2023.10.18",
    "name": "K2023/42",
    "bidEhmYield": "8,18",
    "askYield": "",
    "currency": "HUF",
    "maturityInDays_val": 307,
    "issueDate": "2022.10.18",
    "longName": "K231018"
}