{
    "askPrice": "",
    "green": 0,
    "coupon": "7,00 %",
    "accruedInterest": "0,7096",
    "settleDate": "2022.11.24",
    "askEhmYield": "",
    "bidYield": "7,57",
    "rawName": "K2023/42",
    "bidPrice": "99,5000",
    "coupon_val": 7,
    "maturityInDays": "328 nap",
    "securityType": "1MÁP",
    "maturityDate": "2023.10.18",
    "name": "K2023/42",
    "bidEhmYield": "7,54",
    "askYield": "",
    "currency": "HUF",
    "maturityInDays_val": 328,
    "issueDate": "2022.10.18",
    "longName": "K231018"
}