{
    "askPrice": "",
    "green": 0,
    "coupon": "7,00 %",
    "accruedInterest": "0,52",
    "settleDate": "2022.11.14",
    "askEhmYield": "",
    "bidYield": "7,56",
    "rawName": "K2023/42",
    "bidPrice": "99,50",
    "coupon_val": 7,
    "maturityInDays": "338 nap",
    "securityType": "1MÁP",
    "maturityDate": "2023.10.18",
    "name": "K2023/42",
    "bidEhmYield": "7,54",
    "askYield": "",
    "currency": "HUF",
    "maturityInDays_val": 338,
    "issueDate": "2022-10-18",
    "longName": "K231018"
}