{
    "askPrice": "",
    "green": 0,
    "coupon": "7,00 %",
    "accruedInterest": "3,2027",
    "settleDate": "2023.04.03",
    "askEhmYield": "",
    "bidYield": "8,82",
    "rawName": "K2023/42",
    "bidPrice": "99,0000",
    "coupon_val": 7,
    "maturityInDays": "198 nap",
    "securityType": "1MÁP",
    "maturityDate": "2023.10.18",
    "name": "K2023/42",
    "bidEhmYield": "8,65",
    "askYield": "",
    "currency": "HUF",
    "maturityInDays_val": 198,
    "issueDate": "2022.10.18",
    "longName": "K231018"
}