{
    "askPrice": "",
    "green": 0,
    "coupon": "7,00 %",
    "accruedInterest": "6,6356",
    "settleDate": "2023.09.29",
    "askEhmYield": "",
    "bidYield": "23,39",
    "rawName": "K2023/42",
    "bidPrice": "99,2000",
    "coupon_val": 7,
    "maturityInDays": "19 nap",
    "securityType": "1MÁP",
    "maturityDate": "2023.10.18",
    "name": "K2023/42",
    "bidEhmYield": "21,14",
    "askYield": "",
    "currency": "HUF",
    "maturityInDays_val": 19,
    "issueDate": "2022.10.18",
    "longName": "K231018"
}