{
    "askPrice": "",
    "green": 0,
    "coupon": "7,00 %",
    "accruedInterest": "5,3890",
    "settleDate": "2023.07.26",
    "askEhmYield": "",
    "bidYield": "11,33",
    "rawName": "K2023/42",
    "bidPrice": "99,0000",
    "coupon_val": 7,
    "maturityInDays": "84 nap",
    "securityType": "1MÁP",
    "maturityDate": "2023.10.18",
    "name": "K2023/42",
    "bidEhmYield": "10,87",
    "askYield": "",
    "currency": "HUF",
    "maturityInDays_val": 84,
    "issueDate": "2022.10.18",
    "longName": "K231018"
}