{
    "askPrice": "",
    "green": 0,
    "coupon": "7,00 %",
    "accruedInterest": "6,5973",
    "settleDate": "2023.09.27",
    "askEhmYield": "",
    "bidYield": "21,71",
    "rawName": "K2023/42",
    "bidPrice": "99,2000",
    "coupon_val": 7,
    "maturityInDays": "21 nap",
    "securityType": "1MÁP",
    "maturityDate": "2023.10.18",
    "name": "K2023/42",
    "bidEhmYield": "19,76",
    "askYield": "",
    "currency": "HUF",
    "maturityInDays_val": 21,
    "issueDate": "2022.10.18",
    "longName": "K231018"
}