{
    "askPrice": "",
    "green": 0,
    "coupon": "7,00 %",
    "accruedInterest": "6,1562",
    "settleDate": "2023.09.04",
    "askEhmYield": "",
    "bidYield": "15,51",
    "rawName": "K2023/42",
    "bidPrice": "99,0000",
    "coupon_val": 7,
    "maturityInDays": "44 nap",
    "securityType": "1MÁP",
    "maturityDate": "2023.10.18",
    "name": "K2023/42",
    "bidEhmYield": "14,55",
    "askYield": "",
    "currency": "HUF",
    "maturityInDays_val": 44,
    "issueDate": "2022.10.18",
    "longName": "K231018"
}