{
    "askPrice": "",
    "green": 0,
    "coupon": "7,00 %",
    "accruedInterest": "4,8329",
    "settleDate": "2023.06.27",
    "askEhmYield": "",
    "bidYield": "10,19",
    "rawName": "K2023/42",
    "bidPrice": "99,0000",
    "coupon_val": 7,
    "maturityInDays": "113 nap",
    "securityType": "1MÁP",
    "maturityDate": "2023.10.18",
    "name": "K2023/42",
    "bidEhmYield": "9,85",
    "askYield": "",
    "currency": "HUF",
    "maturityInDays_val": 113,
    "issueDate": "2022.10.18",
    "longName": "K231018"
}