{
    "askPrice": "",
    "green": 0,
    "coupon": "7,00 %",
    "accruedInterest": "3,7973",
    "settleDate": "2023.05.04",
    "askEhmYield": "",
    "bidYield": "9,15",
    "rawName": "K2023/42",
    "bidPrice": "99,0000",
    "coupon_val": 7,
    "maturityInDays": "167 nap",
    "securityType": "1MÁP",
    "maturityDate": "2023.10.18",
    "name": "K2023/42",
    "bidEhmYield": "8,94",
    "askYield": "",
    "currency": "HUF",
    "maturityInDays_val": 167,
    "issueDate": "2022.10.18",
    "longName": "K231018"
}