{
    "askPrice": "",
    "green": 0,
    "coupon": "7,00 %",
    "accruedInterest": "2,6849",
    "settleDate": "2023.03.07",
    "askEhmYield": "",
    "bidYield": "8,62",
    "rawName": "K2023/42",
    "bidPrice": "99,0000",
    "coupon_val": 7,
    "maturityInDays": "225 nap",
    "securityType": "1MÁP",
    "maturityDate": "2023.10.18",
    "name": "K2023/42",
    "bidEhmYield": "8,48",
    "askYield": "",
    "currency": "HUF",
    "maturityInDays_val": 225,
    "issueDate": "2022.10.18",
    "longName": "K231018"
}