{
    "askPrice": "",
    "green": 0,
    "coupon": "7,00 %",
    "accruedInterest": "2,0521",
    "settleDate": "2023.02.02",
    "askEhmYield": "",
    "bidYield": "8,43",
    "rawName": "K2023/42",
    "bidPrice": "99,0000",
    "coupon_val": 7,
    "maturityInDays": "258 nap",
    "securityType": "1MÁP",
    "maturityDate": "2023.10.18",
    "name": "K2023/42",
    "bidEhmYield": "8,33",
    "askYield": "",
    "currency": "HUF",
    "maturityInDays_val": 258,
    "issueDate": "2022.10.18",
    "longName": "K231018"
}