{
    "askPrice": "",
    "green": 0,
    "coupon": "7,00 %",
    "accruedInterest": "2,1288",
    "settleDate": "2023.02.06",
    "askEhmYield": "",
    "bidYield": "8,45",
    "rawName": "K2023/42",
    "bidPrice": "99,0000",
    "coupon_val": 7,
    "maturityInDays": "254 nap",
    "securityType": "1MÁP",
    "maturityDate": "2023.10.18",
    "name": "K2023/42",
    "bidEhmYield": "8,34",
    "askYield": "",
    "currency": "HUF",
    "maturityInDays_val": 254,
    "issueDate": "2022.10.18",
    "longName": "K231018"
}