{
    "askPrice": "",
    "green": 0,
    "coupon": "7,00 %",
    "accruedInterest": "1,8027",
    "settleDate": "2023.01.20",
    "askEhmYield": "",
    "bidYield": "8,37",
    "rawName": "K2023/42",
    "bidPrice": "99,0000",
    "coupon_val": 7,
    "maturityInDays": "271 nap",
    "securityType": "1MÁP",
    "maturityDate": "2023.10.18",
    "name": "K2023/42",
    "bidEhmYield": "8,28",
    "askYield": "",
    "currency": "HUF",
    "maturityInDays_val": 271,
    "issueDate": "2022.10.18",
    "longName": "K231018"
}