{
    "askPrice": "100,0000",
    "green": 0,
    "coupon": null,
    "accruedInterest": "0,4384",
    "settleDate": "2023.01.30",
    "askEhmYield": "",
    "bidYield": "",
    "rawName": "2030/I",
    "bidPrice": "99,0000",
    "maturityInDays": "2578 nap",
    "securityType": "PMÁP",
    "maturityDate": "2030.02.20",
    "name": "2030/I",
    "bidEhmYield": "",
    "askYield": "",
    "currency": "HUF",
    "maturityInDays_val": 2578,
    "issueDate": "2023.01.20",
    "longName": "A300220I23"
}