{
    "askPrice": "",
    "green": 0,
    "coupon": null,
    "accruedInterest": "3,7574",
    "settleDate": "2024.05.02",
    "askEhmYield": "",
    "bidYield": "",
    "rawName": "2030/I",
    "bidPrice": "99,0000",
    "maturityInDays": "2120 nap",
    "securityType": "PMÁP",
    "maturityDate": "2030.02.20",
    "name": "2030/I",
    "bidEhmYield": "",
    "askYield": "",
    "currency": "HUF",
    "maturityInDays_val": 2120,
    "issueDate": "2023.01.20",
    "longName": "A300220I23"
}