{
    "askPrice": "100,0000",
    "green": 0,
    "coupon": null,
    "accruedInterest": "1,6910",
    "settleDate": "2024.03.25",
    "askEhmYield": "",
    "bidYield": "",
    "rawName": "2029/N",
    "bidPrice": "99,0000",
    "maturityInDays": "1949 nap",
    "securityType": "BMÁP",
    "maturityDate": "2029.07.26",
    "name": "2029/N",
    "bidEhmYield": "",
    "askYield": "",
    "currency": "HUF",
    "maturityInDays_val": 1949,
    "issueDate": "2024.01.09",
    "longName": "A290726N24"
}