{
    "askPrice": "93,0956",
    "green": 0,
    "coupon": 0,
    "accruedInterest": 0,
    "settleDate": "2023.09.04",
    "askEhmYield": "9,15",
    "bidYield": "9,82",
    "rawName": "D240626",
    "bidPrice": "92,5290",
    "maturityInDays": "296 nap",
    "securityType": "DKJ",
    "maturityDate": "2024.06.26",
    "name": "D240626",
    "bidEhmYield": "9,96",
    "askYield": "9,02",
    "currency": "HUF",
    "maturityInDays_val": 296,
    "issueDate": "2023.06.28",
    "longName": "D240626"
}