{
    "askPrice": "92,8721",
    "green": 0,
    "coupon": 0,
    "accruedInterest": 0,
    "settleDate": "2023.08.24",
    "askEhmYield": "9,12",
    "bidYield": "9,74",
    "rawName": "D240626",
    "bidPrice": "92,3309",
    "maturityInDays": "307 nap",
    "securityType": "DKJ",
    "maturityDate": "2024.06.26",
    "name": "D240626",
    "bidEhmYield": "9,88",
    "askYield": "9,00",
    "currency": "HUF",
    "maturityInDays_val": 307,
    "issueDate": "2023.06.28",
    "longName": "D240626"
}