{
    "askPrice": "94,6221",
    "green": 0,
    "coupon": 0,
    "accruedInterest": 0,
    "settleDate": "2023.10.11",
    "askEhmYield": "8,01",
    "bidYield": "8,74",
    "rawName": "D240626",
    "bidPrice": "94,0840",
    "maturityInDays": "259 nap",
    "securityType": "DKJ",
    "maturityDate": "2024.06.26",
    "name": "D240626",
    "bidEhmYield": "8,86",
    "askYield": "7,90",
    "currency": "HUF",
    "maturityInDays_val": 259,
    "issueDate": "2023.06.28",
    "longName": "D240626"
}