{
    "askPrice": "94,5763",
    "green": 0,
    "coupon": 0,
    "accruedInterest": 0,
    "settleDate": "2023.10.09",
    "askEhmYield": "8,02",
    "bidYield": "8,72",
    "rawName": "D240626",
    "bidPrice": "94,0539",
    "maturityInDays": "261 nap",
    "securityType": "DKJ",
    "maturityDate": "2024.06.26",
    "name": "D240626",
    "bidEhmYield": "8,84",
    "askYield": "7,91",
    "currency": "HUF",
    "maturityInDays_val": 261,
    "issueDate": "2023.06.28",
    "longName": "D240626"
}