{
    "askPrice": "93,6978",
    "green": 0,
    "coupon": 0,
    "accruedInterest": 0,
    "settleDate": "2023.09.22",
    "askEhmYield": "8,83",
    "bidYield": "9,49",
    "rawName": "D240626",
    "bidPrice": "93,1720",
    "maturityInDays": "278 nap",
    "securityType": "DKJ",
    "maturityDate": "2024.06.26",
    "name": "D240626",
    "bidEhmYield": "9,62",
    "askYield": "8,71",
    "currency": "HUF",
    "maturityInDays_val": 278,
    "issueDate": "2023.06.28",
    "longName": "D240626"
}