{
    "askPrice": "92,0412",
    "green": 0,
    "coupon": 0,
    "accruedInterest": 0,
    "settleDate": "2023.08.14",
    "askEhmYield": "9,96",
    "bidYield": "10,50",
    "rawName": "D240626",
    "bidPrice": "91,5367",
    "maturityInDays": "317 nap",
    "securityType": "DKJ",
    "maturityDate": "2024.06.26",
    "name": "D240626",
    "bidEhmYield": "10,65",
    "askYield": "9,82",
    "currency": "HUF",
    "maturityInDays_val": 317,
    "issueDate": "2023.06.28",
    "longName": "D240626"
}