{
    "askPrice": "91,4353",
    "green": 0,
    "coupon": 0,
    "accruedInterest": 0,
    "settleDate": "2023.07.20",
    "askEhmYield": "10,00",
    "bidYield": "10,67",
    "rawName": "D240626",
    "bidPrice": "90,7964",
    "maturityInDays": "342 nap",
    "securityType": "DKJ",
    "maturityDate": "2024.06.26",
    "name": "D240626",
    "bidEhmYield": "10,82",
    "askYield": "9,86",
    "currency": "HUF",
    "maturityInDays_val": 342,
    "issueDate": "2023.06.28",
    "longName": "D240626"
}