{
    "askPrice": "97,0322",
    "green": 0,
    "coupon": 0,
    "accruedInterest": 0,
    "settleDate": "2023.12.27",
    "askEhmYield": "6,13",
    "bidYield": "6,80",
    "rawName": "D240626",
    "bidPrice": "96,6765",
    "maturityInDays": "182 nap",
    "securityType": "DKJ",
    "maturityDate": "2024.06.26",
    "name": "D240626",
    "bidEhmYield": "6,89",
    "askYield": "6,05",
    "currency": "HUF",
    "maturityInDays_val": 182,
    "issueDate": "2023.06.28",
    "longName": "D240626"
}