{
    "askPrice": "93,6068",
    "green": 0,
    "coupon": 0,
    "accruedInterest": 0,
    "settleDate": "2023.09.19",
    "askEhmYield": "8,87",
    "bidYield": "9,55",
    "rawName": "D240626",
    "bidPrice": "93,0628",
    "maturityInDays": "281 nap",
    "securityType": "DKJ",
    "maturityDate": "2024.06.26",
    "name": "D240626",
    "bidEhmYield": "9,68",
    "askYield": "8,75",
    "currency": "HUF",
    "maturityInDays_val": 281,
    "issueDate": "2023.06.28",
    "longName": "D240626"
}