{
    "askPrice": "95,3537",
    "green": 0,
    "coupon": 0,
    "accruedInterest": 0,
    "settleDate": "2023.11.20",
    "askEhmYield": "8,12",
    "bidYield": "8,75",
    "rawName": "D240626",
    "bidPrice": "94,9461",
    "maturityInDays": "219 nap",
    "securityType": "DKJ",
    "maturityDate": "2024.06.26",
    "name": "D240626",
    "bidEhmYield": "8,87",
    "askYield": "8,01",
    "currency": "HUF",
    "maturityInDays_val": 219,
    "issueDate": "2023.06.28",
    "longName": "D240626"
}