{
    "askPrice": "96,0072",
    "green": 0,
    "coupon": 0,
    "accruedInterest": 0,
    "settleDate": "2023.12.12",
    "askEhmYield": "7,71",
    "bidYield": "8,39",
    "rawName": "D240626",
    "bidPrice": "95,6103",
    "maturityInDays": "197 nap",
    "securityType": "DKJ",
    "maturityDate": "2024.06.26",
    "name": "D240626",
    "bidEhmYield": "8,51",
    "askYield": "7,60",
    "currency": "HUF",
    "maturityInDays_val": 197,
    "issueDate": "2023.06.28",
    "longName": "D240626"
}