{
    "askPrice": "95,9826",
    "green": 0,
    "coupon": 0,
    "accruedInterest": 0,
    "settleDate": "2023.12.11",
    "askEhmYield": "7,72",
    "bidYield": "8,40",
    "rawName": "D240626",
    "bidPrice": "95,5840",
    "maturityInDays": "198 nap",
    "securityType": "DKJ",
    "maturityDate": "2024.06.26",
    "name": "D240626",
    "bidEhmYield": "8,52",
    "askYield": "7,61",
    "currency": "HUF",
    "maturityInDays_val": 198,
    "issueDate": "2023.06.28",
    "longName": "D240626"
}