{
    "askPrice": "98,0915",
    "green": 0,
    "coupon": 0,
    "accruedInterest": 0,
    "settleDate": "2024.03.07",
    "askEhmYield": "6,40",
    "bidYield": "7,07",
    "rawName": "D240626",
    "bidPrice": "97,8666",
    "maturityInDays": "111 nap",
    "securityType": "DKJ",
    "maturityDate": "2024.06.26",
    "name": "D240626",
    "bidEhmYield": "7,17",
    "askYield": "6,31",
    "currency": "HUF",
    "maturityInDays_val": 111,
    "issueDate": "2023.06.28",
    "longName": "D240626"
}