{
    "askPrice": "98,4626",
    "green": 0,
    "coupon": 0,
    "accruedInterest": 0,
    "settleDate": "2024.03.26",
    "askEhmYield": "6,19",
    "bidYield": "7,42",
    "rawName": "D240626",
    "bidPrice": "98,1391",
    "maturityInDays": "92 nap",
    "securityType": "DKJ",
    "maturityDate": "2024.06.26",
    "name": "D240626",
    "bidEhmYield": "7,52",
    "askYield": "6,11",
    "currency": "HUF",
    "maturityInDays_val": 92,
    "issueDate": "2023.06.28",
    "longName": "D240626"
}