{
    "askPrice": "97,3973",
    "green": 0,
    "coupon": 0,
    "accruedInterest": 0,
    "settleDate": "2024.01.30",
    "askEhmYield": "6,59",
    "bidYield": "7,25",
    "rawName": "D240626",
    "bidPrice": "97,1057",
    "maturityInDays": "148 nap",
    "securityType": "DKJ",
    "maturityDate": "2024.06.26",
    "name": "D240626",
    "bidEhmYield": "7,35",
    "askYield": "6,50",
    "currency": "HUF",
    "maturityInDays_val": 148,
    "issueDate": "2023.06.28",
    "longName": "D240626"
}