{
    "askPrice": "97,5835",
    "green": 0,
    "coupon": 0,
    "accruedInterest": 0,
    "settleDate": "2024.02.09",
    "askEhmYield": "6,55",
    "bidYield": "7,28",
    "rawName": "D240626",
    "bidPrice": "97,2851",
    "maturityInDays": "138 nap",
    "securityType": "DKJ",
    "maturityDate": "2024.06.26",
    "name": "D240626",
    "bidEhmYield": "7,38",
    "askYield": "6,46",
    "currency": "HUF",
    "maturityInDays_val": 138,
    "issueDate": "2023.06.28",
    "longName": "D240626"
}