{
    "askPrice": "97,2663",
    "green": 0,
    "coupon": 0,
    "accruedInterest": 0,
    "settleDate": "2024.01.24",
    "askEhmYield": "6,66",
    "bidYield": "7,35",
    "rawName": "D240626",
    "bidPrice": "96,9517",
    "maturityInDays": "154 nap",
    "securityType": "DKJ",
    "maturityDate": "2024.06.26",
    "name": "D240626",
    "bidEhmYield": "7,45",
    "askYield": "6,57",
    "currency": "HUF",
    "maturityInDays_val": 154,
    "issueDate": "2023.06.28",
    "longName": "D240626"
}