{
    "askPrice": "97,0248",
    "green": 0,
    "coupon": 0,
    "accruedInterest": 0,
    "settleDate": "2024.01.12",
    "askEhmYield": "6,74",
    "bidYield": "7,45",
    "rawName": "D240626",
    "bidPrice": "96,6788",
    "maturityInDays": "166 nap",
    "securityType": "DKJ",
    "maturityDate": "2024.06.26",
    "name": "D240626",
    "bidEhmYield": "7,55",
    "askYield": "6,65",
    "currency": "HUF",
    "maturityInDays_val": 166,
    "issueDate": "2023.06.28",
    "longName": "D240626"
}