{
    "askPrice": "97,8728",
    "green": 0,
    "coupon": 0,
    "accruedInterest": 0,
    "settleDate": "2024.02.23",
    "askEhmYield": "6,40",
    "bidYield": "7,07",
    "rawName": "D240626",
    "bidPrice": "97,6227",
    "maturityInDays": "124 nap",
    "securityType": "DKJ",
    "maturityDate": "2024.06.26",
    "name": "D240626",
    "bidEhmYield": "7,17",
    "askYield": "6,31",
    "currency": "HUF",
    "maturityInDays_val": 124,
    "issueDate": "2023.06.28",
    "longName": "D240626"
}