{
    "askPrice": "98,1986",
    "green": 0,
    "coupon": 0,
    "accruedInterest": 0,
    "settleDate": "2024.03.14",
    "askEhmYield": "6,44",
    "bidYield": "7,10",
    "rawName": "D240626",
    "bidPrice": "97,9901",
    "maturityInDays": "104 nap",
    "securityType": "DKJ",
    "maturityDate": "2024.06.26",
    "name": "D240626",
    "bidEhmYield": "7,20",
    "askYield": "6,35",
    "currency": "HUF",
    "maturityInDays_val": 104,
    "issueDate": "2023.06.28",
    "longName": "D240626"
}