{
    "askPrice": "98,9936",
    "green": 0,
    "coupon": 0,
    "accruedInterest": 0,
    "settleDate": "2024.04.29",
    "askEhmYield": "6,40",
    "bidYield": "7,80",
    "rawName": "D240626",
    "bidPrice": "98,7589",
    "maturityInDays": "58 nap",
    "securityType": "DKJ",
    "maturityDate": "2024.06.26",
    "name": "D240626",
    "bidEhmYield": "7,91",
    "askYield": "6,31",
    "currency": "HUF",
    "maturityInDays_val": 58,
    "issueDate": "2023.06.28",
    "longName": "D240626"
}