{
    "askPrice": "98,7167",
    "green": 0,
    "coupon": 0,
    "accruedInterest": 0,
    "settleDate": "2024.04.09",
    "askEhmYield": "6,08",
    "bidYield": "7,44",
    "rawName": "D240626",
    "bidPrice": "98,4136",
    "maturityInDays": "78 nap",
    "securityType": "DKJ",
    "maturityDate": "2024.06.26",
    "name": "D240626",
    "bidEhmYield": "7,54",
    "askYield": "6,00",
    "currency": "HUF",
    "maturityInDays_val": 78,
    "issueDate": "2023.06.28",
    "longName": "D240626"
}