{
    "askPrice": "97,7718",
    "green": 0,
    "coupon": 0,
    "accruedInterest": 0,
    "settleDate": "2024.02.20",
    "askEhmYield": "6,55",
    "bidYield": "7,21",
    "rawName": "D240626",
    "bidPrice": "97,5196",
    "maturityInDays": "127 nap",
    "securityType": "DKJ",
    "maturityDate": "2024.06.26",
    "name": "D240626",
    "bidEhmYield": "7,31",
    "askYield": "6,46",
    "currency": "HUF",
    "maturityInDays_val": 127,
    "issueDate": "2023.06.28",
    "longName": "D240626"
}