{
    "askPrice": "",
    "green": 0,
    "coupon": "8,00 %",
    "accruedInterest": "1,2493",
    "settleDate": "2024.02.29",
    "askEhmYield": "",
    "bidYield": "9,20",
    "rawName": "K2025/01",
    "bidPrice": "99,0000",
    "coupon_val": 8,
    "maturityInDays": "309 nap",
    "securityType": "1MÁP",
    "maturityDate": "2025.01.03",
    "name": "K2025/01",
    "bidEhmYield": "9,13",
    "askYield": "",
    "currency": "HUF",
    "maturityInDays_val": 309,
    "issueDate": "2024.01.03",
    "longName": "K250103"
}