{
    "askPrice": "",
    "green": 0,
    "coupon": "8,00 %",
    "accruedInterest": "2,8493",
    "settleDate": "2024.05.13",
    "askEhmYield": "",
    "bidYield": "9,54",
    "rawName": "K2025/01",
    "bidPrice": "99,0000",
    "coupon_val": 8,
    "maturityInDays": "235 nap",
    "securityType": "1MÁP",
    "maturityDate": "2025.01.03",
    "name": "K2025/01",
    "bidEhmYield": "9,34",
    "askYield": "",
    "currency": "HUF",
    "maturityInDays_val": 235,
    "issueDate": "2024.01.03",
    "longName": "K250103"
}