{
    "askPrice": "",
    "green": 0,
    "coupon": "8,00 %",
    "accruedInterest": "2,6082",
    "settleDate": "2024.05.02",
    "askEhmYield": "",
    "bidYield": "9,47",
    "rawName": "K2025/01",
    "bidPrice": "99,0000",
    "coupon_val": 8,
    "maturityInDays": "246 nap",
    "securityType": "1MÁP",
    "maturityDate": "2025.01.03",
    "name": "K2025/01",
    "bidEhmYield": "9,30",
    "askYield": "",
    "currency": "HUF",
    "maturityInDays_val": 246,
    "issueDate": "2024.01.03",
    "longName": "K250103"
}