{
    "askPrice": "",
    "green": 0,
    "coupon": "8,00 %",
    "accruedInterest": "2,5644",
    "settleDate": "2024.04.30",
    "askEhmYield": "",
    "bidYield": "9,46",
    "rawName": "K2025/01",
    "bidPrice": "99,0000",
    "coupon_val": 8,
    "maturityInDays": "248 nap",
    "securityType": "1MÁP",
    "maturityDate": "2025.01.03",
    "name": "K2025/01",
    "bidEhmYield": "9,29",
    "askYield": "",
    "currency": "HUF",
    "maturityInDays_val": 248,
    "issueDate": "2024.01.03",
    "longName": "K250103"
}