{
    "askPrice": "",
    "green": 0,
    "coupon": "8,00 %",
    "accruedInterest": "1,1836",
    "settleDate": "2024.02.26",
    "askEhmYield": "",
    "bidYield": "9,19",
    "rawName": "K2025/01",
    "bidPrice": "99,0000",
    "coupon_val": 8,
    "maturityInDays": "312 nap",
    "securityType": "1MÁP",
    "maturityDate": "2025.01.03",
    "name": "K2025/01",
    "bidEhmYield": "9,13",
    "askYield": "",
    "currency": "HUF",
    "maturityInDays_val": 312,
    "issueDate": "2024.01.03",
    "longName": "K250103"
}