{
    "askPrice": "",
    "green": 0,
    "coupon": "8,00 %",
    "accruedInterest": "0,5699",
    "settleDate": "2024.01.29",
    "askEhmYield": "",
    "bidYield": "9,12",
    "rawName": "K2025/01",
    "bidPrice": "99,0000",
    "coupon_val": 8,
    "maturityInDays": "340 nap",
    "securityType": "1MÁP",
    "maturityDate": "2025.01.03",
    "name": "K2025/01",
    "bidEhmYield": "9,09",
    "askYield": "",
    "currency": "HUF",
    "maturityInDays_val": 340,
    "issueDate": "2024.01.03",
    "longName": "K250103"
}