{
    "askPrice": "",
    "green": 0,
    "coupon": "3,50 %",
    "accruedInterest": "0,1658",
    "settleDate": "2022.12.06",
    "askEhmYield": "",
    "bidYield": "6,02",
    "rawName": "N2024/25",
    "bidPrice": "99,5000",
    "coupon_val": 3.5,
    "maturityInDays": "720 nap",
    "securityType": "MÁP Plusz",
    "maturityDate": "2024.11.25",
    "name": "N2024/25",
    "bidEhmYield": "",
    "askYield": "",
    "currency": "HUF",
    "maturityInDays_val": 720,
    "issueDate": "2019.11.25",
    "longName": "N241125"
}