{
    "askPrice": "",
    "green": 0,
    "coupon": "3,50 %",
    "accruedInterest": "3,42",
    "settleDate": "2022.08.02",
    "askEhmYield": "",
    "bidYield": "",
    "rawName": "N2024/25",
    "bidPrice": "99,50",
    "coupon_val": 3.5,
    "maturityInDays": "846 nap",
    "securityType": "MÁP Plusz",
    "maturityDate": "2024.11.25",
    "name": "N2024/25",
    "bidEhmYield": "",
    "askYield": "",
    "currency": "HUF",
    "maturityInDays_val": 846,
    "longName": "N241125"
}