{
    "askPrice": "",
    "green": 0,
    "coupon": "3,50 %",
    "accruedInterest": "4,85",
    "settleDate": "2022.11.14",
    "askEhmYield": "",
    "bidYield": "6,00",
    "rawName": "N2024/25",
    "bidPrice": "99,50",
    "coupon_val": 3.5,
    "maturityInDays": "742 nap",
    "securityType": "MÁP Plusz",
    "maturityDate": "2024.11.25",
    "name": "N2024/25",
    "bidEhmYield": "",
    "askYield": "",
    "currency": "HUF",
    "maturityInDays_val": 742,
    "issueDate": "2019-11-25",
    "longName": "N241125"
}