{
    "askPrice": "",
    "green": 0,
    "coupon": "3,50 %",
    "accruedInterest": "4,9726",
    "settleDate": "2022.11.23",
    "askEhmYield": "",
    "bidYield": "",
    "rawName": "N2024/25",
    "bidPrice": "",
    "coupon_val": 3.5,
    "maturityInDays": "733 nap",
    "securityType": "MÁP Plusz",
    "maturityDate": "2024.11.25",
    "name": "N2024/25",
    "bidEhmYield": "",
    "askYield": "",
    "currency": "HUF",
    "maturityInDays_val": 733,
    "issueDate": "2019.11.25",
    "longName": "N241125"
}