{
    "askPrice": "",
    "green": 0,
    "coupon": "3,50 %",
    "accruedInterest": "4,2644",
    "settleDate": "2023.09.04",
    "askEhmYield": "",
    "bidYield": "6,32",
    "rawName": "N2024/25",
    "bidPrice": "99,5000",
    "coupon_val": 3.5,
    "maturityInDays": "448 nap",
    "securityType": "MÁP Plusz",
    "maturityDate": "2024.11.25",
    "name": "N2024/25",
    "bidEhmYield": "",
    "askYield": "",
    "currency": "HUF",
    "maturityInDays_val": 448,
    "issueDate": "2019.11.25",
    "longName": "N241125"
}