{
    "askPrice": "",
    "green": 0,
    "coupon": "3,50 %",
    "accruedInterest": "3,3151",
    "settleDate": "2023.07.03",
    "askEhmYield": "",
    "bidYield": "6,21",
    "rawName": "N2024/25",
    "bidPrice": "99,5000",
    "coupon_val": 3.5,
    "maturityInDays": "511 nap",
    "securityType": "MÁP Plusz",
    "maturityDate": "2024.11.25",
    "name": "N2024/25",
    "bidEhmYield": "",
    "askYield": "",
    "currency": "HUF",
    "maturityInDays_val": 511,
    "issueDate": "2019.11.25",
    "longName": "N241125"
}