{
    "askPrice": "",
    "green": 0,
    "coupon": "3,50 %",
    "accruedInterest": "0,9016",
    "settleDate": "2024.01.19",
    "askEhmYield": "",
    "bidYield": "6,59",
    "rawName": "N2024/25",
    "bidPrice": "99,5000",
    "coupon_val": 3.5,
    "maturityInDays": "311 nap",
    "securityType": "MÁP Plusz",
    "maturityDate": "2024.11.25",
    "name": "N2024/25",
    "bidEhmYield": "",
    "askYield": "",
    "currency": "HUF",
    "maturityInDays_val": 311,
    "issueDate": "2019.11.25",
    "longName": "N241125"
}