{
    "askPrice": "",
    "green": 0,
    "coupon": "3,00 %",
    "accruedInterest": "2,5315",
    "settleDate": "2022.12.27",
    "askEhmYield": "",
    "bidYield": "9,63",
    "rawName": "K2023/08",
    "bidPrice": "99,0000",
    "coupon_val": 3,
    "maturityInDays": "57 nap",
    "securityType": "1MÁP",
    "maturityDate": "2023.02.22",
    "name": "K2023/08",
    "bidEhmYield": "9,26",
    "askYield": "",
    "currency": "HUF",
    "maturityInDays_val": 57,
    "issueDate": "2022.02.22",
    "longName": "K230222"
}