{
    "askPrice": "",
    "green": 0,
    "coupon": "3,00 %",
    "accruedInterest": "1,79",
    "settleDate": "2022.09.28",
    "askEhmYield": "",
    "bidYield": "",
    "rawName": "K2023/08",
    "bidPrice": "99,50",
    "coupon_val": 3,
    "maturityInDays": "147 nap",
    "securityType": "1MÁP",
    "maturityDate": "2023.02.22",
    "name": "K2023/08",
    "bidEhmYield": "4,19",
    "askYield": "",
    "currency": "HUF",
    "maturityInDays_val": 147,
    "longName": "K230222"
}