{
    "askPrice": "",
    "green": 0,
    "coupon": "3,00 %",
    "accruedInterest": "2,20",
    "settleDate": "2022.11.17",
    "askEhmYield": "",
    "bidYield": "4,88",
    "rawName": "K2023/08",
    "bidPrice": "99,50",
    "coupon_val": 3,
    "maturityInDays": "97 nap",
    "securityType": "1MÁP",
    "maturityDate": "2023.02.22",
    "name": "K2023/08",
    "bidEhmYield": "4,80",
    "askYield": "",
    "currency": "HUF",
    "maturityInDays_val": 97,
    "issueDate": "2022-02-22",
    "longName": "K230222"
}