{
    "askPrice": "",
    "green": 0,
    "coupon": "3,00 %",
    "accruedInterest": "2,4411",
    "settleDate": "2022.12.16",
    "askEhmYield": "",
    "bidYield": "8,53",
    "rawName": "K2023/08",
    "bidPrice": "99,0000",
    "coupon_val": 3,
    "maturityInDays": "68 nap",
    "securityType": "1MÁP",
    "maturityDate": "2023.02.22",
    "name": "K2023/08",
    "bidEhmYield": "8,25",
    "askYield": "",
    "currency": "HUF",
    "maturityInDays_val": 68,
    "issueDate": "2022.02.22",
    "longName": "K230222"
}