{
    "askPrice": "",
    "green": 0,
    "coupon": "3,00 %",
    "accruedInterest": "2,3014",
    "settleDate": "2022.11.29",
    "askEhmYield": "",
    "bidYield": "5,15",
    "rawName": "K2023/08",
    "bidPrice": "99,5000",
    "coupon_val": 3,
    "maturityInDays": "85 nap",
    "securityType": "1MÁP",
    "maturityDate": "2023.02.22",
    "name": "K2023/08",
    "bidEhmYield": "5,06",
    "askYield": "",
    "currency": "HUF",
    "maturityInDays_val": 85,
    "issueDate": "2022.02.22",
    "longName": "K230222"
}