{
    "askPrice": "",
    "green": 0,
    "coupon": "3,00 %",
    "accruedInterest": "1,50",
    "settleDate": "2022.08.24",
    "askEhmYield": "",
    "bidYield": "",
    "rawName": "K2023/08",
    "bidPrice": "99,50",
    "coupon_val": 3,
    "maturityInDays": "182 nap",
    "securityType": "1MÁP",
    "maturityDate": "2023.02.22",
    "name": "K2023/08",
    "bidEhmYield": "3,96",
    "askYield": "",
    "currency": "HUF",
    "maturityInDays_val": 182,
    "longName": "K230222"
}