{
    "askPrice": "",
    "green": 0,
    "coupon": "3,00 %",
    "accruedInterest": "2,3671",
    "settleDate": "2022.12.07",
    "askEhmYield": "",
    "bidYield": "7,87",
    "rawName": "K2023/08",
    "bidPrice": "99,0000",
    "coupon_val": 3,
    "maturityInDays": "77 nap",
    "securityType": "1MÁP",
    "maturityDate": "2023.02.22",
    "name": "K2023/08",
    "bidEhmYield": "7,64",
    "askYield": "",
    "currency": "HUF",
    "maturityInDays_val": 77,
    "issueDate": "2022.02.22",
    "longName": "K230222"
}