{
    "askPrice": "",
    "green": 0,
    "coupon": "3,00 %",
    "accruedInterest": "2,7781",
    "settleDate": "2023.01.26",
    "askEhmYield": "",
    "bidYield": "17,51",
    "rawName": "K2023/08",
    "bidPrice": "99,0000",
    "coupon_val": 3,
    "maturityInDays": "27 nap",
    "securityType": "1MÁP",
    "maturityDate": "2023.02.22",
    "name": "K2023/08",
    "bidEhmYield": "16,23",
    "askYield": "",
    "currency": "HUF",
    "maturityInDays_val": 27,
    "issueDate": "2022.02.22",
    "longName": "K230222"
}