{
    "askPrice": "",
    "green": 0,
    "coupon": "3,50 %",
    "accruedInterest": "4,15",
    "settleDate": "2022.11.02",
    "askEhmYield": "",
    "bidYield": "5,63",
    "rawName": "N2025/48",
    "bidPrice": "99,50",
    "coupon_val": 3.5,
    "maturityInDays": "1124 nap",
    "securityType": "MÁP Plusz",
    "maturityDate": "2025.11.30",
    "name": "N2025/48",
    "bidEhmYield": "",
    "askYield": "",
    "currency": "HUF",
    "maturityInDays_val": 1124,
    "issueDate": "2020-11-30",
    "longName": "N251130"
}