{
    "askPrice": "",
    "green": 0,
    "coupon": "3,50 %",
    "accruedInterest": "4,7808",
    "settleDate": "2023.11.14",
    "askEhmYield": "",
    "bidYield": "5,99",
    "rawName": "N2025/48",
    "bidPrice": "99,5000",
    "coupon_val": 3.5,
    "maturityInDays": "747 nap",
    "securityType": "MÁP Plusz",
    "maturityDate": "2025.11.30",
    "name": "N2025/48",
    "bidEhmYield": "",
    "askYield": "",
    "currency": "HUF",
    "maturityInDays_val": 747,
    "issueDate": "2020.11.30",
    "longName": "N251130"
}