{
    "askPrice": "",
    "green": 0,
    "coupon": "3,50 %",
    "accruedInterest": "1,2466",
    "settleDate": "2023.03.01",
    "askEhmYield": "",
    "bidYield": "5,72",
    "rawName": "N2025/48",
    "bidPrice": "99,5000",
    "coupon_val": 3.5,
    "maturityInDays": "1005 nap",
    "securityType": "MÁP Plusz",
    "maturityDate": "2025.11.30",
    "name": "N2025/48",
    "bidEhmYield": "",
    "askYield": "",
    "currency": "HUF",
    "maturityInDays_val": 1005,
    "issueDate": "2020.11.30",
    "longName": "N251130"
}