{
    "askPrice": "",
    "green": 0,
    "coupon": "3,50 %",
    "accruedInterest": "2,4110",
    "settleDate": "2023.05.25",
    "askEhmYield": "",
    "bidYield": "5,79",
    "rawName": "N2025/48",
    "bidPrice": "99,5000",
    "coupon_val": 3.5,
    "maturityInDays": "920 nap",
    "securityType": "MÁP Plusz",
    "maturityDate": "2025.11.30",
    "name": "N2025/48",
    "bidEhmYield": "",
    "askYield": "",
    "currency": "HUF",
    "maturityInDays_val": 920,
    "issueDate": "2020.11.30",
    "longName": "N251130"
}