{
    "askPrice": "",
    "green": 0,
    "coupon": "3,50 %",
    "accruedInterest": "2,4795",
    "settleDate": "2024.05.13",
    "askEhmYield": "",
    "bidYield": "6,14",
    "rawName": "N2025/48",
    "bidPrice": "99,5000",
    "coupon_val": 3.5,
    "maturityInDays": "566 nap",
    "securityType": "MÁP Plusz",
    "maturityDate": "2025.11.30",
    "name": "N2025/48",
    "bidEhmYield": "",
    "askYield": "",
    "currency": "HUF",
    "maturityInDays_val": 566,
    "issueDate": "2020.11.30",
    "longName": "N251130"
}