{
    "askPrice": "",
    "green": 0,
    "coupon": "3,50 %",
    "accruedInterest": "0,20",
    "settleDate": "2022.11.10",
    "askEhmYield": "",
    "bidYield": "5,37",
    "rawName": "N2026/43",
    "bidPrice": "99,50",
    "coupon_val": 3.5,
    "maturityInDays": "1445 nap",
    "securityType": "MÁP Plusz",
    "maturityDate": "2026.10.25",
    "name": "N2026/43",
    "bidEhmYield": "",
    "askYield": "",
    "currency": "HUF",
    "maturityInDays_val": 1445,
    "issueDate": "2021-10-25",
    "longName": "N261025"
}