{
    "askPrice": "",
    "green": 0,
    "coupon": "3,50 %",
    "accruedInterest": "1,25",
    "settleDate": "2022.08.17",
    "askEhmYield": "",
    "bidYield": "",
    "rawName": "N2026/43",
    "bidPrice": "99,50",
    "coupon_val": 3.5,
    "maturityInDays": "1530 nap",
    "securityType": "MÁP Plusz",
    "maturityDate": "2026.10.25",
    "name": "N2026/43",
    "bidEhmYield": "",
    "askYield": "",
    "currency": "HUF",
    "maturityInDays_val": 1530,
    "longName": "N261025"
}