{
    "askPrice": "",
    "green": 0,
    "coupon": "3,50 %",
    "accruedInterest": "4,0068",
    "settleDate": "2023.09.15",
    "askEhmYield": "",
    "bidYield": "5,62",
    "rawName": "N2026/43",
    "bidPrice": "99,5000",
    "coupon_val": 3.5,
    "maturityInDays": "1136 nap",
    "securityType": "MÁP Plusz",
    "maturityDate": "2026.10.25",
    "name": "N2026/43",
    "bidEhmYield": "",
    "askYield": "",
    "currency": "HUF",
    "maturityInDays_val": 1136,
    "issueDate": "2021.10.25",
    "longName": "N261025"
}