{
    "askPrice": "",
    "green": 0,
    "coupon": "3,50 %",
    "accruedInterest": 0,
    "settleDate": "2023.10.24",
    "askEhmYield": "",
    "bidYield": "",
    "rawName": "N2026/43",
    "bidPrice": "",
    "coupon_val": 3.5,
    "maturityInDays": "1097 nap",
    "securityType": "MÁP Plusz",
    "maturityDate": "2026.10.25",
    "name": "N2026/43",
    "bidEhmYield": "",
    "askYield": "",
    "currency": "HUF",
    "maturityInDays_val": 1097,
    "issueDate": "2021.10.25",
    "longName": "N261025"
}