{
    "askPrice": "",
    "green": 0,
    "coupon": "3,50 %",
    "accruedInterest": "1,2822",
    "settleDate": "2023.02.06",
    "askEhmYield": "",
    "bidYield": "5,42",
    "rawName": "N2026/43",
    "bidPrice": "99,5000",
    "coupon_val": 3.5,
    "maturityInDays": "1357 nap",
    "securityType": "MÁP Plusz",
    "maturityDate": "2026.10.25",
    "name": "N2026/43",
    "bidEhmYield": "",
    "askYield": "",
    "currency": "HUF",
    "maturityInDays_val": 1357,
    "issueDate": "2021.10.25",
    "longName": "N261025"
}