{
    "askPrice": "",
    "green": 0,
    "coupon": "3,50 %",
    "accruedInterest": "2,5683",
    "settleDate": "2024.04.30",
    "askEhmYield": "",
    "bidYield": "5,80",
    "rawName": "N2026/43",
    "bidPrice": "99,5000",
    "coupon_val": 3.5,
    "maturityInDays": "908 nap",
    "securityType": "MÁP Plusz",
    "maturityDate": "2026.10.25",
    "name": "N2026/43",
    "bidEhmYield": "",
    "askYield": "",
    "currency": "HUF",
    "maturityInDays_val": 908,
    "issueDate": "2021.10.25",
    "longName": "N261025"
}