{
    "askPrice": "",
    "green": 0,
    "coupon": "3,50 %",
    "accruedInterest": "1,6257",
    "settleDate": "2024.02.21",
    "askEhmYield": "",
    "bidYield": "5,74",
    "rawName": "N2026/43",
    "bidPrice": "99,5000",
    "coupon_val": 3.5,
    "maturityInDays": "977 nap",
    "securityType": "MÁP Plusz",
    "maturityDate": "2026.10.25",
    "name": "N2026/43",
    "bidEhmYield": "",
    "askYield": "",
    "currency": "HUF",
    "maturityInDays_val": 977,
    "issueDate": "2021.10.25",
    "longName": "N261025"
}