{
    "askPrice": "",
    "green": 0,
    "coupon": "3,50 %",
    "accruedInterest": "1,8169",
    "settleDate": "2024.03.06",
    "askEhmYield": "",
    "bidYield": "5,75",
    "rawName": "N2026/43",
    "bidPrice": "99,5000",
    "coupon_val": 3.5,
    "maturityInDays": "963 nap",
    "securityType": "MÁP Plusz",
    "maturityDate": "2026.10.25",
    "name": "N2026/43",
    "bidEhmYield": "",
    "askYield": "",
    "currency": "HUF",
    "maturityInDays_val": 963,
    "issueDate": "2021.10.25",
    "longName": "N261025"
}