{
    "askPrice": "",
    "green": 0,
    "coupon": "3,50 %",
    "accruedInterest": "0,7644",
    "settleDate": "2022.11.28",
    "askEhmYield": "",
    "bidYield": "5,40",
    "rawName": "N2026/39",
    "bidPrice": "99,5000",
    "coupon_val": 3.5,
    "maturityInDays": "1399 nap",
    "securityType": "MÁP Plusz",
    "maturityDate": "2026.09.27",
    "name": "N2026/39",
    "bidEhmYield": "",
    "askYield": "",
    "currency": "HUF",
    "maturityInDays_val": 1399,
    "issueDate": "2021.09.27",
    "longName": "N260927"
}