{
    "askPrice": "",
    "green": 0,
    "coupon": "3,50 %",
    "accruedInterest": "1,62",
    "settleDate": "2022.08.23",
    "askEhmYield": "",
    "bidYield": "",
    "rawName": "N2026/39",
    "bidPrice": "99,50",
    "coupon_val": 3.5,
    "maturityInDays": "1496 nap",
    "securityType": "MÁP Plusz",
    "maturityDate": "2026.09.27",
    "name": "N2026/39",
    "bidEhmYield": "",
    "askYield": "",
    "currency": "HUF",
    "maturityInDays_val": 1496,
    "longName": "N260927"
}