{
    "askPrice": "",
    "green": 0,
    "coupon": "3,50 %",
    "accruedInterest": "0,0683",
    "settleDate": "2023.10.02",
    "askEhmYield": "",
    "bidYield": "5,48",
    "rawName": "N2026/39",
    "bidPrice": "100,0000",
    "coupon_val": 3.5,
    "maturityInDays": "1091 nap",
    "securityType": "MÁP Plusz",
    "maturityDate": "2026.09.27",
    "name": "N2026/39",
    "bidEhmYield": "",
    "askYield": "",
    "currency": "HUF",
    "maturityInDays_val": 1091,
    "issueDate": "2021.09.27",
    "longName": "N260927"
}