{
    "askPrice": "",
    "green": 0,
    "coupon": "3,50 %",
    "accruedInterest": "1,2432",
    "settleDate": "2023.12.27",
    "askEhmYield": "",
    "bidYield": "5,72",
    "rawName": "N2026/39",
    "bidPrice": "99,5000",
    "coupon_val": 3.5,
    "maturityInDays": "1005 nap",
    "securityType": "MÁP Plusz",
    "maturityDate": "2026.09.27",
    "name": "N2026/39",
    "bidEhmYield": "",
    "askYield": "",
    "currency": "HUF",
    "maturityInDays_val": 1005,
    "issueDate": "2021.09.27",
    "longName": "N260927"
}