{
    "askPrice": "",
    "green": 0,
    "coupon": "3,50 %",
    "accruedInterest": "2,8552",
    "settleDate": "2024.04.23",
    "askEhmYield": "",
    "bidYield": "5,82",
    "rawName": "N2026/39",
    "bidPrice": "99,5000",
    "coupon_val": 3.5,
    "maturityInDays": "887 nap",
    "securityType": "MÁP Plusz",
    "maturityDate": "2026.09.27",
    "name": "N2026/39",
    "bidEhmYield": "",
    "askYield": "",
    "currency": "HUF",
    "maturityInDays_val": 887,
    "issueDate": "2021.09.27",
    "longName": "N260927"
}