{
    "askPrice": "",
    "green": 0,
    "coupon": "9,00 %",
    "accruedInterest": "0,2219",
    "settleDate": "2023.04.27",
    "askEhmYield": "",
    "bidYield": "10,09",
    "rawName": "K2024/16",
    "bidPrice": "99,0000",
    "coupon_val": 9,
    "maturityInDays": "357 nap",
    "securityType": "1MÁP",
    "maturityDate": "2024.04.18",
    "name": "K2024/16",
    "bidEhmYield": "10,08",
    "askYield": "",
    "currency": "HUF",
    "maturityInDays_val": 357,
    "issueDate": "2023.04.18",
    "longName": "K240418"
}