{
    "askPrice": "",
    "green": 0,
    "coupon": "9,00 %",
    "accruedInterest": "4,8082",
    "settleDate": "2023.10.30",
    "askEhmYield": "",
    "bidYield": "10,98",
    "rawName": "K2024/16",
    "bidPrice": "99,0000",
    "coupon_val": 9,
    "maturityInDays": "171 nap",
    "securityType": "1MÁP",
    "maturityDate": "2024.04.18",
    "name": "K2024/16",
    "bidEhmYield": "10,68",
    "askYield": "",
    "currency": "HUF",
    "maturityInDays_val": 171,
    "issueDate": "2023.04.18",
    "longName": "K240418"
}