{
    "askPrice": "",
    "green": 0,
    "coupon": "9,00 %",
    "accruedInterest": "3,9452",
    "settleDate": "2023.09.25",
    "askEhmYield": "",
    "bidYield": "10,66",
    "rawName": "K2024/16",
    "bidPrice": "99,0000",
    "coupon_val": 9,
    "maturityInDays": "206 nap",
    "securityType": "1MÁP",
    "maturityDate": "2024.04.18",
    "name": "K2024/16",
    "bidEhmYield": "10,42",
    "askYield": "",
    "currency": "HUF",
    "maturityInDays_val": 206,
    "issueDate": "2023.04.18",
    "longName": "K240418"
}