{
    "askPrice": "",
    "green": 0,
    "coupon": "9,00 %",
    "accruedInterest": "1,7507",
    "settleDate": "2023.06.28",
    "askEhmYield": "",
    "bidYield": "10,23",
    "rawName": "K2024/16",
    "bidPrice": "99,0000",
    "coupon_val": 9,
    "maturityInDays": "295 nap",
    "securityType": "1MÁP",
    "maturityDate": "2024.04.18",
    "name": "K2024/16",
    "bidEhmYield": "10,13",
    "askYield": "",
    "currency": "HUF",
    "maturityInDays_val": 295,
    "issueDate": "2023.04.18",
    "longName": "K240418"
}