{
    "askPrice": "",
    "green": 0,
    "coupon": "9,00 %",
    "accruedInterest": "5,3260",
    "settleDate": "2023.11.20",
    "askEhmYield": "",
    "bidYield": "11,25",
    "rawName": "K2024/16",
    "bidPrice": "99,0000",
    "coupon_val": 9,
    "maturityInDays": "150 nap",
    "securityType": "1MÁP",
    "maturityDate": "2024.04.18",
    "name": "K2024/16",
    "bidEhmYield": "10,90",
    "askYield": "",
    "currency": "HUF",
    "maturityInDays_val": 150,
    "issueDate": "2023.04.18",
    "longName": "K240418"
}