{
    "askPrice": "",
    "green": 0,
    "coupon": "9,00 %",
    "accruedInterest": "7,7918",
    "settleDate": "2024.02.28",
    "askEhmYield": "",
    "bidYield": "16,11",
    "rawName": "K2024/16",
    "bidPrice": "99,0000",
    "coupon_val": 9,
    "maturityInDays": "50 nap",
    "securityType": "1MÁP",
    "maturityDate": "2024.04.18",
    "name": "K2024/16",
    "bidEhmYield": "15,09",
    "askYield": "",
    "currency": "HUF",
    "maturityInDays_val": 50,
    "issueDate": "2023.04.18",
    "longName": "K240418"
}