{
    "askPrice": "",
    "green": 0,
    "coupon": "9,00 %",
    "accruedInterest": "7,2740",
    "settleDate": "2024.02.07",
    "askEhmYield": "",
    "bidYield": "13,91",
    "rawName": "K2024/16",
    "bidPrice": "99,0000",
    "coupon_val": 9,
    "maturityInDays": "71 nap",
    "securityType": "1MÁP",
    "maturityDate": "2024.04.18",
    "name": "K2024/16",
    "bidEhmYield": "13,19",
    "askYield": "",
    "currency": "HUF",
    "maturityInDays_val": 71,
    "issueDate": "2023.04.18",
    "longName": "K240418"
}