{
    "askPrice": "",
    "green": 0,
    "coupon": "3,50 %",
    "accruedInterest": "1,22",
    "settleDate": "2022.08.03",
    "askEhmYield": "",
    "bidYield": "",
    "rawName": "N2026/17",
    "bidPrice": "99,50",
    "coupon_val": 3.5,
    "maturityInDays": "1362 nap",
    "securityType": "MÁP Plusz",
    "maturityDate": "2026.04.26",
    "name": "N2026/17",
    "bidEhmYield": "",
    "askYield": "",
    "currency": "HUF",
    "maturityInDays_val": 1362,
    "longName": "N260426"
}