{
    "askPrice": "",
    "green": 0,
    "coupon": "3,50 %",
    "accruedInterest": "2,9712",
    "settleDate": "2022.12.23",
    "askEhmYield": "",
    "bidYield": "5,53",
    "rawName": "N2026/17",
    "bidPrice": "99,5000",
    "coupon_val": 3.5,
    "maturityInDays": "1220 nap",
    "securityType": "MÁP Plusz",
    "maturityDate": "2026.04.26",
    "name": "N2026/17",
    "bidEhmYield": "",
    "askYield": "",
    "currency": "HUF",
    "maturityInDays_val": 1220,
    "issueDate": "2021.04.26",
    "longName": "N260426"
}