{
    "askPrice": "",
    "green": 0,
    "coupon": "3,50 %",
    "accruedInterest": "1,5164",
    "settleDate": "2023.08.15",
    "askEhmYield": "",
    "bidYield": "5,73",
    "rawName": "N2026/17",
    "bidPrice": "99,5000",
    "coupon_val": 3.5,
    "maturityInDays": "985 nap",
    "securityType": "MÁP Plusz",
    "maturityDate": "2026.04.26",
    "name": "N2026/17",
    "bidEhmYield": "",
    "askYield": "",
    "currency": "HUF",
    "maturityInDays_val": 985,
    "issueDate": "2021.04.26",
    "longName": "N260426"
}