{
    "askPrice": "",
    "green": 0,
    "coupon": "3,50 %",
    "accruedInterest": "4,3306",
    "settleDate": "2024.03.08",
    "askEhmYield": "",
    "bidYield": "5,94",
    "rawName": "N2026/17",
    "bidPrice": "99,5000",
    "coupon_val": 3.5,
    "maturityInDays": "779 nap",
    "securityType": "MÁP Plusz",
    "maturityDate": "2026.04.26",
    "name": "N2026/17",
    "bidEhmYield": "",
    "askYield": "",
    "currency": "HUF",
    "maturityInDays_val": 779,
    "issueDate": "2021.04.26",
    "longName": "N260426"
}