{
    "askPrice": "",
    "green": 0,
    "coupon": "3,50 %",
    "accruedInterest": "4,7814",
    "settleDate": "2024.04.10",
    "askEhmYield": "",
    "bidYield": "5,99",
    "rawName": "N2026/17",
    "bidPrice": "99,5000",
    "coupon_val": 3.5,
    "maturityInDays": "746 nap",
    "securityType": "MÁP Plusz",
    "maturityDate": "2026.04.26",
    "name": "N2026/17",
    "bidEhmYield": "",
    "askYield": "",
    "currency": "HUF",
    "maturityInDays_val": 746,
    "issueDate": "2021.04.26",
    "longName": "N260426"
}