{
    "askPrice": "98,9258",
    "green": 0,
    "coupon": 0,
    "accruedInterest": 0,
    "settleDate": "2023.01.16",
    "askEhmYield": "13,21",
    "bidYield": "13,90",
    "rawName": "D230215",
    "bidPrice": "98,8549",
    "maturityInDays": "30 nap",
    "securityType": "DKJ",
    "maturityDate": "2023.02.15",
    "name": "D230215",
    "bidEhmYield": "14,09",
    "askYield": "13,03",
    "currency": "HUF",
    "maturityInDays_val": 30,
    "issueDate": "2022.11.16",
    "longName": "D230215"
}