{
    "askPrice": "",
    "green": 0,
    "coupon": 0,
    "accruedInterest": 0,
    "settleDate": "2023.02.07",
    "askEhmYield": "",
    "bidYield": "14,67",
    "rawName": "D230215",
    "bidPrice": "99,6751",
    "maturityInDays": "8 nap",
    "securityType": "DKJ",
    "maturityDate": "2023.02.15",
    "name": "D230215",
    "bidEhmYield": "14,87",
    "askYield": "",
    "currency": "HUF",
    "maturityInDays_val": 8,
    "issueDate": "2022.11.16",
    "longName": "D230215"
}