{
    "askPrice": "98,9676",
    "green": 0,
    "coupon": 0,
    "accruedInterest": 0,
    "settleDate": "2023.01.17",
    "askEhmYield": "13,13",
    "bidYield": "13,80",
    "rawName": "D230215",
    "bidPrice": "98,9006",
    "maturityInDays": "29 nap",
    "securityType": "DKJ",
    "maturityDate": "2023.02.15",
    "name": "D230215",
    "bidEhmYield": "13,99",
    "askYield": "12,95",
    "currency": "HUF",
    "maturityInDays_val": 29,
    "issueDate": "2022.11.16",
    "longName": "D230215"
}