{
    "askPrice": "",
    "green": 0,
    "coupon": "3,50 %",
    "accruedInterest": "3,61",
    "settleDate": "2022.08.08",
    "askEhmYield": "",
    "bidYield": "",
    "rawName": "N2025/42",
    "bidPrice": "99,50",
    "coupon_val": 3.5,
    "maturityInDays": "1168 nap",
    "securityType": "MÁP Plusz",
    "maturityDate": "2025.10.19",
    "name": "N2025/42",
    "bidEhmYield": "",
    "askYield": "",
    "currency": "HUF",
    "maturityInDays_val": 1168,
    "longName": "N251019"
}