{
    "askPrice": "",
    "green": 0,
    "coupon": "3,50 %",
    "accruedInterest": "1,0274",
    "settleDate": "2023.01.02",
    "askEhmYield": "",
    "bidYield": "5,71",
    "rawName": "N2025/42",
    "bidPrice": "99,5000",
    "coupon_val": 3.5,
    "maturityInDays": "1021 nap",
    "securityType": "MÁP Plusz",
    "maturityDate": "2025.10.19",
    "name": "N2025/42",
    "bidEhmYield": "",
    "askYield": "",
    "currency": "HUF",
    "maturityInDays_val": 1021,
    "issueDate": "2020.10.19",
    "longName": "N251019"
}