{
    "askPrice": "",
    "green": 0,
    "coupon": "3,50 %",
    "accruedInterest": "3,4521",
    "settleDate": "2023.06.28",
    "askEhmYield": "",
    "bidYield": "5,86",
    "rawName": "N2025/42",
    "bidPrice": "99,5000",
    "coupon_val": 3.5,
    "maturityInDays": "844 nap",
    "securityType": "MÁP Plusz",
    "maturityDate": "2025.10.19",
    "name": "N2025/42",
    "bidEhmYield": "",
    "askYield": "",
    "currency": "HUF",
    "maturityInDays_val": 844,
    "issueDate": "2020.10.19",
    "longName": "N251019"
}