{
    "askPrice": "",
    "green": 0,
    "coupon": "3,50 %",
    "accruedInterest": "3,9452",
    "settleDate": "2023.08.03",
    "askEhmYield": "",
    "bidYield": "5,90",
    "rawName": "N2025/42",
    "bidPrice": "99,5000",
    "coupon_val": 3.5,
    "maturityInDays": "808 nap",
    "securityType": "MÁP Plusz",
    "maturityDate": "2025.10.19",
    "name": "N2025/42",
    "bidEhmYield": "",
    "askYield": "",
    "currency": "HUF",
    "maturityInDays_val": 808,
    "issueDate": "2020.10.19",
    "longName": "N251019"
}