{
    "askPrice": "",
    "green": 0,
    "coupon": "3,50 %",
    "accruedInterest": "1,3224",
    "settleDate": "2024.01.15",
    "askEhmYield": "",
    "bidYield": "6,07",
    "rawName": "N2025/42",
    "bidPrice": "99,5000",
    "coupon_val": 3.5,
    "maturityInDays": "643 nap",
    "securityType": "MÁP Plusz",
    "maturityDate": "2025.10.19",
    "name": "N2025/42",
    "bidEhmYield": "",
    "askYield": "",
    "currency": "HUF",
    "maturityInDays_val": 643,
    "issueDate": "2020.10.19",
    "longName": "N251019"
}