{
    "askPrice": "",
    "green": 0,
    "coupon": 0,
    "accruedInterest": 0,
    "settleDate": "2023.01.19",
    "askEhmYield": "",
    "bidYield": "13,65",
    "rawName": "D230125",
    "bidPrice": "99,7730",
    "maturityInDays": "6 nap",
    "securityType": "DKJ",
    "maturityDate": "2023.01.25",
    "name": "D230125",
    "bidEhmYield": "13,84",
    "askYield": "",
    "currency": "HUF",
    "maturityInDays_val": 6,
    "issueDate": "2022.10.26",
    "longName": "D230125"
}