{
    "askPrice": "",
    "green": 0,
    "coupon": "3,50 %",
    "accruedInterest": "0,3060",
    "settleDate": "2024.05.10",
    "askEhmYield": "",
    "bidYield": "5,05",
    "rawName": "N2029/15",
    "bidPrice": "99,5000",
    "coupon_val": 3.5,
    "maturityInDays": "1794 nap",
    "securityType": "MÁP Plusz",
    "maturityDate": "2029.04.08",
    "name": "N2029/15",
    "bidEhmYield": "",
    "askYield": "",
    "currency": "HUF",
    "maturityInDays_val": 1794,
    "issueDate": "2024.04.08",
    "longName": "N290408"
}