{
    "askPrice": "",
    "green": 0,
    "coupon": 0,
    "accruedInterest": 0,
    "settleDate": "2023.08.21",
    "askEhmYield": "",
    "bidYield": "10,20",
    "rawName": "D230913",
    "bidPrice": "99,3526",
    "maturityInDays": "23 nap",
    "securityType": "DKJ",
    "maturityDate": "2023.09.13",
    "name": "D230913",
    "bidEhmYield": "10,34",
    "askYield": "",
    "currency": "HUF",
    "maturityInDays_val": 23,
    "issueDate": "2023.06.14",
    "longName": "D230913"
}