{
    "askPrice": "",
    "green": 0,
    "coupon": 0,
    "accruedInterest": 0,
    "settleDate": "2023.08.29",
    "askEhmYield": "",
    "bidYield": "10,17",
    "rawName": "D230913",
    "bidPrice": "99,5780",
    "maturityInDays": "15 nap",
    "securityType": "DKJ",
    "maturityDate": "2023.09.13",
    "name": "D230913",
    "bidEhmYield": "10,31",
    "askYield": "",
    "currency": "HUF",
    "maturityInDays_val": 15,
    "issueDate": "2023.06.14",
    "longName": "D230913"
}