{
    "askPrice": "99,0371",
    "green": 0,
    "coupon": 0,
    "accruedInterest": 0,
    "settleDate": "2023.08.07",
    "askEhmYield": "9,59",
    "bidYield": "10,75",
    "rawName": "D230913",
    "bidPrice": "98,9072",
    "maturityInDays": "37 nap",
    "securityType": "DKJ",
    "maturityDate": "2023.09.13",
    "name": "D230913",
    "bidEhmYield": "10,90",
    "askYield": "9,46",
    "currency": "HUF",
    "maturityInDays_val": 37,
    "issueDate": "2023.06.14",
    "longName": "D230913"
}