{
    "askPrice": "98,8630",
    "green": 0,
    "coupon": 0,
    "accruedInterest": 0,
    "settleDate": "2023.07.31",
    "askEhmYield": "9,54",
    "bidYield": "10,74",
    "rawName": "D230913",
    "bidPrice": "98,7043",
    "maturityInDays": "44 nap",
    "securityType": "DKJ",
    "maturityDate": "2023.09.13",
    "name": "D230913",
    "bidEhmYield": "10,89",
    "askYield": "9,41",
    "currency": "HUF",
    "maturityInDays_val": 44,
    "issueDate": "2023.06.14",
    "longName": "D230913"
}