{
    "askPrice": "98,1267",
    "green": 0,
    "coupon": 0,
    "accruedInterest": 0,
    "settleDate": "2023.07.04",
    "askEhmYield": "9,81",
    "bidYield": "10,95",
    "rawName": "D230913",
    "bidPrice": "97,8861",
    "maturityInDays": "71 nap",
    "securityType": "DKJ",
    "maturityDate": "2023.09.13",
    "name": "D230913",
    "bidEhmYield": "11,10",
    "askYield": "9,68",
    "currency": "HUF",
    "maturityInDays_val": 71,
    "issueDate": "2023.06.14",
    "longName": "D230913"
}