{
    "askPrice": "98,2631",
    "green": 0,
    "coupon": 0,
    "accruedInterest": 0,
    "settleDate": "2023.07.10",
    "askEhmYield": "9,93",
    "bidYield": "11,00",
    "rawName": "D230913",
    "bidPrice": "98,0526",
    "maturityInDays": "65 nap",
    "securityType": "DKJ",
    "maturityDate": "2023.09.13",
    "name": "D230913",
    "bidEhmYield": "11,15",
    "askYield": "9,79",
    "currency": "HUF",
    "maturityInDays_val": 65,
    "issueDate": "2023.06.14",
    "longName": "D230913"
}