{
    "askPrice": "98,5278",
    "green": 0,
    "coupon": 0,
    "accruedInterest": 0,
    "settleDate": "2023.07.20",
    "askEhmYield": "9,92",
    "bidYield": "11,09",
    "rawName": "D230913",
    "bidPrice": "98,3339",
    "maturityInDays": "55 nap",
    "securityType": "DKJ",
    "maturityDate": "2023.09.13",
    "name": "D230913",
    "bidEhmYield": "11,24",
    "askYield": "9,78",
    "currency": "HUF",
    "maturityInDays_val": 55,
    "issueDate": "2023.06.14",
    "longName": "D230913"
}