{
    "askPrice": "97,5860",
    "green": 0,
    "coupon": 0,
    "accruedInterest": 0,
    "settleDate": "2023.06.23",
    "askEhmYield": "11,01",
    "bidYield": "12,15",
    "rawName": "D230913",
    "bidPrice": "97,3070",
    "maturityInDays": "82 nap",
    "securityType": "DKJ",
    "maturityDate": "2023.09.13",
    "name": "D230913",
    "bidEhmYield": "12,32",
    "askYield": "10,86",
    "currency": "HUF",
    "maturityInDays_val": 82,
    "issueDate": "2023.06.14",
    "longName": "D230913"
}