{
    "askPrice": "98,3173",
    "green": 0,
    "coupon": 0,
    "accruedInterest": 0,
    "settleDate": "2023.07.12",
    "askEhmYield": "9,92",
    "bidYield": "11,07",
    "rawName": "D230913",
    "bidPrice": "98,0996",
    "maturityInDays": "63 nap",
    "securityType": "DKJ",
    "maturityDate": "2023.09.13",
    "name": "D230913",
    "bidEhmYield": "11,22",
    "askYield": "9,78",
    "currency": "HUF",
    "maturityInDays_val": 63,
    "issueDate": "2023.06.14",
    "longName": "D230913"
}