{
    "askPrice": "",
    "green": 0,
    "coupon": 0,
    "accruedInterest": 0,
    "settleDate": "2023.09.08",
    "askEhmYield": "",
    "bidYield": "10,25",
    "rawName": "D230913",
    "bidPrice": "99,8578",
    "maturityInDays": "5 nap",
    "securityType": "DKJ",
    "maturityDate": "2023.09.13",
    "name": "D230913",
    "bidEhmYield": "10,40",
    "askYield": "",
    "currency": "HUF",
    "maturityInDays_val": 5,
    "issueDate": "2023.06.14",
    "longName": "D230913"
}