{
    "askPrice": "98,4457",
    "green": 0,
    "coupon": 0,
    "accruedInterest": 0,
    "settleDate": "2023.07.17",
    "askEhmYield": "9,94",
    "bidYield": "11,09",
    "rawName": "D230913",
    "bidPrice": "98,2446",
    "maturityInDays": "58 nap",
    "securityType": "DKJ",
    "maturityDate": "2023.09.13",
    "name": "D230913",
    "bidEhmYield": "11,24",
    "askYield": "9,80",
    "currency": "HUF",
    "maturityInDays_val": 58,
    "issueDate": "2023.06.14",
    "longName": "D230913"
}