{
    "askPrice": "98,0272",
    "green": 0,
    "coupon": 0,
    "accruedInterest": 0,
    "settleDate": "2023.06.30",
    "askEhmYield": "9,79",
    "bidYield": "10,98",
    "rawName": "D230913",
    "bidPrice": "97,7637",
    "maturityInDays": "75 nap",
    "securityType": "DKJ",
    "maturityDate": "2023.09.13",
    "name": "D230913",
    "bidEhmYield": "11,13",
    "askYield": "9,66",
    "currency": "HUF",
    "maturityInDays_val": 75,
    "issueDate": "2023.06.14",
    "longName": "D230913"
}