{
    "askPrice": "97,1867",
    "green": 0,
    "coupon": 0,
    "accruedInterest": 0,
    "settleDate": "2023.06.20",
    "askEhmYield": "12,43",
    "bidYield": "13,44",
    "rawName": "D230913",
    "bidPrice": "96,9243",
    "maturityInDays": "85 nap",
    "securityType": "DKJ",
    "maturityDate": "2023.09.13",
    "name": "D230913",
    "bidEhmYield": "13,63",
    "askYield": "12,26",
    "currency": "HUF",
    "maturityInDays_val": 85,
    "issueDate": "2023.06.14",
    "longName": "D230913"
}