{
    "askPrice": "",
    "green": 0,
    "coupon": "4,25 %",
    "accruedInterest": "0,84",
    "settleDate": "2022.06.23",
    "askEhmYield": "",
    "bidYield": "",
    "rawName": "K2023/15",
    "bidPrice": "99,50",
    "coupon_val": 4.25,
    "maturityInDays": "293 nap",
    "securityType": "1MÁP",
    "maturityDate": "2023.04.12",
    "name": "K2023/15",
    "bidEhmYield": "4,86",
    "askYield": "",
    "currency": "HUF",
    "maturityInDays_val": 293,
    "longName": "K230412"
}