{
    "askPrice": "",
    "green": 0,
    "coupon": "4,25 %",
    "accruedInterest": "2,21",
    "settleDate": "2022.10.19",
    "askEhmYield": "",
    "bidYield": "5,27",
    "rawName": "K2023/15",
    "bidPrice": "99,50",
    "coupon_val": 4.25,
    "maturityInDays": "175 nap",
    "securityType": "1MÁP",
    "maturityDate": "2023.04.12",
    "name": "K2023/15",
    "bidEhmYield": "5,20",
    "askYield": "",
    "currency": "HUF",
    "maturityInDays_val": 175,
    "longName": "K230412"
}