{
    "askPrice": "",
    "green": 0,
    "coupon": "4,25 %",
    "accruedInterest": "2,45",
    "settleDate": "2022.11.08",
    "askEhmYield": "",
    "bidYield": "5,41",
    "rawName": "K2023/15",
    "bidPrice": "99,50",
    "coupon_val": 4.25,
    "maturityInDays": "155 nap",
    "securityType": "1MÁP",
    "maturityDate": "2023.04.12",
    "name": "K2023/15",
    "bidEhmYield": "5,32",
    "askYield": "",
    "currency": "HUF",
    "maturityInDays_val": 155,
    "issueDate": "2022-04-12",
    "longName": "K230412"
}