{
    "askPrice": "",
    "green": 0,
    "coupon": "4,25 %",
    "accruedInterest": "2,7712",
    "settleDate": "2022.12.06",
    "askEhmYield": "",
    "bidYield": "5,66",
    "rawName": "K2023/15",
    "bidPrice": "99,5000",
    "coupon_val": 4.25,
    "maturityInDays": "127 nap",
    "securityType": "1MÁP",
    "maturityDate": "2023.04.12",
    "name": "K2023/15",
    "bidEhmYield": "5,56",
    "askYield": "",
    "currency": "HUF",
    "maturityInDays_val": 127,
    "issueDate": "2022.04.12",
    "longName": "K230412"
}