{
    "askPrice": "",
    "green": 0,
    "coupon": "4,25 %",
    "accruedInterest": "1,47",
    "settleDate": "2022.08.16",
    "askEhmYield": "",
    "bidYield": "",
    "rawName": "K2023/15",
    "bidPrice": "99,50",
    "coupon_val": 4.25,
    "maturityInDays": "239 nap",
    "securityType": "1MÁP",
    "maturityDate": "2023.04.12",
    "name": "K2023/15",
    "bidEhmYield": "4,97",
    "askYield": "",
    "currency": "HUF",
    "maturityInDays_val": 239,
    "longName": "K230412"
}