{
    "askPrice": "",
    "green": 0,
    "coupon": "4,25 %",
    "accruedInterest": "2,17",
    "settleDate": "2022.10.15",
    "askEhmYield": "",
    "bidYield": "",
    "rawName": "K2023/15",
    "bidPrice": "99,50",
    "coupon_val": 4.25,
    "maturityInDays": "179 nap",
    "securityType": "1MÁP",
    "maturityDate": "2023.04.12",
    "name": "K2023/15",
    "bidEhmYield": "5,18",
    "askYield": "",
    "currency": "HUF",
    "maturityInDays_val": 179,
    "longName": "K230412"
}