{
    "askPrice": "",
    "green": 0,
    "coupon": "4,25 %",
    "accruedInterest": "3,8192",
    "settleDate": "2023.03.06",
    "askEhmYield": "",
    "bidYield": "14,61",
    "rawName": "K2023/15",
    "bidPrice": "99,0000",
    "coupon_val": 4.25,
    "maturityInDays": "37 nap",
    "securityType": "1MÁP",
    "maturityDate": "2023.04.12",
    "name": "K2023/15",
    "bidEhmYield": "13,73",
    "askYield": "",
    "currency": "HUF",
    "maturityInDays_val": 37,
    "issueDate": "2022.04.12",
    "longName": "K230412"
}