{
    "askPrice": "",
    "green": 0,
    "coupon": "4,25 %",
    "accruedInterest": "3,7842",
    "settleDate": "2023.03.03",
    "askEhmYield": "",
    "bidYield": "13,79",
    "rawName": "K2023/15",
    "bidPrice": "99,0000",
    "coupon_val": 4.25,
    "maturityInDays": "40 nap",
    "securityType": "1MÁP",
    "maturityDate": "2023.04.12",
    "name": "K2023/15",
    "bidEhmYield": "13,01",
    "askYield": "",
    "currency": "HUF",
    "maturityInDays_val": 40,
    "issueDate": "2022.04.12",
    "longName": "K230412"
}