{
    "askPrice": "",
    "green": 0,
    "coupon": "4,25 %",
    "accruedInterest": "3,7377",
    "settleDate": "2023.02.27",
    "askEhmYield": "",
    "bidYield": "12,89",
    "rawName": "K2023/15",
    "bidPrice": "99,0000",
    "coupon_val": 4.25,
    "maturityInDays": "44 nap",
    "securityType": "1MÁP",
    "maturityDate": "2023.04.12",
    "name": "K2023/15",
    "bidEhmYield": "12,21",
    "askYield": "",
    "currency": "HUF",
    "maturityInDays_val": 44,
    "issueDate": "2022.04.12",
    "longName": "K230412"
}