{
    "askPrice": "98,3486",
    "green": 0,
    "coupon": 0,
    "accruedInterest": 0,
    "settleDate": "2023.10.03",
    "askEhmYield": "7,86",
    "bidYield": "9,04",
    "rawName": "D231220",
    "bidPrice": "98,0790",
    "maturityInDays": "78 nap",
    "securityType": "DKJ",
    "maturityDate": "2023.12.20",
    "name": "D231220",
    "bidEhmYield": "9,17",
    "askYield": "7,75",
    "currency": "HUF",
    "maturityInDays_val": 78,
    "issueDate": "2023.09.20",
    "longName": "D231220"
}