{
    "askPrice": "98,3900",
    "green": 0,
    "coupon": 0,
    "accruedInterest": 0,
    "settleDate": "2023.09.25",
    "askEhmYield": "6,94",
    "bidYield": "8,25",
    "rawName": "D231220",
    "bidPrice": "98,0673",
    "maturityInDays": "86 nap",
    "securityType": "DKJ",
    "maturityDate": "2023.12.20",
    "name": "D231220",
    "bidEhmYield": "8,36",
    "askYield": "6,85",
    "currency": "HUF",
    "maturityInDays_val": 86,
    "issueDate": "2023.09.20",
    "longName": "D231220"
}