{
    "askPrice": "",
    "green": 0,
    "coupon": 0,
    "accruedInterest": 0,
    "settleDate": "2023.12.04",
    "askEhmYield": "",
    "bidYield": "8,34",
    "rawName": "D231220",
    "bidPrice": "99,6307",
    "maturityInDays": "16 nap",
    "securityType": "DKJ",
    "maturityDate": "2023.12.20",
    "name": "D231220",
    "bidEhmYield": "8,46",
    "askYield": "",
    "currency": "HUF",
    "maturityInDays_val": 16,
    "issueDate": "2023.09.20",
    "longName": "D231220"
}