{
    "askPrice": "98,9695",
    "green": 0,
    "coupon": 0,
    "accruedInterest": 0,
    "settleDate": "2023.10.30",
    "askEhmYield": "7,45",
    "bidYield": "8,71",
    "rawName": "D231220",
    "bidPrice": "98,7811",
    "maturityInDays": "51 nap",
    "securityType": "DKJ",
    "maturityDate": "2023.12.20",
    "name": "D231220",
    "bidEhmYield": "8,83",
    "askYield": "7,35",
    "currency": "HUF",
    "maturityInDays_val": 51,
    "issueDate": "2023.09.20",
    "longName": "D231220"
}