{
    "askPrice": "",
    "green": 0,
    "coupon": 0,
    "accruedInterest": 0,
    "settleDate": "2023.11.14",
    "askEhmYield": "",
    "bidYield": "9,00",
    "rawName": "D231220",
    "bidPrice": "99,1080",
    "maturityInDays": "36 nap",
    "securityType": "DKJ",
    "maturityDate": "2023.12.20",
    "name": "D231220",
    "bidEhmYield": "9,13",
    "askYield": "",
    "currency": "HUF",
    "maturityInDays_val": 36,
    "issueDate": "2023.09.20",
    "longName": "D231220"
}