{
    "askPrice": "99,1572",
    "green": 0,
    "coupon": 0,
    "accruedInterest": 0,
    "settleDate": "2023.11.10",
    "askEhmYield": "7,76",
    "bidYield": "9,05",
    "rawName": "D231220",
    "bidPrice": "99,0045",
    "maturityInDays": "40 nap",
    "securityType": "DKJ",
    "maturityDate": "2023.12.20",
    "name": "D231220",
    "bidEhmYield": "9,18",
    "askYield": "7,65",
    "currency": "HUF",
    "maturityInDays_val": 40,
    "issueDate": "2023.09.20",
    "longName": "D231220"
}