{
    "askPrice": "98,4212",
    "green": 0,
    "coupon": 0,
    "accruedInterest": 0,
    "settleDate": "2023.10.06",
    "askEhmYield": "7,81",
    "bidYield": "9,05",
    "rawName": "D231220",
    "bidPrice": "98,1495",
    "maturityInDays": "75 nap",
    "securityType": "DKJ",
    "maturityDate": "2023.12.20",
    "name": "D231220",
    "bidEhmYield": "9,18",
    "askYield": "7,70",
    "currency": "HUF",
    "maturityInDays_val": 75,
    "issueDate": "2023.09.20",
    "longName": "D231220"
}