{
    "askPrice": "",
    "green": 0,
    "coupon": 0,
    "accruedInterest": 0,
    "settleDate": "2023.12.13",
    "askEhmYield": "",
    "bidYield": "7,69",
    "rawName": "D231220",
    "bidPrice": "99,8507",
    "maturityInDays": "7 nap",
    "securityType": "DKJ",
    "maturityDate": "2023.12.20",
    "name": "D231220",
    "bidEhmYield": "7,80",
    "askYield": "",
    "currency": "HUF",
    "maturityInDays_val": 7,
    "issueDate": "2023.09.20",
    "longName": "D231220"
}