{
    "askPrice": "100,00",
    "green": 0,
    "coupon": null,
    "accruedInterest": "4,61",
    "settleDate": "2022.08.26",
    "askEhmYield": "",
    "bidYield": "",
    "rawName": "2032/S_BABA",
    "bidPrice": "100,00",
    "maturityInDays": "3751 nap",
    "securityType": "BABA",
    "maturityDate": "2032.12.02",
    "name": "2032/S_BABA",
    "bidEhmYield": "",
    "askYield": "",
    "currency": "HUF",
    "maturityInDays_val": 3751,
    "longName": "A321202S13"
}