{
    "askPrice": "100,00",
    "green": 0,
    "coupon": null,
    "accruedInterest": "5,87",
    "settleDate": "2022.11.07",
    "askEhmYield": "",
    "bidYield": "",
    "rawName": "2032/S_BABA",
    "bidPrice": "100,00",
    "maturityInDays": "3678 nap",
    "securityType": "BABA",
    "maturityDate": "2032.12.02",
    "name": "2032/S_BABA",
    "bidEhmYield": "",
    "askYield": "",
    "currency": "HUF",
    "maturityInDays_val": 3678,
    "issueDate": "2013-12-02",
    "longName": "A321202S13"
}