{
    "askPrice": "",
    "green": 0,
    "coupon": null,
    "accruedInterest": "8,0556",
    "settleDate": "2023.11.30",
    "askEhmYield": "",
    "bidYield": "",
    "rawName": "2032/S_BABA",
    "bidPrice": "",
    "maturityInDays": "3290 nap",
    "securityType": "BABA",
    "maturityDate": "2032.12.02",
    "name": "2032/S_BABA",
    "bidEhmYield": "",
    "askYield": "",
    "currency": "HUF",
    "maturityInDays_val": 3290,
    "issueDate": "2013.12.02",
    "longName": "A321202S13"
}