{
    "askPrice": "100,0000",
    "green": 0,
    "coupon": null,
    "accruedInterest": "1,9126",
    "settleDate": "2024.01.11",
    "askEhmYield": "",
    "bidYield": "",
    "rawName": "2032/S_BABA",
    "bidPrice": "100,0000",
    "maturityInDays": "3248 nap",
    "securityType": "BABA",
    "maturityDate": "2032.12.02",
    "name": "2032/S_BABA",
    "bidEhmYield": "",
    "askYield": "",
    "currency": "HUF",
    "maturityInDays_val": 3248,
    "issueDate": "2013.12.02",
    "longName": "A321202S13"
}