{
    "askPrice": "",
    "green": 0,
    "coupon": 0,
    "accruedInterest": 0,
    "settleDate": "2023.07.31",
    "askEhmYield": "",
    "bidYield": "10,74",
    "rawName": "D230830",
    "bidPrice": "99,1129",
    "maturityInDays": "30 nap",
    "securityType": "DKJ",
    "maturityDate": "2023.08.30",
    "name": "D230830",
    "bidEhmYield": "10,89",
    "askYield": "",
    "currency": "HUF",
    "maturityInDays_val": 30,
    "issueDate": "2023.05.31",
    "longName": "D230830"
}