{
    "askPrice": "98,3048",
    "green": 0,
    "coupon": 0,
    "accruedInterest": 0,
    "settleDate": "2023.06.27",
    "askEhmYield": "9,83",
    "bidYield": "10,97",
    "rawName": "D230830",
    "bidPrice": "98,0871",
    "maturityInDays": "64 nap",
    "securityType": "DKJ",
    "maturityDate": "2023.08.30",
    "name": "D230830",
    "bidEhmYield": "11,12",
    "askYield": "9,70",
    "currency": "HUF",
    "maturityInDays_val": 64,
    "issueDate": "2023.05.31",
    "longName": "D230830"
}