{
    "askPrice": "98,8430",
    "green": 0,
    "coupon": 0,
    "accruedInterest": 0,
    "settleDate": "2023.07.18",
    "askEhmYield": "9,94",
    "bidYield": "11,09",
    "rawName": "D230830",
    "bidPrice": "98,6927",
    "maturityInDays": "43 nap",
    "securityType": "DKJ",
    "maturityDate": "2023.08.30",
    "name": "D230830",
    "bidEhmYield": "11,24",
    "askYield": "9,80",
    "currency": "HUF",
    "maturityInDays_val": 43,
    "issueDate": "2023.05.31",
    "longName": "D230830"
}