{
    "askPrice": "98,5166",
    "green": 0,
    "coupon": 0,
    "accruedInterest": 0,
    "settleDate": "2023.07.05",
    "askEhmYield": "9,81",
    "bidYield": "10,92",
    "rawName": "D230830",
    "bidPrice": "98,3297",
    "maturityInDays": "56 nap",
    "securityType": "DKJ",
    "maturityDate": "2023.08.30",
    "name": "D230830",
    "bidEhmYield": "11,07",
    "askYield": "9,68",
    "currency": "HUF",
    "maturityInDays_val": 56,
    "issueDate": "2023.05.31",
    "longName": "D230830"
}