{
    "askPrice": "98,4675",
    "green": 0,
    "coupon": 0,
    "accruedInterest": 0,
    "settleDate": "2023.07.03",
    "askEhmYield": "9,79",
    "bidYield": "10,99",
    "rawName": "D230830",
    "bidPrice": "98,2602",
    "maturityInDays": "58 nap",
    "securityType": "DKJ",
    "maturityDate": "2023.08.30",
    "name": "D230830",
    "bidEhmYield": "11,14",
    "askYield": "9,66",
    "currency": "HUF",
    "maturityInDays_val": 58,
    "issueDate": "2023.05.31",
    "longName": "D230830"
}