{
    "askPrice": "",
    "green": 0,
    "coupon": 0,
    "accruedInterest": 0,
    "settleDate": "2023.08.07",
    "askEhmYield": "",
    "bidYield": "10,75",
    "rawName": "D230830",
    "bidPrice": "99,3179",
    "maturityInDays": "23 nap",
    "securityType": "DKJ",
    "maturityDate": "2023.08.30",
    "name": "D230830",
    "bidEhmYield": "10,90",
    "askYield": "",
    "currency": "HUF",
    "maturityInDays_val": 23,
    "issueDate": "2023.05.31",
    "longName": "D230830"
}