{
    "askPrice": "",
    "green": 0,
    "coupon": "3,50 %",
    "accruedInterest": "0,6658",
    "settleDate": "2023.10.02",
    "askEhmYield": "",
    "bidYield": "5,09",
    "rawName": "N2028/30",
    "bidPrice": "99,5000",
    "coupon_val": 3.5,
    "maturityInDays": "1757 nap",
    "securityType": "MÁP Plusz",
    "maturityDate": "2028.07.24",
    "name": "N2028/30",
    "bidEhmYield": "",
    "askYield": "",
    "currency": "HUF",
    "maturityInDays_val": 1757,
    "issueDate": "2023.07.24",
    "longName": "N280724"
}