{
    "askPrice": "",
    "green": 0,
    "coupon": "3,50 %",
    "accruedInterest": "1,5978",
    "settleDate": "2024.01.08",
    "askEhmYield": "",
    "bidYield": "5,19",
    "rawName": "N2028/30",
    "bidPrice": "99,5000",
    "coupon_val": 3.5,
    "maturityInDays": "1659 nap",
    "securityType": "MÁP Plusz",
    "maturityDate": "2028.07.24",
    "name": "N2028/30",
    "bidEhmYield": "",
    "askYield": "",
    "currency": "HUF",
    "maturityInDays_val": 1659,
    "issueDate": "2023.07.24",
    "longName": "N280724"
}