{
    "askPrice": "",
    "green": 0,
    "coupon": "3,50 %",
    "accruedInterest": "0,0110",
    "settleDate": "2024.01.25",
    "askEhmYield": "",
    "bidYield": "5,08",
    "rawName": "N2028/30",
    "bidPrice": "100,0000",
    "coupon_val": 3.5,
    "maturityInDays": "1642 nap",
    "securityType": "MÁP Plusz",
    "maturityDate": "2028.07.24",
    "name": "N2028/30",
    "bidEhmYield": "",
    "askYield": "",
    "currency": "HUF",
    "maturityInDays_val": 1642,
    "issueDate": "2023.07.24",
    "longName": "N280724"
}