{
    "askPrice": "",
    "green": 0,
    "coupon": "3,50 %",
    "accruedInterest": "0,7802",
    "settleDate": "2024.04.04",
    "askEhmYield": "",
    "bidYield": "5,26",
    "rawName": "N2028/30",
    "bidPrice": "99,5000",
    "coupon_val": 3.5,
    "maturityInDays": "1572 nap",
    "securityType": "MÁP Plusz",
    "maturityDate": "2028.07.24",
    "name": "N2028/30",
    "bidEhmYield": "",
    "askYield": "",
    "currency": "HUF",
    "maturityInDays_val": 1572,
    "issueDate": "2023.07.24",
    "longName": "N280724"
}