{
    "askPrice": "",
    "green": 0,
    "coupon": "3,50 %",
    "accruedInterest": "4,0822",
    "settleDate": "2022.12.12",
    "askEhmYield": "",
    "bidYield": "5,92",
    "rawName": "N2025/07",
    "bidPrice": "99,5000",
    "coupon_val": 3.5,
    "maturityInDays": "798 nap",
    "securityType": "MÁP Plusz",
    "maturityDate": "2025.02.17",
    "name": "N2025/07",
    "bidEhmYield": "",
    "askYield": "",
    "currency": "HUF",
    "maturityInDays_val": 798,
    "issueDate": "2020.02.17",
    "longName": "N250217"
}