{
    "askPrice": "",
    "green": 0,
    "coupon": "3,50 %",
    "accruedInterest": "3,08",
    "settleDate": "2022.09.30",
    "askEhmYield": "",
    "bidYield": "",
    "rawName": "N2025/07",
    "bidPrice": "99,50",
    "coupon_val": 3.5,
    "maturityInDays": "871 nap",
    "securityType": "MÁP Plusz",
    "maturityDate": "2025.02.17",
    "name": "N2025/07",
    "bidEhmYield": "",
    "askYield": "",
    "currency": "HUF",
    "maturityInDays_val": 871,
    "longName": "N250217"
}