{
    "askPrice": "",
    "green": 0,
    "coupon": "3,50 %",
    "accruedInterest": "3,62",
    "settleDate": "2022.11.08",
    "askEhmYield": "",
    "bidYield": "5,88",
    "rawName": "N2025/07",
    "bidPrice": "99,50",
    "coupon_val": 3.5,
    "maturityInDays": "832 nap",
    "securityType": "MÁP Plusz",
    "maturityDate": "2025.02.17",
    "name": "N2025/07",
    "bidEhmYield": "",
    "askYield": "",
    "currency": "HUF",
    "maturityInDays_val": 832,
    "issueDate": "2020-02-17",
    "longName": "N250217"
}