{
    "askPrice": "",
    "green": 0,
    "coupon": "3,50 %",
    "accruedInterest": "4,5616",
    "settleDate": "2023.01.16",
    "askEhmYield": "",
    "bidYield": "5,97",
    "rawName": "N2025/07",
    "bidPrice": "99,5000",
    "coupon_val": 3.5,
    "maturityInDays": "763 nap",
    "securityType": "MÁP Plusz",
    "maturityDate": "2025.02.17",
    "name": "N2025/07",
    "bidEhmYield": "",
    "askYield": "",
    "currency": "HUF",
    "maturityInDays_val": 763,
    "issueDate": "2020.02.17",
    "longName": "N250217"
}