{
    "askPrice": "",
    "green": 0,
    "coupon": "3,50 %",
    "accruedInterest": "4,7164",
    "settleDate": "2023.12.27",
    "askEhmYield": "",
    "bidYield": "6,38",
    "rawName": "N2025/07",
    "bidPrice": "99,5000",
    "coupon_val": 3.5,
    "maturityInDays": "418 nap",
    "securityType": "MÁP Plusz",
    "maturityDate": "2025.02.17",
    "name": "N2025/07",
    "bidEhmYield": "",
    "askYield": "",
    "currency": "HUF",
    "maturityInDays_val": 418,
    "issueDate": "2020.02.17",
    "longName": "N250217"
}