{
    "askPrice": "",
    "green": 0,
    "coupon": "3,50 %",
    "accruedInterest": "0,0328",
    "settleDate": "2024.02.19",
    "askEhmYield": "",
    "bidYield": "6,53",
    "rawName": "N2025/07",
    "bidPrice": "99,5000",
    "coupon_val": 3.5,
    "maturityInDays": "364 nap",
    "securityType": "MÁP Plusz",
    "maturityDate": "2025.02.17",
    "name": "N2025/07",
    "bidEhmYield": "",
    "askYield": "",
    "currency": "HUF",
    "maturityInDays_val": 364,
    "issueDate": "2020.02.17",
    "longName": "N250217"
}