{
    "askPrice": "90,9794",
    "green": 0,
    "coupon": "5,50 %",
    "accruedInterest": "2,4110",
    "settleDate": "2022.12.01",
    "askEhmYield": "9,60",
    "bidYield": "10,44",
    "rawName": "2025/B",
    "bidPrice": "89,3053",
    "coupon_val": 5.5,
    "maturityInDays": "936 nap",
    "securityType": "KTV",
    "maturityDate": "2025.06.24",
    "name": "2025/B",
    "bidEhmYield": "10,43",
    "askYield": "9,61",
    "currency": "HUF",
    "maturityInDays_val": 936,
    "issueDate": "2014.01.15",
    "longName": "A250624B14"
}