{
    "askPrice": "86,72",
    "green": 0,
    "coupon": "5,50 %",
    "accruedInterest": "1,10",
    "settleDate": "2022.09.05",
    "askEhmYield": "11,27",
    "bidYield": "11,87",
    "rawName": "2025/B",
    "bidPrice": "85,49",
    "coupon_val": 5.5,
    "maturityInDays": "1023 nap",
    "securityType": "KTV",
    "maturityDate": "2025.06.24",
    "name": "2025/B",
    "bidEhmYield": "11,87",
    "askYield": "11,27",
    "currency": "HUF",
    "maturityInDays_val": 1023,
    "longName": "A250624B14"
}