{
    "askPrice": "85,75",
    "green": 0,
    "coupon": "5,50 %",
    "accruedInterest": "2,09",
    "settleDate": "2022.11.10",
    "askEhmYield": "12,13",
    "bidYield": "12,91",
    "rawName": "2025/B",
    "bidPrice": "84,29",
    "coupon_val": 5.5,
    "maturityInDays": "957 nap",
    "securityType": "KTV",
    "maturityDate": "2025.06.24",
    "name": "2025/B",
    "bidEhmYield": "12,90",
    "askYield": "12,14",
    "currency": "HUF",
    "maturityInDays_val": 957,
    "issueDate": "2014-01-15",
    "longName": "A250624B14"
}