{
    "askPrice": "89,44",
    "green": 0,
    "coupon": "5,50 %",
    "accruedInterest": "0,83",
    "settleDate": "2022.08.18",
    "askEhmYield": "9,92",
    "bidYield": "10,52",
    "rawName": "2025/B",
    "bidPrice": "88,13",
    "coupon_val": 5.5,
    "maturityInDays": "1041 nap",
    "securityType": "KTV",
    "maturityDate": "2025.06.24",
    "name": "2025/B",
    "bidEhmYield": "10,52",
    "askYield": "9,92",
    "currency": "HUF",
    "maturityInDays_val": 1041,
    "longName": "A250624B14"
}