{
    "askPrice": "93,18",
    "green": 0,
    "coupon": "5,50 %",
    "accruedInterest": "0,11",
    "settleDate": "2022.07.01",
    "askEhmYield": "8,17",
    "bidYield": "8,77",
    "rawName": "2025/B",
    "bidPrice": "91,73",
    "coupon_val": 5.5,
    "maturityInDays": "1089 nap",
    "securityType": "KTV",
    "maturityDate": "2025.06.24",
    "name": "2025/B",
    "bidEhmYield": "8,77",
    "askYield": "8,17",
    "currency": "HUF",
    "maturityInDays_val": 1089,
    "longName": "A250624B14"
}