{
    "askPrice": "93,10",
    "green": 0,
    "coupon": "5,50 %",
    "accruedInterest": "0,18",
    "settleDate": "2022.07.06",
    "askEhmYield": "8,21",
    "bidYield": "8,81",
    "rawName": "2025/B",
    "bidPrice": "91,67",
    "coupon_val": 5.5,
    "maturityInDays": "1084 nap",
    "securityType": "KTV",
    "maturityDate": "2025.06.24",
    "name": "2025/B",
    "bidEhmYield": "8,81",
    "askYield": "8,21",
    "currency": "HUF",
    "maturityInDays_val": 1084,
    "longName": "A250624B14"
}