{
    "askPrice": "89,0353",
    "green": 0,
    "coupon": "5,50 %",
    "accruedInterest": "2,6822",
    "settleDate": "2022.12.19",
    "askEhmYield": "10,66",
    "bidYield": "11,50",
    "rawName": "2025/B",
    "bidPrice": "87,4416",
    "coupon_val": 5.5,
    "maturityInDays": "918 nap",
    "securityType": "KTV",
    "maturityDate": "2025.06.24",
    "name": "2025/B",
    "bidEhmYield": "11,49",
    "askYield": "10,67",
    "currency": "HUF",
    "maturityInDays_val": 918,
    "issueDate": "2014.01.15",
    "longName": "A250624B14"
}