{
    "askPrice": "",
    "green": 0,
    "coupon": "5,50 %",
    "accruedInterest": 0,
    "settleDate": "2022.06.22",
    "askEhmYield": "",
    "bidYield": "",
    "rawName": "2025/B",
    "bidPrice": "",
    "coupon_val": 5.5,
    "maturityInDays": "1098 nap",
    "securityType": "KTV",
    "maturityDate": "2025.06.24",
    "name": "2025/B",
    "bidEhmYield": "",
    "askYield": "",
    "currency": "HUF",
    "maturityInDays_val": 1098,
    "longName": "A250624B14"
}