{
    "askPrice": "81,99",
    "green": 0,
    "coupon": "5,50 %",
    "accruedInterest": "1,75",
    "settleDate": "2022.10.18",
    "askEhmYield": "13,95",
    "bidYield": "15,24",
    "rawName": "2025/B",
    "bidPrice": "79,69",
    "coupon_val": 5.5,
    "maturityInDays": "980 nap",
    "securityType": "KTV",
    "maturityDate": "2025.06.24",
    "name": "2025/B",
    "bidEhmYield": "15,22",
    "askYield": "13,97",
    "currency": "HUF",
    "maturityInDays_val": 980,
    "longName": "A250624B14"
}