{
    "askPrice": "92,03",
    "green": 0,
    "coupon": "5,50 %",
    "accruedInterest": "0,20",
    "settleDate": "2022.07.07",
    "askEhmYield": "8,66",
    "bidYield": "9,26",
    "rawName": "2025/B",
    "bidPrice": "90,62",
    "coupon_val": 5.5,
    "maturityInDays": "1083 nap",
    "securityType": "KTV",
    "maturityDate": "2025.06.24",
    "name": "2025/B",
    "bidEhmYield": "9,26",
    "askYield": "8,66",
    "currency": "HUF",
    "maturityInDays_val": 1083,
    "longName": "A250624B14"
}