{
    "askPrice": "88,57",
    "green": 0,
    "coupon": "5,50 %",
    "accruedInterest": "0,57",
    "settleDate": "2022.08.01",
    "askEhmYield": "10,25",
    "bidYield": "10,85",
    "rawName": "2025/B",
    "bidPrice": "87,26",
    "coupon_val": 5.5,
    "maturityInDays": "1058 nap",
    "securityType": "KTV",
    "maturityDate": "2025.06.24",
    "name": "2025/B",
    "bidEhmYield": "10,85",
    "askYield": "10,25",
    "currency": "HUF",
    "maturityInDays_val": 1058,
    "longName": "A250624B14"
}