{
    "askPrice": "88,04",
    "green": 0,
    "coupon": "5,50 %",
    "accruedInterest": "2,15",
    "settleDate": "2022.11.14",
    "askEhmYield": "10,98",
    "bidYield": "11,79",
    "rawName": "2025/B",
    "bidPrice": "86,47",
    "coupon_val": 5.5,
    "maturityInDays": "953 nap",
    "securityType": "KTV",
    "maturityDate": "2025.06.24",
    "name": "2025/B",
    "bidEhmYield": "11,78",
    "askYield": "10,99",
    "currency": "HUF",
    "maturityInDays_val": 953,
    "issueDate": "2014-01-15",
    "longName": "A250624B14"
}