{
    "askPrice": "85,06",
    "green": 0,
    "coupon": "5,50 %",
    "accruedInterest": "1,21",
    "settleDate": "2022.09.12",
    "askEhmYield": "12,12",
    "bidYield": "12,72",
    "rawName": "2025/B",
    "bidPrice": "83,87",
    "coupon_val": 5.5,
    "maturityInDays": "1016 nap",
    "securityType": "KTV",
    "maturityDate": "2025.06.24",
    "name": "2025/B",
    "bidEhmYield": "12,72",
    "askYield": "12,12",
    "currency": "HUF",
    "maturityInDays_val": 1016,
    "longName": "A250624B14"
}