{
    "askPrice": "88,19",
    "green": 0,
    "coupon": "5,50 %",
    "accruedInterest": "0,89",
    "settleDate": "2022.08.22",
    "askEhmYield": "10,51",
    "bidYield": "11,11",
    "rawName": "2025/B",
    "bidPrice": "86,91",
    "coupon_val": 5.5,
    "maturityInDays": "1037 nap",
    "securityType": "KTV",
    "maturityDate": "2025.06.24",
    "name": "2025/B",
    "bidEhmYield": "11,11",
    "askYield": "10,51",
    "currency": "HUF",
    "maturityInDays_val": 1037,
    "longName": "A250624B14"
}