{
    "askPrice": "84,73",
    "green": 0,
    "coupon": "5,50 %",
    "accruedInterest": "2,06",
    "settleDate": "2022.11.08",
    "askEhmYield": "12,65",
    "bidYield": "13,44",
    "rawName": "2025/B",
    "bidPrice": "83,27",
    "coupon_val": 5.5,
    "maturityInDays": "959 nap",
    "securityType": "KTV",
    "maturityDate": "2025.06.24",
    "name": "2025/B",
    "bidEhmYield": "13,42",
    "askYield": "12,66",
    "currency": "HUF",
    "maturityInDays_val": 959,
    "issueDate": "2014-01-15",
    "longName": "A250624B14"
}