{
    "askPrice": "88,45",
    "green": 0,
    "coupon": "5,50 %",
    "accruedInterest": "0,36",
    "settleDate": "2022.07.18",
    "askEhmYield": "10,25",
    "bidYield": "10,85",
    "rawName": "2025/B",
    "bidPrice": "87,12",
    "coupon_val": 5.5,
    "maturityInDays": "1072 nap",
    "securityType": "KTV",
    "maturityDate": "2025.06.24",
    "name": "2025/B",
    "bidEhmYield": "10,85",
    "askYield": "10,25",
    "currency": "HUF",
    "maturityInDays_val": 1072,
    "longName": "A250624B14"
}