{
    "askPrice": "91,2301",
    "green": 0,
    "coupon": "5,50 %",
    "accruedInterest": "5,2137",
    "settleDate": "2023.06.05",
    "askEhmYield": "10,45",
    "bidYield": "11,21",
    "rawName": "2025/B",
    "bidPrice": "90,0069",
    "coupon_val": 5.5,
    "maturityInDays": "750 nap",
    "securityType": "KTV",
    "maturityDate": "2025.06.24",
    "name": "2025/B",
    "bidEhmYield": "11,19",
    "askYield": "10,46",
    "currency": "HUF",
    "maturityInDays_val": 750,
    "issueDate": "2014.01.15",
    "longName": "A250624B14"
}