{
    "askPrice": "99,2187",
    "green": 0,
    "coupon": "5,50 %",
    "accruedInterest": "2,8852",
    "settleDate": "2024.01.02",
    "askEhmYield": "6,03",
    "bidYield": "6,71",
    "rawName": "2025/B",
    "bidPrice": "98,3077",
    "coupon_val": 5.5,
    "maturityInDays": "539 nap",
    "securityType": "KTV",
    "maturityDate": "2025.06.24",
    "name": "2025/B",
    "bidEhmYield": "6,70",
    "askYield": "6,04",
    "currency": "HUF",
    "maturityInDays_val": 539,
    "issueDate": "2014.01.15",
    "longName": "A250624B14"
}