{
    "askPrice": "90,4433",
    "green": 0,
    "coupon": "5,50 %",
    "accruedInterest": "4,9425",
    "settleDate": "2023.05.18",
    "askEhmYield": "10,79",
    "bidYield": "11,63",
    "rawName": "2025/B",
    "bidPrice": "89,0923",
    "coupon_val": 5.5,
    "maturityInDays": "768 nap",
    "securityType": "KTV",
    "maturityDate": "2025.06.24",
    "name": "2025/B",
    "bidEhmYield": "11,61",
    "askYield": "10,81",
    "currency": "HUF",
    "maturityInDays_val": 768,
    "issueDate": "2014.01.15",
    "longName": "A250624B14"
}