{
    "askPrice": "91,9483",
    "green": 0,
    "coupon": "5,50 %",
    "accruedInterest": "0,0301",
    "settleDate": "2023.06.26",
    "askEhmYield": "10,14",
    "bidYield": "10,99",
    "rawName": "2025/B",
    "bidPrice": "90,6186",
    "coupon_val": 5.5,
    "maturityInDays": "729 nap",
    "securityType": "KTV",
    "maturityDate": "2025.06.24",
    "name": "2025/B",
    "bidEhmYield": "10,97",
    "askYield": "10,16",
    "currency": "HUF",
    "maturityInDays_val": 729,
    "issueDate": "2014.01.15",
    "longName": "A250624B14"
}