{
    "askPrice": "88,4801",
    "green": 0,
    "coupon": "5,50 %",
    "accruedInterest": "4,0534",
    "settleDate": "2023.03.20",
    "askEhmYield": "11,53",
    "bidYield": "12,37",
    "rawName": "2025/B",
    "bidPrice": "87,0542",
    "coupon_val": 5.5,
    "maturityInDays": "827 nap",
    "securityType": "KTV",
    "maturityDate": "2025.06.24",
    "name": "2025/B",
    "bidEhmYield": "12,35",
    "askYield": "11,54",
    "currency": "HUF",
    "maturityInDays_val": 827,
    "issueDate": "2014.01.15",
    "longName": "A250624B14"
}