{
    "askPrice": "96,5894",
    "green": 0,
    "coupon": "5,50 %",
    "accruedInterest": "1,9686",
    "settleDate": "2023.11.02",
    "askEhmYield": "7,75",
    "bidYield": "8,42",
    "rawName": "2025/B",
    "bidPrice": "95,6379",
    "coupon_val": 5.5,
    "maturityInDays": "600 nap",
    "securityType": "KTV",
    "maturityDate": "2025.06.24",
    "name": "2025/B",
    "bidEhmYield": "8,41",
    "askYield": "7,76",
    "currency": "HUF",
    "maturityInDays_val": 600,
    "issueDate": "2014.01.15",
    "longName": "A250624B14"
}