{
    "askPrice": "94,8888",
    "green": 0,
    "coupon": "5,50 %",
    "accruedInterest": "1,0820",
    "settleDate": "2023.09.04",
    "askEhmYield": "8,65",
    "bidYield": "9,34",
    "rawName": "2025/B",
    "bidPrice": "93,8470",
    "coupon_val": 5.5,
    "maturityInDays": "659 nap",
    "securityType": "KTV",
    "maturityDate": "2025.06.24",
    "name": "2025/B",
    "bidEhmYield": "9,33",
    "askYield": "8,66",
    "currency": "HUF",
    "maturityInDays_val": 659,
    "issueDate": "2014.01.15",
    "longName": "A250624B14"
}