{
    "askPrice": "98,4686",
    "green": 0,
    "coupon": "5,50 %",
    "accruedInterest": "2,5546",
    "settleDate": "2023.12.11",
    "askEhmYield": "6,54",
    "bidYield": "7,22",
    "rawName": "2025/B",
    "bidPrice": "97,5340",
    "coupon_val": 5.5,
    "maturityInDays": "561 nap",
    "securityType": "KTV",
    "maturityDate": "2025.06.24",
    "name": "2025/B",
    "bidEhmYield": "7,21",
    "askYield": "6,55",
    "currency": "HUF",
    "maturityInDays_val": 561,
    "issueDate": "2014.01.15",
    "longName": "A250624B14"
}