{
    "askPrice": "91,6913",
    "green": 0,
    "coupon": "5,50 %",
    "accruedInterest": "5,4397",
    "settleDate": "2023.06.20",
    "askEhmYield": "10,26",
    "bidYield": "11,08",
    "rawName": "2025/B",
    "bidPrice": "90,4041",
    "coupon_val": 5.5,
    "maturityInDays": "735 nap",
    "securityType": "KTV",
    "maturityDate": "2025.06.24",
    "name": "2025/B",
    "bidEhmYield": "11,06",
    "askYield": "10,28",
    "currency": "HUF",
    "maturityInDays_val": 735,
    "issueDate": "2014.01.15",
    "longName": "A250624B14"
}