{
    "askPrice": "87,9702",
    "green": 0,
    "coupon": "5,50 %",
    "accruedInterest": "3,8425",
    "settleDate": "2023.03.06",
    "askEhmYield": "11,72",
    "bidYield": "12,52",
    "rawName": "2025/B",
    "bidPrice": "86,6009",
    "coupon_val": 5.5,
    "maturityInDays": "841 nap",
    "securityType": "KTV",
    "maturityDate": "2025.06.24",
    "name": "2025/B",
    "bidEhmYield": "12,50",
    "askYield": "11,73",
    "currency": "HUF",
    "maturityInDays_val": 841,
    "issueDate": "2014.01.15",
    "longName": "A250624B14"
}