{
    "askPrice": "93,3995",
    "green": 0,
    "coupon": "5,50 %",
    "accruedInterest": "0,5710",
    "settleDate": "2023.08.01",
    "askEhmYield": "9,44",
    "bidYield": "10,16",
    "rawName": "2025/B",
    "bidPrice": "92,2869",
    "coupon_val": 5.5,
    "maturityInDays": "693 nap",
    "securityType": "KTV",
    "maturityDate": "2025.06.24",
    "name": "2025/B",
    "bidEhmYield": "10,14",
    "askYield": "9,45",
    "currency": "HUF",
    "maturityInDays_val": 693,
    "issueDate": "2014.01.15",
    "longName": "A250624B14"
}