{
    "askPrice": "90,1245",
    "green": 0,
    "coupon": "5,50 %",
    "accruedInterest": "4,8973",
    "settleDate": "2023.05.15",
    "askEhmYield": "10,96",
    "bidYield": "11,81",
    "rawName": "2025/B",
    "bidPrice": "88,7591",
    "coupon_val": 5.5,
    "maturityInDays": "771 nap",
    "securityType": "KTV",
    "maturityDate": "2025.06.24",
    "name": "2025/B",
    "bidEhmYield": "11,79",
    "askYield": "10,98",
    "currency": "HUF",
    "maturityInDays_val": 771,
    "issueDate": "2014.01.15",
    "longName": "A250624B14"
}