{
    "askPrice": "89,9383",
    "green": 0,
    "coupon": "5,50 %",
    "accruedInterest": "4,8521",
    "settleDate": "2023.05.12",
    "askEhmYield": "11,05",
    "bidYield": "11,88",
    "rawName": "2025/B",
    "bidPrice": "88,6042",
    "coupon_val": 5.5,
    "maturityInDays": "774 nap",
    "securityType": "KTV",
    "maturityDate": "2025.06.24",
    "name": "2025/B",
    "bidEhmYield": "11,86",
    "askYield": "11,07",
    "currency": "HUF",
    "maturityInDays_val": 774,
    "issueDate": "2014.01.15",
    "longName": "A250624B14"
}