{
    "askPrice": "89,9160",
    "green": 0,
    "coupon": "5,50 %",
    "accruedInterest": "3,2397",
    "settleDate": "2023.01.25",
    "askEhmYield": "10,40",
    "bidYield": "11,25",
    "rawName": "2025/B",
    "bidPrice": "88,3442",
    "coupon_val": 5.5,
    "maturityInDays": "881 nap",
    "securityType": "KTV",
    "maturityDate": "2025.06.24",
    "name": "2025/B",
    "bidEhmYield": "11,24",
    "askYield": "10,41",
    "currency": "HUF",
    "maturityInDays_val": 881,
    "issueDate": "2014.01.15",
    "longName": "A250624B14"
}