{
    "askPrice": "94,6375",
    "green": 0,
    "coupon": "5,50 %",
    "accruedInterest": "0,8716",
    "settleDate": "2023.08.21",
    "askEhmYield": "8,75",
    "bidYield": "9,45",
    "rawName": "2025/B",
    "bidPrice": "93,5638",
    "coupon_val": 5.5,
    "maturityInDays": "673 nap",
    "securityType": "KTV",
    "maturityDate": "2025.06.24",
    "name": "2025/B",
    "bidEhmYield": "9,44",
    "askYield": "8,76",
    "currency": "HUF",
    "maturityInDays_val": 673,
    "issueDate": "2014.01.15",
    "longName": "A250624B14"
}