{
    "askPrice": "97,8539",
    "green": 0,
    "coupon": "5,50 %",
    "accruedInterest": "2,3743",
    "settleDate": "2023.11.29",
    "askEhmYield": "6,95",
    "bidYield": "7,64",
    "rawName": "2025/B",
    "bidPrice": "96,8960",
    "coupon_val": 5.5,
    "maturityInDays": "573 nap",
    "securityType": "KTV",
    "maturityDate": "2025.06.24",
    "name": "2025/B",
    "bidEhmYield": "7,63",
    "askYield": "6,96",
    "currency": "HUF",
    "maturityInDays_val": 573,
    "issueDate": "2014.01.15",
    "longName": "A250624B14"
}