{
    "askPrice": "89,8122",
    "green": 0,
    "coupon": "5,50 %",
    "accruedInterest": "3,0288",
    "settleDate": "2023.01.11",
    "askEhmYield": "10,38",
    "bidYield": "11,23",
    "rawName": "2025/B",
    "bidPrice": "88,2188",
    "coupon_val": 5.5,
    "maturityInDays": "895 nap",
    "securityType": "KTV",
    "maturityDate": "2025.06.24",
    "name": "2025/B",
    "bidEhmYield": "11,22",
    "askYield": "10,39",
    "currency": "HUF",
    "maturityInDays_val": 895,
    "issueDate": "2014.01.15",
    "longName": "A250624B14"
}