{
    "askPrice": "93,0430",
    "green": 0,
    "coupon": "5,50 %",
    "accruedInterest": "0,2404",
    "settleDate": "2023.07.10",
    "askEhmYield": "9,55",
    "bidYield": "10,34",
    "rawName": "2025/B",
    "bidPrice": "91,7928",
    "coupon_val": 5.5,
    "maturityInDays": "715 nap",
    "securityType": "KTV",
    "maturityDate": "2025.06.24",
    "name": "2025/B",
    "bidEhmYield": "10,32",
    "askYield": "9,56",
    "currency": "HUF",
    "maturityInDays_val": 715,
    "issueDate": "2014.01.15",
    "longName": "A250624B14"
}