{
    "askPrice": "89,3920",
    "green": 0,
    "coupon": "5,50 %",
    "accruedInterest": "4,3849",
    "settleDate": "2023.04.11",
    "askEhmYield": "11,16",
    "bidYield": "12,00",
    "rawName": "2025/B",
    "bidPrice": "87,9829",
    "coupon_val": 5.5,
    "maturityInDays": "805 nap",
    "securityType": "KTV",
    "maturityDate": "2025.06.24",
    "name": "2025/B",
    "bidEhmYield": "11,98",
    "askYield": "11,17",
    "currency": "HUF",
    "maturityInDays_val": 805,
    "issueDate": "2014.01.15",
    "longName": "A250624B14"
}