{
    "askPrice": "89,2778",
    "green": 0,
    "coupon": "5,50 %",
    "accruedInterest": "4,2644",
    "settleDate": "2023.04.03",
    "askEhmYield": "11,17",
    "bidYield": "12,02",
    "rawName": "2025/B",
    "bidPrice": "87,8405",
    "coupon_val": 5.5,
    "maturityInDays": "813 nap",
    "securityType": "KTV",
    "maturityDate": "2025.06.24",
    "name": "2025/B",
    "bidEhmYield": "12,00",
    "askYield": "11,18",
    "currency": "HUF",
    "maturityInDays_val": 813,
    "issueDate": "2014.01.15",
    "longName": "A250624B14"
}