{
    "askPrice": "95,9203",
    "green": 0,
    "coupon": "5,50 %",
    "accruedInterest": "1,4276",
    "settleDate": "2023.09.27",
    "askEhmYield": "8,07",
    "bidYield": "8,76",
    "rawName": "2025/B",
    "bidPrice": "94,8958",
    "coupon_val": 5.5,
    "maturityInDays": "636 nap",
    "securityType": "KTV",
    "maturityDate": "2025.06.24",
    "name": "2025/B",
    "bidEhmYield": "8,75",
    "askYield": "8,08",
    "currency": "HUF",
    "maturityInDays_val": 636,
    "issueDate": "2014.01.15",
    "longName": "A250624B14"
}