{
    "askPrice": "97,6077",
    "green": 0,
    "coupon": "5,50 %",
    "accruedInterest": "2,2391",
    "settleDate": "2023.11.20",
    "askEhmYield": "7,10",
    "bidYield": "7,77",
    "rawName": "2025/B",
    "bidPrice": "96,6677",
    "coupon_val": 5.5,
    "maturityInDays": "582 nap",
    "securityType": "KTV",
    "maturityDate": "2025.06.24",
    "name": "2025/B",
    "bidEhmYield": "7,76",
    "askYield": "7,11",
    "currency": "HUF",
    "maturityInDays_val": 582,
    "issueDate": "2014.01.15",
    "longName": "A250624B14"
}