{
    "askPrice": "89,1620",
    "green": 0,
    "coupon": "5,50 %",
    "accruedInterest": "4,5808",
    "settleDate": "2023.04.24",
    "askEhmYield": "11,38",
    "bidYield": "12,18",
    "rawName": "2025/B",
    "bidPrice": "87,8634",
    "coupon_val": 5.5,
    "maturityInDays": "792 nap",
    "securityType": "KTV",
    "maturityDate": "2025.06.24",
    "name": "2025/B",
    "bidEhmYield": "12,16",
    "askYield": "11,40",
    "currency": "HUF",
    "maturityInDays_val": 792,
    "issueDate": "2014.01.15",
    "longName": "A250624B14"
}