{
    "askPrice": "91,1621",
    "green": 0,
    "coupon": "5,50 %",
    "accruedInterest": "3,5260",
    "settleDate": "2023.02.13",
    "askEhmYield": "9,84",
    "bidYield": "10,70",
    "rawName": "2025/B",
    "bidPrice": "89,5739",
    "coupon_val": 5.5,
    "maturityInDays": "862 nap",
    "securityType": "KTV",
    "maturityDate": "2025.06.24",
    "name": "2025/B",
    "bidEhmYield": "10,69",
    "askYield": "9,85",
    "currency": "HUF",
    "maturityInDays_val": 862,
    "issueDate": "2014.01.15",
    "longName": "A250624B14"
}