{
    "askPrice": "93,2947",
    "green": 0,
    "coupon": "5,50 %",
    "accruedInterest": "0,4658",
    "settleDate": "2023.07.25",
    "askEhmYield": "9,47",
    "bidYield": "10,26",
    "rawName": "2025/B",
    "bidPrice": "92,0640",
    "coupon_val": 5.5,
    "maturityInDays": "700 nap",
    "securityType": "KTV",
    "maturityDate": "2025.06.24",
    "name": "2025/B",
    "bidEhmYield": "10,24",
    "askYield": "9,48",
    "currency": "HUF",
    "maturityInDays_val": 700,
    "issueDate": "2014.01.15",
    "longName": "A250624B14"
}