{
    "askPrice": "88,7853",
    "green": 0,
    "coupon": "5,50 %",
    "accruedInterest": "4,4151",
    "settleDate": "2023.04.13",
    "askEhmYield": "11,52",
    "bidYield": "12,36",
    "rawName": "2025/B",
    "bidPrice": "87,4104",
    "coupon_val": 5.5,
    "maturityInDays": "803 nap",
    "securityType": "KTV",
    "maturityDate": "2025.06.24",
    "name": "2025/B",
    "bidEhmYield": "12,34",
    "askYield": "11,54",
    "currency": "HUF",
    "maturityInDays_val": 803,
    "issueDate": "2014.01.15",
    "longName": "A250624B14"
}