{
    "askPrice": "97,3950",
    "green": 0,
    "coupon": "5,50 %",
    "accruedInterest": "2,1940",
    "settleDate": "2023.11.17",
    "askEhmYield": "7,24",
    "bidYield": "7,93",
    "rawName": "2025/B",
    "bidPrice": "96,4254",
    "coupon_val": 5.5,
    "maturityInDays": "585 nap",
    "securityType": "KTV",
    "maturityDate": "2025.06.24",
    "name": "2025/B",
    "bidEhmYield": "7,92",
    "askYield": "7,25",
    "currency": "HUF",
    "maturityInDays_val": 585,
    "issueDate": "2014.01.15",
    "longName": "A250624B14"
}