{
    "askPrice": "91,6535",
    "green": 0,
    "coupon": "5,50 %",
    "accruedInterest": "5,4548",
    "settleDate": "2023.06.21",
    "askEhmYield": "10,29",
    "bidYield": "11,07",
    "rawName": "2025/B",
    "bidPrice": "90,4325",
    "coupon_val": 5.5,
    "maturityInDays": "734 nap",
    "securityType": "KTV",
    "maturityDate": "2025.06.24",
    "name": "2025/B",
    "bidEhmYield": "11,05",
    "askYield": "10,31",
    "currency": "HUF",
    "maturityInDays_val": 734,
    "issueDate": "2014.01.15",
    "longName": "A250624B14"
}