{
    "askPrice": "88,7299",
    "green": 0,
    "coupon": "5,50 %",
    "accruedInterest": "3,5712",
    "settleDate": "2023.02.16",
    "askEhmYield": "11,17",
    "bidYield": "11,99",
    "rawName": "2025/B",
    "bidPrice": "87,2785",
    "coupon_val": 5.5,
    "maturityInDays": "859 nap",
    "securityType": "KTV",
    "maturityDate": "2025.06.24",
    "name": "2025/B",
    "bidEhmYield": "11,98",
    "askYield": "11,18",
    "currency": "HUF",
    "maturityInDays_val": 859,
    "issueDate": "2014.01.15",
    "longName": "A250624B14"
}