{
    "askPrice": "",
    "green": 0,
    "coupon": "5,50 %",
    "accruedInterest": "5,4699",
    "settleDate": "2023.06.22",
    "askEhmYield": "",
    "bidYield": "",
    "rawName": "2025/B",
    "bidPrice": "",
    "coupon_val": 5.5,
    "maturityInDays": "733 nap",
    "securityType": "KTV",
    "maturityDate": "2025.06.24",
    "name": "2025/B",
    "bidEhmYield": "",
    "askYield": "",
    "currency": "HUF",
    "maturityInDays_val": 733,
    "issueDate": "2014.01.15",
    "longName": "A250624B14"
}