{
    "askPrice": "93,1652",
    "green": 0,
    "coupon": "5,50 %",
    "accruedInterest": "0,3456",
    "settleDate": "2023.07.17",
    "askEhmYield": "9,51",
    "bidYield": "10,26",
    "rawName": "2025/B",
    "bidPrice": "91,9869",
    "coupon_val": 5.5,
    "maturityInDays": "708 nap",
    "securityType": "KTV",
    "maturityDate": "2025.06.24",
    "name": "2025/B",
    "bidEhmYield": "10,24",
    "askYield": "9,52",
    "currency": "HUF",
    "maturityInDays_val": 708,
    "issueDate": "2014.01.15",
    "longName": "A250624B14"
}