{
    "askPrice": "95,1508",
    "green": 0,
    "coupon": "5,50 %",
    "accruedInterest": "1,1872",
    "settleDate": "2023.09.11",
    "askEhmYield": "8,51",
    "bidYield": "9,20",
    "rawName": "2025/B",
    "bidPrice": "94,1151",
    "coupon_val": 5.5,
    "maturityInDays": "652 nap",
    "securityType": "KTV",
    "maturityDate": "2025.06.24",
    "name": "2025/B",
    "bidEhmYield": "9,19",
    "askYield": "8,52",
    "currency": "HUF",
    "maturityInDays_val": 652,
    "issueDate": "2014.01.15",
    "longName": "A250624B14"
}