{
    "askPrice": "92,8052",
    "green": 0,
    "coupon": "5,50 %",
    "accruedInterest": "0,0751",
    "settleDate": "2023.06.29",
    "askEhmYield": "9,64",
    "bidYield": "10,46",
    "rawName": "2025/B",
    "bidPrice": "91,4938",
    "coupon_val": 5.5,
    "maturityInDays": "726 nap",
    "securityType": "KTV",
    "maturityDate": "2025.06.24",
    "name": "2025/B",
    "bidEhmYield": "10,44",
    "askYield": "9,65",
    "currency": "HUF",
    "maturityInDays_val": 726,
    "issueDate": "2014.01.15",
    "longName": "A250624B14"
}