{
    "askPrice": "99,4883",
    "green": 0,
    "coupon": "5,50 %",
    "accruedInterest": "2,7951",
    "settleDate": "2023.12.27",
    "askEhmYield": "5,83",
    "bidYield": "6,51",
    "rawName": "2025/B",
    "bidPrice": "98,5635",
    "coupon_val": 5.5,
    "maturityInDays": "545 nap",
    "securityType": "KTV",
    "maturityDate": "2025.06.24",
    "name": "2025/B",
    "bidEhmYield": "6,50",
    "askYield": "5,84",
    "currency": "HUF",
    "maturityInDays_val": 545,
    "issueDate": "2014.01.15",
    "longName": "A250624B14"
}