{
    "askPrice": "89,0089",
    "green": 0,
    "coupon": "5,50 %",
    "accruedInterest": "4,2945",
    "settleDate": "2023.04.05",
    "askEhmYield": "11,33",
    "bidYield": "12,19",
    "rawName": "2025/B",
    "bidPrice": "87,5815",
    "coupon_val": 5.5,
    "maturityInDays": "811 nap",
    "securityType": "KTV",
    "maturityDate": "2025.06.24",
    "name": "2025/B",
    "bidEhmYield": "12,17",
    "askYield": "11,35",
    "currency": "HUF",
    "maturityInDays_val": 811,
    "issueDate": "2014.01.15",
    "longName": "A250624B14"
}