{
    "askPrice": "93,2706",
    "green": 0,
    "coupon": "5,50 %",
    "accruedInterest": "0,4508",
    "settleDate": "2023.07.24",
    "askEhmYield": "9,48",
    "bidYield": "10,27",
    "rawName": "2025/B",
    "bidPrice": "92,0387",
    "coupon_val": 5.5,
    "maturityInDays": "701 nap",
    "securityType": "KTV",
    "maturityDate": "2025.06.24",
    "name": "2025/B",
    "bidEhmYield": "10,25",
    "askYield": "9,49",
    "currency": "HUF",
    "maturityInDays_val": 701,
    "issueDate": "2014.01.15",
    "longName": "A250624B14"
}