{
    "askPrice": "89,6654",
    "green": 0,
    "coupon": "5,50 %",
    "accruedInterest": "3,4205",
    "settleDate": "2023.02.06",
    "askEhmYield": "10,60",
    "bidYield": "11,45",
    "rawName": "2025/B",
    "bidPrice": "88,1206",
    "coupon_val": 5.5,
    "maturityInDays": "869 nap",
    "securityType": "KTV",
    "maturityDate": "2025.06.24",
    "name": "2025/B",
    "bidEhmYield": "11,44",
    "askYield": "10,61",
    "currency": "HUF",
    "maturityInDays_val": 869,
    "issueDate": "2014.01.15",
    "longName": "A250624B14"
}