{
    "askPrice": "98,5315",
    "green": 0,
    "coupon": "5,50 %",
    "accruedInterest": "4,7637",
    "settleDate": "2024.05.06",
    "askEhmYield": "6,86",
    "bidYield": "7,53",
    "rawName": "2025/B",
    "bidPrice": "97,8463",
    "coupon_val": 5.5,
    "maturityInDays": "414 nap",
    "securityType": "KTV",
    "maturityDate": "2025.06.24",
    "name": "2025/B",
    "bidEhmYield": "7,51",
    "askYield": "6,87",
    "currency": "HUF",
    "maturityInDays_val": 414,
    "issueDate": "2014.01.15",
    "longName": "A250624B14"
}