{
    "askPrice": "98,4007",
    "green": 0,
    "coupon": "5,50 %",
    "accruedInterest": "4,7036",
    "settleDate": "2024.05.02",
    "askEhmYield": "6,97",
    "bidYield": "7,66",
    "rawName": "2025/B",
    "bidPrice": "97,6899",
    "coupon_val": 5.5,
    "maturityInDays": "418 nap",
    "securityType": "KTV",
    "maturityDate": "2025.06.24",
    "name": "2025/B",
    "bidEhmYield": "7,64",
    "askYield": "6,98",
    "currency": "HUF",
    "maturityInDays_val": 418,
    "issueDate": "2014.01.15",
    "longName": "A250624B14"
}