{
    "askPrice": "99,9107",
    "green": 0,
    "coupon": "5,50 %",
    "accruedInterest": "3,2008",
    "settleDate": "2024.01.23",
    "askEhmYield": "5,53",
    "bidYield": "6,22",
    "rawName": "2025/B",
    "bidPrice": "99,0103",
    "coupon_val": 5.5,
    "maturityInDays": "518 nap",
    "securityType": "KTV",
    "maturityDate": "2025.06.24",
    "name": "2025/B",
    "bidEhmYield": "6,21",
    "askYield": "5,54",
    "currency": "HUF",
    "maturityInDays_val": 518,
    "issueDate": "2014.01.15",
    "longName": "A250624B14"
}