{
    "askPrice": "98,6082",
    "green": 0,
    "coupon": "5,50 %",
    "accruedInterest": "4,7787",
    "settleDate": "2024.05.07",
    "askEhmYield": "6,79",
    "bidYield": "7,47",
    "rawName": "2025/B",
    "bidPrice": "97,9134",
    "coupon_val": 5.5,
    "maturityInDays": "413 nap",
    "securityType": "KTV",
    "maturityDate": "2025.06.24",
    "name": "2025/B",
    "bidEhmYield": "7,45",
    "askYield": "6,80",
    "currency": "HUF",
    "maturityInDays_val": 413,
    "issueDate": "2014.01.15",
    "longName": "A250624B14"
}