{
    "askPrice": "99,8350",
    "green": 0,
    "coupon": "5,50 %",
    "accruedInterest": "3,3962",
    "settleDate": "2024.02.05",
    "askEhmYield": "5,59",
    "bidYield": "6,24",
    "rawName": "2025/B",
    "bidPrice": "99,0086",
    "coupon_val": 5.5,
    "maturityInDays": "505 nap",
    "securityType": "KTV",
    "maturityDate": "2025.06.24",
    "name": "2025/B",
    "bidEhmYield": "6,23",
    "askYield": "5,60",
    "currency": "HUF",
    "maturityInDays_val": 505,
    "issueDate": "2014.01.15",
    "longName": "A250624B14"
}