{
    "askPrice": "99,1869",
    "green": 0,
    "coupon": "5,50 %",
    "accruedInterest": "4,1325",
    "settleDate": "2024.03.25",
    "askEhmYield": "6,16",
    "bidYield": "6,85",
    "rawName": "2025/B",
    "bidPrice": "98,4010",
    "coupon_val": 5.5,
    "maturityInDays": "456 nap",
    "securityType": "KTV",
    "maturityDate": "2025.06.24",
    "name": "2025/B",
    "bidEhmYield": "6,84",
    "askYield": "6,17",
    "currency": "HUF",
    "maturityInDays_val": 456,
    "issueDate": "2014.01.15",
    "longName": "A250624B14"
}