{
    "askPrice": "98,9171",
    "green": 0,
    "coupon": "5,50 %",
    "accruedInterest": "4,3880",
    "settleDate": "2024.04.11",
    "askEhmYield": "6,43",
    "bidYield": "7,12",
    "rawName": "2025/B",
    "bidPrice": "98,1636",
    "coupon_val": 5.5,
    "maturityInDays": "439 nap",
    "securityType": "KTV",
    "maturityDate": "2025.06.24",
    "name": "2025/B",
    "bidEhmYield": "7,11",
    "askYield": "6,44",
    "currency": "HUF",
    "maturityInDays_val": 439,
    "issueDate": "2014.01.15",
    "longName": "A250624B14"
}