{
    "askPrice": "99,7787",
    "green": 0,
    "coupon": "5,50 %",
    "accruedInterest": "3,6667",
    "settleDate": "2024.02.23",
    "askEhmYield": "5,64",
    "bidYield": "6,33",
    "rawName": "2025/B",
    "bidPrice": "98,9320",
    "coupon_val": 5.5,
    "maturityInDays": "487 nap",
    "securityType": "KTV",
    "maturityDate": "2025.06.24",
    "name": "2025/B",
    "bidEhmYield": "6,32",
    "askYield": "5,65",
    "currency": "HUF",
    "maturityInDays_val": 487,
    "issueDate": "2014.01.15",
    "longName": "A250624B14"
}