{
    "askPrice": "99,7782",
    "green": 0,
    "coupon": "5,50 %",
    "accruedInterest": "3,6516",
    "settleDate": "2024.02.22",
    "askEhmYield": "5,64",
    "bidYield": "6,31",
    "rawName": "2025/B",
    "bidPrice": "98,9546",
    "coupon_val": 5.5,
    "maturityInDays": "488 nap",
    "securityType": "KTV",
    "maturityDate": "2025.06.24",
    "name": "2025/B",
    "bidEhmYield": "6,30",
    "askYield": "5,65",
    "currency": "HUF",
    "maturityInDays_val": 488,
    "issueDate": "2014.01.15",
    "longName": "A250624B14"
}