{
    "askPrice": "98,8903",
    "green": 0,
    "coupon": "5,50 %",
    "accruedInterest": "4,2978",
    "settleDate": "2024.04.05",
    "askEhmYield": "6,44",
    "bidYield": "7,13",
    "rawName": "2025/B",
    "bidPrice": "98,1271",
    "coupon_val": 5.5,
    "maturityInDays": "445 nap",
    "securityType": "KTV",
    "maturityDate": "2025.06.24",
    "name": "2025/B",
    "bidEhmYield": "7,12",
    "askYield": "6,45",
    "currency": "HUF",
    "maturityInDays_val": 445,
    "issueDate": "2014.01.15",
    "longName": "A250624B14"
}