{
    "askPrice": "99,1410",
    "green": 0,
    "coupon": "5,50 %",
    "accruedInterest": "2,9303",
    "settleDate": "2024.01.05",
    "askEhmYield": "6,09",
    "bidYield": "6,74",
    "rawName": "2025/B",
    "bidPrice": "98,2763",
    "coupon_val": 5.5,
    "maturityInDays": "536 nap",
    "securityType": "KTV",
    "maturityDate": "2025.06.24",
    "name": "2025/B",
    "bidEhmYield": "6,73",
    "askYield": "6,10",
    "currency": "HUF",
    "maturityInDays_val": 536,
    "issueDate": "2014.01.15",
    "longName": "A250624B14"
}