{
    "askPrice": "99,1423",
    "green": 0,
    "coupon": "5,50 %",
    "accruedInterest": "4,1475",
    "settleDate": "2024.03.26",
    "askEhmYield": "6,20",
    "bidYield": "6,85",
    "rawName": "2025/B",
    "bidPrice": "98,4045",
    "coupon_val": 5.5,
    "maturityInDays": "455 nap",
    "securityType": "KTV",
    "maturityDate": "2025.06.24",
    "name": "2025/B",
    "bidEhmYield": "6,84",
    "askYield": "6,21",
    "currency": "HUF",
    "maturityInDays_val": 455,
    "issueDate": "2014.01.15",
    "longName": "A250624B14"
}