{
    "askPrice": "",
    "green": 0,
    "coupon": "9,00 %",
    "accruedInterest": "3,0082",
    "settleDate": "2023.09.15",
    "askEhmYield": "",
    "bidYield": "10,43",
    "rawName": "K2024/20",
    "bidPrice": "99,0000",
    "coupon_val": 9,
    "maturityInDays": "244 nap",
    "securityType": "1MÁP",
    "maturityDate": "2024.05.16",
    "name": "K2024/20",
    "bidEhmYield": "10,25",
    "askYield": "",
    "currency": "HUF",
    "maturityInDays_val": 244,
    "issueDate": "2023.05.16",
    "longName": "K240516"
}