{
    "askPrice": "",
    "green": 0,
    "coupon": "9,00 %",
    "accruedInterest": "4,0438",
    "settleDate": "2023.10.27",
    "askEhmYield": "",
    "bidYield": "10,69",
    "rawName": "K2024/20",
    "bidPrice": "99,0000",
    "coupon_val": 9,
    "maturityInDays": "202 nap",
    "securityType": "1MÁP",
    "maturityDate": "2024.05.16",
    "name": "K2024/20",
    "bidEhmYield": "10,44",
    "askYield": "",
    "currency": "HUF",
    "maturityInDays_val": 202,
    "issueDate": "2023.05.16",
    "longName": "K240516"
}