{
    "askPrice": "",
    "green": 0,
    "coupon": "9,00 %",
    "accruedInterest": "2,0712",
    "settleDate": "2023.08.08",
    "askEhmYield": "",
    "bidYield": "10,27",
    "rawName": "K2024/20",
    "bidPrice": "99,0000",
    "coupon_val": 9,
    "maturityInDays": "282 nap",
    "securityType": "1MÁP",
    "maturityDate": "2024.05.16",
    "name": "K2024/20",
    "bidEhmYield": "10,15",
    "askYield": "",
    "currency": "HUF",
    "maturityInDays_val": 282,
    "issueDate": "2023.05.16",
    "longName": "K240516"
}