{
    "askPrice": "",
    "green": 0,
    "coupon": "9,00 %",
    "accruedInterest": "8,7534",
    "settleDate": "2024.05.06",
    "askEhmYield": "",
    "bidYield": "37,49",
    "rawName": "K2024/20",
    "bidPrice": "99,3000",
    "coupon_val": 9,
    "maturityInDays": "10 nap",
    "securityType": "1MÁP",
    "maturityDate": "2024.05.16",
    "name": "K2024/20",
    "bidEhmYield": "31,13",
    "askYield": "",
    "currency": "HUF",
    "maturityInDays_val": 10,
    "issueDate": "2023.05.16",
    "longName": "K240516"
}