{
    "askPrice": "",
    "green": 0,
    "coupon": "9,00 %",
    "accruedInterest": "7,6192",
    "settleDate": "2024.03.21",
    "askEhmYield": "",
    "bidYield": "15,48",
    "rawName": "K2024/20",
    "bidPrice": "99,0000",
    "coupon_val": 9,
    "maturityInDays": "56 nap",
    "securityType": "1MÁP",
    "maturityDate": "2024.05.16",
    "name": "K2024/20",
    "bidEhmYield": "14,40",
    "askYield": "",
    "currency": "HUF",
    "maturityInDays_val": 56,
    "issueDate": "2023.05.16",
    "longName": "K240516"
}