{
    "askPrice": "",
    "green": 0,
    "coupon": "9,00 %",
    "accruedInterest": "6,1890",
    "settleDate": "2024.01.22",
    "askEhmYield": "",
    "bidYield": "11,96",
    "rawName": "K2024/20",
    "bidPrice": "99,0000",
    "coupon_val": 9,
    "maturityInDays": "115 nap",
    "securityType": "1MÁP",
    "maturityDate": "2024.05.16",
    "name": "K2024/20",
    "bidEhmYield": "11,50",
    "askYield": "",
    "currency": "HUF",
    "maturityInDays_val": 115,
    "issueDate": "2023.05.16",
    "longName": "K240516"
}