{
    "askPrice": "",
    "green": 0,
    "coupon": "9,00 %",
    "accruedInterest": "6,7562",
    "settleDate": "2024.02.14",
    "askEhmYield": "",
    "bidYield": "12,73",
    "rawName": "K2024/20",
    "bidPrice": "99,0000",
    "coupon_val": 9,
    "maturityInDays": "92 nap",
    "securityType": "1MÁP",
    "maturityDate": "2024.05.16",
    "name": "K2024/20",
    "bidEhmYield": "12,17",
    "askYield": "",
    "currency": "HUF",
    "maturityInDays_val": 92,
    "issueDate": "2023.05.16",
    "longName": "K240516"
}