{
    "askPrice": "",
    "green": 0,
    "coupon": "3,50 %",
    "accruedInterest": "0,29",
    "settleDate": "2022.08.24",
    "askEhmYield": "",
    "bidYield": "",
    "rawName": "N2025/31",
    "bidPrice": "99,50",
    "coupon_val": 3.5,
    "maturityInDays": "1075 nap",
    "securityType": "MÁP Plusz",
    "maturityDate": "2025.08.03",
    "name": "N2025/31",
    "bidEhmYield": "",
    "askYield": "",
    "currency": "HUF",
    "maturityInDays_val": 1075,
    "longName": "N250803"
}