{
    "askPrice": "",
    "green": 0,
    "coupon": "3,50 %",
    "accruedInterest": "1,36",
    "settleDate": "2022.11.10",
    "askEhmYield": "",
    "bidYield": "5,73",
    "rawName": "N2025/31",
    "bidPrice": "99,50",
    "coupon_val": 3.5,
    "maturityInDays": "997 nap",
    "securityType": "MÁP Plusz",
    "maturityDate": "2025.08.03",
    "name": "N2025/31",
    "bidEhmYield": "",
    "askYield": "",
    "currency": "HUF",
    "maturityInDays_val": 997,
    "issueDate": "2020-08-03",
    "longName": "N250803"
}