{
    "askPrice": "",
    "green": 0,
    "coupon": "3,50 %",
    "accruedInterest": "1,7945",
    "settleDate": "2022.12.12",
    "askEhmYield": "",
    "bidYield": "5,75",
    "rawName": "N2025/31",
    "bidPrice": "99,5000",
    "coupon_val": 3.5,
    "maturityInDays": "965 nap",
    "securityType": "MÁP Plusz",
    "maturityDate": "2025.08.03",
    "name": "N2025/31",
    "bidEhmYield": "",
    "askYield": "",
    "currency": "HUF",
    "maturityInDays_val": 965,
    "issueDate": "2020.08.03",
    "longName": "N250803"
}