{
    "askPrice": "",
    "green": 0,
    "coupon": "3,50 %",
    "accruedInterest": "2,6575",
    "settleDate": "2023.02.13",
    "askEhmYield": "",
    "bidYield": "5,80",
    "rawName": "N2025/31",
    "bidPrice": "99,5000",
    "coupon_val": 3.5,
    "maturityInDays": "902 nap",
    "securityType": "MÁP Plusz",
    "maturityDate": "2025.08.03",
    "name": "N2025/31",
    "bidEhmYield": "",
    "askYield": "",
    "currency": "HUF",
    "maturityInDays_val": 902,
    "issueDate": "2020.08.03",
    "longName": "N250803"
}