{
    "askPrice": "",
    "green": 0,
    "coupon": "3,50 %",
    "accruedInterest": "1,2623",
    "settleDate": "2023.10.26",
    "askEhmYield": "",
    "bidYield": "6,07",
    "rawName": "N2025/31",
    "bidPrice": "99,5000",
    "coupon_val": 3.5,
    "maturityInDays": "647 nap",
    "securityType": "MÁP Plusz",
    "maturityDate": "2025.08.03",
    "name": "N2025/31",
    "bidEhmYield": "",
    "askYield": "",
    "currency": "HUF",
    "maturityInDays_val": 647,
    "issueDate": "2020.08.03",
    "longName": "N250803"
}