{
    "askPrice": "",
    "green": 0,
    "coupon": "3,50 %",
    "accruedInterest": "3,8470",
    "settleDate": "2024.04.15",
    "askEhmYield": "",
    "bidYield": "6,26",
    "rawName": "N2025/31",
    "bidPrice": "99,5000",
    "coupon_val": 3.5,
    "maturityInDays": "475 nap",
    "securityType": "MÁP Plusz",
    "maturityDate": "2025.08.03",
    "name": "N2025/31",
    "bidEhmYield": "",
    "askYield": "",
    "currency": "HUF",
    "maturityInDays_val": 475,
    "issueDate": "2020.08.03",
    "longName": "N250803"
}