{
    "askPrice": "69,33",
    "green": 0,
    "coupon": "1,50 %",
    "accruedInterest": "0,74",
    "settleDate": "2022.10.18",
    "askEhmYield": "12,89",
    "bidYield": "13,85",
    "rawName": "2026/E",
    "bidPrice": "67,37",
    "coupon_val": 1.5,
    "maturityInDays": "1282 nap",
    "securityType": "KTV",
    "maturityDate": "2026.04.22",
    "name": "2026/E",
    "bidEhmYield": "13,84",
    "askYield": "12,90",
    "currency": "HUF",
    "maturityInDays_val": 1282,
    "longName": "A260422E20"
}