{
    "askPrice": "75,99",
    "green": 0,
    "coupon": "1,50 %",
    "accruedInterest": "0,33",
    "settleDate": "2022.07.11",
    "askEhmYield": "9,32",
    "bidYield": "9,92",
    "rawName": "2026/E",
    "bidPrice": "74,47",
    "coupon_val": 1.5,
    "maturityInDays": "1381 nap",
    "securityType": "KTV",
    "maturityDate": "2026.04.22",
    "name": "2026/E",
    "bidEhmYield": "9,92",
    "askYield": "9,32",
    "currency": "HUF",
    "maturityInDays_val": 1381,
    "longName": "A260422E20"
}