{
    "askPrice": "69,40",
    "green": 0,
    "coupon": "1,50 %",
    "accruedInterest": "0,76",
    "settleDate": "2022.10.25",
    "askEhmYield": "12,92",
    "bidYield": "13,55",
    "rawName": "2026/E",
    "bidPrice": "68,12",
    "coupon_val": 1.5,
    "maturityInDays": "1275 nap",
    "securityType": "KTV",
    "maturityDate": "2026.04.22",
    "name": "2026/E",
    "bidEhmYield": "13,54",
    "askYield": "12,93",
    "currency": "HUF",
    "maturityInDays_val": 1275,
    "longName": "A260422E20"
}