{
    "askPrice": "76,84",
    "green": 0,
    "coupon": "1,50 %",
    "accruedInterest": "0,48",
    "settleDate": "2022.08.16",
    "askEhmYield": "9,19",
    "bidYield": "9,79",
    "rawName": "2026/E",
    "bidPrice": "75,34",
    "coupon_val": 1.5,
    "maturityInDays": "1345 nap",
    "securityType": "KTV",
    "maturityDate": "2026.04.22",
    "name": "2026/E",
    "bidEhmYield": "9,79",
    "askYield": "9,19",
    "currency": "HUF",
    "maturityInDays_val": 1345,
    "longName": "A260422E20"
}