{
    "askPrice": "74,55",
    "green": 0,
    "coupon": "1,50 %",
    "accruedInterest": "0,52",
    "settleDate": "2022.08.26",
    "askEhmYield": "10,18",
    "bidYield": "10,78",
    "rawName": "2026/E",
    "bidPrice": "73,11",
    "coupon_val": 1.5,
    "maturityInDays": "1335 nap",
    "securityType": "KTV",
    "maturityDate": "2026.04.22",
    "name": "2026/E",
    "bidEhmYield": "10,78",
    "askYield": "10,18",
    "currency": "HUF",
    "maturityInDays_val": 1335,
    "longName": "A260422E20"
}