{
    "askPrice": "76,46",
    "green": 0,
    "coupon": "1,50 %",
    "accruedInterest": "0,34",
    "settleDate": "2022.07.13",
    "askEhmYield": "9,15",
    "bidYield": "9,75",
    "rawName": "2026/E",
    "bidPrice": "74,93",
    "coupon_val": 1.5,
    "maturityInDays": "1379 nap",
    "securityType": "KTV",
    "maturityDate": "2026.04.22",
    "name": "2026/E",
    "bidEhmYield": "9,75",
    "askYield": "9,15",
    "currency": "HUF",
    "maturityInDays_val": 1379,
    "longName": "A260422E20"
}