{
    "askPrice": "74,44",
    "green": 0,
    "coupon": "1,50 %",
    "accruedInterest": "0,53",
    "settleDate": "2022.08.30",
    "askEhmYield": "10,25",
    "bidYield": "10,85",
    "rawName": "2026/E",
    "bidPrice": "73,01",
    "coupon_val": 1.5,
    "maturityInDays": "1331 nap",
    "securityType": "KTV",
    "maturityDate": "2026.04.22",
    "name": "2026/E",
    "bidEhmYield": "10,85",
    "askYield": "10,25",
    "currency": "HUF",
    "maturityInDays_val": 1331,
    "longName": "A260422E20"
}