{
    "askPrice": "74,60",
    "green": 0,
    "coupon": "1,50 %",
    "accruedInterest": "0,37",
    "settleDate": "2022.07.21",
    "askEhmYield": "9,93",
    "bidYield": "10,53",
    "rawName": "2026/E",
    "bidPrice": "73,12",
    "coupon_val": 1.5,
    "maturityInDays": "1371 nap",
    "securityType": "KTV",
    "maturityDate": "2026.04.22",
    "name": "2026/E",
    "bidEhmYield": "10,53",
    "askYield": "9,93",
    "currency": "HUF",
    "maturityInDays_val": 1371,
    "longName": "A260422E20"
}