{
    "askPrice": "71,61",
    "green": 0,
    "coupon": "1,50 %",
    "accruedInterest": "0,72",
    "settleDate": "2022.10.13",
    "askEhmYield": "11,80",
    "bidYield": "12,40",
    "rawName": "2026/E",
    "bidPrice": "70,30",
    "coupon_val": 1.5,
    "maturityInDays": "1287 nap",
    "securityType": "KTV",
    "maturityDate": "2026.04.22",
    "name": "2026/E",
    "bidEhmYield": "12,40",
    "askYield": "11,80",
    "currency": "HUF",
    "maturityInDays_val": 1287,
    "longName": "A260422E20"
}