{
    "askPrice": "79,49",
    "green": 0,
    "coupon": "1,50 %",
    "accruedInterest": "0,27",
    "settleDate": "2022.06.27",
    "askEhmYield": "7,93",
    "bidYield": "8,53",
    "rawName": "2026/E",
    "bidPrice": "77,86",
    "coupon_val": 1.5,
    "maturityInDays": "1395 nap",
    "securityType": "KTV",
    "maturityDate": "2026.04.22",
    "name": "2026/E",
    "bidEhmYield": "8,53",
    "askYield": "7,93",
    "currency": "HUF",
    "maturityInDays_val": 1395,
    "longName": "A260422E20"
}