{
    "askPrice": "75,45",
    "green": 0,
    "coupon": "1,50 %",
    "accruedInterest": "0,43",
    "settleDate": "2022.08.05",
    "askEhmYield": "9,68",
    "bidYield": "10,28",
    "rawName": "2026/E",
    "bidPrice": "73,97",
    "coupon_val": 1.5,
    "maturityInDays": "1356 nap",
    "securityType": "KTV",
    "maturityDate": "2026.04.22",
    "name": "2026/E",
    "bidEhmYield": "10,28",
    "askYield": "9,68",
    "currency": "HUF",
    "maturityInDays_val": 1356,
    "longName": "A260422E20"
}