{
    "askPrice": "72,69",
    "green": 0,
    "coupon": "1,50 %",
    "accruedInterest": "0,68",
    "settleDate": "2022.10.04",
    "askEhmYield": "11,25",
    "bidYield": "11,85",
    "rawName": "2026/E",
    "bidPrice": "71,34",
    "coupon_val": 1.5,
    "maturityInDays": "1296 nap",
    "securityType": "KTV",
    "maturityDate": "2026.04.22",
    "name": "2026/E",
    "bidEhmYield": "11,85",
    "askYield": "11,25",
    "currency": "HUF",
    "maturityInDays_val": 1296,
    "longName": "A260422E20"
}