{
    "askPrice": "79,4583",
    "green": 0,
    "coupon": "1,50 %",
    "accruedInterest": "0,9164",
    "settleDate": "2022.12.01",
    "askEhmYield": "8,75",
    "bidYield": "9,55",
    "rawName": "2026/E",
    "bidPrice": "77,5697",
    "coupon_val": 1.5,
    "maturityInDays": "1238 nap",
    "securityType": "KTV",
    "maturityDate": "2026.04.22",
    "name": "2026/E",
    "bidEhmYield": "9,54",
    "askYield": "8,76",
    "currency": "HUF",
    "maturityInDays_val": 1238,
    "issueDate": "2020.09.02",
    "longName": "A260422E20"
}