{
    "askPrice": "71,97",
    "green": 0,
    "coupon": "1,50 %",
    "accruedInterest": "0,60",
    "settleDate": "2022.09.15",
    "askEhmYield": "11,42",
    "bidYield": "12,02",
    "rawName": "2026/E",
    "bidPrice": "70,62",
    "coupon_val": 1.5,
    "maturityInDays": "1315 nap",
    "securityType": "KTV",
    "maturityDate": "2026.04.22",
    "name": "2026/E",
    "bidEhmYield": "12,02",
    "askYield": "11,42",
    "currency": "HUF",
    "maturityInDays_val": 1315,
    "longName": "A260422E20"
}