{
    "askPrice": "70,08",
    "green": 0,
    "coupon": "1,50 %",
    "accruedInterest": "0,77",
    "settleDate": "2022.10.26",
    "askEhmYield": "12,61",
    "bidYield": "13,34",
    "rawName": "2026/E",
    "bidPrice": "68,57",
    "coupon_val": 1.5,
    "maturityInDays": "1274 nap",
    "securityType": "KTV",
    "maturityDate": "2026.04.22",
    "name": "2026/E",
    "bidEhmYield": "13,33",
    "askYield": "12,62",
    "currency": "HUF",
    "maturityInDays_val": 1274,
    "longName": "A260422E20"
}