{
    "askPrice": "77,5287",
    "green": 0,
    "coupon": "1,50 %",
    "accruedInterest": "1,0274",
    "settleDate": "2022.12.28",
    "askEhmYield": "9,74",
    "bidYield": "10,54",
    "rawName": "2026/E",
    "bidPrice": "75,7411",
    "coupon_val": 1.5,
    "maturityInDays": "1211 nap",
    "securityType": "KTV",
    "maturityDate": "2026.04.22",
    "name": "2026/E",
    "bidEhmYield": "10,53",
    "askYield": "9,75",
    "currency": "HUF",
    "maturityInDays_val": 1211,
    "issueDate": "2020.09.02",
    "longName": "A260422E20"
}