{
    "askPrice": "78,74",
    "green": 0,
    "coupon": "1,50 %",
    "accruedInterest": "0,31",
    "settleDate": "2022.07.06",
    "askEhmYield": "8,25",
    "bidYield": "8,85",
    "rawName": "2026/E",
    "bidPrice": "77,14",
    "coupon_val": 1.5,
    "maturityInDays": "1386 nap",
    "securityType": "KTV",
    "maturityDate": "2026.04.22",
    "name": "2026/E",
    "bidEhmYield": "8,85",
    "askYield": "8,25",
    "currency": "HUF",
    "maturityInDays_val": 1386,
    "longName": "A260422E20"
}