{
    "askPrice": "71,74",
    "green": 0,
    "coupon": "1,50 %",
    "accruedInterest": "0,59",
    "settleDate": "2022.09.12",
    "askEhmYield": "11,50",
    "bidYield": "12,10",
    "rawName": "2026/E",
    "bidPrice": "70,39",
    "coupon_val": 1.5,
    "maturityInDays": "1318 nap",
    "securityType": "KTV",
    "maturityDate": "2026.04.22",
    "name": "2026/E",
    "bidEhmYield": "12,10",
    "askYield": "11,50",
    "currency": "HUF",
    "maturityInDays_val": 1318,
    "longName": "A260422E20"
}