{
    "askPrice": "78,40",
    "green": 0,
    "coupon": "1,50 %",
    "accruedInterest": "0,25",
    "settleDate": "2022.06.21",
    "askEhmYield": "8,30",
    "bidYield": "8,90",
    "rawName": "2026/E",
    "bidPrice": "76,80",
    "coupon_val": 1.5,
    "maturityInDays": "1401 nap",
    "securityType": "KTV",
    "maturityDate": "2026.04.22",
    "name": "2026/E",
    "bidEhmYield": "8,90",
    "askYield": "8,30",
    "currency": "HUF",
    "maturityInDays_val": 1401,
    "longName": "A260422E20"
}