{
    "askPrice": "78,62",
    "green": 0,
    "coupon": "1,50 %",
    "accruedInterest": "0,29",
    "settleDate": "2022.07.01",
    "askEhmYield": "8,27",
    "bidYield": "8,87",
    "rawName": "2026/E",
    "bidPrice": "77,02",
    "coupon_val": 1.5,
    "maturityInDays": "1391 nap",
    "securityType": "KTV",
    "maturityDate": "2026.04.22",
    "name": "2026/E",
    "bidEhmYield": "8,87",
    "askYield": "8,27",
    "currency": "HUF",
    "maturityInDays_val": 1391,
    "longName": "A260422E20"
}