{
    "askPrice": "88,3150",
    "green": 0,
    "coupon": "1,50 %",
    "accruedInterest": "0,8689",
    "settleDate": "2023.11.20",
    "askEhmYield": "6,90",
    "bidYield": "7,56",
    "rawName": "2026/E",
    "bidPrice": "87,0221",
    "coupon_val": 1.5,
    "maturityInDays": "884 nap",
    "securityType": "KTV",
    "maturityDate": "2026.04.22",
    "name": "2026/E",
    "bidEhmYield": "7,55",
    "askYield": "6,90",
    "currency": "HUF",
    "maturityInDays_val": 884,
    "issueDate": "2020.09.02",
    "longName": "A260422E20"
}