{
    "askPrice": "78,1184",
    "green": 0,
    "coupon": "1,50 %",
    "accruedInterest": "0,0082",
    "settleDate": "2023.04.24",
    "askEhmYield": "10,36",
    "bidYield": "11,15",
    "rawName": "2026/E",
    "bidPrice": "76,5155",
    "coupon_val": 1.5,
    "maturityInDays": "1094 nap",
    "securityType": "KTV",
    "maturityDate": "2026.04.22",
    "name": "2026/E",
    "bidEhmYield": "11,14",
    "askYield": "10,37",
    "currency": "HUF",
    "maturityInDays_val": 1094,
    "issueDate": "2020.09.02",
    "longName": "A260422E20"
}