{
    "askPrice": "89,3908",
    "green": 0,
    "coupon": "1,50 %",
    "accruedInterest": "0,9549",
    "settleDate": "2023.12.11",
    "askEhmYield": "6,48",
    "bidYield": "7,14",
    "rawName": "2026/E",
    "bidPrice": "88,1074",
    "coupon_val": 1.5,
    "maturityInDays": "863 nap",
    "securityType": "KTV",
    "maturityDate": "2026.04.22",
    "name": "2026/E",
    "bidEhmYield": "7,14",
    "askYield": "6,48",
    "currency": "HUF",
    "maturityInDays_val": 863,
    "issueDate": "2020.09.02",
    "longName": "A260422E20"
}