{
    "askPrice": "77,2117",
    "green": 0,
    "coupon": "1,50 %",
    "accruedInterest": "1,3685",
    "settleDate": "2023.03.21",
    "askEhmYield": "10,51",
    "bidYield": "11,33",
    "rawName": "2026/E",
    "bidPrice": "75,5201",
    "coupon_val": 1.5,
    "maturityInDays": "1128 nap",
    "securityType": "KTV",
    "maturityDate": "2026.04.22",
    "name": "2026/E",
    "bidEhmYield": "11,32",
    "askYield": "10,52",
    "currency": "HUF",
    "maturityInDays_val": 1128,
    "issueDate": "2020.09.02",
    "longName": "A260422E20"
}