{
    "askPrice": "83,0868",
    "green": 0,
    "coupon": "1,50 %",
    "accruedInterest": "0,4262",
    "settleDate": "2023.08.04",
    "askEhmYield": "8,75",
    "bidYield": "9,49",
    "rawName": "2026/E",
    "bidPrice": "81,6105",
    "coupon_val": 1.5,
    "maturityInDays": "992 nap",
    "securityType": "KTV",
    "maturityDate": "2026.04.22",
    "name": "2026/E",
    "bidEhmYield": "9,48",
    "askYield": "8,76",
    "currency": "HUF",
    "maturityInDays_val": 992,
    "issueDate": "2020.09.02",
    "longName": "A260422E20"
}