{
    "askPrice": "85,7012",
    "green": 0,
    "coupon": "1,50 %",
    "accruedInterest": "0,6967",
    "settleDate": "2023.10.09",
    "askEhmYield": "7,93",
    "bidYield": "8,60",
    "rawName": "2026/E",
    "bidPrice": "84,4015",
    "coupon_val": 1.5,
    "maturityInDays": "926 nap",
    "securityType": "KTV",
    "maturityDate": "2026.04.22",
    "name": "2026/E",
    "bidEhmYield": "8,59",
    "askYield": "7,94",
    "currency": "HUF",
    "maturityInDays_val": 926,
    "issueDate": "2020.09.02",
    "longName": "A260422E20"
}