{
    "askPrice": "86,4054",
    "green": 0,
    "coupon": "1,50 %",
    "accruedInterest": "0,6475",
    "settleDate": "2023.09.27",
    "askEhmYield": "7,50",
    "bidYield": "8,18",
    "rawName": "2026/E",
    "bidPrice": "85,0533",
    "coupon_val": 1.5,
    "maturityInDays": "938 nap",
    "securityType": "KTV",
    "maturityDate": "2026.04.22",
    "name": "2026/E",
    "bidEhmYield": "8,17",
    "askYield": "7,51",
    "currency": "HUF",
    "maturityInDays_val": 938,
    "issueDate": "2020.09.02",
    "longName": "A260422E20"
}