{
    "askPrice": "78,4090",
    "green": 0,
    "coupon": "1,50 %",
    "accruedInterest": "1,0890",
    "settleDate": "2023.01.12",
    "askEhmYield": "9,46",
    "bidYield": "10,28",
    "rawName": "2026/E",
    "bidPrice": "76,5734",
    "coupon_val": 1.5,
    "maturityInDays": "1196 nap",
    "securityType": "KTV",
    "maturityDate": "2026.04.22",
    "name": "2026/E",
    "bidEhmYield": "10,27",
    "askYield": "9,47",
    "currency": "HUF",
    "maturityInDays_val": 1196,
    "issueDate": "2020.09.02",
    "longName": "A260422E20"
}