{
    "askPrice": "85,4418",
    "green": 0,
    "coupon": "1,50 %",
    "accruedInterest": "0,5533",
    "settleDate": "2023.09.04",
    "askEhmYield": "7,82",
    "bidYield": "8,50",
    "rawName": "2026/E",
    "bidPrice": "84,0772",
    "coupon_val": 1.5,
    "maturityInDays": "961 nap",
    "securityType": "KTV",
    "maturityDate": "2026.04.22",
    "name": "2026/E",
    "bidEhmYield": "8,49",
    "askYield": "7,83",
    "currency": "HUF",
    "maturityInDays_val": 961,
    "issueDate": "2020.09.02",
    "longName": "A260422E20"
}