{
    "askPrice": "81,9120",
    "green": 0,
    "coupon": "1,50 %",
    "accruedInterest": "0,2090",
    "settleDate": "2023.06.12",
    "askEhmYield": "8,93",
    "bidYield": "9,77",
    "rawName": "2026/E",
    "bidPrice": "80,1786",
    "coupon_val": 1.5,
    "maturityInDays": "1045 nap",
    "securityType": "KTV",
    "maturityDate": "2026.04.22",
    "name": "2026/E",
    "bidEhmYield": "9,76",
    "askYield": "8,94",
    "currency": "HUF",
    "maturityInDays_val": 1045,
    "issueDate": "2020.09.02",
    "longName": "A260422E20"
}