{
    "askPrice": "83,1912",
    "green": 0,
    "coupon": "1,50 %",
    "accruedInterest": "0,4098",
    "settleDate": "2023.07.31",
    "askEhmYield": "8,67",
    "bidYield": "9,43",
    "rawName": "2026/E",
    "bidPrice": "81,6660",
    "coupon_val": 1.5,
    "maturityInDays": "996 nap",
    "securityType": "KTV",
    "maturityDate": "2026.04.22",
    "name": "2026/E",
    "bidEhmYield": "9,42",
    "askYield": "8,68",
    "currency": "HUF",
    "maturityInDays_val": 996,
    "issueDate": "2020.09.02",
    "longName": "A260422E20"
}