{
    "askPrice": "80,0887",
    "green": 0,
    "coupon": "1,50 %",
    "accruedInterest": "0,1393",
    "settleDate": "2023.05.26",
    "askEhmYield": "9,67",
    "bidYield": "10,49",
    "rawName": "2026/E",
    "bidPrice": "78,4200",
    "coupon_val": 1.5,
    "maturityInDays": "1062 nap",
    "securityType": "KTV",
    "maturityDate": "2026.04.22",
    "name": "2026/E",
    "bidEhmYield": "10,48",
    "askYield": "9,68",
    "currency": "HUF",
    "maturityInDays_val": 1062,
    "issueDate": "2020.09.02",
    "longName": "A260422E20"
}