{
    "askPrice": "86,1074",
    "green": 0,
    "coupon": "1,50 %",
    "accruedInterest": "0,7582",
    "settleDate": "2023.10.24",
    "askEhmYield": "7,83",
    "bidYield": "8,51",
    "rawName": "2026/E",
    "bidPrice": "84,8015",
    "coupon_val": 1.5,
    "maturityInDays": "911 nap",
    "securityType": "KTV",
    "maturityDate": "2026.04.22",
    "name": "2026/E",
    "bidEhmYield": "8,50",
    "askYield": "7,84",
    "currency": "HUF",
    "maturityInDays_val": 911,
    "issueDate": "2020.09.02",
    "longName": "A260422E20"
}