{
    "askPrice": "78,1551",
    "green": 0,
    "coupon": "1,50 %",
    "accruedInterest": "1,0767",
    "settleDate": "2023.01.09",
    "askEhmYield": "9,55",
    "bidYield": "10,40",
    "rawName": "2026/E",
    "bidPrice": "76,2557",
    "coupon_val": 1.5,
    "maturityInDays": "1199 nap",
    "securityType": "KTV",
    "maturityDate": "2026.04.22",
    "name": "2026/E",
    "bidEhmYield": "10,39",
    "askYield": "9,56",
    "currency": "HUF",
    "maturityInDays_val": 1199,
    "issueDate": "2020.09.02",
    "longName": "A260422E20"
}