{
    "askPrice": "84,1858",
    "green": 0,
    "coupon": "1,50 %",
    "accruedInterest": "0,5041",
    "settleDate": "2023.08.23",
    "askEhmYield": "8,35",
    "bidYield": "9,05",
    "rawName": "2026/E",
    "bidPrice": "82,7919",
    "coupon_val": 1.5,
    "maturityInDays": "973 nap",
    "securityType": "KTV",
    "maturityDate": "2026.04.22",
    "name": "2026/E",
    "bidEhmYield": "9,04",
    "askYield": "8,36",
    "currency": "HUF",
    "maturityInDays_val": 973,
    "issueDate": "2020.09.02",
    "longName": "A260422E20"
}