{
    "askPrice": "78,3986",
    "green": 0,
    "coupon": "1,50 %",
    "accruedInterest": "0,0205",
    "settleDate": "2023.04.27",
    "askEhmYield": "10,25",
    "bidYield": "11,03",
    "rawName": "2026/E",
    "bidPrice": "76,8128",
    "coupon_val": 1.5,
    "maturityInDays": "1091 nap",
    "securityType": "KTV",
    "maturityDate": "2026.04.22",
    "name": "2026/E",
    "bidEhmYield": "11,02",
    "askYield": "10,26",
    "currency": "HUF",
    "maturityInDays_val": 1091,
    "issueDate": "2020.09.02",
    "longName": "A260422E20"
}