{
    "askPrice": "83,2834",
    "green": 0,
    "coupon": "1,50 %",
    "accruedInterest": "0,3607",
    "settleDate": "2023.07.19",
    "askEhmYield": "8,54",
    "bidYield": "9,27",
    "rawName": "2026/E",
    "bidPrice": "81,7981",
    "coupon_val": 1.5,
    "maturityInDays": "1008 nap",
    "securityType": "KTV",
    "maturityDate": "2026.04.22",
    "name": "2026/E",
    "bidEhmYield": "9,26",
    "askYield": "8,55",
    "currency": "HUF",
    "maturityInDays_val": 1008,
    "issueDate": "2020.09.02",
    "longName": "A260422E20"
}