{
    "askPrice": "78,5563",
    "green": 0,
    "coupon": "1,50 %",
    "accruedInterest": "1,4096",
    "settleDate": "2023.03.31",
    "askEhmYield": "9,96",
    "bidYield": "10,80",
    "rawName": "2026/E",
    "bidPrice": "76,7996",
    "coupon_val": 1.5,
    "maturityInDays": "1118 nap",
    "securityType": "KTV",
    "maturityDate": "2026.04.22",
    "name": "2026/E",
    "bidEhmYield": "10,79",
    "askYield": "9,97",
    "currency": "HUF",
    "maturityInDays_val": 1118,
    "issueDate": "2020.09.02",
    "longName": "A260422E20"
}