{
    "askPrice": "87,5858",
    "green": 0,
    "coupon": "1,50 %",
    "accruedInterest": "0,8115",
    "settleDate": "2023.11.06",
    "askEhmYield": "7,18",
    "bidYield": "7,81",
    "rawName": "2026/E",
    "bidPrice": "86,3457",
    "coupon_val": 1.5,
    "maturityInDays": "898 nap",
    "securityType": "KTV",
    "maturityDate": "2026.04.22",
    "name": "2026/E",
    "bidEhmYield": "7,80",
    "askYield": "7,18",
    "currency": "HUF",
    "maturityInDays_val": 898,
    "issueDate": "2020.09.02",
    "longName": "A260422E20"
}