{
    "askPrice": "86,1113",
    "green": 0,
    "coupon": "1,50 %",
    "accruedInterest": "0,5943",
    "settleDate": "2023.09.14",
    "askEhmYield": "7,56",
    "bidYield": "8,22",
    "rawName": "2026/E",
    "bidPrice": "84,7869",
    "coupon_val": 1.5,
    "maturityInDays": "951 nap",
    "securityType": "KTV",
    "maturityDate": "2026.04.22",
    "name": "2026/E",
    "bidEhmYield": "8,21",
    "askYield": "7,57",
    "currency": "HUF",
    "maturityInDays_val": 951,
    "issueDate": "2020.09.02",
    "longName": "A260422E20"
}