{
    "askPrice": "88,5246",
    "green": 0,
    "coupon": "1,50 %",
    "accruedInterest": "0,9262",
    "settleDate": "2023.12.04",
    "askEhmYield": "6,88",
    "bidYield": "7,56",
    "rawName": "2026/E",
    "bidPrice": "87,2101",
    "coupon_val": 1.5,
    "maturityInDays": "870 nap",
    "securityType": "KTV",
    "maturityDate": "2026.04.22",
    "name": "2026/E",
    "bidEhmYield": "7,56",
    "askYield": "6,88",
    "currency": "HUF",
    "maturityInDays_val": 870,
    "issueDate": "2020.09.02",
    "longName": "A260422E20"
}