{
    "askPrice": "78,1462",
    "green": 0,
    "coupon": "1,50 %",
    "accruedInterest": "1,4548",
    "settleDate": "2023.04.11",
    "askEhmYield": "10,24",
    "bidYield": "11,02",
    "rawName": "2026/E",
    "bidPrice": "76,5430",
    "coupon_val": 1.5,
    "maturityInDays": "1107 nap",
    "securityType": "KTV",
    "maturityDate": "2026.04.22",
    "name": "2026/E",
    "bidEhmYield": "11,01",
    "askYield": "10,25",
    "currency": "HUF",
    "maturityInDays_val": 1107,
    "issueDate": "2020.09.02",
    "longName": "A260422E20"
}