{
    "askPrice": "82,8384",
    "green": 0,
    "coupon": "1,50 %",
    "accruedInterest": "0,2951",
    "settleDate": "2023.07.03",
    "askEhmYield": "8,64",
    "bidYield": "9,38",
    "rawName": "2026/E",
    "bidPrice": "81,3195",
    "coupon_val": 1.5,
    "maturityInDays": "1024 nap",
    "securityType": "KTV",
    "maturityDate": "2026.04.22",
    "name": "2026/E",
    "bidEhmYield": "9,37",
    "askYield": "8,65",
    "currency": "HUF",
    "maturityInDays_val": 1024,
    "issueDate": "2020.09.02",
    "longName": "A260422E20"
}