{
    "askPrice": "91,7295",
    "green": 0,
    "coupon": "1,50 %",
    "accruedInterest": "1,2500",
    "settleDate": "2024.02.21",
    "askEhmYield": "5,66",
    "bidYield": "6,34",
    "rawName": "2026/E",
    "bidPrice": "90,4739",
    "coupon_val": 1.5,
    "maturityInDays": "791 nap",
    "securityType": "KTV",
    "maturityDate": "2026.04.22",
    "name": "2026/E",
    "bidEhmYield": "6,34",
    "askYield": "5,66",
    "currency": "HUF",
    "maturityInDays_val": 791,
    "issueDate": "2020.09.02",
    "longName": "A260422E20"
}