{
    "askPrice": "90,4442",
    "green": 0,
    "coupon": "1,50 %",
    "accruedInterest": "0,0123",
    "settleDate": "2024.04.25",
    "askEhmYield": "6,79",
    "bidYield": "7,46",
    "rawName": "2026/E",
    "bidPrice": "89,3330",
    "coupon_val": 1.5,
    "maturityInDays": "727 nap",
    "securityType": "KTV",
    "maturityDate": "2026.04.22",
    "name": "2026/E",
    "bidEhmYield": "7,46",
    "askYield": "6,79",
    "currency": "HUF",
    "maturityInDays_val": 727,
    "issueDate": "2020.09.02",
    "longName": "A260422E20"
}