{
    "askPrice": "91,8231",
    "green": 0,
    "coupon": "1,50 %",
    "accruedInterest": "1,3115",
    "settleDate": "2024.03.07",
    "askEhmYield": "5,69",
    "bidYield": "6,37",
    "rawName": "2026/E",
    "bidPrice": "90,5899",
    "coupon_val": 1.5,
    "maturityInDays": "776 nap",
    "securityType": "KTV",
    "maturityDate": "2026.04.22",
    "name": "2026/E",
    "bidEhmYield": "6,37",
    "askYield": "5,69",
    "currency": "HUF",
    "maturityInDays_val": 776,
    "issueDate": "2020.09.02",
    "longName": "A260422E20"
}