{
    "askPrice": "90,4906",
    "green": 0,
    "coupon": "1,50 %",
    "accruedInterest": "1,4713",
    "settleDate": "2024.04.15",
    "askEhmYield": "6,69",
    "bidYield": "7,32",
    "rawName": "2026/E",
    "bidPrice": "89,4296",
    "coupon_val": 1.5,
    "maturityInDays": "737 nap",
    "securityType": "KTV",
    "maturityDate": "2026.04.22",
    "name": "2026/E",
    "bidEhmYield": "7,32",
    "askYield": "6,69",
    "currency": "HUF",
    "maturityInDays_val": 737,
    "issueDate": "2020.09.02",
    "longName": "A260422E20"
}