{
    "askPrice": "90,8827",
    "green": 0,
    "coupon": "1,50 %",
    "accruedInterest": "1,3975",
    "settleDate": "2024.03.28",
    "askEhmYield": "6,34",
    "bidYield": "6,98",
    "rawName": "2026/E",
    "bidPrice": "89,7706",
    "coupon_val": 1.5,
    "maturityInDays": "755 nap",
    "securityType": "KTV",
    "maturityDate": "2026.04.22",
    "name": "2026/E",
    "bidEhmYield": "6,98",
    "askYield": "6,34",
    "currency": "HUF",
    "maturityInDays_val": 755,
    "issueDate": "2020.09.02",
    "longName": "A260422E20"
}