{
    "askPrice": "91,2175",
    "green": 0,
    "coupon": "1,50 %",
    "accruedInterest": "1,1639",
    "settleDate": "2024.01.31",
    "askEhmYield": "5,82",
    "bidYield": "6,48",
    "rawName": "2026/E",
    "bidPrice": "89,9757",
    "coupon_val": 1.5,
    "maturityInDays": "812 nap",
    "securityType": "KTV",
    "maturityDate": "2026.04.22",
    "name": "2026/E",
    "bidEhmYield": "6,48",
    "askYield": "5,82",
    "currency": "HUF",
    "maturityInDays_val": 812,
    "issueDate": "2020.09.02",
    "longName": "A260422E20"
}