{
    "askPrice": "90,5907",
    "green": 0,
    "coupon": "1,50 %",
    "accruedInterest": "1,4590",
    "settleDate": "2024.04.12",
    "askEhmYield": "6,61",
    "bidYield": "7,26",
    "rawName": "2026/E",
    "bidPrice": "89,4899",
    "coupon_val": 1.5,
    "maturityInDays": "740 nap",
    "securityType": "KTV",
    "maturityDate": "2026.04.22",
    "name": "2026/E",
    "bidEhmYield": "7,26",
    "askYield": "6,61",
    "currency": "HUF",
    "maturityInDays_val": 740,
    "issueDate": "2020.09.02",
    "longName": "A260422E20"
}