{
    "askPrice": "90,9767",
    "green": 0,
    "coupon": "1,50 %",
    "accruedInterest": "1,3934",
    "settleDate": "2024.03.27",
    "askEhmYield": "6,28",
    "bidYield": "6,93",
    "rawName": "2026/E",
    "bidPrice": "89,8442",
    "coupon_val": 1.5,
    "maturityInDays": "756 nap",
    "securityType": "KTV",
    "maturityDate": "2026.04.22",
    "name": "2026/E",
    "bidEhmYield": "6,93",
    "askYield": "6,28",
    "currency": "HUF",
    "maturityInDays_val": 756,
    "issueDate": "2020.09.02",
    "longName": "A260422E20"
}