{
    "askPrice": "91,4866",
    "green": 0,
    "coupon": "1,50 %",
    "accruedInterest": "1,1885",
    "settleDate": "2024.02.06",
    "askEhmYield": "5,71",
    "bidYield": "6,36",
    "rawName": "2026/E",
    "bidPrice": "90,2674",
    "coupon_val": 1.5,
    "maturityInDays": "806 nap",
    "securityType": "KTV",
    "maturityDate": "2026.04.22",
    "name": "2026/E",
    "bidEhmYield": "6,36",
    "askYield": "5,71",
    "currency": "HUF",
    "maturityInDays_val": 806,
    "issueDate": "2020.09.02",
    "longName": "A260422E20"
}