{
    "askPrice": "",
    "green": 0,
    "coupon": "3,00 %",
    "accruedInterest": "2,36",
    "settleDate": "2022.10.18",
    "askEhmYield": "",
    "bidYield": "5,35",
    "rawName": "K2023/01",
    "bidPrice": "99,50",
    "coupon_val": 3,
    "maturityInDays": "78 nap",
    "securityType": "1MÁP",
    "maturityDate": "2023.01.04",
    "name": "K2023/01",
    "bidEhmYield": "5,24",
    "askYield": "",
    "currency": "HUF",
    "maturityInDays_val": 78,
    "longName": "K230104"
}