{
    "askPrice": "",
    "green": 0,
    "coupon": "3,00 %",
    "accruedInterest": "1,81",
    "settleDate": "2022.08.12",
    "askEhmYield": "",
    "bidYield": "",
    "rawName": "K2023/01",
    "bidPrice": "99,50",
    "coupon_val": 3,
    "maturityInDays": "145 nap",
    "securityType": "1MÁP",
    "maturityDate": "2023.01.04",
    "name": "K2023/01",
    "bidEhmYield": "4,20",
    "askYield": "",
    "currency": "HUF",
    "maturityInDays_val": 145,
    "longName": "K230104"
}