{
    "askPrice": "",
    "green": 0,
    "coupon": "3,00 %",
    "accruedInterest": "2,41",
    "settleDate": "2022.10.24",
    "askEhmYield": "",
    "bidYield": "5,55",
    "rawName": "K2023/01",
    "bidPrice": "99,50",
    "coupon_val": 3,
    "maturityInDays": "72 nap",
    "securityType": "1MÁP",
    "maturityDate": "2023.01.04",
    "name": "K2023/01",
    "bidEhmYield": "5,43",
    "askYield": "",
    "currency": "HUF",
    "maturityInDays_val": 72,
    "longName": "K230104"
}