{
    "askPrice": "",
    "green": 0,
    "coupon": "3,00 %",
    "accruedInterest": "2,8685",
    "settleDate": "2022.12.19",
    "askEhmYield": "",
    "bidYield": "20,31",
    "rawName": "K2023/01",
    "bidPrice": "99,3000",
    "coupon_val": 3,
    "maturityInDays": "16 nap",
    "securityType": "1MÁP",
    "maturityDate": "2023.01.04",
    "name": "K2023/01",
    "bidEhmYield": "18,57",
    "askYield": "",
    "currency": "HUF",
    "maturityInDays_val": 16,
    "issueDate": "2022.01.04",
    "longName": "K230104"
}