{
    "askPrice": "",
    "green": 0,
    "coupon": "3,00 %",
    "accruedInterest": "2,01",
    "settleDate": "2022.09.05",
    "askEhmYield": "",
    "bidYield": "",
    "rawName": "K2023/01",
    "bidPrice": "99,50",
    "coupon_val": 3,
    "maturityInDays": "121 nap",
    "securityType": "1MÁP",
    "maturityDate": "2023.01.04",
    "name": "K2023/01",
    "bidEhmYield": "4,44",
    "askYield": "",
    "currency": "HUF",
    "maturityInDays_val": 121,
    "longName": "K230104"
}