{
    "askPrice": "",
    "green": 0,
    "coupon": "3,00 %",
    "accruedInterest": "1,46",
    "settleDate": "2022.07.01",
    "askEhmYield": "",
    "bidYield": "",
    "rawName": "K2023/01",
    "bidPrice": "99,50",
    "coupon_val": 3,
    "maturityInDays": "187 nap",
    "securityType": "1MÁP",
    "maturityDate": "2023.01.04",
    "name": "K2023/01",
    "bidEhmYield": "3,94",
    "askYield": "",
    "currency": "HUF",
    "maturityInDays_val": 187,
    "longName": "K230104"
}