{
    "askPrice": "",
    "green": 0,
    "coupon": "3,00 %",
    "accruedInterest": "2,53",
    "settleDate": "2022.11.08",
    "askEhmYield": "",
    "bidYield": "6,24",
    "rawName": "K2023/01",
    "bidPrice": "99,50",
    "coupon_val": 3,
    "maturityInDays": "57 nap",
    "securityType": "1MÁP",
    "maturityDate": "2023.01.04",
    "name": "K2023/01",
    "bidEhmYield": "6,08",
    "askYield": "",
    "currency": "HUF",
    "maturityInDays_val": 57,
    "issueDate": "2022-01-04",
    "longName": "K230104"
}