{
    "askPrice": "",
    "green": 0,
    "coupon": "3,50 %",
    "accruedInterest": "0,3164",
    "settleDate": "2022.12.23",
    "askEhmYield": "",
    "bidYield": "6,03",
    "rawName": "N2024/26",
    "bidPrice": "99,5000",
    "coupon_val": 3.5,
    "maturityInDays": "710 nap",
    "securityType": "MÁP Plusz",
    "maturityDate": "2024.12.02",
    "name": "N2024/26",
    "bidEhmYield": "",
    "askYield": "",
    "currency": "HUF",
    "maturityInDays_val": 710,
    "issueDate": "2019.12.02",
    "longName": "N241202"
}