{
    "askPrice": "",
    "green": 0,
    "coupon": "3,50 %",
    "accruedInterest": "3,23",
    "settleDate": "2022.07.26",
    "askEhmYield": "",
    "bidYield": "",
    "rawName": "N2024/26",
    "bidPrice": "99,50",
    "coupon_val": 3.5,
    "maturityInDays": "860 nap",
    "securityType": "MÁP Plusz",
    "maturityDate": "2024.12.02",
    "name": "N2024/26",
    "bidEhmYield": "",
    "askYield": "",
    "currency": "HUF",
    "maturityInDays_val": 860,
    "longName": "N241202"
}