{
    "askPrice": "",
    "green": 0,
    "coupon": "3,50 %",
    "accruedInterest": "4,77",
    "settleDate": "2022.11.15",
    "askEhmYield": "",
    "bidYield": "5,99",
    "rawName": "N2024/26",
    "bidPrice": "99,50",
    "coupon_val": 3.5,
    "maturityInDays": "748 nap",
    "securityType": "MÁP Plusz",
    "maturityDate": "2024.12.02",
    "name": "N2024/26",
    "bidEhmYield": "",
    "askYield": "",
    "currency": "HUF",
    "maturityInDays_val": 748,
    "issueDate": "2019-12-02",
    "longName": "N241202"
}