{
    "askPrice": "",
    "green": 0,
    "coupon": "3,50 %",
    "accruedInterest": "0,1967",
    "settleDate": "2023.12.14",
    "askEhmYield": "",
    "bidYield": "6,54",
    "rawName": "N2024/26",
    "bidPrice": "99,5000",
    "coupon_val": 3.5,
    "maturityInDays": "354 nap",
    "securityType": "MÁP Plusz",
    "maturityDate": "2024.12.02",
    "name": "N2024/26",
    "bidEhmYield": "",
    "askYield": "",
    "currency": "HUF",
    "maturityInDays_val": 354,
    "issueDate": "2019.12.02",
    "longName": "N241202"
}