{
    "askPrice": "",
    "green": 0,
    "coupon": "3,50 %",
    "accruedInterest": "1,7479",
    "settleDate": "2023.03.28",
    "askEhmYield": "",
    "bidYield": "6,09",
    "rawName": "N2024/26",
    "bidPrice": "99,5000",
    "coupon_val": 3.5,
    "maturityInDays": "615 nap",
    "securityType": "MÁP Plusz",
    "maturityDate": "2024.12.02",
    "name": "N2024/26",
    "bidEhmYield": "",
    "askYield": "",
    "currency": "HUF",
    "maturityInDays_val": 615,
    "issueDate": "2019.12.02",
    "longName": "N241202"
}