{
    "askPrice": "",
    "green": 0,
    "coupon": "3,50 %",
    "accruedInterest": "0,56",
    "settleDate": "2022.11.08",
    "askEhmYield": "",
    "bidYield": "5,69",
    "rawName": "N2025/39",
    "bidPrice": "99,50",
    "coupon_val": 3.5,
    "maturityInDays": "1055 nap",
    "securityType": "MÁP Plusz",
    "maturityDate": "2025.09.28",
    "name": "N2025/39",
    "bidEhmYield": "",
    "askYield": "",
    "currency": "HUF",
    "maturityInDays_val": 1055,
    "issueDate": "2020-09-28",
    "longName": "N250928"
}