{
    "askPrice": "",
    "green": 0,
    "coupon": "3,50 %",
    "accruedInterest": "0,36",
    "settleDate": "2022.10.24",
    "askEhmYield": "",
    "bidYield": "5,68",
    "rawName": "N2025/39",
    "bidPrice": "99,50",
    "coupon_val": 3.5,
    "maturityInDays": "1070 nap",
    "securityType": "MÁP Plusz",
    "maturityDate": "2025.09.28",
    "name": "N2025/39",
    "bidEhmYield": "",
    "askYield": "",
    "currency": "HUF",
    "maturityInDays_val": 1070,
    "longName": "N250928"
}