{
    "askPrice": "",
    "green": 0,
    "coupon": "3,50 %",
    "accruedInterest": "0,9863",
    "settleDate": "2022.12.09",
    "askEhmYield": "",
    "bidYield": "5,71",
    "rawName": "N2025/39",
    "bidPrice": "99,5000",
    "coupon_val": 3.5,
    "maturityInDays": "1024 nap",
    "securityType": "MÁP Plusz",
    "maturityDate": "2025.09.28",
    "name": "N2025/39",
    "bidEhmYield": "",
    "askYield": "",
    "currency": "HUF",
    "maturityInDays_val": 1024,
    "issueDate": "2020.09.28",
    "longName": "N250928"
}