{
    "askPrice": "",
    "green": 0,
    "coupon": "3,50 %",
    "accruedInterest": "4,40",
    "settleDate": "2022.09.20",
    "askEhmYield": "",
    "bidYield": "",
    "rawName": "N2025/39",
    "bidPrice": "99,50",
    "coupon_val": 3.5,
    "maturityInDays": "1104 nap",
    "securityType": "MÁP Plusz",
    "maturityDate": "2025.09.28",
    "name": "N2025/39",
    "bidEhmYield": "",
    "askYield": "",
    "currency": "HUF",
    "maturityInDays_val": 1104,
    "longName": "N250928"
}