{
    "askPrice": "",
    "green": 0,
    "coupon": "3,50 %",
    "accruedInterest": "1,2172",
    "settleDate": "2023.12.18",
    "askEhmYield": "",
    "bidYield": "6,06",
    "rawName": "N2025/39",
    "bidPrice": "99,5000",
    "coupon_val": 3.5,
    "maturityInDays": "650 nap",
    "securityType": "MÁP Plusz",
    "maturityDate": "2025.09.28",
    "name": "N2025/39",
    "bidEhmYield": "",
    "askYield": "",
    "currency": "HUF",
    "maturityInDays_val": 650,
    "issueDate": "2020.09.28",
    "longName": "N250928"
}