{
    "askPrice": "",
    "green": 0,
    "coupon": "3,50 %",
    "accruedInterest": "0,0751",
    "settleDate": "2023.10.03",
    "askEhmYield": "",
    "bidYield": "5,74",
    "rawName": "N2025/39",
    "bidPrice": "100,0000",
    "coupon_val": 3.5,
    "maturityInDays": "726 nap",
    "securityType": "MÁP Plusz",
    "maturityDate": "2025.09.28",
    "name": "N2025/39",
    "bidEhmYield": "",
    "askYield": "",
    "currency": "HUF",
    "maturityInDays_val": 726,
    "issueDate": "2020.09.28",
    "longName": "N250928"
}