{
    "askPrice": "",
    "green": 0,
    "coupon": "3,50 %",
    "accruedInterest": "4,7671",
    "settleDate": "2023.09.11",
    "askEhmYield": "",
    "bidYield": "5,99",
    "rawName": "N2025/39",
    "bidPrice": "99,5000",
    "coupon_val": 3.5,
    "maturityInDays": "748 nap",
    "securityType": "MÁP Plusz",
    "maturityDate": "2025.09.28",
    "name": "N2025/39",
    "bidEhmYield": "",
    "askYield": "",
    "currency": "HUF",
    "maturityInDays_val": 748,
    "issueDate": "2020.09.28",
    "longName": "N250928"
}