{
    "askPrice": "",
    "green": 0,
    "coupon": "3,50 %",
    "accruedInterest": "3,4262",
    "settleDate": "2024.05.13",
    "askEhmYield": "",
    "bidYield": "6,22",
    "rawName": "N2025/39",
    "bidPrice": "99,5000",
    "coupon_val": 3.5,
    "maturityInDays": "503 nap",
    "securityType": "MÁP Plusz",
    "maturityDate": "2025.09.28",
    "name": "N2025/39",
    "bidEhmYield": "",
    "askYield": "",
    "currency": "HUF",
    "maturityInDays_val": 503,
    "issueDate": "2020.09.28",
    "longName": "N250928"
}