{
    "askPrice": "",
    "green": 0,
    "coupon": 0,
    "accruedInterest": 0,
    "settleDate": "2024.03.11",
    "askEhmYield": "",
    "bidYield": "7,52",
    "rawName": "D240403",
    "bidPrice": "99,5219",
    "maturityInDays": "23 nap",
    "securityType": "DKJ",
    "maturityDate": "2024.04.03",
    "name": "D240403",
    "bidEhmYield": "7,62",
    "askYield": "",
    "currency": "HUF",
    "maturityInDays_val": 23,
    "issueDate": "2024.01.03",
    "longName": "D240403"
}