{
    "askPrice": "98,8859",
    "green": 0,
    "coupon": 0,
    "accruedInterest": 0,
    "settleDate": "2024.01.29",
    "askEhmYield": "6,33",
    "bidYield": "7,60",
    "rawName": "D240403",
    "bidPrice": "98,6464",
    "maturityInDays": "65 nap",
    "securityType": "DKJ",
    "maturityDate": "2024.04.03",
    "name": "D240403",
    "bidEhmYield": "7,71",
    "askYield": "6,24",
    "currency": "HUF",
    "maturityInDays_val": 65,
    "issueDate": "2024.01.03",
    "longName": "D240403"
}