{
    "askPrice": "",
    "green": 0,
    "coupon": "3,50 %",
    "accruedInterest": "0,4686",
    "settleDate": "2024.02.14",
    "askEhmYield": "",
    "bidYield": "5,06",
    "rawName": "N2028/52",
    "bidPrice": "99,5000",
    "coupon_val": 3.5,
    "maturityInDays": "1778 nap",
    "securityType": "MÁP Plusz",
    "maturityDate": "2028.12.27",
    "name": "N2028/52",
    "bidEhmYield": "",
    "askYield": "",
    "currency": "HUF",
    "maturityInDays_val": 1778,
    "issueDate": "2023.12.27",
    "longName": "N281227"
}