{
    "askPrice": "",
    "green": 0,
    "coupon": "3,50 %",
    "accruedInterest": "0,01",
    "settleDate": "2022.08.01",
    "askEhmYield": "",
    "bidYield": "",
    "rawName": "N2027/05",
    "bidPrice": "99,50",
    "coupon_val": 3.5,
    "maturityInDays": "1644 nap",
    "securityType": "MÁP Plusz",
    "maturityDate": "2027.01.31",
    "name": "N2027/05",
    "bidEhmYield": "",
    "askYield": "",
    "currency": "HUF",
    "maturityInDays_val": 1644,
    "longName": "N270131"
}