{
    "askPrice": "",
    "green": 0,
    "coupon": "3,50 %",
    "accruedInterest": "2,4041",
    "settleDate": "2023.08.14",
    "askEhmYield": "",
    "bidYield": "5,49",
    "rawName": "N2027/05",
    "bidPrice": "99,5000",
    "coupon_val": 3.5,
    "maturityInDays": "1266 nap",
    "securityType": "MÁP Plusz",
    "maturityDate": "2027.01.31",
    "name": "N2027/05",
    "bidEhmYield": "",
    "askYield": "",
    "currency": "HUF",
    "maturityInDays_val": 1266,
    "issueDate": "2022.01.31",
    "longName": "N270131"
}