{
    "askPrice": "",
    "green": 0,
    "coupon": "3,50 %",
    "accruedInterest": "0,8743",
    "settleDate": "2024.04.04",
    "askEhmYield": "",
    "bidYield": "5,70",
    "rawName": "N2027/05",
    "bidPrice": "99,5000",
    "coupon_val": 3.5,
    "maturityInDays": "1032 nap",
    "securityType": "MÁP Plusz",
    "maturityDate": "2027.01.31",
    "name": "N2027/05",
    "bidEhmYield": "",
    "askYield": "",
    "currency": "HUF",
    "maturityInDays_val": 1032,
    "issueDate": "2022.01.31",
    "longName": "N270131"
}