{
    "askPrice": "",
    "green": 0,
    "coupon": "8,00 %",
    "accruedInterest": "0,2630",
    "settleDate": "2023.11.06",
    "askEhmYield": "",
    "bidYield": "9,09",
    "rawName": "K2024/43",
    "bidPrice": "99,0000",
    "coupon_val": 8,
    "maturityInDays": "354 nap",
    "securityType": "1MÁP",
    "maturityDate": "2024.10.25",
    "name": "K2024/43",
    "bidEhmYield": "9,08",
    "askYield": "",
    "currency": "HUF",
    "maturityInDays_val": 354,
    "issueDate": "2023.10.25",
    "longName": "K241025"
}