{
    "askPrice": "",
    "green": 0,
    "coupon": "8,00 %",
    "accruedInterest": "0,6137",
    "settleDate": "2023.11.22",
    "askEhmYield": "",
    "bidYield": "9,12",
    "rawName": "K2024/43",
    "bidPrice": "99,0000",
    "coupon_val": 8,
    "maturityInDays": "338 nap",
    "securityType": "1MÁP",
    "maturityDate": "2024.10.25",
    "name": "K2024/43",
    "bidEhmYield": "9,09",
    "askYield": "",
    "currency": "HUF",
    "maturityInDays_val": 338,
    "issueDate": "2023.10.25",
    "longName": "K241025"
}