{
    "askPrice": "",
    "green": 0,
    "coupon": "8,00 %",
    "accruedInterest": "1,5342",
    "settleDate": "2024.01.03",
    "askEhmYield": "",
    "bidYield": "9,23",
    "rawName": "K2024/43",
    "bidPrice": "99,0000",
    "coupon_val": 8,
    "maturityInDays": "296 nap",
    "securityType": "1MÁP",
    "maturityDate": "2024.10.25",
    "name": "K2024/43",
    "bidEhmYield": "9,16",
    "askYield": "",
    "currency": "HUF",
    "maturityInDays_val": 296,
    "issueDate": "2023.10.25",
    "longName": "K241025"
}