{
    "askPrice": "",
    "green": 0,
    "coupon": "8,00 %",
    "accruedInterest": "3,5068",
    "settleDate": "2024.04.03",
    "askEhmYield": "",
    "bidYield": "9,74",
    "rawName": "K2024/43",
    "bidPrice": "99,0000",
    "coupon_val": 8,
    "maturityInDays": "205 nap",
    "securityType": "1MÁP",
    "maturityDate": "2024.10.25",
    "name": "K2024/43",
    "bidEhmYield": "9,50",
    "askYield": "",
    "currency": "HUF",
    "maturityInDays_val": 205,
    "issueDate": "2023.10.25",
    "longName": "K241025"
}