{
    "askPrice": "",
    "green": 0,
    "coupon": "8,00 %",
    "accruedInterest": "4,1425",
    "settleDate": "2024.05.02",
    "askEhmYield": "",
    "bidYield": "10,01",
    "rawName": "K2024/43",
    "bidPrice": "99,0000",
    "coupon_val": 8,
    "maturityInDays": "176 nap",
    "securityType": "1MÁP",
    "maturityDate": "2024.10.25",
    "name": "K2024/43",
    "bidEhmYield": "9,72",
    "askYield": "",
    "currency": "HUF",
    "maturityInDays_val": 176,
    "issueDate": "2023.10.25",
    "longName": "K241025"
}