{
    "askPrice": "",
    "green": 0,
    "coupon": "8,00 %",
    "accruedInterest": "1,6438",
    "settleDate": "2024.01.08",
    "askEhmYield": "",
    "bidYield": "9,25",
    "rawName": "K2024/43",
    "bidPrice": "99,0000",
    "coupon_val": 8,
    "maturityInDays": "291 nap",
    "securityType": "1MÁP",
    "maturityDate": "2024.10.25",
    "name": "K2024/43",
    "bidEhmYield": "9,17",
    "askYield": "",
    "currency": "HUF",
    "maturityInDays_val": 291,
    "issueDate": "2023.10.25",
    "longName": "K241025"
}