{
    "askPrice": "",
    "green": 0,
    "coupon": "8,00 %",
    "accruedInterest": "2,8712",
    "settleDate": "2024.03.04",
    "askEhmYield": "",
    "bidYield": "9,50",
    "rawName": "K2024/43",
    "bidPrice": "99,0000",
    "coupon_val": 8,
    "maturityInDays": "235 nap",
    "securityType": "1MÁP",
    "maturityDate": "2024.10.25",
    "name": "K2024/43",
    "bidEhmYield": "9,34",
    "askYield": "",
    "currency": "HUF",
    "maturityInDays_val": 235,
    "issueDate": "2023.10.25",
    "longName": "K241025"
}