{
    "askPrice": "",
    "green": 0,
    "coupon": "8,00 %",
    "accruedInterest": "2,7616",
    "settleDate": "2024.02.28",
    "askEhmYield": "",
    "bidYield": "9,47",
    "rawName": "K2024/43",
    "bidPrice": "99,0000",
    "coupon_val": 8,
    "maturityInDays": "240 nap",
    "securityType": "1MÁP",
    "maturityDate": "2024.10.25",
    "name": "K2024/43",
    "bidEhmYield": "9,32",
    "askYield": "",
    "currency": "HUF",
    "maturityInDays_val": 240,
    "issueDate": "2023.10.25",
    "longName": "K241025"
}