{
    "askPrice": "",
    "green": 0,
    "coupon": "8,00 %",
    "accruedInterest": "3,9233",
    "settleDate": "2024.04.22",
    "askEhmYield": "",
    "bidYield": "9,91",
    "rawName": "K2024/43",
    "bidPrice": "99,0000",
    "coupon_val": 8,
    "maturityInDays": "186 nap",
    "securityType": "1MÁP",
    "maturityDate": "2024.10.25",
    "name": "K2024/43",
    "bidEhmYield": "9,64",
    "askYield": "",
    "currency": "HUF",
    "maturityInDays_val": 186,
    "issueDate": "2023.10.25",
    "longName": "K241025"
}