{
    "askPrice": "",
    "green": 0,
    "coupon": "3,50 %",
    "accruedInterest": "0,0217",
    "settleDate": "2023.07.11",
    "askEhmYield": "",
    "bidYield": "5,08",
    "rawName": "N2028/02",
    "bidPrice": "100,0000",
    "coupon_val": 3.5,
    "maturityInDays": "1643 nap",
    "securityType": "MÁP Plusz",
    "maturityDate": "2028.01.09",
    "name": "N2028/02",
    "bidEhmYield": "",
    "askYield": "",
    "currency": "HUF",
    "maturityInDays_val": 1643,
    "issueDate": "2023.01.09",
    "longName": "N280109"
}