{
    "askPrice": "",
    "green": 0,
    "coupon": "3,50 %",
    "accruedInterest": "1,4239",
    "settleDate": "2023.11.17",
    "askEhmYield": "",
    "bidYield": "5,31",
    "rawName": "N2028/02",
    "bidPrice": "99,5000",
    "coupon_val": 3.5,
    "maturityInDays": "1514 nap",
    "securityType": "MÁP Plusz",
    "maturityDate": "2028.01.09",
    "name": "N2028/02",
    "bidEhmYield": "",
    "askYield": "",
    "currency": "HUF",
    "maturityInDays_val": 1514,
    "issueDate": "2023.01.09",
    "longName": "N280109"
}