{
    "askPrice": "",
    "green": 0,
    "coupon": "3,50 %",
    "accruedInterest": "1,5326",
    "settleDate": "2023.11.27",
    "askEhmYield": "",
    "bidYield": "5,32",
    "rawName": "N2028/02",
    "bidPrice": "99,5000",
    "coupon_val": 3.5,
    "maturityInDays": "1504 nap",
    "securityType": "MÁP Plusz",
    "maturityDate": "2028.01.09",
    "name": "N2028/02",
    "bidEhmYield": "",
    "askYield": "",
    "currency": "HUF",
    "maturityInDays_val": 1504,
    "issueDate": "2023.01.09",
    "longName": "N280109"
}