{
    "askPrice": "",
    "green": 0,
    "coupon": "3,50 %",
    "accruedInterest": "0,6762",
    "settleDate": "2024.03.04",
    "askEhmYield": "",
    "bidYield": "5,39",
    "rawName": "N2028/02",
    "bidPrice": "99,5000",
    "coupon_val": 3.5,
    "maturityInDays": "1406 nap",
    "securityType": "MÁP Plusz",
    "maturityDate": "2028.01.09",
    "name": "N2028/02",
    "bidEhmYield": "",
    "askYield": "",
    "currency": "HUF",
    "maturityInDays_val": 1406,
    "issueDate": "2023.01.09",
    "longName": "N280109"
}