{
    "askPrice": "",
    "green": 0,
    "coupon": "3,50 %",
    "accruedInterest": 0,
    "settleDate": "2024.01.08",
    "askEhmYield": "",
    "bidYield": "",
    "rawName": "N2028/02",
    "bidPrice": "",
    "coupon_val": 3.5,
    "maturityInDays": "1462 nap",
    "securityType": "MÁP Plusz",
    "maturityDate": "2028.01.09",
    "name": "N2028/02",
    "bidEhmYield": "",
    "askYield": "",
    "currency": "HUF",
    "maturityInDays_val": 1462,
    "issueDate": "2023.01.09",
    "longName": "N280109"
}