{
    "askPrice": "",
    "green": 0,
    "coupon": 0,
    "accruedInterest": 0,
    "settleDate": "2023.06.28",
    "askEhmYield": "",
    "bidYield": "10,96",
    "rawName": "D230712",
    "bidPrice": "99,5756",
    "maturityInDays": "14 nap",
    "securityType": "DKJ",
    "maturityDate": "2023.07.12",
    "name": "D230712",
    "bidEhmYield": "11,11",
    "askYield": "",
    "currency": "HUF",
    "maturityInDays_val": 14,
    "issueDate": "2023.04.12",
    "longName": "D230712"
}