{
    "askPrice": "99,1223",
    "green": 0,
    "coupon": 0,
    "accruedInterest": 0,
    "settleDate": "2023.06.16",
    "askEhmYield": "12,43",
    "bidYield": "13,42",
    "rawName": "D230712",
    "bidPrice": "99,0401",
    "maturityInDays": "26 nap",
    "securityType": "DKJ",
    "maturityDate": "2023.07.12",
    "name": "D230712",
    "bidEhmYield": "13,61",
    "askYield": "12,26",
    "currency": "HUF",
    "maturityInDays_val": 26,
    "issueDate": "2023.04.12",
    "longName": "D230712"
}