{
    "askPrice": "97,5449",
    "green": 0,
    "coupon": 0,
    "accruedInterest": 0,
    "settleDate": "2023.05.08",
    "askEhmYield": "14,13",
    "bidYield": "15,25",
    "rawName": "D230712",
    "bidPrice": "97,3203",
    "maturityInDays": "65 nap",
    "securityType": "DKJ",
    "maturityDate": "2023.07.12",
    "name": "D230712",
    "bidEhmYield": "15,46",
    "askYield": "13,94",
    "currency": "HUF",
    "maturityInDays_val": 65,
    "issueDate": "2023.04.12",
    "longName": "D230712"
}