{
    "askPrice": "",
    "green": 0,
    "coupon": 0,
    "accruedInterest": 0,
    "settleDate": "2023.07.04",
    "askEhmYield": "",
    "bidYield": "10,95",
    "rawName": "D230712",
    "bidPrice": "99,7573",
    "maturityInDays": "8 nap",
    "securityType": "DKJ",
    "maturityDate": "2023.07.12",
    "name": "D230712",
    "bidEhmYield": "11,10",
    "askYield": "",
    "currency": "HUF",
    "maturityInDays_val": 8,
    "issueDate": "2023.04.12",
    "longName": "D230712"
}