{
    "askPrice": "97,4050",
    "green": 0,
    "coupon": 0,
    "accruedInterest": 0,
    "settleDate": "2023.05.04",
    "askEhmYield": "14,09",
    "bidYield": "15,20",
    "rawName": "D230712",
    "bidPrice": "97,1691",
    "maturityInDays": "69 nap",
    "securityType": "DKJ",
    "maturityDate": "2023.07.12",
    "name": "D230712",
    "bidEhmYield": "15,41",
    "askYield": "13,90",
    "currency": "HUF",
    "maturityInDays_val": 69,
    "issueDate": "2023.04.12",
    "longName": "D230712"
}