{
    "askPrice": "",
    "green": 0,
    "coupon": "3,50 %",
    "accruedInterest": "1,0865",
    "settleDate": "2024.05.07",
    "askEhmYield": "",
    "bidYield": "5,12",
    "rawName": "N2029/03",
    "bidPrice": "99,5000",
    "coupon_val": 3.5,
    "maturityInDays": "1714 nap",
    "securityType": "MÁP Plusz",
    "maturityDate": "2029.01.15",
    "name": "N2029/03",
    "bidEhmYield": "",
    "askYield": "",
    "currency": "HUF",
    "maturityInDays_val": 1714,
    "issueDate": "2024.01.15",
    "longName": "N290115"
}