{
    "askPrice": "",
    "green": 0,
    "coupon": "3,50 %",
    "accruedInterest": "0,6346",
    "settleDate": "2024.03.28",
    "askEhmYield": "",
    "bidYield": "5,08",
    "rawName": "N2029/04",
    "bidPrice": "99,5000",
    "coupon_val": 3.5,
    "maturityInDays": "1761 nap",
    "securityType": "MÁP Plusz",
    "maturityDate": "2029.01.22",
    "name": "N2029/04",
    "bidEhmYield": "",
    "askYield": "",
    "currency": "HUF",
    "maturityInDays_val": 1761,
    "issueDate": "2024.01.22",
    "longName": "N290122"
}