{
    "askPrice": "",
    "green": 0,
    "coupon": "3,00 %",
    "accruedInterest": "2,5233",
    "settleDate": "2022.12.12",
    "askEhmYield": "",
    "bidYield": "9,51",
    "rawName": "K2023/06",
    "bidPrice": "99,0000",
    "coupon_val": 3,
    "maturityInDays": "58 nap",
    "securityType": "1MÁP",
    "maturityDate": "2023.02.08",
    "name": "K2023/06",
    "bidEhmYield": "9,15",
    "askYield": "",
    "currency": "HUF",
    "maturityInDays_val": 58,
    "issueDate": "2022.02.08",
    "longName": "K230208"
}