{
    "askPrice": "",
    "green": 0,
    "coupon": "3,00 %",
    "accruedInterest": "2,03",
    "settleDate": "2022.10.13",
    "askEhmYield": "",
    "bidYield": "",
    "rawName": "K2023/06",
    "bidPrice": "99,50",
    "coupon_val": 3,
    "maturityInDays": "118 nap",
    "securityType": "1MÁP",
    "maturityDate": "2023.02.08",
    "name": "K2023/06",
    "bidEhmYield": "4,48",
    "askYield": "",
    "currency": "HUF",
    "maturityInDays_val": 118,
    "longName": "K230208"
}