{
    "askPrice": "",
    "green": 0,
    "coupon": "3,00 %",
    "accruedInterest": "2,24",
    "settleDate": "2022.11.08",
    "askEhmYield": "",
    "bidYield": "4,99",
    "rawName": "K2023/06",
    "bidPrice": "99,50",
    "coupon_val": 3,
    "maturityInDays": "92 nap",
    "securityType": "1MÁP",
    "maturityDate": "2023.02.08",
    "name": "K2023/06",
    "bidEhmYield": "4,90",
    "askYield": "",
    "currency": "HUF",
    "maturityInDays_val": 92,
    "issueDate": "2022-02-08",
    "longName": "K230208"
}