{
    "askPrice": "",
    "green": 0,
    "coupon": "3,00 %",
    "accruedInterest": "2,4164",
    "settleDate": "2022.11.29",
    "askEhmYield": "",
    "bidYield": "5,59",
    "rawName": "K2023/06",
    "bidPrice": "99,5000",
    "coupon_val": 3,
    "maturityInDays": "71 nap",
    "securityType": "1MÁP",
    "maturityDate": "2023.02.08",
    "name": "K2023/06",
    "bidEhmYield": "5,47",
    "askYield": "",
    "currency": "HUF",
    "maturityInDays_val": 71,
    "issueDate": "2022.02.08",
    "longName": "K230208"
}