{
    "askPrice": "",
    "green": 0,
    "coupon": "3,00 %",
    "accruedInterest": "1,14",
    "settleDate": "2022.06.27",
    "askEhmYield": "",
    "bidYield": "",
    "rawName": "K2023/06",
    "bidPrice": "99,50",
    "coupon_val": 3,
    "maturityInDays": "226 nap",
    "securityType": "1MÁP",
    "maturityDate": "2023.02.08",
    "name": "K2023/06",
    "bidEhmYield": "3,78",
    "askYield": "",
    "currency": "HUF",
    "maturityInDays_val": 226,
    "longName": "K230208"
}