{
    "askPrice": "",
    "green": 0,
    "coupon": "3,00 %",
    "accruedInterest": "2,4986",
    "settleDate": "2022.12.09",
    "askEhmYield": "",
    "bidYield": "9,18",
    "rawName": "K2023/06",
    "bidPrice": "99,0000",
    "coupon_val": 3,
    "maturityInDays": "61 nap",
    "securityType": "1MÁP",
    "maturityDate": "2023.02.08",
    "name": "K2023/06",
    "bidEhmYield": "8,85",
    "askYield": "",
    "currency": "HUF",
    "maturityInDays_val": 61,
    "issueDate": "2022.02.08",
    "longName": "K230208"
}