{
    "askPrice": "",
    "green": 0,
    "coupon": "3,00 %",
    "accruedInterest": "2,3589",
    "settleDate": "2022.11.22",
    "askEhmYield": "",
    "bidYield": "5,35",
    "rawName": "K2023/06",
    "bidPrice": "99,5000",
    "coupon_val": 3,
    "maturityInDays": "78 nap",
    "securityType": "1MÁP",
    "maturityDate": "2023.02.08",
    "name": "K2023/06",
    "bidEhmYield": "5,24",
    "askYield": "",
    "currency": "HUF",
    "maturityInDays_val": 78,
    "issueDate": "2022.02.08",
    "longName": "K230208"
}