{
    "askPrice": "",
    "green": 0,
    "coupon": "3,00 %",
    "accruedInterest": "2,7699",
    "settleDate": "2023.01.11",
    "askEhmYield": "",
    "bidYield": "16,96",
    "rawName": "K2023/06",
    "bidPrice": "99,0000",
    "coupon_val": 3,
    "maturityInDays": "28 nap",
    "securityType": "1MÁP",
    "maturityDate": "2023.02.08",
    "name": "K2023/06",
    "bidEhmYield": "15,76",
    "askYield": "",
    "currency": "HUF",
    "maturityInDays_val": 28,
    "issueDate": "2022.02.08",
    "longName": "K230208"
}