{
    "askPrice": "",
    "green": 0,
    "coupon": "3,50 %",
    "accruedInterest": "4,44",
    "settleDate": "2022.11.11",
    "askEhmYield": "",
    "bidYield": "5,66",
    "rawName": "N2025/46",
    "bidPrice": "99,50",
    "coupon_val": 3.5,
    "maturityInDays": "1101 nap",
    "securityType": "MÁP Plusz",
    "maturityDate": "2025.11.16",
    "name": "N2025/46",
    "bidEhmYield": "",
    "askYield": "",
    "currency": "HUF",
    "maturityInDays_val": 1101,
    "issueDate": "2020-11-16",
    "longName": "N251116"
}