{
    "askPrice": "",
    "green": 0,
    "coupon": "3,50 %",
    "accruedInterest": "2,93",
    "settleDate": "2022.07.12",
    "askEhmYield": "",
    "bidYield": "",
    "rawName": "N2025/46",
    "bidPrice": "99,50",
    "coupon_val": 3.5,
    "maturityInDays": "1223 nap",
    "securityType": "MÁP Plusz",
    "maturityDate": "2025.11.16",
    "name": "N2025/46",
    "bidEhmYield": "",
    "askYield": "",
    "currency": "HUF",
    "maturityInDays_val": 1223,
    "longName": "N251116"
}