{
    "askPrice": "",
    "green": 0,
    "coupon": "3,50 %",
    "accruedInterest": "2,6986",
    "settleDate": "2023.06.01",
    "askEhmYield": "",
    "bidYield": "5,80",
    "rawName": "N2025/46",
    "bidPrice": "99,5000",
    "coupon_val": 3.5,
    "maturityInDays": "899 nap",
    "securityType": "MÁP Plusz",
    "maturityDate": "2025.11.16",
    "name": "N2025/46",
    "bidEhmYield": "",
    "askYield": "",
    "currency": "HUF",
    "maturityInDays_val": 899,
    "issueDate": "2020.11.16",
    "longName": "N251116"
}