{
    "askPrice": "",
    "green": 0,
    "coupon": "3,50 %",
    "accruedInterest": "3,4384",
    "settleDate": "2023.07.25",
    "askEhmYield": "",
    "bidYield": "5,86",
    "rawName": "N2025/46",
    "bidPrice": "99,5000",
    "coupon_val": 3.5,
    "maturityInDays": "845 nap",
    "securityType": "MÁP Plusz",
    "maturityDate": "2025.11.16",
    "name": "N2025/46",
    "bidEhmYield": "",
    "askYield": "",
    "currency": "HUF",
    "maturityInDays_val": 845,
    "issueDate": "2020.11.16",
    "longName": "N251116"
}