{
    "askPrice": "",
    "green": 0,
    "coupon": "3,50 %",
    "accruedInterest": "0,8493",
    "settleDate": "2023.01.17",
    "askEhmYield": "",
    "bidYield": "5,70",
    "rawName": "N2025/46",
    "bidPrice": "99,5000",
    "coupon_val": 3.5,
    "maturityInDays": "1034 nap",
    "securityType": "MÁP Plusz",
    "maturityDate": "2025.11.16",
    "name": "N2025/46",
    "bidEhmYield": "",
    "askYield": "",
    "currency": "HUF",
    "maturityInDays_val": 1034,
    "issueDate": "2020.11.16",
    "longName": "N251116"
}