{
    "askPrice": "",
    "green": 0,
    "coupon": "3,50 %",
    "accruedInterest": "1,0369",
    "settleDate": "2024.01.24",
    "askEhmYield": "",
    "bidYield": "6,05",
    "rawName": "N2025/46",
    "bidPrice": "99,5000",
    "coupon_val": 3.5,
    "maturityInDays": "662 nap",
    "securityType": "MÁP Plusz",
    "maturityDate": "2025.11.16",
    "name": "N2025/46",
    "bidEhmYield": "",
    "askYield": "",
    "currency": "HUF",
    "maturityInDays_val": 662,
    "issueDate": "2020.11.16",
    "longName": "N251116"
}