{
    "askPrice": "",
    "green": 0,
    "coupon": "3,50 %",
    "accruedInterest": "1,1120",
    "settleDate": "2024.01.29",
    "askEhmYield": "",
    "bidYield": "6,06",
    "rawName": "N2025/46",
    "bidPrice": "99,5000",
    "coupon_val": 3.5,
    "maturityInDays": "657 nap",
    "securityType": "MÁP Plusz",
    "maturityDate": "2025.11.16",
    "name": "N2025/46",
    "bidEhmYield": "",
    "askYield": "",
    "currency": "HUF",
    "maturityInDays_val": 657,
    "issueDate": "2020.11.16",
    "longName": "N251116"
}