{
    "askPrice": "",
    "green": 0,
    "coupon": "3,50 %",
    "accruedInterest": "0,42",
    "settleDate": "2022.09.02",
    "askEhmYield": "",
    "bidYield": "",
    "rawName": "N2024/09",
    "bidPrice": "99,50",
    "coupon_val": 3.5,
    "maturityInDays": "703 nap",
    "securityType": "MÁP Plusz",
    "maturityDate": "2024.08.05",
    "name": "N2024/09",
    "bidEhmYield": "",
    "askYield": "",
    "currency": "HUF",
    "maturityInDays_val": 703,
    "longName": "N240805"
}