{
    "askPrice": "",
    "green": 0,
    "coupon": "3,50 %",
    "accruedInterest": 0,
    "settleDate": "2022.08.04",
    "askEhmYield": "",
    "bidYield": "",
    "rawName": "N2024/09",
    "bidPrice": "",
    "coupon_val": 3.5,
    "maturityInDays": "732 nap",
    "securityType": "MÁP Plusz",
    "maturityDate": "2024.08.05",
    "name": "N2024/09",
    "bidEhmYield": "",
    "askYield": "",
    "currency": "HUF",
    "maturityInDays_val": 732,
    "longName": "N240805"
}