{
    "askPrice": "",
    "green": 0,
    "coupon": "3,50 %",
    "accruedInterest": "1,27",
    "settleDate": "2022.10.28",
    "askEhmYield": "",
    "bidYield": "6,07",
    "rawName": "N2024/09",
    "bidPrice": "99,50",
    "coupon_val": 3.5,
    "maturityInDays": "647 nap",
    "securityType": "MÁP Plusz",
    "maturityDate": "2024.08.05",
    "name": "N2024/09",
    "bidEhmYield": "",
    "askYield": "",
    "currency": "HUF",
    "maturityInDays_val": 647,
    "longName": "N240805"
}