{
    "askPrice": "",
    "green": 0,
    "coupon": "3,50 %",
    "accruedInterest": "1,0820",
    "settleDate": "2023.10.10",
    "askEhmYield": "",
    "bidYield": "6,61",
    "rawName": "N2024/09",
    "bidPrice": "99,5000",
    "coupon_val": 3.5,
    "maturityInDays": "300 nap",
    "securityType": "MÁP Plusz",
    "maturityDate": "2024.08.05",
    "name": "N2024/09",
    "bidEhmYield": "",
    "askYield": "",
    "currency": "HUF",
    "maturityInDays_val": 300,
    "issueDate": "2019.08.05",
    "longName": "N240805"
}