{
    "askPrice": "",
    "green": 0,
    "coupon": null,
    "accruedInterest": "2,02",
    "settleDate": "2022.07.19",
    "askEhmYield": "",
    "bidYield": "",
    "rawName": "2027/X_EUR",
    "bidPrice": "99,00",
    "maturityInDays": "1886 nap",
    "securityType": "PEMÁP",
    "maturityDate": "2027.09.17",
    "name": "2027/X_EUR",
    "bidEhmYield": "",
    "askYield": "",
    "currency": "EUR",
    "maturityInDays_val": 1886,
    "longName": "C270917X21"
}