{
    "askPrice": "",
    "green": 0,
    "coupon": null,
    "accruedInterest": "1,25",
    "settleDate": "2022.11.02",
    "askEhmYield": "",
    "bidYield": "",
    "rawName": "2027/X_EUR",
    "bidPrice": "99,00",
    "maturityInDays": "1780 nap",
    "securityType": "PEMÁP",
    "maturityDate": "2027.09.17",
    "name": "2027/X_EUR",
    "bidEhmYield": "",
    "askYield": "",
    "currency": "EUR",
    "maturityInDays_val": 1780,
    "issueDate": "2021-12-14",
    "longName": "C270917X21"
}