{
    "askPrice": "99,1374",
    "green": 0,
    "coupon": 0,
    "accruedInterest": 0,
    "settleDate": "2023.08.30",
    "askEhmYield": "9,07",
    "bidYield": "10,23",
    "rawName": "D231004",
    "bidPrice": "99,0152",
    "maturityInDays": "35 nap",
    "securityType": "DKJ",
    "maturityDate": "2023.10.04",
    "name": "D231004",
    "bidEhmYield": "10,37",
    "askYield": "8,95",
    "currency": "HUF",
    "maturityInDays_val": 35,
    "issueDate": "2023.07.05",
    "longName": "D231004"
}