{
    "askPrice": "",
    "green": 0,
    "coupon": 0,
    "accruedInterest": 0,
    "settleDate": "2023.09.18",
    "askEhmYield": "",
    "bidYield": "10,25",
    "rawName": "D231004",
    "bidPrice": "99,5465",
    "maturityInDays": "16 nap",
    "securityType": "DKJ",
    "maturityDate": "2023.10.04",
    "name": "D231004",
    "bidEhmYield": "10,39",
    "askYield": "",
    "currency": "HUF",
    "maturityInDays_val": 16,
    "issueDate": "2023.07.05",
    "longName": "D231004"
}