{
    "askPrice": "98,5258",
    "green": 0,
    "coupon": 0,
    "accruedInterest": 0,
    "settleDate": "2023.08.08",
    "askEhmYield": "9,58",
    "bidYield": "10,75",
    "rawName": "D231004",
    "bidPrice": "98,3264",
    "maturityInDays": "57 nap",
    "securityType": "DKJ",
    "maturityDate": "2023.10.04",
    "name": "D231004",
    "bidEhmYield": "10,90",
    "askYield": "9,45",
    "currency": "HUF",
    "maturityInDays_val": 57,
    "issueDate": "2023.07.05",
    "longName": "D231004"
}