{
    "askPrice": "98,1039",
    "green": 0,
    "coupon": 0,
    "accruedInterest": 0,
    "settleDate": "2023.07.25",
    "askEhmYield": "9,94",
    "bidYield": "11,12",
    "rawName": "D231004",
    "bidPrice": "97,8540",
    "maturityInDays": "71 nap",
    "securityType": "DKJ",
    "maturityDate": "2023.10.04",
    "name": "D231004",
    "bidEhmYield": "11,27",
    "askYield": "9,80",
    "currency": "HUF",
    "maturityInDays_val": 71,
    "issueDate": "2023.07.05",
    "longName": "D231004"
}