{
    "askPrice": "99,0132",
    "green": 0,
    "coupon": 0,
    "accruedInterest": 0,
    "settleDate": "2023.08.25",
    "askEhmYield": "9,09",
    "bidYield": "10,27",
    "rawName": "D231004",
    "bidPrice": "98,8718",
    "maturityInDays": "40 nap",
    "securityType": "DKJ",
    "maturityDate": "2023.10.04",
    "name": "D231004",
    "bidEhmYield": "10,41",
    "askYield": "8,97",
    "currency": "HUF",
    "maturityInDays_val": 40,
    "issueDate": "2023.07.05",
    "longName": "D231004"
}