{
    "askPrice": "",
    "green": 0,
    "coupon": 0,
    "accruedInterest": 0,
    "settleDate": "2023.09.11",
    "askEhmYield": "",
    "bidYield": "10,23",
    "rawName": "D231004",
    "bidPrice": "99,3507",
    "maturityInDays": "23 nap",
    "securityType": "DKJ",
    "maturityDate": "2023.10.04",
    "name": "D231004",
    "bidEhmYield": "10,37",
    "askYield": "",
    "currency": "HUF",
    "maturityInDays_val": 23,
    "issueDate": "2023.07.05",
    "longName": "D231004"
}