{
    "askPrice": "98,4052",
    "green": 0,
    "coupon": 0,
    "accruedInterest": 0,
    "settleDate": "2023.08.03",
    "askEhmYield": "9,54",
    "bidYield": "10,73",
    "rawName": "D231004",
    "bidPrice": "98,1856",
    "maturityInDays": "62 nap",
    "securityType": "DKJ",
    "maturityDate": "2023.10.04",
    "name": "D231004",
    "bidEhmYield": "10,88",
    "askYield": "9,41",
    "currency": "HUF",
    "maturityInDays_val": 62,
    "issueDate": "2023.07.05",
    "longName": "D231004"
}