{
    "askPrice": "",
    "green": 0,
    "coupon": "4,25 %",
    "accruedInterest": "0,88",
    "settleDate": "2022.08.29",
    "askEhmYield": "",
    "bidYield": "",
    "rawName": "K2023/24",
    "bidPrice": "99,50",
    "coupon_val": 4.25,
    "maturityInDays": "289 nap",
    "securityType": "1MÁP",
    "maturityDate": "2023.06.14",
    "name": "K2023/24",
    "bidEhmYield": "4,86",
    "askYield": "",
    "currency": "HUF",
    "maturityInDays_val": 289,
    "longName": "K230614"
}