{
    "askPrice": "",
    "green": 0,
    "coupon": "4,25 %",
    "accruedInterest": "2,1075",
    "settleDate": "2022.12.12",
    "askEhmYield": "",
    "bidYield": "6,26",
    "rawName": "K2023/24",
    "bidPrice": "99,0000",
    "coupon_val": 4.25,
    "maturityInDays": "184 nap",
    "securityType": "1MÁP",
    "maturityDate": "2023.06.14",
    "name": "K2023/24",
    "bidEhmYield": "6,17",
    "askYield": "",
    "currency": "HUF",
    "maturityInDays_val": 184,
    "issueDate": "2022.06.14",
    "longName": "K230614"
}