{
    "askPrice": "",
    "green": 0,
    "coupon": "4,25 %",
    "accruedInterest": "1,55",
    "settleDate": "2022.10.25",
    "askEhmYield": "",
    "bidYield": "5,03",
    "rawName": "K2023/24",
    "bidPrice": "99,50",
    "coupon_val": 4.25,
    "maturityInDays": "232 nap",
    "securityType": "1MÁP",
    "maturityDate": "2023.06.14",
    "name": "K2023/24",
    "bidEhmYield": "4,98",
    "askYield": "",
    "currency": "HUF",
    "maturityInDays_val": 232,
    "longName": "K230614"
}