{
    "askPrice": "",
    "green": 0,
    "coupon": "4,25 %",
    "accruedInterest": "1,22",
    "settleDate": "2022.09.27",
    "askEhmYield": "",
    "bidYield": "",
    "rawName": "K2023/24",
    "bidPrice": "99,50",
    "coupon_val": 4.25,
    "maturityInDays": "260 nap",
    "securityType": "1MÁP",
    "maturityDate": "2023.06.14",
    "name": "K2023/24",
    "bidEhmYield": "4,92",
    "askYield": "",
    "currency": "HUF",
    "maturityInDays_val": 260,
    "longName": "K230614"
}