{
    "askPrice": "",
    "green": 0,
    "coupon": "4,25 %",
    "accruedInterest": "2,8062",
    "settleDate": "2023.02.10",
    "askEhmYield": "",
    "bidYield": "7,23",
    "rawName": "K2023/24",
    "bidPrice": "99,0000",
    "coupon_val": 4.25,
    "maturityInDays": "124 nap",
    "securityType": "1MÁP",
    "maturityDate": "2023.06.14",
    "name": "K2023/24",
    "bidEhmYield": "7,07",
    "askYield": "",
    "currency": "HUF",
    "maturityInDays_val": 124,
    "issueDate": "2022.06.14",
    "longName": "K230614"
}