{
    "askPrice": "",
    "green": 0,
    "coupon": "4,25 %",
    "accruedInterest": "3,2836",
    "settleDate": "2023.03.23",
    "askEhmYield": "",
    "bidYield": "8,73",
    "rawName": "K2023/24",
    "bidPrice": "99,0000",
    "coupon_val": 4.25,
    "maturityInDays": "83 nap",
    "securityType": "1MÁP",
    "maturityDate": "2023.06.14",
    "name": "K2023/24",
    "bidEhmYield": "8,45",
    "askYield": "",
    "currency": "HUF",
    "maturityInDays_val": 83,
    "issueDate": "2022.06.14",
    "longName": "K230614"
}