{
    "askPrice": "",
    "green": 0,
    "coupon": "4,25 %",
    "accruedInterest": "3,5979",
    "settleDate": "2023.04.19",
    "askEhmYield": "",
    "bidYield": "10,97",
    "rawName": "K2023/24",
    "bidPrice": "99,0000",
    "coupon_val": 4.25,
    "maturityInDays": "56 nap",
    "securityType": "1MÁP",
    "maturityDate": "2023.06.14",
    "name": "K2023/24",
    "bidEhmYield": "10,50",
    "askYield": "",
    "currency": "HUF",
    "maturityInDays_val": 56,
    "issueDate": "2022.06.14",
    "longName": "K230614"
}