{
    "askPrice": "",
    "green": 0,
    "coupon": "4,25 %",
    "accruedInterest": "4,1103",
    "settleDate": "2023.06.02",
    "askEhmYield": "",
    "bidYield": "27,89",
    "rawName": "K2023/24",
    "bidPrice": "99,3000",
    "coupon_val": 4.25,
    "maturityInDays": "12 nap",
    "securityType": "1MÁP",
    "maturityDate": "2023.06.14",
    "name": "K2023/24",
    "bidEhmYield": "24,70",
    "askYield": "",
    "currency": "HUF",
    "maturityInDays_val": 12,
    "issueDate": "2022.06.14",
    "longName": "K230614"
}