{
    "askPrice": "",
    "green": 0,
    "coupon": "4,25 %",
    "accruedInterest": "3,4116",
    "settleDate": "2023.04.03",
    "askEhmYield": "",
    "bidYield": "9,44",
    "rawName": "K2023/24",
    "bidPrice": "99,0000",
    "coupon_val": 4.25,
    "maturityInDays": "72 nap",
    "securityType": "1MÁP",
    "maturityDate": "2023.06.14",
    "name": "K2023/24",
    "bidEhmYield": "9,10",
    "askYield": "",
    "currency": "HUF",
    "maturityInDays_val": 72,
    "issueDate": "2022.06.14",
    "longName": "K230614"
}