{
    "askPrice": "",
    "green": 0,
    "coupon": "4,25 %",
    "accruedInterest": "2,6897",
    "settleDate": "2023.01.31",
    "askEhmYield": "",
    "bidYield": "7,01",
    "rawName": "K2023/24",
    "bidPrice": "99,0000",
    "coupon_val": 4.25,
    "maturityInDays": "134 nap",
    "securityType": "1MÁP",
    "maturityDate": "2023.06.14",
    "name": "K2023/24",
    "bidEhmYield": "6,86",
    "askYield": "",
    "currency": "HUF",
    "maturityInDays_val": 134,
    "issueDate": "2022.06.14",
    "longName": "K230614"
}