{
    "askPrice": "",
    "green": 0,
    "coupon": "4,25 %",
    "accruedInterest": "2,9575",
    "settleDate": "2023.02.23",
    "askEhmYield": "",
    "bidYield": "7,59",
    "rawName": "K2023/24",
    "bidPrice": "99,0000",
    "coupon_val": 4.25,
    "maturityInDays": "111 nap",
    "securityType": "1MÁP",
    "maturityDate": "2023.06.14",
    "name": "K2023/24",
    "bidEhmYield": "7,39",
    "askYield": "",
    "currency": "HUF",
    "maturityInDays_val": 111,
    "issueDate": "2022.06.14",
    "longName": "K230614"
}