{
    "askPrice": "",
    "green": 0,
    "coupon": "4,25 %",
    "accruedInterest": "3,7493",
    "settleDate": "2023.05.02",
    "askEhmYield": "",
    "bidYield": "13,10",
    "rawName": "K2023/24",
    "bidPrice": "99,0000",
    "coupon_val": 4.25,
    "maturityInDays": "43 nap",
    "securityType": "1MÁP",
    "maturityDate": "2023.06.14",
    "name": "K2023/24",
    "bidEhmYield": "12,40",
    "askYield": "",
    "currency": "HUF",
    "maturityInDays_val": 43,
    "issueDate": "2022.06.14",
    "longName": "K230614"
}