{
    "askPrice": "",
    "green": 0,
    "coupon": "4,25 %",
    "accruedInterest": "3,0274",
    "settleDate": "2023.03.01",
    "askEhmYield": "",
    "bidYield": "7,78",
    "rawName": "K2023/24",
    "bidPrice": "99,0000",
    "coupon_val": 4.25,
    "maturityInDays": "105 nap",
    "securityType": "1MÁP",
    "maturityDate": "2023.06.14",
    "name": "K2023/24",
    "bidEhmYield": "7,57",
    "askYield": "",
    "currency": "HUF",
    "maturityInDays_val": 105,
    "issueDate": "2022.06.14",
    "longName": "K230614"
}