{
    "askPrice": "",
    "green": 0,
    "coupon": "3,50 %",
    "accruedInterest": "1,01",
    "settleDate": "2022.08.23",
    "askEhmYield": "",
    "bidYield": "",
    "rawName": "N2024/02",
    "bidPrice": "99,50",
    "coupon_val": 3.5,
    "maturityInDays": "664 nap",
    "securityType": "MÁP Plusz",
    "maturityDate": "2024.06.17",
    "name": "N2024/02",
    "bidEhmYield": "",
    "askYield": "",
    "currency": "HUF",
    "maturityInDays_val": 664,
    "longName": "N240617"
}