{
    "askPrice": "",
    "green": 0,
    "coupon": "3,50 %",
    "accruedInterest": "1,9836",
    "settleDate": "2023.10.16",
    "askEhmYield": "",
    "bidYield": "6,72",
    "rawName": "N2024/02",
    "bidPrice": "99,5000",
    "coupon_val": 3.5,
    "maturityInDays": "245 nap",
    "securityType": "MÁP Plusz",
    "maturityDate": "2024.06.17",
    "name": "N2024/02",
    "bidEhmYield": "",
    "askYield": "",
    "currency": "HUF",
    "maturityInDays_val": 245,
    "issueDate": "2019.06.17",
    "longName": "N240617"
}