{
    "askPrice": "",
    "green": 0,
    "coupon": "3,50 %",
    "accruedInterest": "3,1342",
    "settleDate": "2023.01.11",
    "askEhmYield": "",
    "bidYield": "6,19",
    "rawName": "N2024/02",
    "bidPrice": "99,5000",
    "coupon_val": 3.5,
    "maturityInDays": "523 nap",
    "securityType": "MÁP Plusz",
    "maturityDate": "2024.06.17",
    "name": "N2024/02",
    "bidEhmYield": "",
    "askYield": "",
    "currency": "HUF",
    "maturityInDays_val": 523,
    "issueDate": "2019.06.17",
    "longName": "N240617"
}