{
    "askPrice": "",
    "green": 0,
    "coupon": "3,50 %",
    "accruedInterest": "4,5574",
    "settleDate": "2024.03.21",
    "askEhmYield": "",
    "bidYield": "8,00",
    "rawName": "N2024/02",
    "bidPrice": "99,5000",
    "coupon_val": 3.5,
    "maturityInDays": "88 nap",
    "securityType": "MÁP Plusz",
    "maturityDate": "2024.06.17",
    "name": "N2024/02",
    "bidEhmYield": "",
    "askYield": "",
    "currency": "HUF",
    "maturityInDays_val": 88,
    "issueDate": "2019.06.17",
    "longName": "N240617"
}