{
    "askPrice": "",
    "green": 0,
    "coupon": "3,50 %",
    "accruedInterest": "3,2787",
    "settleDate": "2024.01.03",
    "askEhmYield": "",
    "bidYield": "7,04",
    "rawName": "N2024/02",
    "bidPrice": "99,5000",
    "coupon_val": 3.5,
    "maturityInDays": "166 nap",
    "securityType": "MÁP Plusz",
    "maturityDate": "2024.06.17",
    "name": "N2024/02",
    "bidEhmYield": "",
    "askYield": "",
    "currency": "HUF",
    "maturityInDays_val": 166,
    "issueDate": "2019.06.17",
    "longName": "N240617"
}