{
    "askPrice": "",
    "green": 0,
    "coupon": "3,50 %",
    "accruedInterest": "1,05",
    "settleDate": "2022.10.21",
    "askEhmYield": "",
    "bidYield": "6,06",
    "rawName": "N2024/10",
    "bidPrice": "99,50",
    "coupon_val": 3.5,
    "maturityInDays": "661 nap",
    "securityType": "MÁP Plusz",
    "maturityDate": "2024.08.12",
    "name": "N2024/10",
    "bidEhmYield": "",
    "askYield": "",
    "currency": "HUF",
    "maturityInDays_val": 661,
    "longName": "N240812"
}