{
    "askPrice": "",
    "green": 0,
    "coupon": "3,50 %",
    "accruedInterest": "0,06",
    "settleDate": "2022.08.16",
    "askEhmYield": "",
    "bidYield": "",
    "rawName": "N2024/10",
    "bidPrice": "100,00",
    "coupon_val": 3.5,
    "maturityInDays": "727 nap",
    "securityType": "MÁP Plusz",
    "maturityDate": "2024.08.12",
    "name": "N2024/10",
    "bidEhmYield": "",
    "askYield": "",
    "currency": "HUF",
    "maturityInDays_val": 727,
    "longName": "N240812"
}