{
    "askPrice": "",
    "green": 0,
    "coupon": "3,50 %",
    "accruedInterest": "1,6425",
    "settleDate": "2022.11.29",
    "askEhmYield": "",
    "bidYield": "6,08",
    "rawName": "N2024/10",
    "bidPrice": "99,5000",
    "coupon_val": 3.5,
    "maturityInDays": "622 nap",
    "securityType": "MÁP Plusz",
    "maturityDate": "2024.08.12",
    "name": "N2024/10",
    "bidEhmYield": "",
    "askYield": "",
    "currency": "HUF",
    "maturityInDays_val": 622,
    "issueDate": "2019.08.12",
    "longName": "N240812"
}