{
    "askPrice": "",
    "green": 0,
    "coupon": "3,50 %",
    "accruedInterest": "1,42",
    "settleDate": "2022.11.14",
    "askEhmYield": "",
    "bidYield": "6,07",
    "rawName": "N2024/10",
    "bidPrice": "99,50",
    "coupon_val": 3.5,
    "maturityInDays": "637 nap",
    "securityType": "MÁP Plusz",
    "maturityDate": "2024.08.12",
    "name": "N2024/10",
    "bidEhmYield": "",
    "askYield": "",
    "currency": "HUF",
    "maturityInDays_val": 637,
    "issueDate": "2019-08-12",
    "longName": "N240812"
}