{
    "askPrice": "",
    "green": 0,
    "coupon": "3,50 %",
    "accruedInterest": "0,93",
    "settleDate": "2022.10.13",
    "askEhmYield": "",
    "bidYield": "",
    "rawName": "N2024/10",
    "bidPrice": "99,50",
    "coupon_val": 3.5,
    "maturityInDays": "669 nap",
    "securityType": "MÁP Plusz",
    "maturityDate": "2024.08.12",
    "name": "N2024/10",
    "bidEhmYield": "",
    "askYield": "",
    "currency": "HUF",
    "maturityInDays_val": 669,
    "longName": "N240812"
}