{
    "askPrice": "",
    "green": 0,
    "coupon": "3,50 %",
    "accruedInterest": "2,4863",
    "settleDate": "2023.01.24",
    "askEhmYield": "",
    "bidYield": "6,14",
    "rawName": "N2024/10",
    "bidPrice": "99,5000",
    "coupon_val": 3.5,
    "maturityInDays": "566 nap",
    "securityType": "MÁP Plusz",
    "maturityDate": "2024.08.12",
    "name": "N2024/10",
    "bidEhmYield": "",
    "askYield": "",
    "currency": "HUF",
    "maturityInDays_val": 566,
    "issueDate": "2019.08.12",
    "longName": "N240812"
}