{
    "askPrice": "",
    "green": 0,
    "coupon": "3,50 %",
    "accruedInterest": "1,2295",
    "settleDate": "2023.10.26",
    "askEhmYield": "",
    "bidYield": "6,62",
    "rawName": "N2024/10",
    "bidPrice": "99,5000",
    "coupon_val": 3.5,
    "maturityInDays": "291 nap",
    "securityType": "MÁP Plusz",
    "maturityDate": "2024.08.12",
    "name": "N2024/10",
    "bidEhmYield": "",
    "askYield": "",
    "currency": "HUF",
    "maturityInDays_val": 291,
    "issueDate": "2019.08.12",
    "longName": "N240812"
}