{
    "askPrice": "",
    "green": 0,
    "coupon": "3,50 %",
    "accruedInterest": "4,3279",
    "settleDate": "2024.05.02",
    "askEhmYield": "",
    "bidYield": "7,71",
    "rawName": "N2024/10",
    "bidPrice": "99,5000",
    "coupon_val": 3.5,
    "maturityInDays": "102 nap",
    "securityType": "MÁP Plusz",
    "maturityDate": "2024.08.12",
    "name": "N2024/10",
    "bidEhmYield": "",
    "askYield": "",
    "currency": "HUF",
    "maturityInDays_val": 102,
    "issueDate": "2019.08.12",
    "longName": "N240812"
}