{
    "askPrice": "",
    "green": 0,
    "coupon": "3,50 %",
    "accruedInterest": "3,8361",
    "settleDate": "2024.04.02",
    "askEhmYield": "",
    "bidYield": "7,31",
    "rawName": "N2024/10",
    "bidPrice": "99,5000",
    "coupon_val": 3.5,
    "maturityInDays": "132 nap",
    "securityType": "MÁP Plusz",
    "maturityDate": "2024.08.12",
    "name": "N2024/10",
    "bidEhmYield": "",
    "askYield": "",
    "currency": "HUF",
    "maturityInDays_val": 132,
    "issueDate": "2019.08.12",
    "longName": "N240812"
}