{
    "askPrice": "100,0000",
    "green": 0,
    "coupon": null,
    "accruedInterest": "0,4317",
    "settleDate": "2024.02.28",
    "askEhmYield": "",
    "bidYield": "",
    "rawName": "2032/J",
    "bidPrice": "99,0000",
    "maturityInDays": "2976 nap",
    "securityType": "PMÁP",
    "maturityDate": "2032.04.22",
    "name": "2032/J",
    "bidEhmYield": "",
    "askYield": "",
    "currency": "HUF",
    "maturityInDays_val": 2976,
    "issueDate": "2024.02.08",
    "longName": "A320422J24"
}