{
    "askPrice": "",
    "green": 0,
    "coupon": "3,50 %",
    "accruedInterest": "1,32",
    "settleDate": "2022.10.24",
    "askEhmYield": "",
    "bidYield": "5,72",
    "rawName": "N2025/29",
    "bidPrice": "99,50",
    "coupon_val": 3.5,
    "maturityInDays": "1000 nap",
    "securityType": "MÁP Plusz",
    "maturityDate": "2025.07.20",
    "name": "N2025/29",
    "bidEhmYield": "",
    "askYield": "",
    "currency": "HUF",
    "maturityInDays_val": 1000,
    "longName": "N250720"
}