{
    "askPrice": "",
    "green": 0,
    "coupon": "3,50 %",
    "accruedInterest": "1,51",
    "settleDate": "2022.11.07",
    "askEhmYield": "",
    "bidYield": "5,73",
    "rawName": "N2025/29",
    "bidPrice": "99,50",
    "coupon_val": 3.5,
    "maturityInDays": "986 nap",
    "securityType": "MÁP Plusz",
    "maturityDate": "2025.07.20",
    "name": "N2025/29",
    "bidEhmYield": "",
    "askYield": "",
    "currency": "HUF",
    "maturityInDays_val": 986,
    "issueDate": "2020-07-20",
    "longName": "N250720"
}