{
    "askPrice": "",
    "green": 0,
    "coupon": "3,50 %",
    "accruedInterest": "1,9863",
    "settleDate": "2022.12.12",
    "askEhmYield": "",
    "bidYield": "5,76",
    "rawName": "N2025/29",
    "bidPrice": "99,5000",
    "coupon_val": 3.5,
    "maturityInDays": "951 nap",
    "securityType": "MÁP Plusz",
    "maturityDate": "2025.07.20",
    "name": "N2025/29",
    "bidEhmYield": "",
    "askYield": "",
    "currency": "HUF",
    "maturityInDays_val": 951,
    "issueDate": "2020.07.20",
    "longName": "N250720"
}