{
    "askPrice": "",
    "green": 0,
    "coupon": "3,50 %",
    "accruedInterest": "1,55",
    "settleDate": "2022.11.10",
    "askEhmYield": "",
    "bidYield": "5,74",
    "rawName": "N2025/29",
    "bidPrice": "99,50",
    "coupon_val": 3.5,
    "maturityInDays": "983 nap",
    "securityType": "MÁP Plusz",
    "maturityDate": "2025.07.20",
    "name": "N2025/29",
    "bidEhmYield": "",
    "askYield": "",
    "currency": "HUF",
    "maturityInDays_val": 983,
    "issueDate": "2020-07-20",
    "longName": "N250720"
}