{
    "askPrice": "",
    "green": 0,
    "coupon": "3,50 %",
    "accruedInterest": "0,77",
    "settleDate": "2022.09.14",
    "askEhmYield": "",
    "bidYield": "",
    "rawName": "N2025/29",
    "bidPrice": "99,50",
    "coupon_val": 3.5,
    "maturityInDays": "1040 nap",
    "securityType": "MÁP Plusz",
    "maturityDate": "2025.07.20",
    "name": "N2025/29",
    "bidEhmYield": "",
    "askYield": "",
    "currency": "HUF",
    "maturityInDays_val": 1040,
    "longName": "N250720"
}