{
    "askPrice": "",
    "green": 0,
    "coupon": "3,50 %",
    "accruedInterest": "2,3288",
    "settleDate": "2023.01.06",
    "askEhmYield": "",
    "bidYield": "5,78",
    "rawName": "N2025/29",
    "bidPrice": "99,5000",
    "coupon_val": 3.5,
    "maturityInDays": "926 nap",
    "securityType": "MÁP Plusz",
    "maturityDate": "2025.07.20",
    "name": "N2025/29",
    "bidEhmYield": "",
    "askYield": "",
    "currency": "HUF",
    "maturityInDays_val": 926,
    "issueDate": "2020.07.20",
    "longName": "N250720"
}