{
    "askPrice": "",
    "green": 0,
    "coupon": 0,
    "accruedInterest": 0,
    "settleDate": "2023.10.24",
    "askEhmYield": "",
    "bidYield": "7,75",
    "rawName": "D231031",
    "bidPrice": "99,8495",
    "maturityInDays": "7 nap",
    "securityType": "DKJ",
    "maturityDate": "2023.10.31",
    "name": "D231031",
    "bidEhmYield": "7,86",
    "askYield": "",
    "currency": "HUF",
    "maturityInDays_val": 7,
    "issueDate": "2023.08.02",
    "longName": "D231031"
}