{
    "askPrice": "98,8323",
    "green": 0,
    "coupon": 0,
    "accruedInterest": 0,
    "settleDate": "2023.09.14",
    "askEhmYield": "9,18",
    "bidYield": "10,25",
    "rawName": "D231031",
    "bidPrice": "98,6795",
    "maturityInDays": "47 nap",
    "securityType": "DKJ",
    "maturityDate": "2023.10.31",
    "name": "D231031",
    "bidEhmYield": "10,39",
    "askYield": "9,05",
    "currency": "HUF",
    "maturityInDays_val": 47,
    "issueDate": "2023.08.02",
    "longName": "D231031"
}