{
    "askPrice": "",
    "green": 0,
    "coupon": 0,
    "accruedInterest": 0,
    "settleDate": "2023.10.04",
    "askEhmYield": "",
    "bidYield": "9,05",
    "rawName": "D231031",
    "bidPrice": "99,3258",
    "maturityInDays": "27 nap",
    "securityType": "DKJ",
    "maturityDate": "2023.10.31",
    "name": "D231031",
    "bidEhmYield": "9,18",
    "askYield": "",
    "currency": "HUF",
    "maturityInDays_val": 27,
    "issueDate": "2023.08.02",
    "longName": "D231031"
}