{
    "askPrice": "97,8765",
    "green": 0,
    "coupon": 0,
    "accruedInterest": 0,
    "settleDate": "2023.08.09",
    "askEhmYield": "9,54",
    "bidYield": "10,74",
    "rawName": "D231031",
    "bidPrice": "97,5837",
    "maturityInDays": "83 nap",
    "securityType": "DKJ",
    "maturityDate": "2023.10.31",
    "name": "D231031",
    "bidEhmYield": "10,89",
    "askYield": "9,41",
    "currency": "HUF",
    "maturityInDays_val": 83,
    "issueDate": "2023.08.02",
    "longName": "D231031"
}