{
    "askPrice": "98,5303",
    "green": 0,
    "coupon": 0,
    "accruedInterest": 0,
    "settleDate": "2023.09.01",
    "askEhmYield": "9,07",
    "bidYield": "10,25",
    "rawName": "D231031",
    "bidPrice": "98,3204",
    "maturityInDays": "60 nap",
    "securityType": "DKJ",
    "maturityDate": "2023.10.31",
    "name": "D231031",
    "bidEhmYield": "10,39",
    "askYield": "8,95",
    "currency": "HUF",
    "maturityInDays_val": 60,
    "issueDate": "2023.08.02",
    "longName": "D231031"
}