{
    "askPrice": "98,7951",
    "green": 0,
    "coupon": 0,
    "accruedInterest": 0,
    "settleDate": "2023.09.12",
    "askEhmYield": "9,08",
    "bidYield": "10,25",
    "rawName": "D231031",
    "bidPrice": "98,6241",
    "maturityInDays": "49 nap",
    "securityType": "DKJ",
    "maturityDate": "2023.10.31",
    "name": "D231031",
    "bidEhmYield": "10,39",
    "askYield": "8,96",
    "currency": "HUF",
    "maturityInDays_val": 49,
    "issueDate": "2023.08.02",
    "longName": "D231031"
}