{
    "askPrice": "99,0862",
    "green": 0,
    "coupon": 0,
    "accruedInterest": 0,
    "settleDate": "2023.09.21",
    "askEhmYield": "8,42",
    "bidYield": "9,64",
    "rawName": "D231031",
    "bidPrice": "98,9402",
    "maturityInDays": "40 nap",
    "securityType": "DKJ",
    "maturityDate": "2023.10.31",
    "name": "D231031",
    "bidEhmYield": "9,77",
    "askYield": "8,30",
    "currency": "HUF",
    "maturityInDays_val": 40,
    "issueDate": "2023.08.02",
    "longName": "D231031"
}