{
    "askPrice": "",
    "green": 0,
    "coupon": null,
    "accruedInterest": "3,38",
    "settleDate": "2022.11.17",
    "askEhmYield": "",
    "bidYield": "",
    "rawName": "2026/X_EUR",
    "bidPrice": "99,00",
    "maturityInDays": "1471 nap",
    "securityType": "PEMÁP",
    "maturityDate": "2026.11.27",
    "name": "2026/X_EUR",
    "bidEhmYield": "",
    "askYield": "",
    "currency": "EUR",
    "maturityInDays_val": 1471,
    "issueDate": "2021-06-08",
    "longName": "C261127X21"
}