{
    "askPrice": "",
    "green": 0,
    "coupon": null,
    "accruedInterest": "1,77",
    "settleDate": "2022.08.26",
    "askEhmYield": "",
    "bidYield": "",
    "rawName": "2026/X_EUR",
    "bidPrice": "99,00",
    "maturityInDays": "1554 nap",
    "securityType": "PEMÁP",
    "maturityDate": "2026.11.27",
    "name": "2026/X_EUR",
    "bidEhmYield": "",
    "askYield": "",
    "currency": "EUR",
    "maturityInDays_val": 1554,
    "longName": "C261127X21"
}