{
    "askPrice": "",
    "green": 0,
    "coupon": null,
    "accruedInterest": "2,10",
    "settleDate": "2022.09.12",
    "askEhmYield": "",
    "bidYield": "",
    "rawName": "2026/X_EUR",
    "bidPrice": "99,00",
    "maturityInDays": "1537 nap",
    "securityType": "PEMÁP",
    "maturityDate": "2026.11.27",
    "name": "2026/X_EUR",
    "bidEhmYield": "",
    "askYield": "",
    "currency": "EUR",
    "maturityInDays_val": 1537,
    "longName": "C261127X21"
}