{
    "askPrice": "",
    "green": 0,
    "coupon": 0,
    "accruedInterest": 0,
    "settleDate": "2023.04.26",
    "askEhmYield": "",
    "bidYield": "15,15",
    "rawName": "D230503",
    "bidPrice": "99,7063",
    "maturityInDays": "7 nap",
    "securityType": "DKJ",
    "maturityDate": "2023.05.03",
    "name": "D230503",
    "bidEhmYield": "15,36",
    "askYield": "",
    "currency": "HUF",
    "maturityInDays_val": 7,
    "issueDate": "2023.02.01",
    "longName": "D230503"
}