{
    "askPrice": "96,6893",
    "green": 0,
    "coupon": 0,
    "accruedInterest": 0,
    "settleDate": "2023.02.03",
    "askEhmYield": "14,04",
    "bidYield": "14,70",
    "rawName": "D230503",
    "bidPrice": "96,4933",
    "maturityInDays": "89 nap",
    "securityType": "DKJ",
    "maturityDate": "2023.05.03",
    "name": "D230503",
    "bidEhmYield": "14,90",
    "askYield": "13,85",
    "currency": "HUF",
    "maturityInDays_val": 89,
    "issueDate": "2023.02.01",
    "longName": "D230503"
}