{
    "askPrice": "",
    "green": 0,
    "coupon": 0,
    "accruedInterest": 0,
    "settleDate": "2023.04.17",
    "askEhmYield": "",
    "bidYield": "14,98",
    "rawName": "D230503",
    "bidPrice": "99,3386",
    "maturityInDays": "16 nap",
    "securityType": "DKJ",
    "maturityDate": "2023.05.03",
    "name": "D230503",
    "bidEhmYield": "15,19",
    "askYield": "",
    "currency": "HUF",
    "maturityInDays_val": 16,
    "issueDate": "2023.02.01",
    "longName": "D230503"
}