{
    "askPrice": "96,9311",
    "green": 0,
    "coupon": 0,
    "accruedInterest": 0,
    "settleDate": "2023.02.10",
    "askEhmYield": "14,09",
    "bidYield": "14,70",
    "rawName": "D230503",
    "bidPrice": "96,7601",
    "maturityInDays": "82 nap",
    "securityType": "DKJ",
    "maturityDate": "2023.05.03",
    "name": "D230503",
    "bidEhmYield": "14,90",
    "askYield": "13,90",
    "currency": "HUF",
    "maturityInDays_val": 82,
    "issueDate": "2023.02.01",
    "longName": "D230503"
}