{
    "askPrice": "",
    "green": 0,
    "coupon": 0,
    "accruedInterest": 0,
    "settleDate": "2023.04.12",
    "askEhmYield": "",
    "bidYield": "14,81",
    "rawName": "D230503",
    "bidPrice": "99,1435",
    "maturityInDays": "21 nap",
    "securityType": "DKJ",
    "maturityDate": "2023.05.03",
    "name": "D230503",
    "bidEhmYield": "15,02",
    "askYield": "",
    "currency": "HUF",
    "maturityInDays_val": 21,
    "issueDate": "2023.02.01",
    "longName": "D230503"
}