{
    "askPrice": "98,6849",
    "green": 0,
    "coupon": 0,
    "accruedInterest": 0,
    "settleDate": "2023.03.30",
    "askEhmYield": "14,31",
    "bidYield": "15,40",
    "rawName": "D230503",
    "bidPrice": "98,5664",
    "maturityInDays": "34 nap",
    "securityType": "DKJ",
    "maturityDate": "2023.05.03",
    "name": "D230503",
    "bidEhmYield": "15,61",
    "askYield": "14,11",
    "currency": "HUF",
    "maturityInDays_val": 34,
    "issueDate": "2023.02.01",
    "longName": "D230503"
}