{
    "askPrice": "97,0498",
    "green": 0,
    "coupon": 0,
    "accruedInterest": 0,
    "settleDate": "2023.02.14",
    "askEhmYield": "14,23",
    "bidYield": "14,90",
    "rawName": "D230503",
    "bidPrice": "96,8726",
    "maturityInDays": "78 nap",
    "securityType": "DKJ",
    "maturityDate": "2023.05.03",
    "name": "D230503",
    "bidEhmYield": "15,11",
    "askYield": "14,03",
    "currency": "HUF",
    "maturityInDays_val": 78,
    "issueDate": "2023.02.01",
    "longName": "D230503"
}