{
    "askPrice": "",
    "green": 0,
    "coupon": "3,50 %",
    "accruedInterest": "1,06",
    "settleDate": "2022.08.08",
    "askEhmYield": "",
    "bidYield": "",
    "rawName": "N2027/16",
    "bidPrice": "99,50",
    "coupon_val": 3.5,
    "maturityInDays": "1715 nap",
    "securityType": "MÁP Plusz",
    "maturityDate": "2027.04.19",
    "name": "N2027/16",
    "bidEhmYield": "",
    "askYield": "",
    "currency": "HUF",
    "maturityInDays_val": 1715,
    "longName": "N270419"
}