{
    "askPrice": "",
    "green": 0,
    "coupon": "3,50 %",
    "accruedInterest": "0,29",
    "settleDate": "2022.11.14",
    "askEhmYield": "",
    "bidYield": "5,22",
    "rawName": "N2027/16",
    "bidPrice": "99,50",
    "coupon_val": 3.5,
    "maturityInDays": "1617 nap",
    "securityType": "MÁP Plusz",
    "maturityDate": "2027.04.19",
    "name": "N2027/16",
    "bidEhmYield": "",
    "askYield": "",
    "currency": "HUF",
    "maturityInDays_val": 1617,
    "issueDate": "2022-04-19",
    "longName": "N270419"
}