{
    "askPrice": "",
    "green": 0,
    "coupon": "3,50 %",
    "accruedInterest": "0,02",
    "settleDate": "2022.10.21",
    "askEhmYield": "",
    "bidYield": "5,08",
    "rawName": "N2027/16",
    "bidPrice": "100,00",
    "coupon_val": 3.5,
    "maturityInDays": "1641 nap",
    "securityType": "MÁP Plusz",
    "maturityDate": "2027.04.19",
    "name": "N2027/16",
    "bidEhmYield": "",
    "askYield": "",
    "currency": "HUF",
    "maturityInDays_val": 1641,
    "longName": "N270419"
}