{
    "askPrice": "",
    "green": 0,
    "coupon": "3,50 %",
    "accruedInterest": "2,9877",
    "settleDate": "2023.12.18",
    "askEhmYield": "",
    "bidYield": "5,53",
    "rawName": "N2027/16",
    "bidPrice": "99,5000",
    "coupon_val": 3.5,
    "maturityInDays": "1218 nap",
    "securityType": "MÁP Plusz",
    "maturityDate": "2027.04.19",
    "name": "N2027/16",
    "bidEhmYield": "",
    "askYield": "",
    "currency": "HUF",
    "maturityInDays_val": 1218,
    "issueDate": "2022.04.19",
    "longName": "N270419"
}