{
    "askPrice": "",
    "green": 0,
    "coupon": "3,50 %",
    "accruedInterest": "2,3361",
    "settleDate": "2023.10.26",
    "askEhmYield": "",
    "bidYield": "5,49",
    "rawName": "N2027/16",
    "bidPrice": "99,5000",
    "coupon_val": 3.5,
    "maturityInDays": "1271 nap",
    "securityType": "MÁP Plusz",
    "maturityDate": "2027.04.19",
    "name": "N2027/16",
    "bidEhmYield": "",
    "askYield": "",
    "currency": "HUF",
    "maturityInDays_val": 1271,
    "issueDate": "2022.04.19",
    "longName": "N270419"
}