{
    "askPrice": "",
    "green": 0,
    "coupon": "3,50 %",
    "accruedInterest": "4,1066",
    "settleDate": "2024.03.18",
    "askEhmYield": "",
    "bidYield": "5,63",
    "rawName": "N2027/16",
    "bidPrice": "99,5000",
    "coupon_val": 3.5,
    "maturityInDays": "1127 nap",
    "securityType": "MÁP Plusz",
    "maturityDate": "2027.04.19",
    "name": "N2027/16",
    "bidEhmYield": "",
    "askYield": "",
    "currency": "HUF",
    "maturityInDays_val": 1127,
    "issueDate": "2022.04.19",
    "longName": "N270419"
}