{
    "askPrice": "",
    "green": 0,
    "coupon": "3,50 %",
    "accruedInterest": "1,84",
    "settleDate": "2022.11.14",
    "askEhmYield": "",
    "bidYield": "6,10",
    "rawName": "N2024/06",
    "bidPrice": "99,50",
    "coupon_val": 3.5,
    "maturityInDays": "609 nap",
    "securityType": "MÁP Plusz",
    "maturityDate": "2024.07.15",
    "name": "N2024/06",
    "bidEhmYield": "",
    "askYield": "",
    "currency": "HUF",
    "maturityInDays_val": 609,
    "issueDate": "2019-07-15",
    "longName": "N240715"
}