{
    "askPrice": "",
    "green": 0,
    "coupon": "3,50 %",
    "accruedInterest": "0,05",
    "settleDate": "2022.07.18",
    "askEhmYield": "",
    "bidYield": "",
    "rawName": "N2024/06",
    "bidPrice": "100,00",
    "coupon_val": 3.5,
    "maturityInDays": "728 nap",
    "securityType": "MÁP Plusz",
    "maturityDate": "2024.07.15",
    "name": "N2024/06",
    "bidEhmYield": "",
    "askYield": "",
    "currency": "HUF",
    "maturityInDays_val": 728,
    "longName": "N240715"
}