{
    "askPrice": "",
    "green": 0,
    "coupon": "3,50 %",
    "accruedInterest": "1,46",
    "settleDate": "2022.10.20",
    "askEhmYield": "",
    "bidYield": "6,08",
    "rawName": "N2024/06",
    "bidPrice": "99,50",
    "coupon_val": 3.5,
    "maturityInDays": "634 nap",
    "securityType": "MÁP Plusz",
    "maturityDate": "2024.07.15",
    "name": "N2024/06",
    "bidEhmYield": "",
    "askYield": "",
    "currency": "HUF",
    "maturityInDays_val": 634,
    "longName": "N240715"
}