{
    "askPrice": "",
    "green": 0,
    "coupon": "3,50 %",
    "accruedInterest": "0,8689",
    "settleDate": "2023.09.06",
    "askEhmYield": "",
    "bidYield": "6,59",
    "rawName": "N2024/06",
    "bidPrice": "99,5000",
    "coupon_val": 3.5,
    "maturityInDays": "313 nap",
    "securityType": "MÁP Plusz",
    "maturityDate": "2024.07.15",
    "name": "N2024/06",
    "bidEhmYield": "",
    "askYield": "",
    "currency": "HUF",
    "maturityInDays_val": 313,
    "issueDate": "2019.07.15",
    "longName": "N240715"
}