{
    "askPrice": "",
    "green": 0,
    "coupon": "3,50 %",
    "accruedInterest": "3,5902",
    "settleDate": "2024.02.19",
    "askEhmYield": "",
    "bidYield": "7,17",
    "rawName": "N2024/06",
    "bidPrice": "99,5000",
    "coupon_val": 3.5,
    "maturityInDays": "147 nap",
    "securityType": "MÁP Plusz",
    "maturityDate": "2024.07.15",
    "name": "N2024/06",
    "bidEhmYield": "",
    "askYield": "",
    "currency": "HUF",
    "maturityInDays_val": 147,
    "issueDate": "2019.07.15",
    "longName": "N240715"
}