{
    "askPrice": "",
    "green": 0,
    "coupon": "3,50 %",
    "accruedInterest": "4,7869",
    "settleDate": "2024.05.02",
    "askEhmYield": "",
    "bidYield": "8,39",
    "rawName": "N2024/06",
    "bidPrice": "99,5000",
    "coupon_val": 3.5,
    "maturityInDays": "74 nap",
    "securityType": "MÁP Plusz",
    "maturityDate": "2024.07.15",
    "name": "N2024/06",
    "bidEhmYield": "",
    "askYield": "",
    "currency": "HUF",
    "maturityInDays_val": 74,
    "issueDate": "2019.07.15",
    "longName": "N240715"
}