{
    "askPrice": "",
    "green": 0,
    "coupon": "9,00 %",
    "accruedInterest": "1,4055",
    "settleDate": "2023.09.27",
    "askEhmYield": "",
    "bidYield": "10,19",
    "rawName": "K2024/31",
    "bidPrice": "99,0000",
    "coupon_val": 9,
    "maturityInDays": "309 nap",
    "securityType": "1MÁP",
    "maturityDate": "2024.08.01",
    "name": "K2024/31",
    "bidEhmYield": "10,11",
    "askYield": "",
    "currency": "HUF",
    "maturityInDays_val": 309,
    "issueDate": "2023.08.01",
    "longName": "K240801"
}