{
    "askPrice": "",
    "green": 0,
    "coupon": "9,00 %",
    "accruedInterest": "0,7644",
    "settleDate": "2023.09.01",
    "askEhmYield": "",
    "bidYield": "10,13",
    "rawName": "K2024/31",
    "bidPrice": "99,0000",
    "coupon_val": 9,
    "maturityInDays": "335 nap",
    "securityType": "1MÁP",
    "maturityDate": "2024.08.01",
    "name": "K2024/31",
    "bidEhmYield": "10,09",
    "askYield": "",
    "currency": "HUF",
    "maturityInDays_val": 335,
    "issueDate": "2023.08.01",
    "longName": "K240801"
}