{
    "askPrice": "",
    "green": 0,
    "coupon": "9,00 %",
    "accruedInterest": "6,0164",
    "settleDate": "2024.04.02",
    "askEhmYield": "",
    "bidYield": "11,89",
    "rawName": "K2024/31",
    "bidPrice": "99,0000",
    "coupon_val": 9,
    "maturityInDays": "121 nap",
    "securityType": "1MÁP",
    "maturityDate": "2024.08.01",
    "name": "K2024/31",
    "bidEhmYield": "11,37",
    "askYield": "",
    "currency": "HUF",
    "maturityInDays_val": 121,
    "issueDate": "2023.08.01",
    "longName": "K240801"
}