{
    "askPrice": "",
    "green": 0,
    "coupon": "9,00 %",
    "accruedInterest": "6,4356",
    "settleDate": "2024.04.19",
    "askEhmYield": "",
    "bidYield": "12,38",
    "rawName": "K2024/31",
    "bidPrice": "99,0000",
    "coupon_val": 9,
    "maturityInDays": "104 nap",
    "securityType": "1MÁP",
    "maturityDate": "2024.08.01",
    "name": "K2024/31",
    "bidEhmYield": "11,78",
    "askYield": "",
    "currency": "HUF",
    "maturityInDays_val": 104,
    "issueDate": "2023.08.01",
    "longName": "K240801"
}