{
    "askPrice": "",
    "green": 0,
    "coupon": "9,00 %",
    "accruedInterest": "6,8795",
    "settleDate": "2024.05.07",
    "askEhmYield": "",
    "bidYield": "13,12",
    "rawName": "K2024/31",
    "bidPrice": "99,0000",
    "coupon_val": 9,
    "maturityInDays": "86 nap",
    "securityType": "1MÁP",
    "maturityDate": "2024.08.01",
    "name": "K2024/31",
    "bidEhmYield": "12,41",
    "askYield": "",
    "currency": "HUF",
    "maturityInDays_val": 86,
    "issueDate": "2023.08.01",
    "longName": "K240801"
}