{
    "askPrice": "",
    "green": 0,
    "coupon": "9,00 %",
    "accruedInterest": "6,7562",
    "settleDate": "2024.05.02",
    "askEhmYield": "",
    "bidYield": "12,88",
    "rawName": "K2024/31",
    "bidPrice": "99,0000",
    "coupon_val": 9,
    "maturityInDays": "91 nap",
    "securityType": "1MÁP",
    "maturityDate": "2024.08.01",
    "name": "K2024/31",
    "bidEhmYield": "12,21",
    "askYield": "",
    "currency": "HUF",
    "maturityInDays_val": 91,
    "issueDate": "2023.08.01",
    "longName": "K240801"
}