{
    "askPrice": "",
    "green": 0,
    "coupon": "9,00 %",
    "accruedInterest": "5,3507",
    "settleDate": "2024.03.05",
    "askEhmYield": "",
    "bidYield": "11,27",
    "rawName": "K2024/31",
    "bidPrice": "99,0000",
    "coupon_val": 9,
    "maturityInDays": "149 nap",
    "securityType": "1MÁP",
    "maturityDate": "2024.08.01",
    "name": "K2024/31",
    "bidEhmYield": "10,91",
    "askYield": "",
    "currency": "HUF",
    "maturityInDays_val": 149,
    "issueDate": "2023.08.01",
    "longName": "K240801"
}