{
    "askPrice": "",
    "green": 0,
    "coupon": "3,50 %",
    "accruedInterest": 0,
    "settleDate": "2022.11.09",
    "askEhmYield": "",
    "bidYield": "5,67",
    "rawName": "N2025/45",
    "bidPrice": "99,50",
    "coupon_val": 3.5,
    "maturityInDays": "1096 nap",
    "securityType": "MÁP Plusz",
    "maturityDate": "2025.11.09",
    "name": "N2025/45",
    "bidEhmYield": "",
    "askYield": "",
    "currency": "HUF",
    "maturityInDays_val": 1096,
    "issueDate": "2020-11-09",
    "longName": "N251109"
}