{
    "askPrice": "",
    "green": 0,
    "coupon": "3,50 %",
    "accruedInterest": "3,75",
    "settleDate": "2022.09.09",
    "askEhmYield": "",
    "bidYield": "",
    "rawName": "N2025/45",
    "bidPrice": "99,50",
    "coupon_val": 3.5,
    "maturityInDays": "1157 nap",
    "securityType": "MÁP Plusz",
    "maturityDate": "2025.11.09",
    "name": "N2025/45",
    "bidEhmYield": "",
    "askYield": "",
    "currency": "HUF",
    "maturityInDays_val": 1157,
    "longName": "N251109"
}