{
    "askPrice": "",
    "green": 0,
    "coupon": "3,50 %",
    "accruedInterest": "0,2603",
    "settleDate": "2022.11.28",
    "askEhmYield": "",
    "bidYield": "5,68",
    "rawName": "N2025/45",
    "bidPrice": "99,5000",
    "coupon_val": 3.5,
    "maturityInDays": "1077 nap",
    "securityType": "MÁP Plusz",
    "maturityDate": "2025.11.09",
    "name": "N2025/45",
    "bidEhmYield": "",
    "askYield": "",
    "currency": "HUF",
    "maturityInDays_val": 1077,
    "issueDate": "2020.11.09",
    "longName": "N251109"
}