{
    "askPrice": "",
    "green": 0,
    "coupon": "3,50 %",
    "accruedInterest": "4,2329",
    "settleDate": "2023.09.14",
    "askEhmYield": "",
    "bidYield": "5,93",
    "rawName": "N2025/45",
    "bidPrice": "99,5000",
    "coupon_val": 3.5,
    "maturityInDays": "787 nap",
    "securityType": "MÁP Plusz",
    "maturityDate": "2025.11.09",
    "name": "N2025/45",
    "bidEhmYield": "",
    "askYield": "",
    "currency": "HUF",
    "maturityInDays_val": 787,
    "issueDate": "2020.11.09",
    "longName": "N251109"
}