{
    "askPrice": "",
    "green": 0,
    "coupon": "3,50 %",
    "accruedInterest": "3,4247",
    "settleDate": "2023.07.17",
    "askEhmYield": "",
    "bidYield": "5,86",
    "rawName": "N2025/45",
    "bidPrice": "99,5000",
    "coupon_val": 3.5,
    "maturityInDays": "846 nap",
    "securityType": "MÁP Plusz",
    "maturityDate": "2025.11.09",
    "name": "N2025/45",
    "bidEhmYield": "",
    "askYield": "",
    "currency": "HUF",
    "maturityInDays_val": 846,
    "issueDate": "2020.11.09",
    "longName": "N251109"
}