{
    "askPrice": "",
    "green": 0,
    "coupon": "3,50 %",
    "accruedInterest": "1,54",
    "settleDate": "2022.11.07",
    "askEhmYield": "",
    "bidYield": "5,44",
    "rawName": "N2026/27",
    "bidPrice": "99,50",
    "coupon_val": 3.5,
    "maturityInDays": "1336 nap",
    "securityType": "MÁP Plusz",
    "maturityDate": "2026.07.05",
    "name": "N2026/27",
    "bidEhmYield": "",
    "askYield": "",
    "currency": "HUF",
    "maturityInDays_val": 1336,
    "issueDate": "2021-07-05",
    "longName": "N260705"
}