{
    "askPrice": "",
    "green": 0,
    "coupon": "3,50 %",
    "accruedInterest": "1,31",
    "settleDate": "2022.10.19",
    "askEhmYield": "",
    "bidYield": "5,42",
    "rawName": "N2026/27",
    "bidPrice": "99,50",
    "coupon_val": 3.5,
    "maturityInDays": "1355 nap",
    "securityType": "MÁP Plusz",
    "maturityDate": "2026.07.05",
    "name": "N2026/27",
    "bidEhmYield": "",
    "askYield": "",
    "currency": "HUF",
    "maturityInDays_val": 1355,
    "longName": "N260705"
}