{
    "askPrice": "",
    "green": 0,
    "coupon": "3,50 %",
    "accruedInterest": "2,1233",
    "settleDate": "2022.12.08",
    "askEhmYield": "",
    "bidYield": "5,77",
    "rawName": "N2025/27",
    "bidPrice": "99,5000",
    "coupon_val": 3.5,
    "maturityInDays": "941 nap",
    "securityType": "MÁP Plusz",
    "maturityDate": "2025.07.06",
    "name": "N2025/27",
    "bidEhmYield": "",
    "askYield": "",
    "currency": "HUF",
    "maturityInDays_val": 941,
    "issueDate": "2020.07.06",
    "longName": "N250706"
}