{
    "askPrice": "",
    "green": 0,
    "coupon": "3,50 %",
    "accruedInterest": "1,63",
    "settleDate": "2022.11.02",
    "askEhmYield": "",
    "bidYield": "5,74",
    "rawName": "N2025/27",
    "bidPrice": "99,50",
    "coupon_val": 3.5,
    "maturityInDays": "977 nap",
    "securityType": "MÁP Plusz",
    "maturityDate": "2025.07.06",
    "name": "N2025/27",
    "bidEhmYield": "",
    "askYield": "",
    "currency": "HUF",
    "maturityInDays_val": 977,
    "issueDate": "2020-07-06",
    "longName": "N250706"
}