{
    "askPrice": "",
    "green": 0,
    "coupon": "3,50 %",
    "accruedInterest": "1,07",
    "settleDate": "2022.09.22",
    "askEhmYield": "",
    "bidYield": "",
    "rawName": "N2025/27",
    "bidPrice": "99,50",
    "coupon_val": 3.5,
    "maturityInDays": "1018 nap",
    "securityType": "MÁP Plusz",
    "maturityDate": "2025.07.06",
    "name": "N2025/27",
    "bidEhmYield": "",
    "askYield": "",
    "currency": "HUF",
    "maturityInDays_val": 1018,
    "longName": "N250706"
}