{
    "askPrice": "",
    "green": 0,
    "coupon": "3,50 %",
    "accruedInterest": "2,2240",
    "settleDate": "2023.12.01",
    "askEhmYield": "",
    "bidYield": "6,12",
    "rawName": "N2025/27",
    "bidPrice": "99,5000",
    "coupon_val": 3.5,
    "maturityInDays": "583 nap",
    "securityType": "MÁP Plusz",
    "maturityDate": "2025.07.06",
    "name": "N2025/27",
    "bidEhmYield": "",
    "askYield": "",
    "currency": "HUF",
    "maturityInDays_val": 583,
    "issueDate": "2020.07.06",
    "longName": "N250706"
}