{
    "askPrice": "",
    "green": 0,
    "coupon": "3,50 %",
    "accruedInterest": "3,5314",
    "settleDate": "2024.02.26",
    "askEhmYield": "",
    "bidYield": "6,23",
    "rawName": "N2025/27",
    "bidPrice": "99,5000",
    "coupon_val": 3.5,
    "maturityInDays": "496 nap",
    "securityType": "MÁP Plusz",
    "maturityDate": "2025.07.06",
    "name": "N2025/27",
    "bidEhmYield": "",
    "askYield": "",
    "currency": "HUF",
    "maturityInDays_val": 496,
    "issueDate": "2020.07.06",
    "longName": "N250706"
}