{
    "askPrice": "",
    "green": 0,
    "coupon": "3,50 %",
    "accruedInterest": "3,1107",
    "settleDate": "2024.01.29",
    "askEhmYield": "",
    "bidYield": "6,19",
    "rawName": "N2025/27",
    "bidPrice": "99,5000",
    "coupon_val": 3.5,
    "maturityInDays": "524 nap",
    "securityType": "MÁP Plusz",
    "maturityDate": "2025.07.06",
    "name": "N2025/27",
    "bidEhmYield": "",
    "askYield": "",
    "currency": "HUF",
    "maturityInDays_val": 524,
    "issueDate": "2020.07.06",
    "longName": "N250706"
}