{
    "askPrice": "",
    "green": 0,
    "coupon": "3,00 %",
    "accruedInterest": "0,91",
    "settleDate": "2022.06.20",
    "askEhmYield": "",
    "bidYield": "",
    "rawName": "K2023/09",
    "bidPrice": "99,50",
    "coupon_val": 3,
    "maturityInDays": "254 nap",
    "securityType": "1MÁP",
    "maturityDate": "2023.03.01",
    "name": "K2023/09",
    "bidEhmYield": "3,70",
    "askYield": "",
    "currency": "HUF",
    "maturityInDays_val": 254,
    "longName": "K230301"
}