{
    "askPrice": "",
    "green": 0,
    "coupon": "3,00 %",
    "accruedInterest": "1,45",
    "settleDate": "2022.08.25",
    "askEhmYield": "",
    "bidYield": "",
    "rawName": "K2023/09",
    "bidPrice": "99,50",
    "coupon_val": 3,
    "maturityInDays": "188 nap",
    "securityType": "1MÁP",
    "maturityDate": "2023.03.01",
    "name": "K2023/09",
    "bidEhmYield": "3,93",
    "askYield": "",
    "currency": "HUF",
    "maturityInDays_val": 188,
    "longName": "K230301"
}