{
    "askPrice": "",
    "green": 0,
    "coupon": "3,00 %",
    "accruedInterest": "2,2356",
    "settleDate": "2022.11.28",
    "askEhmYield": "",
    "bidYield": "4,97",
    "rawName": "K2023/09",
    "bidPrice": "99,5000",
    "coupon_val": 3,
    "maturityInDays": "93 nap",
    "securityType": "1MÁP",
    "maturityDate": "2023.03.01",
    "name": "K2023/09",
    "bidEhmYield": "4,88",
    "askYield": "",
    "currency": "HUF",
    "maturityInDays_val": 93,
    "issueDate": "2022.03.01",
    "longName": "K230301"
}