{
    "askPrice": "",
    "green": 0,
    "coupon": "3,00 %",
    "accruedInterest": "2,3507",
    "settleDate": "2022.12.12",
    "askEhmYield": "",
    "bidYield": "7,74",
    "rawName": "K2023/09",
    "bidPrice": "99,0000",
    "coupon_val": 3,
    "maturityInDays": "79 nap",
    "securityType": "1MÁP",
    "maturityDate": "2023.03.01",
    "name": "K2023/09",
    "bidEhmYield": "7,52",
    "askYield": "",
    "currency": "HUF",
    "maturityInDays_val": 79,
    "issueDate": "2022.03.01",
    "longName": "K230301"
}