{
    "askPrice": "",
    "green": 0,
    "coupon": "3,00 %",
    "accruedInterest": "2,3260",
    "settleDate": "2022.12.09",
    "askEhmYield": "",
    "bidYield": "7,57",
    "rawName": "K2023/09",
    "bidPrice": "99,0000",
    "coupon_val": 3,
    "maturityInDays": "82 nap",
    "securityType": "1MÁP",
    "maturityDate": "2023.03.01",
    "name": "K2023/09",
    "bidEhmYield": "7,35",
    "askYield": "",
    "currency": "HUF",
    "maturityInDays_val": 82,
    "issueDate": "2022.03.01",
    "longName": "K230301"
}