{
    "askPrice": "",
    "green": 0,
    "coupon": "3,00 %",
    "accruedInterest": "0,97",
    "settleDate": "2022.06.27",
    "askEhmYield": "",
    "bidYield": "",
    "rawName": "K2023/09",
    "bidPrice": "99,50",
    "coupon_val": 3,
    "maturityInDays": "247 nap",
    "securityType": "1MÁP",
    "maturityDate": "2023.03.01",
    "name": "K2023/09",
    "bidEhmYield": "3,72",
    "askYield": "",
    "currency": "HUF",
    "maturityInDays_val": 247,
    "longName": "K230301"
}