{
    "askPrice": "",
    "green": 0,
    "coupon": "3,00 %",
    "accruedInterest": "1,04",
    "settleDate": "2022.07.06",
    "askEhmYield": "",
    "bidYield": "",
    "rawName": "K2023/09",
    "bidPrice": "99,50",
    "coupon_val": 3,
    "maturityInDays": "238 nap",
    "securityType": "1MÁP",
    "maturityDate": "2023.03.01",
    "name": "K2023/09",
    "bidEhmYield": "3,75",
    "askYield": "",
    "currency": "HUF",
    "maturityInDays_val": 238,
    "longName": "K230301"
}