{
    "askPrice": "",
    "green": 0,
    "coupon": "3,00 %",
    "accruedInterest": "2,4082",
    "settleDate": "2022.12.19",
    "askEhmYield": "",
    "bidYield": "8,22",
    "rawName": "K2023/09",
    "bidPrice": "99,0000",
    "coupon_val": 3,
    "maturityInDays": "72 nap",
    "securityType": "1MÁP",
    "maturityDate": "2023.03.01",
    "name": "K2023/09",
    "bidEhmYield": "7,96",
    "askYield": "",
    "currency": "HUF",
    "maturityInDays_val": 72,
    "issueDate": "2022.03.01",
    "longName": "K230301"
}