{
    "askPrice": "",
    "green": 0,
    "coupon": "3,00 %",
    "accruedInterest": "2,02",
    "settleDate": "2022.11.02",
    "askEhmYield": "",
    "bidYield": "4,53",
    "rawName": "K2023/09",
    "bidPrice": "99,50",
    "coupon_val": 3,
    "maturityInDays": "119 nap",
    "securityType": "1MÁP",
    "maturityDate": "2023.03.01",
    "name": "K2023/09",
    "bidEhmYield": "4,47",
    "askYield": "",
    "currency": "HUF",
    "maturityInDays_val": 119,
    "issueDate": "2022-03-01",
    "longName": "K230301"
}