{
    "askPrice": "",
    "green": 0,
    "coupon": "3,00 %",
    "accruedInterest": "2,9260",
    "settleDate": "2023.02.20",
    "askEhmYield": "",
    "bidYield": "30,51",
    "rawName": "K2023/09",
    "bidPrice": "99,4000",
    "coupon_val": 3,
    "maturityInDays": "9 nap",
    "securityType": "1MÁP",
    "maturityDate": "2023.03.01",
    "name": "K2023/09",
    "bidEhmYield": "26,71",
    "askYield": "",
    "currency": "HUF",
    "maturityInDays_val": 9,
    "issueDate": "2022.03.01",
    "longName": "K230301"
}