{
    "askPrice": "",
    "green": 0,
    "coupon": "3,00 %",
    "accruedInterest": "2,6384",
    "settleDate": "2023.01.16",
    "askEhmYield": "",
    "bidYield": "11,67",
    "rawName": "K2023/09",
    "bidPrice": "99,0000",
    "coupon_val": 3,
    "maturityInDays": "44 nap",
    "securityType": "1MÁP",
    "maturityDate": "2023.03.01",
    "name": "K2023/09",
    "bidEhmYield": "11,11",
    "askYield": "",
    "currency": "HUF",
    "maturityInDays_val": 44,
    "issueDate": "2022.03.01",
    "longName": "K230301"
}