{
    "askPrice": "",
    "green": 0,
    "coupon": "3,00 %",
    "accruedInterest": "2,7123",
    "settleDate": "2023.01.25",
    "askEhmYield": "",
    "bidYield": "14,02",
    "rawName": "K2023/09",
    "bidPrice": "99,0000",
    "coupon_val": 3,
    "maturityInDays": "35 nap",
    "securityType": "1MÁP",
    "maturityDate": "2023.03.01",
    "name": "K2023/09",
    "bidEhmYield": "13,20",
    "askYield": "",
    "currency": "HUF",
    "maturityInDays_val": 35,
    "issueDate": "2022.03.01",
    "longName": "K230301"
}