{
    "askPrice": "",
    "green": 0,
    "coupon": "3,00 %",
    "accruedInterest": "2,7534",
    "settleDate": "2023.01.30",
    "askEhmYield": "",
    "bidYield": "15,97",
    "rawName": "K2023/09",
    "bidPrice": "99,0000",
    "coupon_val": 3,
    "maturityInDays": "30 nap",
    "securityType": "1MÁP",
    "maturityDate": "2023.03.01",
    "name": "K2023/09",
    "bidEhmYield": "14,91",
    "askYield": "",
    "currency": "HUF",
    "maturityInDays_val": 30,
    "issueDate": "2022.03.01",
    "longName": "K230301"
}