{
    "askPrice": "",
    "green": 0,
    "coupon": "3,00 %",
    "accruedInterest": "2,5562",
    "settleDate": "2023.01.06",
    "askEhmYield": "",
    "bidYield": "10,01",
    "rawName": "K2023/09",
    "bidPrice": "99,0000",
    "coupon_val": 3,
    "maturityInDays": "54 nap",
    "securityType": "1MÁP",
    "maturityDate": "2023.03.01",
    "name": "K2023/09",
    "bidEhmYield": "9,61",
    "askYield": "",
    "currency": "HUF",
    "maturityInDays_val": 54,
    "issueDate": "2022.03.01",
    "longName": "K230301"
}