{
    "askPrice": "",
    "green": 0,
    "coupon": "3,00 %",
    "accruedInterest": "2,6712",
    "settleDate": "2023.01.20",
    "askEhmYield": "",
    "bidYield": "12,58",
    "rawName": "K2023/09",
    "bidPrice": "99,0000",
    "coupon_val": 3,
    "maturityInDays": "40 nap",
    "securityType": "1MÁP",
    "maturityDate": "2023.03.01",
    "name": "K2023/09",
    "bidEhmYield": "11,93",
    "askYield": "",
    "currency": "HUF",
    "maturityInDays_val": 40,
    "issueDate": "2022.03.01",
    "longName": "K230301"
}