{
    "askPrice": "",
    "green": 0,
    "coupon": "3,50 %",
    "accruedInterest": "1,81",
    "settleDate": "2022.07.19",
    "askEhmYield": "",
    "bidYield": "",
    "rawName": "N2026/08",
    "bidPrice": "99,50",
    "coupon_val": 3.5,
    "maturityInDays": "1314 nap",
    "securityType": "MÁP Plusz",
    "maturityDate": "2026.02.22",
    "name": "N2026/08",
    "bidEhmYield": "",
    "askYield": "",
    "currency": "HUF",
    "maturityInDays_val": 1314,
    "longName": "N260222"
}