{
    "askPrice": "",
    "green": 0,
    "coupon": "3,50 %",
    "accruedInterest": "2,96",
    "settleDate": "2022.10.20",
    "askEhmYield": "",
    "bidYield": "5,53",
    "rawName": "N2026/08",
    "bidPrice": "99,50",
    "coupon_val": 3.5,
    "maturityInDays": "1221 nap",
    "securityType": "MÁP Plusz",
    "maturityDate": "2026.02.22",
    "name": "N2026/08",
    "bidEhmYield": "",
    "askYield": "",
    "currency": "HUF",
    "maturityInDays_val": 1221,
    "longName": "N260222"
}