{
    "askPrice": "",
    "green": 0,
    "coupon": "3,50 %",
    "accruedInterest": "1,7397",
    "settleDate": "2023.06.29",
    "askEhmYield": "",
    "bidYield": "5,75",
    "rawName": "N2026/08",
    "bidPrice": "99,5000",
    "coupon_val": 3.5,
    "maturityInDays": "969 nap",
    "securityType": "MÁP Plusz",
    "maturityDate": "2026.02.22",
    "name": "N2026/08",
    "bidEhmYield": "",
    "askYield": "",
    "currency": "HUF",
    "maturityInDays_val": 969,
    "issueDate": "2021.02.22",
    "longName": "N260222"
}