{
    "askPrice": "",
    "green": 0,
    "coupon": "3,50 %",
    "accruedInterest": "2,5890",
    "settleDate": "2023.08.30",
    "askEhmYield": "",
    "bidYield": "5,80",
    "rawName": "N2026/08",
    "bidPrice": "99,5000",
    "coupon_val": 3.5,
    "maturityInDays": "907 nap",
    "securityType": "MÁP Plusz",
    "maturityDate": "2026.02.22",
    "name": "N2026/08",
    "bidEhmYield": "",
    "askYield": "",
    "currency": "HUF",
    "maturityInDays_val": 907,
    "issueDate": "2021.02.22",
    "longName": "N260222"
}