{
    "askPrice": "",
    "green": 0,
    "coupon": "3,50 %",
    "accruedInterest": "0,1052",
    "settleDate": "2024.02.29",
    "askEhmYield": "",
    "bidYield": "5,74",
    "rawName": "N2026/08",
    "bidPrice": "100,0000",
    "coupon_val": 3.5,
    "maturityInDays": "724 nap",
    "securityType": "MÁP Plusz",
    "maturityDate": "2026.02.22",
    "name": "N2026/08",
    "bidEhmYield": "",
    "askYield": "",
    "currency": "HUF",
    "maturityInDays_val": 724,
    "issueDate": "2021.02.22",
    "longName": "N260222"
}