{
    "askPrice": "",
    "green": 0,
    "coupon": "3,50 %",
    "accruedInterest": "0,9167",
    "settleDate": "2024.04.23",
    "askEhmYield": "",
    "bidYield": "6,05",
    "rawName": "N2026/08",
    "bidPrice": "99,5000",
    "coupon_val": 3.5,
    "maturityInDays": "670 nap",
    "securityType": "MÁP Plusz",
    "maturityDate": "2026.02.22",
    "name": "N2026/08",
    "bidEhmYield": "",
    "askYield": "",
    "currency": "HUF",
    "maturityInDays_val": 670,
    "issueDate": "2021.02.22",
    "longName": "N260222"
}