{
    "askPrice": "",
    "green": 0,
    "coupon": "4,75 %",
    "accruedInterest": "1,2233",
    "settleDate": "2022.12.02",
    "askEhmYield": "",
    "bidYield": "5,42",
    "rawName": "K2023/35",
    "bidPrice": "99,5000",
    "coupon_val": 4.75,
    "maturityInDays": "271 nap",
    "securityType": "1MÁP",
    "maturityDate": "2023.08.30",
    "name": "K2023/35",
    "bidEhmYield": "5,38",
    "askYield": "",
    "currency": "HUF",
    "maturityInDays_val": 271,
    "issueDate": "2022.08.30",
    "longName": "K230830"
}