{
    "askPrice": "",
    "green": 0,
    "coupon": "4,75 %",
    "accruedInterest": "0,91",
    "settleDate": "2022.11.08",
    "askEhmYield": "",
    "bidYield": "5,37",
    "rawName": "K2023/35",
    "bidPrice": "99,50",
    "coupon_val": 4.75,
    "maturityInDays": "295 nap",
    "securityType": "1MÁP",
    "maturityDate": "2023.08.30",
    "name": "K2023/35",
    "bidEhmYield": "5,35",
    "askYield": "",
    "currency": "HUF",
    "maturityInDays_val": 295,
    "issueDate": "2022-08-30",
    "longName": "K230830"
}