{
    "askPrice": "",
    "green": 0,
    "coupon": "4,75 %",
    "accruedInterest": "0,73",
    "settleDate": "2022.10.25",
    "askEhmYield": "",
    "bidYield": "5,35",
    "rawName": "K2023/35",
    "bidPrice": "99,50",
    "coupon_val": 4.75,
    "maturityInDays": "309 nap",
    "securityType": "1MÁP",
    "maturityDate": "2023.08.30",
    "name": "K2023/35",
    "bidEhmYield": "5,33",
    "askYield": "",
    "currency": "HUF",
    "maturityInDays_val": 309,
    "longName": "K230830"
}