{
    "askPrice": "",
    "green": 0,
    "coupon": "4,75 %",
    "accruedInterest": "1,6267",
    "settleDate": "2023.01.02",
    "askEhmYield": "",
    "bidYield": "6,30",
    "rawName": "K2023/35",
    "bidPrice": "99,0000",
    "coupon_val": 4.75,
    "maturityInDays": "240 nap",
    "securityType": "1MÁP",
    "maturityDate": "2023.08.30",
    "name": "K2023/35",
    "bidEhmYield": "6,23",
    "askYield": "",
    "currency": "HUF",
    "maturityInDays_val": 240,
    "issueDate": "2022.08.30",
    "longName": "K230830"
}