{
    "askPrice": "",
    "green": 0,
    "coupon": "4,75 %",
    "accruedInterest": "1,0801",
    "settleDate": "2022.11.21",
    "askEhmYield": "",
    "bidYield": "5,40",
    "rawName": "K2023/35",
    "bidPrice": "99,5000",
    "coupon_val": 4.75,
    "maturityInDays": "282 nap",
    "securityType": "1MÁP",
    "maturityDate": "2023.08.30",
    "name": "K2023/35",
    "bidEhmYield": "5,37",
    "askYield": "",
    "currency": "HUF",
    "maturityInDays_val": 282,
    "issueDate": "2022.08.30",
    "longName": "K230830"
}