{
    "askPrice": "",
    "green": 0,
    "coupon": "4,75 %",
    "accruedInterest": "0,21",
    "settleDate": "2022.09.15",
    "askEhmYield": "",
    "bidYield": "",
    "rawName": "K2023/35",
    "bidPrice": "99,50",
    "coupon_val": 4.75,
    "maturityInDays": "349 nap",
    "securityType": "1MÁP",
    "maturityDate": "2023.08.30",
    "name": "K2023/35",
    "bidEhmYield": "5,29",
    "askYield": "",
    "currency": "HUF",
    "maturityInDays_val": 349,
    "longName": "K230830"
}