{
    "askPrice": "",
    "green": 0,
    "coupon": "4,75 %",
    "accruedInterest": "0,85",
    "settleDate": "2022.11.03",
    "askEhmYield": "",
    "bidYield": "5,36",
    "rawName": "K2023/35",
    "bidPrice": "99,50",
    "coupon_val": 4.75,
    "maturityInDays": "300 nap",
    "securityType": "1MÁP",
    "maturityDate": "2023.08.30",
    "name": "K2023/35",
    "bidEhmYield": "5,34",
    "askYield": "",
    "currency": "HUF",
    "maturityInDays_val": 300,
    "issueDate": "2022-08-30",
    "longName": "K230830"
}