{
    "askPrice": "",
    "green": 0,
    "coupon": "4,75 %",
    "accruedInterest": "3,5918",
    "settleDate": "2023.06.02",
    "askEhmYield": "",
    "bidYield": "8,91",
    "rawName": "K2023/35",
    "bidPrice": "99,0000",
    "coupon_val": 4.75,
    "maturityInDays": "89 nap",
    "securityType": "1MÁP",
    "maturityDate": "2023.08.30",
    "name": "K2023/35",
    "bidEhmYield": "8,63",
    "askYield": "",
    "currency": "HUF",
    "maturityInDays_val": 89,
    "issueDate": "2022.08.30",
    "longName": "K230830"
}