{
    "askPrice": "",
    "green": 0,
    "coupon": "4,75 %",
    "accruedInterest": "2,1342",
    "settleDate": "2023.02.10",
    "askEhmYield": "",
    "bidYield": "6,59",
    "rawName": "K2023/35",
    "bidPrice": "99,0000",
    "coupon_val": 4.75,
    "maturityInDays": "201 nap",
    "securityType": "1MÁP",
    "maturityDate": "2023.08.30",
    "name": "K2023/35",
    "bidEhmYield": "6,49",
    "askYield": "",
    "currency": "HUF",
    "maturityInDays_val": 201,
    "issueDate": "2022.08.30",
    "longName": "K230830"
}