{
    "askPrice": "",
    "green": 0,
    "coupon": "4,75 %",
    "accruedInterest": "4,3596",
    "settleDate": "2023.07.31",
    "askEhmYield": "",
    "bidYield": "17,65",
    "rawName": "K2023/35",
    "bidPrice": "99,0000",
    "coupon_val": 4.75,
    "maturityInDays": "30 nap",
    "securityType": "1MÁP",
    "maturityDate": "2023.08.30",
    "name": "K2023/35",
    "bidEhmYield": "16,37",
    "askYield": "",
    "currency": "HUF",
    "maturityInDays_val": 30,
    "issueDate": "2022.08.30",
    "longName": "K230830"
}