{
    "askPrice": "",
    "green": 0,
    "coupon": "4,75 %",
    "accruedInterest": "4,0863",
    "settleDate": "2023.07.10",
    "askEhmYield": "",
    "bidYield": "12,14",
    "rawName": "K2023/35",
    "bidPrice": "99,0000",
    "coupon_val": 4.75,
    "maturityInDays": "51 nap",
    "securityType": "1MÁP",
    "maturityDate": "2023.08.30",
    "name": "K2023/35",
    "bidEhmYield": "11,55",
    "askYield": "",
    "currency": "HUF",
    "maturityInDays_val": 51,
    "issueDate": "2022.08.30",
    "longName": "K230830"
}