{
    "askPrice": "",
    "green": 0,
    "coupon": "4,75 %",
    "accruedInterest": "3,9171",
    "settleDate": "2023.06.27",
    "askEhmYield": "",
    "bidYield": "10,59",
    "rawName": "K2023/35",
    "bidPrice": "99,0000",
    "coupon_val": 4.75,
    "maturityInDays": "64 nap",
    "securityType": "1MÁP",
    "maturityDate": "2023.08.30",
    "name": "K2023/35",
    "bidEhmYield": "10,16",
    "askYield": "",
    "currency": "HUF",
    "maturityInDays_val": 64,
    "issueDate": "2022.08.30",
    "longName": "K230830"
}