{
    "askPrice": "",
    "green": 0,
    "coupon": "4,75 %",
    "accruedInterest": "2,7459",
    "settleDate": "2023.03.29",
    "askEhmYield": "",
    "bidYield": "7,14",
    "rawName": "K2023/35",
    "bidPrice": "99,0000",
    "coupon_val": 4.75,
    "maturityInDays": "154 nap",
    "securityType": "1MÁP",
    "maturityDate": "2023.08.30",
    "name": "K2023/35",
    "bidEhmYield": "7,00",
    "askYield": "",
    "currency": "HUF",
    "maturityInDays_val": 154,
    "issueDate": "2022.08.30",
    "longName": "K230830"
}