{
    "askPrice": "",
    "green": 0,
    "coupon": "4,75 %",
    "accruedInterest": "3,5007",
    "settleDate": "2023.05.26",
    "askEhmYield": "",
    "bidYield": "8,60",
    "rawName": "K2023/35",
    "bidPrice": "99,0000",
    "coupon_val": 4.75,
    "maturityInDays": "96 nap",
    "securityType": "1MÁP",
    "maturityDate": "2023.08.30",
    "name": "K2023/35",
    "bidEhmYield": "8,34",
    "askYield": "",
    "currency": "HUF",
    "maturityInDays_val": 96,
    "issueDate": "2022.08.30",
    "longName": "K230830"
}