{
    "askPrice": "",
    "green": 0,
    "coupon": "4,75 %",
    "accruedInterest": "2,8500",
    "settleDate": "2023.04.06",
    "askEhmYield": "",
    "bidYield": "7,27",
    "rawName": "K2023/35",
    "bidPrice": "99,0000",
    "coupon_val": 4.75,
    "maturityInDays": "146 nap",
    "securityType": "1MÁP",
    "maturityDate": "2023.08.30",
    "name": "K2023/35",
    "bidEhmYield": "7,12",
    "askYield": "",
    "currency": "HUF",
    "maturityInDays_val": 146,
    "issueDate": "2022.08.30",
    "longName": "K230830"
}