{
    "askPrice": "",
    "green": 0,
    "coupon": "3,50 %",
    "accruedInterest": "3,66",
    "settleDate": "2022.11.11",
    "askEhmYield": "",
    "bidYield": "5,59",
    "rawName": "N2026/03",
    "bidPrice": "99,50",
    "coupon_val": 3.5,
    "maturityInDays": "1164 nap",
    "securityType": "MÁP Plusz",
    "maturityDate": "2026.01.18",
    "name": "N2026/03",
    "bidEhmYield": "",
    "askYield": "",
    "currency": "HUF",
    "maturityInDays_val": 1164,
    "issueDate": "2021-01-18",
    "longName": "N260118"
}