{
    "askPrice": "",
    "green": 0,
    "coupon": "3,50 %",
    "accruedInterest": "2,58",
    "settleDate": "2022.08.15",
    "askEhmYield": "",
    "bidYield": "",
    "rawName": "N2026/03",
    "bidPrice": "99,50",
    "coupon_val": 3.5,
    "maturityInDays": "1252 nap",
    "securityType": "MÁP Plusz",
    "maturityDate": "2026.01.18",
    "name": "N2026/03",
    "bidEhmYield": "",
    "askYield": "",
    "currency": "HUF",
    "maturityInDays_val": 1252,
    "longName": "N260118"
}