{
    "askPrice": "",
    "green": 0,
    "coupon": "3,50 %",
    "accruedInterest": "4,5890",
    "settleDate": "2023.12.19",
    "askEhmYield": "",
    "bidYield": "5,97",
    "rawName": "N2026/03",
    "bidPrice": "99,5000",
    "coupon_val": 3.5,
    "maturityInDays": "761 nap",
    "securityType": "MÁP Plusz",
    "maturityDate": "2026.01.18",
    "name": "N2026/03",
    "bidEhmYield": "",
    "askYield": "",
    "currency": "HUF",
    "maturityInDays_val": 761,
    "issueDate": "2021.01.18",
    "longName": "N260118"
}