{
    "askPrice": "",
    "green": 0,
    "coupon": "3,50 %",
    "accruedInterest": "1,1781",
    "settleDate": "2023.04.14",
    "askEhmYield": "",
    "bidYield": "5,72",
    "rawName": "N2026/03",
    "bidPrice": "99,5000",
    "coupon_val": 3.5,
    "maturityInDays": "1010 nap",
    "securityType": "MÁP Plusz",
    "maturityDate": "2026.01.18",
    "name": "N2026/03",
    "bidEhmYield": "",
    "askYield": "",
    "currency": "HUF",
    "maturityInDays_val": 1010,
    "issueDate": "2021.01.18",
    "longName": "N260118"
}