{
    "askPrice": "",
    "green": 0,
    "coupon": "3,50 %",
    "accruedInterest": "0,7964",
    "settleDate": "2024.03.11",
    "askEhmYield": "",
    "bidYield": "6,04",
    "rawName": "N2026/03",
    "bidPrice": "99,5000",
    "coupon_val": 3.5,
    "maturityInDays": "678 nap",
    "securityType": "MÁP Plusz",
    "maturityDate": "2026.01.18",
    "name": "N2026/03",
    "bidEhmYield": "",
    "askYield": "",
    "currency": "HUF",
    "maturityInDays_val": 678,
    "issueDate": "2021.01.18",
    "longName": "N260118"
}