{
    "askPrice": "",
    "green": 0,
    "coupon": "3,50 %",
    "accruedInterest": "0,9467",
    "settleDate": "2024.03.21",
    "askEhmYield": "",
    "bidYield": "6,05",
    "rawName": "N2026/03",
    "bidPrice": "99,5000",
    "coupon_val": 3.5,
    "maturityInDays": "668 nap",
    "securityType": "MÁP Plusz",
    "maturityDate": "2026.01.18",
    "name": "N2026/03",
    "bidEhmYield": "",
    "askYield": "",
    "currency": "HUF",
    "maturityInDays_val": 668,
    "issueDate": "2021.01.18",
    "longName": "N260118"
}