{
    "askPrice": "",
    "green": 0,
    "coupon": "3,50 %",
    "accruedInterest": "1,7432",
    "settleDate": "2024.05.13",
    "askEhmYield": "",
    "bidYield": "6,09",
    "rawName": "N2026/03",
    "bidPrice": "99,5000",
    "coupon_val": 3.5,
    "maturityInDays": "615 nap",
    "securityType": "MÁP Plusz",
    "maturityDate": "2026.01.18",
    "name": "N2026/03",
    "bidEhmYield": "",
    "askYield": "",
    "currency": "HUF",
    "maturityInDays_val": 615,
    "issueDate": "2021.01.18",
    "longName": "N260118"
}