{
    "askPrice": "",
    "green": 0,
    "coupon": "3,50 %",
    "accruedInterest": "3,08",
    "settleDate": "2022.11.03",
    "askEhmYield": "",
    "bidYield": "5,83",
    "rawName": "N2025/12",
    "bidPrice": "99,50",
    "coupon_val": 3.5,
    "maturityInDays": "871 nap",
    "securityType": "MÁP Plusz",
    "maturityDate": "2025.03.23",
    "name": "N2025/12",
    "bidEhmYield": "",
    "askYield": "",
    "currency": "HUF",
    "maturityInDays_val": 871,
    "issueDate": "2020-03-23",
    "longName": "N250323"
}