{
    "askPrice": "",
    "green": 0,
    "coupon": "3,50 %",
    "accruedInterest": "4,2077",
    "settleDate": "2023.12.28",
    "askEhmYield": "",
    "bidYield": "6,31",
    "rawName": "N2025/12",
    "bidPrice": "99,5000",
    "coupon_val": 3.5,
    "maturityInDays": "451 nap",
    "securityType": "MÁP Plusz",
    "maturityDate": "2025.03.23",
    "name": "N2025/12",
    "bidEhmYield": "",
    "askYield": "",
    "currency": "HUF",
    "maturityInDays_val": 451,
    "issueDate": "2020.03.23",
    "longName": "N250323"
}