{
    "askPrice": "",
    "green": 0,
    "coupon": "3,50 %",
    "accruedInterest": "4,2828",
    "settleDate": "2024.01.02",
    "askEhmYield": "",
    "bidYield": "6,32",
    "rawName": "N2025/12",
    "bidPrice": "99,5000",
    "coupon_val": 3.5,
    "maturityInDays": "446 nap",
    "securityType": "MÁP Plusz",
    "maturityDate": "2025.03.23",
    "name": "N2025/12",
    "bidEhmYield": "",
    "askYield": "",
    "currency": "HUF",
    "maturityInDays_val": 446,
    "issueDate": "2020.03.23",
    "longName": "N250323"
}