{
    "askPrice": "",
    "green": 0,
    "coupon": "3,50 %",
    "accruedInterest": "2,1038",
    "settleDate": "2023.08.10",
    "askEhmYield": "",
    "bidYield": "6,11",
    "rawName": "N2025/12",
    "bidPrice": "99,5000",
    "coupon_val": 3.5,
    "maturityInDays": "591 nap",
    "securityType": "MÁP Plusz",
    "maturityDate": "2025.03.23",
    "name": "N2025/12",
    "bidEhmYield": "",
    "askYield": "",
    "currency": "HUF",
    "maturityInDays_val": 591,
    "issueDate": "2020.03.23",
    "longName": "N250323"
}