{
    "askPrice": "",
    "green": 0,
    "coupon": "3,50 %",
    "accruedInterest": "0,2630",
    "settleDate": "2024.04.08",
    "askEhmYield": "",
    "bidYield": "6,55",
    "rawName": "N2025/12",
    "bidPrice": "99,5000",
    "coupon_val": 3.5,
    "maturityInDays": "349 nap",
    "securityType": "MÁP Plusz",
    "maturityDate": "2025.03.23",
    "name": "N2025/12",
    "bidEhmYield": "",
    "askYield": "",
    "currency": "HUF",
    "maturityInDays_val": 349,
    "issueDate": "2020.03.23",
    "longName": "N250323"
}