{
    "askPrice": "",
    "green": 0,
    "coupon": "3,50 %",
    "accruedInterest": "2,07",
    "settleDate": "2022.07.04",
    "askEhmYield": "",
    "bidYield": "",
    "rawName": "N2025/05",
    "bidPrice": "99,50",
    "coupon_val": 3.5,
    "maturityInDays": "945 nap",
    "securityType": "MÁP Plusz",
    "maturityDate": "2025.02.03",
    "name": "N2025/05",
    "bidEhmYield": "",
    "askYield": "",
    "currency": "HUF",
    "maturityInDays_val": 945,
    "longName": "N250203"
}