{
    "askPrice": "",
    "green": 0,
    "coupon": "3,50 %",
    "accruedInterest": "4,4247",
    "settleDate": "2022.12.23",
    "askEhmYield": "",
    "bidYield": "5,95",
    "rawName": "N2025/05",
    "bidPrice": "99,5000",
    "coupon_val": 3.5,
    "maturityInDays": "773 nap",
    "securityType": "MÁP Plusz",
    "maturityDate": "2025.02.03",
    "name": "N2025/05",
    "bidEhmYield": "",
    "askYield": "",
    "currency": "HUF",
    "maturityInDays_val": 773,
    "issueDate": "2020.02.03",
    "longName": "N250203"
}