{
    "askPrice": "",
    "green": 0,
    "coupon": "3,50 %",
    "accruedInterest": "4,1589",
    "settleDate": "2023.11.06",
    "askEhmYield": "",
    "bidYield": "6,30",
    "rawName": "N2025/05",
    "bidPrice": "99,5000",
    "coupon_val": 3.5,
    "maturityInDays": "455 nap",
    "securityType": "MÁP Plusz",
    "maturityDate": "2025.02.03",
    "name": "N2025/05",
    "bidEhmYield": "",
    "askYield": "",
    "currency": "HUF",
    "maturityInDays_val": 455,
    "issueDate": "2020.02.03",
    "longName": "N250203"
}