{
    "askPrice": "",
    "green": 0,
    "coupon": "3,50 %",
    "accruedInterest": "4,6849",
    "settleDate": "2023.01.11",
    "askEhmYield": "",
    "bidYield": "5,98",
    "rawName": "N2025/05",
    "bidPrice": "99,5000",
    "coupon_val": 3.5,
    "maturityInDays": "754 nap",
    "securityType": "MÁP Plusz",
    "maturityDate": "2025.02.03",
    "name": "N2025/05",
    "bidEhmYield": "",
    "askYield": "",
    "currency": "HUF",
    "maturityInDays_val": 754,
    "issueDate": "2020.02.03",
    "longName": "N250203"
}