{
    "askPrice": "",
    "green": 0,
    "coupon": "3,50 %",
    "accruedInterest": "1,6393",
    "settleDate": "2024.05.13",
    "askEhmYield": "",
    "bidYield": "6,67",
    "rawName": "N2025/05",
    "bidPrice": "99,5000",
    "coupon_val": 3.5,
    "maturityInDays": "266 nap",
    "securityType": "MÁP Plusz",
    "maturityDate": "2025.02.03",
    "name": "N2025/05",
    "bidEhmYield": "",
    "askYield": "",
    "currency": "HUF",
    "maturityInDays_val": 266,
    "issueDate": "2020.02.03",
    "longName": "N250203"
}