{
    "askPrice": "",
    "green": 0,
    "coupon": "3,50 %",
    "accruedInterest": "0,3934",
    "settleDate": "2024.02.27",
    "askEhmYield": "",
    "bidYield": "6,56",
    "rawName": "N2025/05",
    "bidPrice": "99,5000",
    "coupon_val": 3.5,
    "maturityInDays": "342 nap",
    "securityType": "MÁP Plusz",
    "maturityDate": "2025.02.03",
    "name": "N2025/05",
    "bidEhmYield": "",
    "askYield": "",
    "currency": "HUF",
    "maturityInDays_val": 342,
    "issueDate": "2020.02.03",
    "longName": "N250203"
}