{
    "askPrice": "",
    "green": 0,
    "coupon": "3,50 %",
    "accruedInterest": "2,35",
    "settleDate": "2022.06.23",
    "askEhmYield": "",
    "bidYield": "",
    "rawName": "N2025/50",
    "bidPrice": "99,50",
    "coupon_val": 3.5,
    "maturityInDays": "1270 nap",
    "securityType": "MÁP Plusz",
    "maturityDate": "2025.12.14",
    "name": "N2025/50",
    "bidEhmYield": "",
    "askYield": "",
    "currency": "HUF",
    "maturityInDays_val": 1270,
    "longName": "N251214"
}