{
    "askPrice": "",
    "green": 0,
    "coupon": "3,50 %",
    "accruedInterest": "4,04",
    "settleDate": "2022.11.07",
    "askEhmYield": "",
    "bidYield": "5,62",
    "rawName": "N2025/50",
    "bidPrice": "99,50",
    "coupon_val": 3.5,
    "maturityInDays": "1133 nap",
    "securityType": "MÁP Plusz",
    "maturityDate": "2025.12.14",
    "name": "N2025/50",
    "bidEhmYield": "",
    "askYield": "",
    "currency": "HUF",
    "maturityInDays_val": 1133,
    "issueDate": "2020-12-14",
    "longName": "N251214"
}