{
    "askPrice": "",
    "green": 0,
    "coupon": "3,50 %",
    "accruedInterest": "3,29",
    "settleDate": "2022.09.07",
    "askEhmYield": "",
    "bidYield": "",
    "rawName": "N2025/50",
    "bidPrice": "99,50",
    "coupon_val": 3.5,
    "maturityInDays": "1194 nap",
    "securityType": "MÁP Plusz",
    "maturityDate": "2025.12.14",
    "name": "N2025/50",
    "bidEhmYield": "",
    "askYield": "",
    "currency": "HUF",
    "maturityInDays_val": 1194,
    "longName": "N251214"
}