{
    "askPrice": "",
    "green": 0,
    "coupon": "3,50 %",
    "accruedInterest": "4,4932",
    "settleDate": "2023.11.07",
    "askEhmYield": "",
    "bidYield": "5,96",
    "rawName": "N2025/50",
    "bidPrice": "99,5000",
    "coupon_val": 3.5,
    "maturityInDays": "768 nap",
    "securityType": "MÁP Plusz",
    "maturityDate": "2025.12.14",
    "name": "N2025/50",
    "bidEhmYield": "",
    "askYield": "",
    "currency": "HUF",
    "maturityInDays_val": 768,
    "issueDate": "2020.12.14",
    "longName": "N251214"
}