{
    "askPrice": "",
    "green": 0,
    "coupon": "3,50 %",
    "accruedInterest": "1,9041",
    "settleDate": "2023.05.02",
    "askEhmYield": "",
    "bidYield": "5,76",
    "rawName": "N2025/50",
    "bidPrice": "99,5000",
    "coupon_val": 3.5,
    "maturityInDays": "957 nap",
    "securityType": "MÁP Plusz",
    "maturityDate": "2025.12.14",
    "name": "N2025/50",
    "bidEhmYield": "",
    "askYield": "",
    "currency": "HUF",
    "maturityInDays_val": 957,
    "issueDate": "2020.12.14",
    "longName": "N251214"
}