{
    "askPrice": "",
    "green": 0,
    "coupon": "3,50 %",
    "accruedInterest": "1,4577",
    "settleDate": "2024.03.20",
    "askEhmYield": "",
    "bidYield": "6,07",
    "rawName": "N2025/50",
    "bidPrice": "99,5000",
    "coupon_val": 3.5,
    "maturityInDays": "634 nap",
    "securityType": "MÁP Plusz",
    "maturityDate": "2025.12.14",
    "name": "N2025/50",
    "bidEhmYield": "",
    "askYield": "",
    "currency": "HUF",
    "maturityInDays_val": 634,
    "issueDate": "2020.12.14",
    "longName": "N251214"
}