{
    "askPrice": "",
    "green": 0,
    "coupon": "3,50 %",
    "accruedInterest": "0,3306",
    "settleDate": "2024.01.05",
    "askEhmYield": "",
    "bidYield": "6,03",
    "rawName": "N2025/50",
    "bidPrice": "99,5000",
    "coupon_val": 3.5,
    "maturityInDays": "709 nap",
    "securityType": "MÁP Plusz",
    "maturityDate": "2025.12.14",
    "name": "N2025/50",
    "bidEhmYield": "",
    "askYield": "",
    "currency": "HUF",
    "maturityInDays_val": 709,
    "issueDate": "2020.12.14",
    "longName": "N251214"
}