{
    "askPrice": "",
    "green": 0,
    "coupon": "3,50 %",
    "accruedInterest": "0,3384",
    "settleDate": "2023.02.20",
    "askEhmYield": "",
    "bidYield": "5,05",
    "rawName": "N2028/03",
    "bidPrice": "99,5000",
    "coupon_val": 3.5,
    "maturityInDays": "1791 nap",
    "securityType": "MÁP Plusz",
    "maturityDate": "2028.01.16",
    "name": "N2028/03",
    "bidEhmYield": "",
    "askYield": "",
    "currency": "HUF",
    "maturityInDays_val": 1791,
    "issueDate": "2023.01.16",
    "longName": "N280116"
}