{
    "askPrice": "",
    "green": 0,
    "coupon": "4,75 %",
    "accruedInterest": "1,2103",
    "settleDate": "2022.11.24",
    "askEhmYield": "",
    "bidYield": "5,42",
    "rawName": "K2023/34",
    "bidPrice": "99,5000",
    "coupon_val": 4.75,
    "maturityInDays": "272 nap",
    "securityType": "1MÁP",
    "maturityDate": "2023.08.23",
    "name": "K2023/34",
    "bidEhmYield": "5,38",
    "askYield": "",
    "currency": "HUF",
    "maturityInDays_val": 272,
    "issueDate": "2022.08.23",
    "longName": "K230823"
}