{
    "askPrice": "",
    "green": 0,
    "coupon": "4,75 %",
    "accruedInterest": "0,12",
    "settleDate": "2022.09.01",
    "askEhmYield": "",
    "bidYield": "",
    "rawName": "K2023/34",
    "bidPrice": "99,50",
    "coupon_val": 4.75,
    "maturityInDays": "356 nap",
    "securityType": "1MÁP",
    "maturityDate": "2023.08.23",
    "name": "K2023/34",
    "bidEhmYield": "5,28",
    "askYield": "",
    "currency": "HUF",
    "maturityInDays_val": 356,
    "longName": "K230823"
}