{
    "askPrice": "",
    "green": 0,
    "coupon": "4,75 %",
    "accruedInterest": "0,62",
    "settleDate": "2022.10.10",
    "askEhmYield": "",
    "bidYield": "",
    "rawName": "K2023/34",
    "bidPrice": "99,50",
    "coupon_val": 4.75,
    "maturityInDays": "317 nap",
    "securityType": "1MÁP",
    "maturityDate": "2023.08.23",
    "name": "K2023/34",
    "bidEhmYield": "5,32",
    "askYield": "",
    "currency": "HUF",
    "maturityInDays_val": 317,
    "longName": "K230823"
}