{
    "askPrice": "",
    "green": 0,
    "coupon": "4,75 %",
    "accruedInterest": "1,6397",
    "settleDate": "2022.12.27",
    "askEhmYield": "",
    "bidYield": "6,30",
    "rawName": "K2023/34",
    "bidPrice": "99,0000",
    "coupon_val": 4.75,
    "maturityInDays": "239 nap",
    "securityType": "1MÁP",
    "maturityDate": "2023.08.23",
    "name": "K2023/34",
    "bidEhmYield": "6,24",
    "askYield": "",
    "currency": "HUF",
    "maturityInDays_val": 239,
    "issueDate": "2022.08.23",
    "longName": "K230823"
}