{
    "askPrice": "",
    "green": 0,
    "coupon": "4,75 %",
    "accruedInterest": "3,6438",
    "settleDate": "2023.05.30",
    "askEhmYield": "",
    "bidYield": "9,11",
    "rawName": "K2023/34",
    "bidPrice": "99,0000",
    "coupon_val": 4.75,
    "maturityInDays": "85 nap",
    "securityType": "1MÁP",
    "maturityDate": "2023.08.23",
    "name": "K2023/34",
    "bidEhmYield": "8,81",
    "askYield": "",
    "currency": "HUF",
    "maturityInDays_val": 85,
    "issueDate": "2022.08.23",
    "longName": "K230823"
}