{
    "askPrice": "",
    "green": 0,
    "coupon": "4,75 %",
    "accruedInterest": "2,3815",
    "settleDate": "2023.02.22",
    "askEhmYield": "",
    "bidYield": "6,77",
    "rawName": "K2023/34",
    "bidPrice": "99,0000",
    "coupon_val": 4.75,
    "maturityInDays": "182 nap",
    "securityType": "1MÁP",
    "maturityDate": "2023.08.23",
    "name": "K2023/34",
    "bidEhmYield": "6,66",
    "askYield": "",
    "currency": "HUF",
    "maturityInDays_val": 182,
    "issueDate": "2022.08.23",
    "longName": "K230823"
}