{
    "askPrice": "",
    "green": 0,
    "coupon": "4,75 %",
    "accruedInterest": "4,2685",
    "settleDate": "2023.07.17",
    "askEhmYield": "",
    "bidYield": "15,09",
    "rawName": "K2023/34",
    "bidPrice": "99,0000",
    "coupon_val": 4.75,
    "maturityInDays": "37 nap",
    "securityType": "1MÁP",
    "maturityDate": "2023.08.23",
    "name": "K2023/34",
    "bidEhmYield": "14,15",
    "askYield": "",
    "currency": "HUF",
    "maturityInDays_val": 37,
    "issueDate": "2022.08.23",
    "longName": "K230823"
}