{
    "askPrice": "",
    "green": 0,
    "coupon": "4,75 %",
    "accruedInterest": "1,7699",
    "settleDate": "2023.01.06",
    "askEhmYield": "",
    "bidYield": "6,37",
    "rawName": "K2023/34",
    "bidPrice": "99,0000",
    "coupon_val": 4.75,
    "maturityInDays": "229 nap",
    "securityType": "1MÁP",
    "maturityDate": "2023.08.23",
    "name": "K2023/34",
    "bidEhmYield": "6,30",
    "askYield": "",
    "currency": "HUF",
    "maturityInDays_val": 229,
    "issueDate": "2022.08.23",
    "longName": "K230823"
}