{
    "askPrice": "",
    "green": 0,
    "coupon": "4,75 %",
    "accruedInterest": "3,4486",
    "settleDate": "2023.05.15",
    "askEhmYield": "",
    "bidYield": "8,45",
    "rawName": "K2023/34",
    "bidPrice": "99,0000",
    "coupon_val": 4.75,
    "maturityInDays": "100 nap",
    "securityType": "1MÁP",
    "maturityDate": "2023.08.23",
    "name": "K2023/34",
    "bidEhmYield": "8,20",
    "askYield": "",
    "currency": "HUF",
    "maturityInDays_val": 100,
    "issueDate": "2022.08.23",
    "longName": "K230823"
}