{
    "askPrice": "",
    "green": 0,
    "coupon": "4,75 %",
    "accruedInterest": "4,6329",
    "settleDate": "2023.08.14",
    "askEhmYield": "",
    "bidYield": "32,13",
    "rawName": "K2023/34",
    "bidPrice": "99,4000",
    "coupon_val": 4.75,
    "maturityInDays": "9 nap",
    "securityType": "1MÁP",
    "maturityDate": "2023.08.23",
    "name": "K2023/34",
    "bidEhmYield": "27,96",
    "askYield": "",
    "currency": "HUF",
    "maturityInDays_val": 9,
    "issueDate": "2022.08.23",
    "longName": "K230823"
}