{
    "askPrice": "",
    "green": 0,
    "coupon": "4,75 %",
    "accruedInterest": "1,8610",
    "settleDate": "2023.01.13",
    "askEhmYield": "",
    "bidYield": "6,42",
    "rawName": "K2023/34",
    "bidPrice": "99,0000",
    "coupon_val": 4.75,
    "maturityInDays": "222 nap",
    "securityType": "1MÁP",
    "maturityDate": "2023.08.23",
    "name": "K2023/34",
    "bidEhmYield": "6,34",
    "askYield": "",
    "currency": "HUF",
    "maturityInDays_val": 222,
    "issueDate": "2022.08.23",
    "longName": "K230823"
}