{
    "askPrice": "",
    "green": 0,
    "coupon": "4,75 %",
    "accruedInterest": "2,9151",
    "settleDate": "2023.04.04",
    "askEhmYield": "",
    "bidYield": "7,36",
    "rawName": "K2023/34",
    "bidPrice": "99,0000",
    "coupon_val": 4.75,
    "maturityInDays": "141 nap",
    "securityType": "1MÁP",
    "maturityDate": "2023.08.23",
    "name": "K2023/34",
    "bidEhmYield": "7,20",
    "askYield": "",
    "currency": "HUF",
    "maturityInDays_val": 141,
    "issueDate": "2022.08.23",
    "longName": "K230823"
}