{
    "askPrice": "",
    "green": 0,
    "coupon": "4,75 %",
    "accruedInterest": "3,9301",
    "settleDate": "2023.06.21",
    "askEhmYield": "",
    "bidYield": "10,69",
    "rawName": "K2023/34",
    "bidPrice": "99,0000",
    "coupon_val": 4.75,
    "maturityInDays": "63 nap",
    "securityType": "1MÁP",
    "maturityDate": "2023.08.23",
    "name": "K2023/34",
    "bidEhmYield": "10,24",
    "askYield": "",
    "currency": "HUF",
    "maturityInDays_val": 63,
    "issueDate": "2022.08.23",
    "longName": "K230823"
}