{
    "askPrice": "",
    "green": 0,
    "coupon": "4,75 %",
    "accruedInterest": "4,0212",
    "settleDate": "2023.06.28",
    "askEhmYield": "",
    "bidYield": "11,46",
    "rawName": "K2023/34",
    "bidPrice": "99,0000",
    "coupon_val": 4.75,
    "maturityInDays": "56 nap",
    "securityType": "1MÁP",
    "maturityDate": "2023.08.23",
    "name": "K2023/34",
    "bidEhmYield": "10,94",
    "askYield": "",
    "currency": "HUF",
    "maturityInDays_val": 56,
    "issueDate": "2022.08.23",
    "longName": "K230823"
}