{
    "askPrice": "94,1902",
    "green": 0,
    "coupon": 0,
    "accruedInterest": 0,
    "settleDate": "2024.02.28",
    "askEhmYield": "6,31",
    "bidYield": "7,00",
    "rawName": "D250219",
    "bidPrice": "93,5089",
    "maturityInDays": "357 nap",
    "securityType": "DKJ",
    "maturityDate": "2025.02.19",
    "name": "D250219",
    "bidEhmYield": "7,10",
    "askYield": "6,22",
    "currency": "HUF",
    "maturityInDays_val": 357,
    "issueDate": "2024.02.21",
    "longName": "D250219"
}