{
    "askPrice": "94,2322",
    "green": 0,
    "coupon": 0,
    "accruedInterest": 0,
    "settleDate": "2024.03.04",
    "askEhmYield": "6,35",
    "bidYield": "7,04",
    "rawName": "D250219",
    "bidPrice": "93,5598",
    "maturityInDays": "352 nap",
    "securityType": "DKJ",
    "maturityDate": "2025.02.19",
    "name": "D250219",
    "bidEhmYield": "7,14",
    "askYield": "6,26",
    "currency": "HUF",
    "maturityInDays_val": 352,
    "issueDate": "2024.02.21",
    "longName": "D250219"
}