{
    "askPrice": "94,7261",
    "green": 0,
    "coupon": 0,
    "accruedInterest": 0,
    "settleDate": "2024.04.19",
    "askEhmYield": "6,64",
    "bidYield": "7,35",
    "rawName": "D250219",
    "bidPrice": "94,1199",
    "maturityInDays": "306 nap",
    "securityType": "DKJ",
    "maturityDate": "2025.02.19",
    "name": "D250219",
    "bidEhmYield": "7,45",
    "askYield": "6,55",
    "currency": "HUF",
    "maturityInDays_val": 306,
    "issueDate": "2024.02.21",
    "longName": "D250219"
}