{
    "askPrice": "94,5164",
    "green": 0,
    "coupon": 0,
    "accruedInterest": 0,
    "settleDate": "2024.03.25",
    "askEhmYield": "6,40",
    "bidYield": "7,10",
    "rawName": "D250219",
    "bidPrice": "93,8720",
    "maturityInDays": "331 nap",
    "securityType": "DKJ",
    "maturityDate": "2025.02.19",
    "name": "D250219",
    "bidEhmYield": "7,20",
    "askYield": "6,31",
    "currency": "HUF",
    "maturityInDays_val": 331,
    "issueDate": "2024.02.21",
    "longName": "D250219"
}