{
    "askPrice": "94,2630",
    "green": 0,
    "coupon": 0,
    "accruedInterest": 0,
    "settleDate": "2024.03.06",
    "askEhmYield": "6,35",
    "bidYield": "7,05",
    "rawName": "D250219",
    "bidPrice": "93,5855",
    "maturityInDays": "350 nap",
    "securityType": "DKJ",
    "maturityDate": "2025.02.19",
    "name": "D250219",
    "bidEhmYield": "7,15",
    "askYield": "6,26",
    "currency": "HUF",
    "maturityInDays_val": 350,
    "issueDate": "2024.02.21",
    "longName": "D250219"
}