{
    "askPrice": "94,6419",
    "green": 0,
    "coupon": 0,
    "accruedInterest": 0,
    "settleDate": "2024.04.02",
    "askEhmYield": "6,40",
    "bidYield": "7,09",
    "rawName": "D250219",
    "bidPrice": "94,0192",
    "maturityInDays": "323 nap",
    "securityType": "DKJ",
    "maturityDate": "2025.02.19",
    "name": "D250219",
    "bidEhmYield": "7,19",
    "askYield": "6,31",
    "currency": "HUF",
    "maturityInDays_val": 323,
    "issueDate": "2024.02.21",
    "longName": "D250219"
}