{
    "askPrice": "94,8216",
    "green": 0,
    "coupon": 0,
    "accruedInterest": 0,
    "settleDate": "2024.04.23",
    "askEhmYield": "6,60",
    "bidYield": "7,35",
    "rawName": "D250219",
    "bidPrice": "94,1923",
    "maturityInDays": "302 nap",
    "securityType": "DKJ",
    "maturityDate": "2025.02.19",
    "name": "D250219",
    "bidEhmYield": "7,45",
    "askYield": "6,51",
    "currency": "HUF",
    "maturityInDays_val": 302,
    "issueDate": "2024.02.21",
    "longName": "D250219"
}