{
    "askPrice": "94,6970",
    "green": 0,
    "coupon": 0,
    "accruedInterest": 0,
    "settleDate": "2024.04.05",
    "askEhmYield": "6,39",
    "bidYield": "7,10",
    "rawName": "D250219",
    "bidPrice": "94,0635",
    "maturityInDays": "320 nap",
    "securityType": "DKJ",
    "maturityDate": "2025.02.19",
    "name": "D250219",
    "bidEhmYield": "7,20",
    "askYield": "6,30",
    "currency": "HUF",
    "maturityInDays_val": 320,
    "issueDate": "2024.02.21",
    "longName": "D250219"
}