{
    "askPrice": "95,4195",
    "green": 0,
    "coupon": 0,
    "accruedInterest": 0,
    "settleDate": "2024.05.14",
    "askEhmYield": "6,24",
    "bidYield": "7,01",
    "rawName": "D250219",
    "bidPrice": "94,8122",
    "maturityInDays": "281 nap",
    "securityType": "DKJ",
    "maturityDate": "2025.02.19",
    "name": "D250219",
    "bidEhmYield": "7,11",
    "askYield": "6,15",
    "currency": "HUF",
    "maturityInDays_val": 281,
    "issueDate": "2024.02.21",
    "longName": "D250219"
}