{
    "askPrice": "",
    "green": 0,
    "coupon": "3,50 %",
    "accruedInterest": "1,0442",
    "settleDate": "2023.06.15",
    "askEhmYield": "",
    "bidYield": "5,12",
    "rawName": "N2028/09",
    "bidPrice": "99,5000",
    "coupon_val": 3.5,
    "maturityInDays": "1718 nap",
    "securityType": "MÁP Plusz",
    "maturityDate": "2028.02.27",
    "name": "N2028/09",
    "bidEhmYield": "",
    "askYield": "",
    "currency": "HUF",
    "maturityInDays_val": 1718,
    "issueDate": "2023.02.27",
    "longName": "N280227"
}