{
    "askPrice": "",
    "green": 0,
    "coupon": "3,50 %",
    "accruedInterest": "1,9565",
    "settleDate": "2024.02.23",
    "askEhmYield": "",
    "bidYield": "",
    "rawName": "N2028/09",
    "bidPrice": "",
    "coupon_val": 3.5,
    "maturityInDays": "1465 nap",
    "securityType": "MÁP Plusz",
    "maturityDate": "2028.02.27",
    "name": "N2028/09",
    "bidEhmYield": "",
    "askYield": "",
    "currency": "HUF",
    "maturityInDays_val": 1465,
    "issueDate": "2023.02.27",
    "longName": "N280227"
}