{
    "askPrice": "",
    "green": 0,
    "coupon": "3,50 %",
    "accruedInterest": "0,0369",
    "settleDate": "2024.03.01",
    "askEhmYield": "",
    "bidYield": "5,22",
    "rawName": "N2028/09",
    "bidPrice": "100,0000",
    "coupon_val": 3.5,
    "maturityInDays": "1458 nap",
    "securityType": "MÁP Plusz",
    "maturityDate": "2028.02.27",
    "name": "N2028/09",
    "bidEhmYield": "",
    "askYield": "",
    "currency": "HUF",
    "maturityInDays_val": 1458,
    "issueDate": "2023.02.27",
    "longName": "N280227"
}