{
    "askPrice": "",
    "green": 0,
    "coupon": "3,50 %",
    "accruedInterest": "0,37",
    "settleDate": "2022.11.17",
    "askEhmYield": "",
    "bidYield": "5,06",
    "rawName": "N2027/41",
    "bidPrice": "99,50",
    "coupon_val": 3.5,
    "maturityInDays": "1788 nap",
    "securityType": "MÁP Plusz",
    "maturityDate": "2027.10.10",
    "name": "N2027/41",
    "bidEhmYield": "",
    "askYield": "",
    "currency": "HUF",
    "maturityInDays_val": 1788,
    "issueDate": "2022-10-10",
    "longName": "N271010"
}