{
    "askPrice": "",
    "green": 0,
    "coupon": "3,50 %",
    "accruedInterest": "0,7115",
    "settleDate": "2022.12.23",
    "askEhmYield": "",
    "bidYield": "5,09",
    "rawName": "N2027/41",
    "bidPrice": "99,5000",
    "coupon_val": 3.5,
    "maturityInDays": "1752 nap",
    "securityType": "MÁP Plusz",
    "maturityDate": "2027.10.10",
    "name": "N2027/41",
    "bidEhmYield": "",
    "askYield": "",
    "currency": "HUF",
    "maturityInDays_val": 1752,
    "issueDate": "2022.10.10",
    "longName": "N271010"
}