{
    "askPrice": "",
    "green": 0,
    "coupon": "3,50 %",
    "accruedInterest": "1,4973",
    "settleDate": "2023.08.25",
    "askEhmYield": "",
    "bidYield": "5,32",
    "rawName": "N2027/41",
    "bidPrice": "99,5000",
    "coupon_val": 3.5,
    "maturityInDays": "1507 nap",
    "securityType": "MÁP Plusz",
    "maturityDate": "2027.10.10",
    "name": "N2027/41",
    "bidEhmYield": "",
    "askYield": "",
    "currency": "HUF",
    "maturityInDays_val": 1507,
    "issueDate": "2022.10.10",
    "longName": "N271010"
}