{
    "askPrice": "",
    "green": 0,
    "coupon": "3,50 %",
    "accruedInterest": "0,4016",
    "settleDate": "2023.11.27",
    "askEhmYield": "",
    "bidYield": "5,06",
    "rawName": "N2028/42",
    "bidPrice": "99,5000",
    "coupon_val": 3.5,
    "maturityInDays": "1785 nap",
    "securityType": "MÁP Plusz",
    "maturityDate": "2028.10.16",
    "name": "N2028/42",
    "bidEhmYield": "",
    "askYield": "",
    "currency": "HUF",
    "maturityInDays_val": 1785,
    "issueDate": "2023.10.16",
    "longName": "N281016"
}