{
    "askPrice": "",
    "green": 0,
    "coupon": "3,50 %",
    "accruedInterest": "1,7117",
    "settleDate": "2024.04.12",
    "askEhmYield": "",
    "bidYield": "",
    "rawName": "N2028/42",
    "bidPrice": "",
    "coupon_val": 3.5,
    "maturityInDays": "1648 nap",
    "securityType": "MÁP Plusz",
    "maturityDate": "2028.10.16",
    "name": "N2028/42",
    "bidEhmYield": "",
    "askYield": "",
    "currency": "HUF",
    "maturityInDays_val": 1648,
    "issueDate": "2023.10.16",
    "longName": "N281016"
}