{
    "askPrice": "",
    "green": 0,
    "coupon": "3,50 %",
    "accruedInterest": "0,0656",
    "settleDate": "2024.04.22",
    "askEhmYield": "",
    "bidYield": "5,08",
    "rawName": "N2028/42",
    "bidPrice": "100,0000",
    "coupon_val": 3.5,
    "maturityInDays": "1638 nap",
    "securityType": "MÁP Plusz",
    "maturityDate": "2028.10.16",
    "name": "N2028/42",
    "bidEhmYield": "",
    "askYield": "",
    "currency": "HUF",
    "maturityInDays_val": 1638,
    "issueDate": "2023.10.16",
    "longName": "N281016"
}