{
    "askPrice": "",
    "green": 0,
    "coupon": "3,50 %",
    "accruedInterest": "1,4822",
    "settleDate": "2024.03.19",
    "askEhmYield": "",
    "bidYield": "5,17",
    "rawName": "N2028/42",
    "bidPrice": "99,5000",
    "coupon_val": 3.5,
    "maturityInDays": "1672 nap",
    "securityType": "MÁP Plusz",
    "maturityDate": "2028.10.16",
    "name": "N2028/42",
    "bidEhmYield": "",
    "askYield": "",
    "currency": "HUF",
    "maturityInDays_val": 1672,
    "issueDate": "2023.10.16",
    "longName": "N281016"
}