{
    "askPrice": "55,68",
    "green": 0,
    "coupon": "2,25 %",
    "accruedInterest": "0,12",
    "settleDate": "2022.07.11",
    "askEhmYield": "8,21",
    "bidYield": "8,71",
    "rawName": "2034/A",
    "bidPrice": "53,17",
    "coupon_val": 2.25,
    "maturityInDays": "4364 nap",
    "securityType": "KTV",
    "maturityDate": "2034.06.22",
    "name": "2034/A",
    "bidEhmYield": "8,71",
    "askYield": "8,21",
    "currency": "HUF",
    "maturityInDays_val": 4364,
    "longName": "A340622A21"
}