{
    "askPrice": "56,81",
    "green": 0,
    "coupon": "2,25 %",
    "accruedInterest": "0,04",
    "settleDate": "2022.06.29",
    "askEhmYield": "7,98",
    "bidYield": "8,48",
    "rawName": "2034/A",
    "bidPrice": "54,24",
    "coupon_val": 2.25,
    "maturityInDays": "4376 nap",
    "securityType": "KTV",
    "maturityDate": "2034.06.22",
    "name": "2034/A",
    "bidEhmYield": "8,48",
    "askYield": "7,98",
    "currency": "HUF",
    "maturityInDays_val": 4376,
    "longName": "A340622A21"
}