{
    "askPrice": "60,2530",
    "green": 0,
    "coupon": "2,25 %",
    "accruedInterest": "1,0911",
    "settleDate": "2022.12.16",
    "askEhmYield": "7,52",
    "bidYield": "8,32",
    "rawName": "2034/A",
    "bidPrice": "56,0873",
    "coupon_val": 2.25,
    "maturityInDays": "4206 nap",
    "securityType": "KTV",
    "maturityDate": "2034.06.22",
    "name": "2034/A",
    "bidEhmYield": "8,31",
    "askYield": "7,53",
    "currency": "HUF",
    "maturityInDays_val": 4206,
    "issueDate": "2021.01.20",
    "longName": "A340622A21"
}