{
    "askPrice": "54,35",
    "green": 0,
    "coupon": "2,25 %",
    "accruedInterest": "0,46",
    "settleDate": "2022.09.05",
    "askEhmYield": "8,54",
    "bidYield": "9,04",
    "rawName": "2034/A",
    "bidPrice": "51,94",
    "coupon_val": 2.25,
    "maturityInDays": "4308 nap",
    "securityType": "KTV",
    "maturityDate": "2034.06.22",
    "name": "2034/A",
    "bidEhmYield": "9,04",
    "askYield": "8,54",
    "currency": "HUF",
    "maturityInDays_val": 4308,
    "longName": "A340622A21"
}