{
    "askPrice": "60,0636",
    "green": 0,
    "coupon": "2,25 %",
    "accruedInterest": "1,1219",
    "settleDate": "2022.12.21",
    "askEhmYield": "7,56",
    "bidYield": "8,36",
    "rawName": "2034/A",
    "bidPrice": "55,9177",
    "coupon_val": 2.25,
    "maturityInDays": "4201 nap",
    "securityType": "KTV",
    "maturityDate": "2034.06.22",
    "name": "2034/A",
    "bidEhmYield": "8,35",
    "askYield": "7,57",
    "currency": "HUF",
    "maturityInDays_val": 4201,
    "issueDate": "2021.01.20",
    "longName": "A340622A21"
}