{
    "askPrice": "58,36",
    "green": 0,
    "coupon": "2,25 %",
    "accruedInterest": "0,08",
    "settleDate": "2022.07.05",
    "askEhmYield": "7,70",
    "bidYield": "8,20",
    "rawName": "2034/A",
    "bidPrice": "55,70",
    "coupon_val": 2.25,
    "maturityInDays": "4370 nap",
    "securityType": "KTV",
    "maturityDate": "2034.06.22",
    "name": "2034/A",
    "bidEhmYield": "8,20",
    "askYield": "7,70",
    "currency": "HUF",
    "maturityInDays_val": 4370,
    "longName": "A340622A21"
}