{
    "askPrice": "57,43",
    "green": 0,
    "coupon": "2,25 %",
    "accruedInterest": "0,25",
    "settleDate": "2022.08.01",
    "askEhmYield": "7,90",
    "bidYield": "8,40",
    "rawName": "2034/A",
    "bidPrice": "54,84",
    "coupon_val": 2.25,
    "maturityInDays": "4343 nap",
    "securityType": "KTV",
    "maturityDate": "2034.06.22",
    "name": "2034/A",
    "bidEhmYield": "8,40",
    "askYield": "7,90",
    "currency": "HUF",
    "maturityInDays_val": 4343,
    "longName": "A340622A21"
}