{
    "askPrice": "53,22",
    "green": 0,
    "coupon": "2,25 %",
    "accruedInterest": "0,60",
    "settleDate": "2022.09.27",
    "askEhmYield": "8,80",
    "bidYield": "9,30",
    "rawName": "2034/A",
    "bidPrice": "50,88",
    "coupon_val": 2.25,
    "maturityInDays": "4286 nap",
    "securityType": "KTV",
    "maturityDate": "2034.06.22",
    "name": "2034/A",
    "bidEhmYield": "9,30",
    "askYield": "8,80",
    "currency": "HUF",
    "maturityInDays_val": 4286,
    "longName": "A340622A21"
}