{
    "askPrice": "61,58",
    "green": 0,
    "coupon": "2,25 %",
    "accruedInterest": "0,34",
    "settleDate": "2022.08.16",
    "askEhmYield": "7,17",
    "bidYield": "7,67",
    "rawName": "2034/A",
    "bidPrice": "58,76",
    "coupon_val": 2.25,
    "maturityInDays": "4328 nap",
    "securityType": "KTV",
    "maturityDate": "2034.06.22",
    "name": "2034/A",
    "bidEhmYield": "7,67",
    "askYield": "7,17",
    "currency": "HUF",
    "maturityInDays_val": 4328,
    "longName": "A340622A21"
}