{
    "askPrice": "59,5065",
    "green": 0,
    "coupon": "2,25 %",
    "accruedInterest": "1,1096",
    "settleDate": "2022.12.19",
    "askEhmYield": "7,66",
    "bidYield": "8,49",
    "rawName": "2034/A",
    "bidPrice": "55,2563",
    "coupon_val": 2.25,
    "maturityInDays": "4203 nap",
    "securityType": "KTV",
    "maturityDate": "2034.06.22",
    "name": "2034/A",
    "bidEhmYield": "8,48",
    "askYield": "7,67",
    "currency": "HUF",
    "maturityInDays_val": 4203,
    "issueDate": "2021.01.20",
    "longName": "A340622A21"
}