{
    "askPrice": "48,99",
    "green": 0,
    "coupon": "2,25 %",
    "accruedInterest": "0,71",
    "settleDate": "2022.10.15",
    "askEhmYield": "9,75",
    "bidYield": "10,95",
    "rawName": "2034/A",
    "bidPrice": "44,12",
    "coupon_val": 2.25,
    "maturityInDays": "4268 nap",
    "securityType": "KTV",
    "maturityDate": "2034.06.22",
    "name": "2034/A",
    "bidEhmYield": "10,95",
    "askYield": "9,75",
    "currency": "HUF",
    "maturityInDays_val": 4268,
    "longName": "A340622A21"
}