{
    "askPrice": "60,7313",
    "green": 0,
    "coupon": "2,25 %",
    "accruedInterest": "0,9555",
    "settleDate": "2022.11.24",
    "askEhmYield": "7,41",
    "bidYield": "8,10",
    "rawName": "2034/A",
    "bidPrice": "57,0739",
    "coupon_val": 2.25,
    "maturityInDays": "4228 nap",
    "securityType": "KTV",
    "maturityDate": "2034.06.22",
    "name": "2034/A",
    "bidEhmYield": "8,09",
    "askYield": "7,42",
    "currency": "HUF",
    "maturityInDays_val": 4228,
    "issueDate": "2021.01.20",
    "longName": "A340622A21"
}