{
    "askPrice": "54,52",
    "green": 0,
    "coupon": "2,25 %",
    "accruedInterest": "0,44",
    "settleDate": "2022.09.01",
    "askEhmYield": "8,50",
    "bidYield": "9,00",
    "rawName": "2034/A",
    "bidPrice": "52,10",
    "coupon_val": 2.25,
    "maturityInDays": "4312 nap",
    "securityType": "KTV",
    "maturityDate": "2034.06.22",
    "name": "2034/A",
    "bidEhmYield": "9,00",
    "askYield": "8,50",
    "currency": "HUF",
    "maturityInDays_val": 4312,
    "longName": "A340622A21"
}