{
    "askPrice": "53,39",
    "green": 0,
    "coupon": "2,25 %",
    "accruedInterest": "0,53",
    "settleDate": "2022.09.16",
    "askEhmYield": "8,75",
    "bidYield": "9,25",
    "rawName": "2034/A",
    "bidPrice": "51,03",
    "coupon_val": 2.25,
    "maturityInDays": "4297 nap",
    "securityType": "KTV",
    "maturityDate": "2034.06.22",
    "name": "2034/A",
    "bidEhmYield": "9,25",
    "askYield": "8,75",
    "currency": "HUF",
    "maturityInDays_val": 4297,
    "longName": "A340622A21"
}