{
    "askPrice": "68,0027",
    "green": 0,
    "coupon": "2,25 %",
    "accruedInterest": "0,1537",
    "settleDate": "2023.07.17",
    "askEhmYield": "6,40",
    "bidYield": "7,16",
    "rawName": "2034/A",
    "bidPrice": "63,6200",
    "coupon_val": 2.25,
    "maturityInDays": "3993 nap",
    "securityType": "KTV",
    "maturityDate": "2034.06.22",
    "name": "2034/A",
    "bidEhmYield": "7,15",
    "askYield": "6,41",
    "currency": "HUF",
    "maturityInDays_val": 3993,
    "issueDate": "2021.01.20",
    "longName": "A340622A21"
}