{
    "askPrice": "64,1230",
    "green": 0,
    "coupon": "2,25 %",
    "accruedInterest": "0,7807",
    "settleDate": "2023.10.27",
    "askEhmYield": "7,17",
    "bidYield": "7,82",
    "rawName": "2034/A",
    "bidPrice": "60,6909",
    "coupon_val": 2.25,
    "maturityInDays": "3891 nap",
    "securityType": "KTV",
    "maturityDate": "2034.06.22",
    "name": "2034/A",
    "bidEhmYield": "7,81",
    "askYield": "7,18",
    "currency": "HUF",
    "maturityInDays_val": 3891,
    "issueDate": "2021.01.20",
    "longName": "A340622A21"
}