{
    "askPrice": "66,4957",
    "green": 0,
    "coupon": "2,25 %",
    "accruedInterest": "0,7131",
    "settleDate": "2023.10.16",
    "askEhmYield": "6,74",
    "bidYield": "7,43",
    "rawName": "2034/A",
    "bidPrice": "62,6861",
    "coupon_val": 2.25,
    "maturityInDays": "3902 nap",
    "securityType": "KTV",
    "maturityDate": "2034.06.22",
    "name": "2034/A",
    "bidEhmYield": "7,42",
    "askYield": "6,75",
    "currency": "HUF",
    "maturityInDays_val": 3902,
    "issueDate": "2021.01.20",
    "longName": "A340622A21"
}