{
    "askPrice": "68,5901",
    "green": 0,
    "coupon": "2,25 %",
    "accruedInterest": "0,5410",
    "settleDate": "2023.09.18",
    "askEhmYield": "6,37",
    "bidYield": "7,05",
    "rawName": "2034/A",
    "bidPrice": "64,6134",
    "coupon_val": 2.25,
    "maturityInDays": "3930 nap",
    "securityType": "KTV",
    "maturityDate": "2034.06.22",
    "name": "2034/A",
    "bidEhmYield": "7,04",
    "askYield": "6,37",
    "currency": "HUF",
    "maturityInDays_val": 3930,
    "issueDate": "2021.01.20",
    "longName": "A340622A21"
}