{
    "askPrice": "65,6987",
    "green": 0,
    "coupon": "2,25 %",
    "accruedInterest": "0,1107",
    "settleDate": "2023.07.10",
    "askEhmYield": "6,78",
    "bidYield": "7,52",
    "rawName": "2034/A",
    "bidPrice": "61,5946",
    "coupon_val": 2.25,
    "maturityInDays": "4000 nap",
    "securityType": "KTV",
    "maturityDate": "2034.06.22",
    "name": "2034/A",
    "bidEhmYield": "7,51",
    "askYield": "6,79",
    "currency": "HUF",
    "maturityInDays_val": 4000,
    "issueDate": "2021.01.20",
    "longName": "A340622A21"
}