{
    "askPrice": "63,3416",
    "green": 0,
    "coupon": "2,25 %",
    "accruedInterest": "2,1205",
    "settleDate": "2023.06.01",
    "askEhmYield": "7,15",
    "bidYield": "7,87",
    "rawName": "2034/A",
    "bidPrice": "59,4851",
    "coupon_val": 2.25,
    "maturityInDays": "4039 nap",
    "securityType": "KTV",
    "maturityDate": "2034.06.22",
    "name": "2034/A",
    "bidEhmYield": "7,86",
    "askYield": "7,16",
    "currency": "HUF",
    "maturityInDays_val": 4039,
    "issueDate": "2021.01.20",
    "longName": "A340622A21"
}