{
    "askPrice": "66,8155",
    "green": 0,
    "coupon": "2,25 %",
    "accruedInterest": "0,4303",
    "settleDate": "2023.08.31",
    "askEhmYield": "6,64",
    "bidYield": "7,34",
    "rawName": "2034/A",
    "bidPrice": "62,8916",
    "coupon_val": 2.25,
    "maturityInDays": "3948 nap",
    "securityType": "KTV",
    "maturityDate": "2034.06.22",
    "name": "2034/A",
    "bidEhmYield": "7,33",
    "askYield": "6,65",
    "currency": "HUF",
    "maturityInDays_val": 3948,
    "issueDate": "2021.01.20",
    "longName": "A340622A21"
}