{
    "askPrice": "75,2568",
    "green": 0,
    "coupon": "2,25 %",
    "accruedInterest": "1,1557",
    "settleDate": "2023.12.27",
    "askEhmYield": "5,40",
    "bidYield": "6,07",
    "rawName": "2034/A",
    "bidPrice": "70,9746",
    "coupon_val": 2.25,
    "maturityInDays": "3830 nap",
    "securityType": "KTV",
    "maturityDate": "2034.06.22",
    "name": "2034/A",
    "bidEhmYield": "6,07",
    "askYield": "5,40",
    "currency": "HUF",
    "maturityInDays_val": 3830,
    "issueDate": "2021.01.20",
    "longName": "A340622A21"
}