{
    "askPrice": "63,1545",
    "green": 0,
    "coupon": "2,25 %",
    "accruedInterest": "1,3500",
    "settleDate": "2023.01.27",
    "askEhmYield": "7,05",
    "bidYield": "7,86",
    "rawName": "2034/A",
    "bidPrice": "58,7308",
    "coupon_val": 2.25,
    "maturityInDays": "4164 nap",
    "securityType": "KTV",
    "maturityDate": "2034.06.22",
    "name": "2034/A",
    "bidEhmYield": "7,85",
    "askYield": "7,06",
    "currency": "HUF",
    "maturityInDays_val": 4164,
    "issueDate": "2021.01.20",
    "longName": "A340622A21"
}