{
    "askPrice": "64,1945",
    "green": 0,
    "coupon": "2,25 %",
    "accruedInterest": "0,2828",
    "settleDate": "2023.08.07",
    "askEhmYield": "7,07",
    "bidYield": "7,79",
    "rawName": "2034/A",
    "bidPrice": "60,3300",
    "coupon_val": 2.25,
    "maturityInDays": "3972 nap",
    "securityType": "KTV",
    "maturityDate": "2034.06.22",
    "name": "2034/A",
    "bidEhmYield": "7,78",
    "askYield": "7,08",
    "currency": "HUF",
    "maturityInDays_val": 3972,
    "issueDate": "2021.01.20",
    "longName": "A340622A21"
}