{
    "askPrice": "61,1524",
    "green": 0,
    "coupon": "2,25 %",
    "accruedInterest": "1,3870",
    "settleDate": "2023.02.02",
    "askEhmYield": "7,41",
    "bidYield": "8,24",
    "rawName": "2034/A",
    "bidPrice": "56,7998",
    "coupon_val": 2.25,
    "maturityInDays": "4158 nap",
    "securityType": "KTV",
    "maturityDate": "2034.06.22",
    "name": "2034/A",
    "bidEhmYield": "8,23",
    "askYield": "7,42",
    "currency": "HUF",
    "maturityInDays_val": 4158,
    "issueDate": "2021.01.20",
    "longName": "A340622A21"
}