{
    "askPrice": "67,2830",
    "green": 0,
    "coupon": "2,25 %",
    "accruedInterest": "0,0246",
    "settleDate": "2023.06.26",
    "askEhmYield": "6,50",
    "bidYield": "7,29",
    "rawName": "2034/A",
    "bidPrice": "62,7703",
    "coupon_val": 2.25,
    "maturityInDays": "4014 nap",
    "securityType": "KTV",
    "maturityDate": "2034.06.22",
    "name": "2034/A",
    "bidEhmYield": "7,28",
    "askYield": "6,51",
    "currency": "HUF",
    "maturityInDays_val": 4014,
    "issueDate": "2021.01.20",
    "longName": "A340622A21"
}