{
    "askPrice": "65,4923",
    "green": 0,
    "coupon": "2,25 %",
    "accruedInterest": "0,3258",
    "settleDate": "2023.08.14",
    "askEhmYield": "6,85",
    "bidYield": "7,55",
    "rawName": "2034/A",
    "bidPrice": "61,6473",
    "coupon_val": 2.25,
    "maturityInDays": "3965 nap",
    "securityType": "KTV",
    "maturityDate": "2034.06.22",
    "name": "2034/A",
    "bidEhmYield": "7,54",
    "askYield": "6,86",
    "currency": "HUF",
    "maturityInDays_val": 3965,
    "issueDate": "2021.01.20",
    "longName": "A340622A21"
}