{
    "askPrice": "67,0228",
    "green": 0,
    "coupon": "2,25 %",
    "accruedInterest": "0,2029",
    "settleDate": "2023.07.25",
    "askEhmYield": "6,57",
    "bidYield": "7,35",
    "rawName": "2034/A",
    "bidPrice": "62,6122",
    "coupon_val": 2.25,
    "maturityInDays": "3985 nap",
    "securityType": "KTV",
    "maturityDate": "2034.06.22",
    "name": "2034/A",
    "bidEhmYield": "7,34",
    "askYield": "6,58",
    "currency": "HUF",
    "maturityInDays_val": 3985,
    "issueDate": "2021.01.20",
    "longName": "A340622A21"
}