{
    "askPrice": "72,2163",
    "green": 0,
    "coupon": "2,25 %",
    "accruedInterest": "1,0758",
    "settleDate": "2023.12.14",
    "askEhmYield": "5,86",
    "bidYield": "6,55",
    "rawName": "2034/A",
    "bidPrice": "68,0088",
    "coupon_val": 2.25,
    "maturityInDays": "3843 nap",
    "securityType": "KTV",
    "maturityDate": "2034.06.22",
    "name": "2034/A",
    "bidEhmYield": "6,55",
    "askYield": "5,86",
    "currency": "HUF",
    "maturityInDays_val": 3843,
    "issueDate": "2021.01.20",
    "longName": "A340622A21"
}