{
    "askPrice": "67,3270",
    "green": 0,
    "coupon": "2,25 %",
    "accruedInterest": "0,0061",
    "settleDate": "2023.06.23",
    "askEhmYield": "6,49",
    "bidYield": "7,28",
    "rawName": "2034/A",
    "bidPrice": "62,8081",
    "coupon_val": 2.25,
    "maturityInDays": "4017 nap",
    "securityType": "KTV",
    "maturityDate": "2034.06.22",
    "name": "2034/A",
    "bidEhmYield": "7,27",
    "askYield": "6,50",
    "currency": "HUF",
    "maturityInDays_val": 4017,
    "issueDate": "2021.01.20",
    "longName": "A340622A21"
}