{
    "askPrice": "67,4856",
    "green": 0,
    "coupon": "2,25 %",
    "accruedInterest": "2,2315",
    "settleDate": "2023.06.19",
    "askEhmYield": "6,46",
    "bidYield": "7,29",
    "rawName": "2034/A",
    "bidPrice": "62,7275",
    "coupon_val": 2.25,
    "maturityInDays": "4021 nap",
    "securityType": "KTV",
    "maturityDate": "2034.06.22",
    "name": "2034/A",
    "bidEhmYield": "7,28",
    "askYield": "6,47",
    "currency": "HUF",
    "maturityInDays_val": 4021,
    "issueDate": "2021.01.20",
    "longName": "A340622A21"
}