{
    "askPrice": "65,2359",
    "green": 0,
    "coupon": "2,25 %",
    "accruedInterest": "1,3068",
    "settleDate": "2023.01.20",
    "askEhmYield": "6,69",
    "bidYield": "7,49",
    "rawName": "2034/A",
    "bidPrice": "60,6859",
    "coupon_val": 2.25,
    "maturityInDays": "4171 nap",
    "securityType": "KTV",
    "maturityDate": "2034.06.22",
    "name": "2034/A",
    "bidEhmYield": "7,48",
    "askYield": "6,70",
    "currency": "HUF",
    "maturityInDays_val": 4171,
    "issueDate": "2021.01.20",
    "longName": "A340622A21"
}