{
    "askPrice": "67,6050",
    "green": 0,
    "coupon": "2,25 %",
    "accruedInterest": "0,8975",
    "settleDate": "2023.11.15",
    "askEhmYield": "6,58",
    "bidYield": "7,26",
    "rawName": "2034/A",
    "bidPrice": "63,7996",
    "coupon_val": 2.25,
    "maturityInDays": "3872 nap",
    "securityType": "KTV",
    "maturityDate": "2034.06.22",
    "name": "2034/A",
    "bidEhmYield": "7,25",
    "askYield": "6,59",
    "currency": "HUF",
    "maturityInDays_val": 3872,
    "issueDate": "2021.01.20",
    "longName": "A340622A21"
}