{
    "askPrice": "76,7696",
    "green": 0,
    "coupon": "2,25 %",
    "accruedInterest": "1,1189",
    "settleDate": "2023.12.21",
    "askEhmYield": "5,17",
    "bidYield": "5,86",
    "rawName": "2034/A",
    "bidPrice": "72,2532",
    "coupon_val": 2.25,
    "maturityInDays": "3836 nap",
    "securityType": "KTV",
    "maturityDate": "2034.06.22",
    "name": "2034/A",
    "bidEhmYield": "5,86",
    "askYield": "5,17",
    "currency": "HUF",
    "maturityInDays_val": 3836,
    "issueDate": "2021.01.20",
    "longName": "A340622A21"
}