{
    "askPrice": "63,5899",
    "green": 0,
    "coupon": "2,25 %",
    "accruedInterest": "1,9726",
    "settleDate": "2023.05.08",
    "askEhmYield": "7,08",
    "bidYield": "7,89",
    "rawName": "2034/A",
    "bidPrice": "59,2222",
    "coupon_val": 2.25,
    "maturityInDays": "4063 nap",
    "securityType": "KTV",
    "maturityDate": "2034.06.22",
    "name": "2034/A",
    "bidEhmYield": "7,88",
    "askYield": "7,09",
    "currency": "HUF",
    "maturityInDays_val": 4063,
    "issueDate": "2021.01.20",
    "longName": "A340622A21"
}