{
    "askPrice": "63,0487",
    "green": 0,
    "coupon": "2,25 %",
    "accruedInterest": "1,9418",
    "settleDate": "2023.05.03",
    "askEhmYield": "7,17",
    "bidYield": "7,98",
    "rawName": "2034/A",
    "bidPrice": "58,7209",
    "coupon_val": 2.25,
    "maturityInDays": "4068 nap",
    "securityType": "KTV",
    "maturityDate": "2034.06.22",
    "name": "2034/A",
    "bidEhmYield": "7,97",
    "askYield": "7,18",
    "currency": "HUF",
    "maturityInDays_val": 4068,
    "issueDate": "2021.01.20",
    "longName": "A340622A21"
}