{
    "askPrice": "59,7424",
    "green": 0,
    "coupon": "2,25 %",
    "accruedInterest": "1,7137",
    "settleDate": "2023.03.27",
    "askEhmYield": "7,73",
    "bidYield": "8,55",
    "rawName": "2034/A",
    "bidPrice": "55,6047",
    "coupon_val": 2.25,
    "maturityInDays": "4105 nap",
    "securityType": "KTV",
    "maturityDate": "2034.06.22",
    "name": "2034/A",
    "bidEhmYield": "8,54",
    "askYield": "7,74",
    "currency": "HUF",
    "maturityInDays_val": 4105,
    "issueDate": "2021.01.20",
    "longName": "A340622A21"
}