{
    "askPrice": "64,4468",
    "green": 0,
    "coupon": "2,25 %",
    "accruedInterest": "0,3689",
    "settleDate": "2023.08.21",
    "askEhmYield": "7,04",
    "bidYield": "7,74",
    "rawName": "2034/A",
    "bidPrice": "60,6806",
    "coupon_val": 2.25,
    "maturityInDays": "3958 nap",
    "securityType": "KTV",
    "maturityDate": "2034.06.22",
    "name": "2034/A",
    "bidEhmYield": "7,73",
    "askYield": "7,05",
    "currency": "HUF",
    "maturityInDays_val": 3958,
    "issueDate": "2021.01.20",
    "longName": "A340622A21"
}