{
    "askPrice": "63,2688",
    "green": 0,
    "coupon": "2,25 %",
    "accruedInterest": "1,9356",
    "settleDate": "2023.05.02",
    "askEhmYield": "7,13",
    "bidYield": "7,98",
    "rawName": "2034/A",
    "bidPrice": "58,7143",
    "coupon_val": 2.25,
    "maturityInDays": "4069 nap",
    "securityType": "KTV",
    "maturityDate": "2034.06.22",
    "name": "2034/A",
    "bidEhmYield": "7,97",
    "askYield": "7,14",
    "currency": "HUF",
    "maturityInDays_val": 4069,
    "issueDate": "2021.01.20",
    "longName": "A340622A21"
}