{
    "askPrice": "75,0858",
    "green": 0,
    "coupon": "2,25 %",
    "accruedInterest": "1,1066",
    "settleDate": "2023.12.19",
    "askEhmYield": "5,42",
    "bidYield": "6,07",
    "rawName": "2034/A",
    "bidPrice": "70,9309",
    "coupon_val": 2.25,
    "maturityInDays": "3838 nap",
    "securityType": "KTV",
    "maturityDate": "2034.06.22",
    "name": "2034/A",
    "bidEhmYield": "6,07",
    "askYield": "5,42",
    "currency": "HUF",
    "maturityInDays_val": 3838,
    "issueDate": "2021.01.20",
    "longName": "A340622A21"
}