{
    "askPrice": "65,3741",
    "green": 0,
    "coupon": "2,25 %",
    "accruedInterest": "0,6824",
    "settleDate": "2023.10.11",
    "askEhmYield": "6,93",
    "bidYield": "7,61",
    "rawName": "2034/A",
    "bidPrice": "61,6902",
    "coupon_val": 2.25,
    "maturityInDays": "3907 nap",
    "securityType": "KTV",
    "maturityDate": "2034.06.22",
    "name": "2034/A",
    "bidEhmYield": "7,60",
    "askYield": "6,94",
    "currency": "HUF",
    "maturityInDays_val": 3907,
    "issueDate": "2021.01.20",
    "longName": "A340622A21"
}