{
    "askPrice": "59,6806",
    "green": 0,
    "coupon": "2,25 %",
    "accruedInterest": "1,7568",
    "settleDate": "2023.04.03",
    "askEhmYield": "7,75",
    "bidYield": "8,59",
    "rawName": "2034/A",
    "bidPrice": "55,4568",
    "coupon_val": 2.25,
    "maturityInDays": "4098 nap",
    "securityType": "KTV",
    "maturityDate": "2034.06.22",
    "name": "2034/A",
    "bidEhmYield": "8,58",
    "askYield": "7,76",
    "currency": "HUF",
    "maturityInDays_val": 4098,
    "issueDate": "2021.01.20",
    "longName": "A340622A21"
}