{
    "askPrice": "68,7111",
    "green": 0,
    "coupon": "2,25 %",
    "accruedInterest": "1,8012",
    "settleDate": "2024.04.10",
    "askEhmYield": "6,55",
    "bidYield": "7,21",
    "rawName": "2034/A",
    "bidPrice": "65,0132",
    "coupon_val": 2.25,
    "maturityInDays": "3725 nap",
    "securityType": "KTV",
    "maturityDate": "2034.06.22",
    "name": "2034/A",
    "bidEhmYield": "7,20",
    "askYield": "6,55",
    "currency": "HUF",
    "maturityInDays_val": 3725,
    "issueDate": "2021.01.20",
    "longName": "A340622A21"
}