{
    "askPrice": "72,2744",
    "green": 0,
    "coupon": "2,25 %",
    "accruedInterest": "1,5738",
    "settleDate": "2024.03.04",
    "askEhmYield": "5,92",
    "bidYield": "6,57",
    "rawName": "2034/A",
    "bidPrice": "68,3714",
    "coupon_val": 2.25,
    "maturityInDays": "3762 nap",
    "securityType": "KTV",
    "maturityDate": "2034.06.22",
    "name": "2034/A",
    "bidEhmYield": "6,57",
    "askYield": "5,92",
    "currency": "HUF",
    "maturityInDays_val": 3762,
    "issueDate": "2021.01.20",
    "longName": "A340622A21"
}