{
    "askPrice": "73,2014",
    "green": 0,
    "coupon": "2,25 %",
    "accruedInterest": "1,4877",
    "settleDate": "2024.02.19",
    "askEhmYield": "5,76",
    "bidYield": "6,44",
    "rawName": "2034/A",
    "bidPrice": "69,0490",
    "coupon_val": 2.25,
    "maturityInDays": "3776 nap",
    "securityType": "KTV",
    "maturityDate": "2034.06.22",
    "name": "2034/A",
    "bidEhmYield": "6,44",
    "askYield": "5,76",
    "currency": "HUF",
    "maturityInDays_val": 3776,
    "issueDate": "2021.01.20",
    "longName": "A340622A21"
}