{
    "askPrice": "76,0263",
    "green": 0,
    "coupon": "2,25 %",
    "accruedInterest": "1,2910",
    "settleDate": "2024.01.18",
    "askEhmYield": "5,30",
    "bidYield": "5,99",
    "rawName": "2034/A",
    "bidPrice": "71,5895",
    "coupon_val": 2.25,
    "maturityInDays": "3808 nap",
    "securityType": "KTV",
    "maturityDate": "2034.06.22",
    "name": "2034/A",
    "bidEhmYield": "5,99",
    "askYield": "5,30",
    "currency": "HUF",
    "maturityInDays_val": 3808,
    "issueDate": "2021.01.20",
    "longName": "A340622A21"
}