{
    "askPrice": "72,7514",
    "green": 0,
    "coupon": "2,25 %",
    "accruedInterest": "1,5492",
    "settleDate": "2024.02.29",
    "askEhmYield": "5,84",
    "bidYield": "6,50",
    "rawName": "2034/A",
    "bidPrice": "68,7556",
    "coupon_val": 2.25,
    "maturityInDays": "3766 nap",
    "securityType": "KTV",
    "maturityDate": "2034.06.22",
    "name": "2034/A",
    "bidEhmYield": "6,50",
    "askYield": "5,84",
    "currency": "HUF",
    "maturityInDays_val": 3766,
    "issueDate": "2021.01.20",
    "longName": "A340622A21"
}