{
    "askPrice": "73,5831",
    "green": 0,
    "coupon": "2,25 %",
    "accruedInterest": "1,4139",
    "settleDate": "2024.02.07",
    "askEhmYield": "5,69",
    "bidYield": "6,33",
    "rawName": "2034/A",
    "bidPrice": "69,6319",
    "coupon_val": 2.25,
    "maturityInDays": "3788 nap",
    "securityType": "KTV",
    "maturityDate": "2034.06.22",
    "name": "2034/A",
    "bidEhmYield": "6,33",
    "askYield": "5,69",
    "currency": "HUF",
    "maturityInDays_val": 3788,
    "issueDate": "2021.01.20",
    "longName": "A340622A21"
}