{
    "askPrice": "71,8576",
    "green": 0,
    "coupon": "2,25 %",
    "accruedInterest": "1,6598",
    "settleDate": "2024.03.18",
    "askEhmYield": "6,00",
    "bidYield": "6,66",
    "rawName": "2034/A",
    "bidPrice": "67,9364",
    "coupon_val": 2.25,
    "maturityInDays": "3748 nap",
    "securityType": "KTV",
    "maturityDate": "2034.06.22",
    "name": "2034/A",
    "bidEhmYield": "6,66",
    "askYield": "6,00",
    "currency": "HUF",
    "maturityInDays_val": 3748,
    "issueDate": "2021.01.20",
    "longName": "A340622A21"
}