{
    "askPrice": "73,1541",
    "green": 0,
    "coupon": "2,25 %",
    "accruedInterest": "1,5061",
    "settleDate": "2024.02.22",
    "askEhmYield": "5,77",
    "bidYield": "6,45",
    "rawName": "2034/A",
    "bidPrice": "69,0077",
    "coupon_val": 2.25,
    "maturityInDays": "3773 nap",
    "securityType": "KTV",
    "maturityDate": "2034.06.22",
    "name": "2034/A",
    "bidEhmYield": "6,45",
    "askYield": "5,77",
    "currency": "HUF",
    "maturityInDays_val": 3773,
    "issueDate": "2021.01.20",
    "longName": "A340622A21"
}