{
    "askPrice": "",
    "green": 0,
    "coupon": "4,25 %",
    "accruedInterest": "1,49",
    "settleDate": "2022.11.17",
    "askEhmYield": "",
    "bidYield": "5,01",
    "rawName": "K2023/28",
    "bidPrice": "99,50",
    "coupon_val": 4.25,
    "maturityInDays": "237 nap",
    "securityType": "1MÁP",
    "maturityDate": "2023.07.12",
    "name": "K2023/28",
    "bidEhmYield": "4,97",
    "askYield": "",
    "currency": "HUF",
    "maturityInDays_val": 237,
    "issueDate": "2022-07-12",
    "longName": "K230712"
}