{
    "askPrice": "",
    "green": 0,
    "coupon": "4,25 %",
    "accruedInterest": "1,8281",
    "settleDate": "2022.12.16",
    "askEhmYield": "",
    "bidYield": "6,03",
    "rawName": "K2023/28",
    "bidPrice": "99,0000",
    "coupon_val": 4.25,
    "maturityInDays": "208 nap",
    "securityType": "1MÁP",
    "maturityDate": "2023.07.12",
    "name": "K2023/28",
    "bidEhmYield": "5,96",
    "askYield": "",
    "currency": "HUF",
    "maturityInDays_val": 208,
    "issueDate": "2022.07.12",
    "longName": "K230712"
}