{
    "askPrice": "",
    "green": 0,
    "coupon": "4,25 %",
    "accruedInterest": "0,44",
    "settleDate": "2022.08.19",
    "askEhmYield": "",
    "bidYield": "",
    "rawName": "K2023/28",
    "bidPrice": "99,50",
    "coupon_val": 4.25,
    "maturityInDays": "327 nap",
    "securityType": "1MÁP",
    "maturityDate": "2023.07.12",
    "name": "K2023/28",
    "bidEhmYield": "4,81",
    "askYield": "",
    "currency": "HUF",
    "maturityInDays_val": 327,
    "longName": "K230712"
}