{
    "askPrice": "",
    "green": 0,
    "coupon": "4,25 %",
    "accruedInterest": "1,5370",
    "settleDate": "2022.11.21",
    "askEhmYield": "",
    "bidYield": "5,03",
    "rawName": "K2023/28",
    "bidPrice": "99,5000",
    "coupon_val": 4.25,
    "maturityInDays": "233 nap",
    "securityType": "1MÁP",
    "maturityDate": "2023.07.12",
    "name": "K2023/28",
    "bidEhmYield": "4,98",
    "askYield": "",
    "currency": "HUF",
    "maturityInDays_val": 233,
    "issueDate": "2022.07.12",
    "longName": "K230712"
}