{
    "askPrice": "",
    "green": 0,
    "coupon": "4,25 %",
    "accruedInterest": "3,4233",
    "settleDate": "2023.05.02",
    "askEhmYield": "",
    "bidYield": "9,51",
    "rawName": "K2023/28",
    "bidPrice": "99,0000",
    "coupon_val": 4.25,
    "maturityInDays": "71 nap",
    "securityType": "1MÁP",
    "maturityDate": "2023.07.12",
    "name": "K2023/28",
    "bidEhmYield": "9,17",
    "askYield": "",
    "currency": "HUF",
    "maturityInDays_val": 71,
    "issueDate": "2022.07.12",
    "longName": "K230712"
}