{
    "askPrice": "",
    "green": 0,
    "coupon": "4,25 %",
    "accruedInterest": "2,6199",
    "settleDate": "2023.02.22",
    "askEhmYield": "",
    "bidYield": "6,89",
    "rawName": "K2023/28",
    "bidPrice": "99,0000",
    "coupon_val": 4.25,
    "maturityInDays": "140 nap",
    "securityType": "1MÁP",
    "maturityDate": "2023.07.12",
    "name": "K2023/28",
    "bidEhmYield": "6,75",
    "askYield": "",
    "currency": "HUF",
    "maturityInDays_val": 140,
    "issueDate": "2022.07.12",
    "longName": "K230712"
}