{
    "askPrice": "",
    "green": 0,
    "coupon": "4,25 %",
    "accruedInterest": "2,3055",
    "settleDate": "2023.01.26",
    "askEhmYield": "",
    "bidYield": "6,46",
    "rawName": "K2023/28",
    "bidPrice": "99,0000",
    "coupon_val": 4.25,
    "maturityInDays": "167 nap",
    "securityType": "1MÁP",
    "maturityDate": "2023.07.12",
    "name": "K2023/28",
    "bidEhmYield": "6,35",
    "askYield": "",
    "currency": "HUF",
    "maturityInDays_val": 167,
    "issueDate": "2022.07.12",
    "longName": "K230712"
}