{
    "askPrice": "",
    "green": 0,
    "coupon": "4,25 %",
    "accruedInterest": "4,0171",
    "settleDate": "2023.06.22",
    "askEhmYield": "",
    "bidYield": "19,93",
    "rawName": "K2023/28",
    "bidPrice": "99,2000",
    "coupon_val": 4.25,
    "maturityInDays": "20 nap",
    "securityType": "1MÁP",
    "maturityDate": "2023.07.12",
    "name": "K2023/28",
    "bidEhmYield": "18,26",
    "askYield": "",
    "currency": "HUF",
    "maturityInDays_val": 20,
    "issueDate": "2022.07.12",
    "longName": "K230712"
}