{
    "askPrice": "",
    "green": 0,
    "coupon": null,
    "accruedInterest": "1,53",
    "settleDate": "2022.06.27",
    "askEhmYield": "",
    "bidYield": "",
    "rawName": "2024/O",
    "bidPrice": "99,00",
    "maturityInDays": "667 nap",
    "securityType": "BMÁP",
    "maturityDate": "2024.04.24",
    "name": "2024/O",
    "bidEhmYield": "",
    "askYield": "",
    "currency": "HUF",
    "maturityInDays_val": 667,
    "longName": "A240424O17"
}