{
    "askPrice": "",
    "green": 0,
    "coupon": null,
    "accruedInterest": "3,86",
    "settleDate": "2022.10.03",
    "askEhmYield": "",
    "bidYield": "",
    "rawName": "2024/O",
    "bidPrice": "99,00",
    "maturityInDays": "569 nap",
    "securityType": "BMÁP",
    "maturityDate": "2024.04.24",
    "name": "2024/O",
    "bidEhmYield": "",
    "askYield": "",
    "currency": "HUF",
    "maturityInDays_val": 569,
    "longName": "A240424O17"
}