{
    "askPrice": "",
    "green": 0,
    "coupon": null,
    "accruedInterest": "2,03",
    "settleDate": "2022.07.18",
    "askEhmYield": "",
    "bidYield": "",
    "rawName": "2024/O",
    "bidPrice": "99,00",
    "maturityInDays": "646 nap",
    "securityType": "BMÁP",
    "maturityDate": "2024.04.24",
    "name": "2024/O",
    "bidEhmYield": "",
    "askYield": "",
    "currency": "HUF",
    "maturityInDays_val": 646,
    "longName": "A240424O17"
}