{
    "askPrice": "",
    "green": 0,
    "coupon": null,
    "accruedInterest": "4,58",
    "settleDate": "2022.11.02",
    "askEhmYield": "",
    "bidYield": "",
    "rawName": "2024/O",
    "bidPrice": "99,00",
    "maturityInDays": "539 nap",
    "securityType": "BMÁP",
    "maturityDate": "2024.04.24",
    "name": "2024/O",
    "bidEhmYield": "",
    "askYield": "",
    "currency": "HUF",
    "maturityInDays_val": 539,
    "issueDate": "2017-10-03",
    "longName": "A240424O17"
}