{
    "askPrice": "",
    "green": 0,
    "coupon": null,
    "accruedInterest": "6,2000",
    "settleDate": "2023.01.09",
    "askEhmYield": "",
    "bidYield": "",
    "rawName": "2024/O",
    "bidPrice": "99,0000",
    "maturityInDays": "471 nap",
    "securityType": "BMÁP",
    "maturityDate": "2024.04.24",
    "name": "2024/O",
    "bidEhmYield": "",
    "askYield": "",
    "currency": "HUF",
    "maturityInDays_val": 471,
    "issueDate": "2017.10.03",
    "longName": "A240424O17"
}