{
    "askPrice": "",
    "green": 0,
    "coupon": null,
    "accruedInterest": "5,7384",
    "settleDate": "2023.08.21",
    "askEhmYield": "",
    "bidYield": "",
    "rawName": "2024/O",
    "bidPrice": "99,0000",
    "maturityInDays": "247 nap",
    "securityType": "BMÁP",
    "maturityDate": "2024.04.24",
    "name": "2024/O",
    "bidEhmYield": "",
    "askYield": "",
    "currency": "HUF",
    "maturityInDays_val": 247,
    "issueDate": "2017.10.03",
    "longName": "A240424O17"
}