{
    "askPrice": "",
    "green": 0,
    "coupon": 0,
    "accruedInterest": 0,
    "settleDate": "2023.09.25",
    "askEhmYield": "",
    "bidYield": "8,25",
    "rawName": "D231011",
    "bidPrice": "99,6347",
    "maturityInDays": "16 nap",
    "securityType": "DKJ",
    "maturityDate": "2023.10.11",
    "name": "D231011",
    "bidEhmYield": "8,36",
    "askYield": "",
    "currency": "HUF",
    "maturityInDays_val": 16,
    "issueDate": "2023.07.12",
    "longName": "D231011"
}