{
    "askPrice": "98,3799",
    "green": 0,
    "coupon": 0,
    "accruedInterest": 0,
    "settleDate": "2023.08.09",
    "askEhmYield": "9,54",
    "bidYield": "10,74",
    "rawName": "D231011",
    "bidPrice": "98,1552",
    "maturityInDays": "63 nap",
    "securityType": "DKJ",
    "maturityDate": "2023.10.11",
    "name": "D231011",
    "bidEhmYield": "10,89",
    "askYield": "9,41",
    "currency": "HUF",
    "maturityInDays_val": 63,
    "issueDate": "2023.07.12",
    "longName": "D231011"
}