{
    "askPrice": "",
    "green": 0,
    "coupon": 0,
    "accruedInterest": 0,
    "settleDate": "2023.09.12",
    "askEhmYield": "",
    "bidYield": "10,25",
    "rawName": "D231011",
    "bidPrice": "99,1811",
    "maturityInDays": "29 nap",
    "securityType": "DKJ",
    "maturityDate": "2023.10.11",
    "name": "D231011",
    "bidEhmYield": "10,39",
    "askYield": "",
    "currency": "HUF",
    "maturityInDays_val": 29,
    "issueDate": "2023.07.12",
    "longName": "D231011"
}