{
    "askPrice": "99,0153",
    "green": 0,
    "coupon": 0,
    "accruedInterest": 0,
    "settleDate": "2023.09.01",
    "askEhmYield": "9,07",
    "bidYield": "10,25",
    "rawName": "D231011",
    "bidPrice": "98,8739",
    "maturityInDays": "40 nap",
    "securityType": "DKJ",
    "maturityDate": "2023.10.11",
    "name": "D231011",
    "bidEhmYield": "10,39",
    "askYield": "8,95",
    "currency": "HUF",
    "maturityInDays_val": 40,
    "issueDate": "2023.07.12",
    "longName": "D231011"
}