{
    "askPrice": "98,7535",
    "green": 0,
    "coupon": 0,
    "accruedInterest": 0,
    "settleDate": "2023.08.21",
    "askEhmYield": "9,03",
    "bidYield": "10,20",
    "rawName": "D231011",
    "bidPrice": "98,5756",
    "maturityInDays": "51 nap",
    "securityType": "DKJ",
    "maturityDate": "2023.10.11",
    "name": "D231011",
    "bidEhmYield": "10,34",
    "askYield": "8,91",
    "currency": "HUF",
    "maturityInDays_val": 51,
    "issueDate": "2023.07.12",
    "longName": "D231011"
}