{
    "askPrice": "97,8989",
    "green": 0,
    "coupon": 0,
    "accruedInterest": 0,
    "settleDate": "2023.07.24",
    "askEhmYield": "9,92",
    "bidYield": "11,08",
    "rawName": "D231011",
    "bidPrice": "97,6263",
    "maturityInDays": "79 nap",
    "securityType": "DKJ",
    "maturityDate": "2023.10.11",
    "name": "D231011",
    "bidEhmYield": "11,23",
    "askYield": "9,78",
    "currency": "HUF",
    "maturityInDays_val": 79,
    "issueDate": "2023.07.12",
    "longName": "D231011"
}