{
    "askPrice": "",
    "green": 0,
    "coupon": 0,
    "accruedInterest": 0,
    "settleDate": "2023.10.02",
    "askEhmYield": "",
    "bidYield": "8,90",
    "rawName": "D231011",
    "bidPrice": "99,7780",
    "maturityInDays": "9 nap",
    "securityType": "DKJ",
    "maturityDate": "2023.10.11",
    "name": "D231011",
    "bidEhmYield": "9,02",
    "askYield": "",
    "currency": "HUF",
    "maturityInDays_val": 9,
    "issueDate": "2023.07.12",
    "longName": "D231011"
}