{
    "askPrice": "",
    "green": 0,
    "coupon": 0,
    "accruedInterest": 0,
    "settleDate": "2023.10.05",
    "askEhmYield": "",
    "bidYield": "9,05",
    "rawName": "D231011",
    "bidPrice": "99,8494",
    "maturityInDays": "6 nap",
    "securityType": "DKJ",
    "maturityDate": "2023.10.11",
    "name": "D231011",
    "bidEhmYield": "9,18",
    "askYield": "",
    "currency": "HUF",
    "maturityInDays_val": 6,
    "issueDate": "2023.07.12",
    "longName": "D231011"
}