{
    "askPrice": "",
    "green": 0,
    "coupon": "3,50 %",
    "accruedInterest": "2,59",
    "settleDate": "2022.10.12",
    "askEhmYield": "",
    "bidYield": "",
    "rawName": "N2026/11",
    "bidPrice": "99,50",
    "coupon_val": 3.5,
    "maturityInDays": "1251 nap",
    "securityType": "MÁP Plusz",
    "maturityDate": "2026.03.16",
    "name": "N2026/11",
    "bidEhmYield": "",
    "askYield": "",
    "currency": "HUF",
    "maturityInDays_val": 1251,
    "longName": "N260316"
}