{
    "askPrice": "",
    "green": 0,
    "coupon": "3,50 %",
    "accruedInterest": "3,5507",
    "settleDate": "2022.12.29",
    "askEhmYield": "",
    "bidYield": "5,58",
    "rawName": "N2026/11",
    "bidPrice": "99,5000",
    "coupon_val": 3.5,
    "maturityInDays": "1173 nap",
    "securityType": "MÁP Plusz",
    "maturityDate": "2026.03.16",
    "name": "N2026/11",
    "bidEhmYield": "",
    "askYield": "",
    "currency": "HUF",
    "maturityInDays_val": 1173,
    "issueDate": "2021.03.16",
    "longName": "N260316"
}