{
    "askPrice": "",
    "green": 0,
    "coupon": "3,50 %",
    "accruedInterest": "3,00",
    "settleDate": "2022.11.14",
    "askEhmYield": "",
    "bidYield": "5,54",
    "rawName": "N2026/11",
    "bidPrice": "99,50",
    "coupon_val": 3.5,
    "maturityInDays": "1218 nap",
    "securityType": "MÁP Plusz",
    "maturityDate": "2026.03.16",
    "name": "N2026/11",
    "bidEhmYield": "",
    "askYield": "",
    "currency": "HUF",
    "maturityInDays_val": 1218,
    "issueDate": "2021-03-16",
    "longName": "N260316"
}