{
    "askPrice": "",
    "green": 0,
    "coupon": "3,50 %",
    "accruedInterest": "0,9290",
    "settleDate": "2023.05.23",
    "askEhmYield": "",
    "bidYield": "5,71",
    "rawName": "N2026/11",
    "bidPrice": "99,5000",
    "coupon_val": 3.5,
    "maturityInDays": "1028 nap",
    "securityType": "MÁP Plusz",
    "maturityDate": "2026.03.16",
    "name": "N2026/11",
    "bidEhmYield": "",
    "askYield": "",
    "currency": "HUF",
    "maturityInDays_val": 1028,
    "issueDate": "2021.03.16",
    "longName": "N260316"
}