{
    "askPrice": "",
    "green": 0,
    "coupon": "3,50 %",
    "accruedInterest": "4,6448",
    "settleDate": "2024.02.19",
    "askEhmYield": "",
    "bidYield": "5,97",
    "rawName": "N2026/11",
    "bidPrice": "99,5000",
    "coupon_val": 3.5,
    "maturityInDays": "756 nap",
    "securityType": "MÁP Plusz",
    "maturityDate": "2026.03.16",
    "name": "N2026/11",
    "bidEhmYield": "",
    "askYield": "",
    "currency": "HUF",
    "maturityInDays_val": 756,
    "issueDate": "2021.03.16",
    "longName": "N260316"
}