{
    "askPrice": "",
    "green": 0,
    "coupon": "3,50 %",
    "accruedInterest": "1,91",
    "settleDate": "2022.11.02",
    "askEhmYield": "",
    "bidYield": "5,46",
    "rawName": "N2026/22",
    "bidPrice": "99,50",
    "coupon_val": 3.5,
    "maturityInDays": "1306 nap",
    "securityType": "MÁP Plusz",
    "maturityDate": "2026.05.31",
    "name": "N2026/22",
    "bidEhmYield": "",
    "askYield": "",
    "currency": "HUF",
    "maturityInDays_val": 1306,
    "issueDate": "2021-05-31",
    "longName": "N260531"
}