{
    "askPrice": "",
    "green": 0,
    "coupon": "3,50 %",
    "accruedInterest": "0,7924",
    "settleDate": "2023.07.28",
    "askEhmYield": "",
    "bidYield": "5,70",
    "rawName": "N2026/22",
    "bidPrice": "99,5000",
    "coupon_val": 3.5,
    "maturityInDays": "1038 nap",
    "securityType": "MÁP Plusz",
    "maturityDate": "2026.05.31",
    "name": "N2026/22",
    "bidEhmYield": "",
    "askYield": "",
    "currency": "HUF",
    "maturityInDays_val": 1038,
    "issueDate": "2021.05.31",
    "longName": "N260531"
}