{
    "askPrice": "",
    "green": 0,
    "coupon": "3,50 %",
    "accruedInterest": "3,9071",
    "settleDate": "2024.03.12",
    "askEhmYield": "",
    "bidYield": "5,90",
    "rawName": "N2026/22",
    "bidPrice": "99,5000",
    "coupon_val": 3.5,
    "maturityInDays": "810 nap",
    "securityType": "MÁP Plusz",
    "maturityDate": "2026.05.31",
    "name": "N2026/22",
    "bidEhmYield": "",
    "askYield": "",
    "currency": "HUF",
    "maturityInDays_val": 810,
    "issueDate": "2021.05.31",
    "longName": "N260531"
}