{
    "askPrice": "",
    "green": 0,
    "coupon": "3,50 %",
    "accruedInterest": "3,3607",
    "settleDate": "2024.02.01",
    "askEhmYield": "",
    "bidYield": "5,85",
    "rawName": "N2026/22",
    "bidPrice": "99,5000",
    "coupon_val": 3.5,
    "maturityInDays": "850 nap",
    "securityType": "MÁP Plusz",
    "maturityDate": "2026.05.31",
    "name": "N2026/22",
    "bidEhmYield": "",
    "askYield": "",
    "currency": "HUF",
    "maturityInDays_val": 850,
    "issueDate": "2021.05.31",
    "longName": "N260531"
}