{
    "askPrice": "",
    "green": 0,
    "coupon": "3,50 %",
    "accruedInterest": "0,2967",
    "settleDate": "2023.11.29",
    "askEhmYield": "",
    "bidYield": "5,22",
    "rawName": "N2028/18",
    "bidPrice": "99,5000",
    "coupon_val": 3.5,
    "maturityInDays": "1616 nap",
    "securityType": "MÁP Plusz",
    "maturityDate": "2028.05.02",
    "name": "N2028/18",
    "bidEhmYield": "",
    "askYield": "",
    "currency": "HUF",
    "maturityInDays_val": 1616,
    "issueDate": "2023.05.02",
    "longName": "N280502"
}