{
    "askPrice": "100,0000",
    "green": 0,
    "coupon": null,
    "accruedInterest": "2,4481",
    "settleDate": "2023.05.23",
    "askEhmYield": "",
    "bidYield": "",
    "rawName": "2030/J",
    "bidPrice": "99,0000",
    "maturityInDays": "2493 nap",
    "securityType": "PMÁP",
    "maturityDate": "2030.03.20",
    "name": "2030/J",
    "bidEhmYield": "",
    "askYield": "",
    "currency": "HUF",
    "maturityInDays_val": 2493,
    "issueDate": "2023.03.28",
    "longName": "A300320J23"
}