{
    "askPrice": "",
    "green": 0,
    "coupon": null,
    "accruedInterest": "0,2616",
    "settleDate": "2024.03.25",
    "askEhmYield": "",
    "bidYield": "",
    "rawName": "2030/J",
    "bidPrice": "99,0000",
    "maturityInDays": "2186 nap",
    "securityType": "PMÁP",
    "maturityDate": "2030.03.20",
    "name": "2030/J",
    "bidEhmYield": "",
    "askYield": "",
    "currency": "HUF",
    "maturityInDays_val": 2186,
    "issueDate": "2023.03.28",
    "longName": "A300320J23"
}