{
    "askPrice": "",
    "green": 0,
    "coupon": null,
    "accruedInterest": "15,5628",
    "settleDate": "2024.03.18",
    "askEhmYield": "",
    "bidYield": "",
    "rawName": "2030/J",
    "bidPrice": "",
    "maturityInDays": "2193 nap",
    "securityType": "PMÁP",
    "maturityDate": "2030.03.20",
    "name": "2030/J",
    "bidEhmYield": "",
    "askYield": "",
    "currency": "HUF",
    "maturityInDays_val": 2193,
    "issueDate": "2023.03.28",
    "longName": "A300320J23"
}