{
    "askPrice": "",
    "green": 0,
    "coupon": "3,50 %",
    "accruedInterest": "0,0874",
    "settleDate": "2023.07.05",
    "askEhmYield": "",
    "bidYield": "5,21",
    "rawName": "N2027/52",
    "bidPrice": "99,5000",
    "coupon_val": 3.5,
    "maturityInDays": "1636 nap",
    "securityType": "MÁP Plusz",
    "maturityDate": "2027.12.27",
    "name": "N2027/52",
    "bidEhmYield": "",
    "askYield": "",
    "currency": "HUF",
    "maturityInDays_val": 1636,
    "issueDate": "2022.12.27",
    "longName": "N271227"
}