{
    "askPrice": "",
    "green": 0,
    "coupon": "3,50 %",
    "accruedInterest": "0,0328",
    "settleDate": "2023.06.30",
    "askEhmYield": "",
    "bidYield": "5,08",
    "rawName": "N2027/52",
    "bidPrice": "100,0000",
    "coupon_val": 3.5,
    "maturityInDays": "1641 nap",
    "securityType": "MÁP Plusz",
    "maturityDate": "2027.12.27",
    "name": "N2027/52",
    "bidEhmYield": "",
    "askYield": "",
    "currency": "HUF",
    "maturityInDays_val": 1641,
    "issueDate": "2022.12.27",
    "longName": "N271227"
}