{
    "askPrice": "100,0000",
    "green": 0,
    "coupon": null,
    "accruedInterest": "0,8774",
    "settleDate": "2023.02.10",
    "askEhmYield": "",
    "bidYield": "",
    "rawName": "2027/K",
    "bidPrice": "99,0000",
    "maturityInDays": "1475 nap",
    "securityType": "PMÁP",
    "maturityDate": "2027.02.24",
    "name": "2027/K",
    "bidEhmYield": "",
    "askYield": "",
    "currency": "HUF",
    "maturityInDays_val": 1475,
    "issueDate": "2023.01.20",
    "longName": "A270224K23"
}