{
    "askPrice": "",
    "green": 0,
    "coupon": null,
    "accruedInterest": "3,9608",
    "settleDate": "2024.05.13",
    "askEhmYield": "",
    "bidYield": "",
    "rawName": "2027/K",
    "bidPrice": "99,0000",
    "maturityInDays": "1017 nap",
    "securityType": "PMÁP",
    "maturityDate": "2027.02.24",
    "name": "2027/K",
    "bidEhmYield": "",
    "askYield": "",
    "currency": "HUF",
    "maturityInDays_val": 1017,
    "issueDate": "2023.01.20",
    "longName": "A270224K23"
}