{
    "askPrice": "",
    "green": 0,
    "coupon": null,
    "accruedInterest": 0,
    "settleDate": "2024.02.23",
    "askEhmYield": "",
    "bidYield": "",
    "rawName": "2027/K",
    "bidPrice": "",
    "maturityInDays": "1097 nap",
    "securityType": "PMÁP",
    "maturityDate": "2027.02.24",
    "name": "2027/K",
    "bidEhmYield": "",
    "askYield": "",
    "currency": "HUF",
    "maturityInDays_val": 1097,
    "issueDate": "2023.01.20",
    "longName": "A270224K23"
}