{
    "askPrice": "",
    "green": 0,
    "coupon": "3,50 %",
    "accruedInterest": "2,40",
    "settleDate": "2022.11.14",
    "askEhmYield": "",
    "bidYield": "5,49",
    "rawName": "N2026/18",
    "bidPrice": "99,50",
    "coupon_val": 3.5,
    "maturityInDays": "1266 nap",
    "securityType": "MÁP Plusz",
    "maturityDate": "2026.05.03",
    "name": "N2026/18",
    "bidEhmYield": "",
    "askYield": "",
    "currency": "HUF",
    "maturityInDays_val": 1266,
    "issueDate": "2021-05-03",
    "longName": "N260503"
}