{
    "askPrice": "",
    "green": 0,
    "coupon": "3,50 %",
    "accruedInterest": "2,37",
    "settleDate": "2022.11.11",
    "askEhmYield": "",
    "bidYield": "5,49",
    "rawName": "N2026/18",
    "bidPrice": "99,50",
    "coupon_val": 3.5,
    "maturityInDays": "1269 nap",
    "securityType": "MÁP Plusz",
    "maturityDate": "2026.05.03",
    "name": "N2026/18",
    "bidEhmYield": "",
    "askYield": "",
    "currency": "HUF",
    "maturityInDays_val": 1269,
    "issueDate": "2021-05-03",
    "longName": "N260503"
}