{
    "askPrice": "",
    "green": 0,
    "coupon": "3,50 %",
    "accruedInterest": "2,17",
    "settleDate": "2022.10.26",
    "askEhmYield": "",
    "bidYield": "5,48",
    "rawName": "N2026/18",
    "bidPrice": "99,50",
    "coupon_val": 3.5,
    "maturityInDays": "1285 nap",
    "securityType": "MÁP Plusz",
    "maturityDate": "2026.05.03",
    "name": "N2026/18",
    "bidEhmYield": "",
    "askYield": "",
    "currency": "HUF",
    "maturityInDays_val": 1285,
    "longName": "N260503"
}