{
    "askPrice": "",
    "green": 0,
    "coupon": "3,50 %",
    "accruedInterest": "1,0246",
    "settleDate": "2023.07.17",
    "askEhmYield": "",
    "bidYield": "5,71",
    "rawName": "N2026/18",
    "bidPrice": "99,5000",
    "coupon_val": 3.5,
    "maturityInDays": "1021 nap",
    "securityType": "MÁP Plusz",
    "maturityDate": "2026.05.03",
    "name": "N2026/18",
    "bidEhmYield": "",
    "askYield": "",
    "currency": "HUF",
    "maturityInDays_val": 1021,
    "issueDate": "2021.05.03",
    "longName": "N260503"
}