{
    "askPrice": "",
    "green": 0,
    "coupon": "3,50 %",
    "accruedInterest": "0,0753",
    "settleDate": "2024.05.08",
    "askEhmYield": "",
    "bidYield": "5,74",
    "rawName": "N2026/18",
    "bidPrice": "100,0000",
    "coupon_val": 3.5,
    "maturityInDays": "725 nap",
    "securityType": "MÁP Plusz",
    "maturityDate": "2026.05.03",
    "name": "N2026/18",
    "bidEhmYield": "",
    "askYield": "",
    "currency": "HUF",
    "maturityInDays_val": 725,
    "issueDate": "2021.05.03",
    "longName": "N260503"
}