{
    "askPrice": "",
    "green": 0,
    "coupon": "3,50 %",
    "accruedInterest": "3,3470",
    "settleDate": "2024.01.03",
    "askEhmYield": "",
    "bidYield": "5,85",
    "rawName": "N2026/18",
    "bidPrice": "99,5000",
    "coupon_val": 3.5,
    "maturityInDays": "851 nap",
    "securityType": "MÁP Plusz",
    "maturityDate": "2026.05.03",
    "name": "N2026/18",
    "bidEhmYield": "",
    "askYield": "",
    "currency": "HUF",
    "maturityInDays_val": 851,
    "issueDate": "2021.05.03",
    "longName": "N260503"
}