{
    "askPrice": "97,5716",
    "green": 0,
    "coupon": 0,
    "accruedInterest": 0,
    "settleDate": "2023.08.21",
    "askEhmYield": "9,08",
    "bidYield": "9,75",
    "rawName": "D231129",
    "bidPrice": "97,3631",
    "maturityInDays": "100 nap",
    "securityType": "DKJ",
    "maturityDate": "2023.11.29",
    "name": "D231129",
    "bidEhmYield": "9,89",
    "askYield": "8,96",
    "currency": "HUF",
    "maturityInDays_val": 100,
    "issueDate": "2023.04.19",
    "longName": "D231129"
}