{
    "askPrice": "97,2652",
    "green": 0,
    "coupon": 0,
    "accruedInterest": 0,
    "settleDate": "2023.08.14",
    "askEhmYield": "9,59",
    "bidYield": "10,22",
    "rawName": "D231129",
    "bidPrice": "97,0519",
    "maturityInDays": "107 nap",
    "securityType": "DKJ",
    "maturityDate": "2023.11.29",
    "name": "D231129",
    "bidEhmYield": "10,36",
    "askYield": "9,46",
    "currency": "HUF",
    "maturityInDays_val": 107,
    "issueDate": "2023.04.19",
    "longName": "D231129"
}