{
    "askPrice": "96,9274",
    "green": 0,
    "coupon": 0,
    "accruedInterest": 0,
    "settleDate": "2023.08.01",
    "askEhmYield": "9,64",
    "bidYield": "10,29",
    "rawName": "D231129",
    "bidPrice": "96,6837",
    "maturityInDays": "120 nap",
    "securityType": "DKJ",
    "maturityDate": "2023.11.29",
    "name": "D231129",
    "bidEhmYield": "10,43",
    "askYield": "9,51",
    "currency": "HUF",
    "maturityInDays_val": 120,
    "issueDate": "2023.04.19",
    "longName": "D231129"
}