{
    "askPrice": "99,3912",
    "green": 0,
    "coupon": 0,
    "accruedInterest": 0,
    "settleDate": "2023.10.30",
    "askEhmYield": "7,45",
    "bidYield": "8,71",
    "rawName": "D231129",
    "bidPrice": "99,2794",
    "maturityInDays": "30 nap",
    "securityType": "DKJ",
    "maturityDate": "2023.11.29",
    "name": "D231129",
    "bidEhmYield": "8,83",
    "askYield": "7,35",
    "currency": "HUF",
    "maturityInDays_val": 30,
    "issueDate": "2023.04.19",
    "longName": "D231129"
}