{
    "askPrice": "98,2750",
    "green": 0,
    "coupon": 0,
    "accruedInterest": 0,
    "settleDate": "2023.09.19",
    "askEhmYield": "9,02",
    "bidYield": "10,20",
    "rawName": "D231129",
    "bidPrice": "98,0280",
    "maturityInDays": "71 nap",
    "securityType": "DKJ",
    "maturityDate": "2023.11.29",
    "name": "D231129",
    "bidEhmYield": "10,34",
    "askYield": "8,90",
    "currency": "HUF",
    "maturityInDays_val": 71,
    "issueDate": "2023.04.19",
    "longName": "D231129"
}