{
    "askPrice": "98,0717",
    "green": 0,
    "coupon": 0,
    "accruedInterest": 0,
    "settleDate": "2023.09.11",
    "askEhmYield": "9,08",
    "bidYield": "10,23",
    "rawName": "D231129",
    "bidPrice": "97,8044",
    "maturityInDays": "79 nap",
    "securityType": "DKJ",
    "maturityDate": "2023.11.29",
    "name": "D231129",
    "bidEhmYield": "10,37",
    "askYield": "8,96",
    "currency": "HUF",
    "maturityInDays_val": 79,
    "issueDate": "2023.04.19",
    "longName": "D231129"
}