{
    "askPrice": "98,2415",
    "green": 0,
    "coupon": 0,
    "accruedInterest": 0,
    "settleDate": "2023.09.18",
    "askEhmYield": "9,07",
    "bidYield": "10,25",
    "rawName": "D231129",
    "bidPrice": "97,9912",
    "maturityInDays": "72 nap",
    "securityType": "DKJ",
    "maturityDate": "2023.11.29",
    "name": "D231129",
    "bidEhmYield": "10,39",
    "askYield": "8,95",
    "currency": "HUF",
    "maturityInDays_val": 72,
    "issueDate": "2023.04.19",
    "longName": "D231129"
}