{
    "askPrice": "92,5481",
    "green": 0,
    "coupon": 0,
    "accruedInterest": 0,
    "settleDate": "2023.05.11",
    "askEhmYield": "14,55",
    "bidYield": "15,05",
    "rawName": "D231129",
    "bidPrice": "92,2129",
    "maturityInDays": "202 nap",
    "securityType": "DKJ",
    "maturityDate": "2023.11.29",
    "name": "D231129",
    "bidEhmYield": "15,26",
    "askYield": "14,35",
    "currency": "HUF",
    "maturityInDays_val": 202,
    "issueDate": "2023.04.19",
    "longName": "D231129"
}