{
    "askPrice": "94,2768",
    "green": 0,
    "coupon": 0,
    "accruedInterest": 0,
    "settleDate": "2023.06.08",
    "askEhmYield": "12,73",
    "bidYield": "13,40",
    "rawName": "D231129",
    "bidPrice": "93,9173",
    "maturityInDays": "174 nap",
    "securityType": "DKJ",
    "maturityDate": "2023.11.29",
    "name": "D231129",
    "bidEhmYield": "13,59",
    "askYield": "12,56",
    "currency": "HUF",
    "maturityInDays_val": 174,
    "issueDate": "2023.04.19",
    "longName": "D231129"
}