{
    "askPrice": "99,5168",
    "green": 0,
    "coupon": 0,
    "accruedInterest": 0,
    "settleDate": "2023.11.06",
    "askEhmYield": "7,71",
    "bidYield": "8,99",
    "rawName": "D231129",
    "bidPrice": "99,4289",
    "maturityInDays": "23 nap",
    "securityType": "DKJ",
    "maturityDate": "2023.11.29",
    "name": "D231129",
    "bidEhmYield": "9,12",
    "askYield": "7,60",
    "currency": "HUF",
    "maturityInDays_val": 23,
    "issueDate": "2023.04.19",
    "longName": "D231129"
}