{
    "askPrice": "96,2362",
    "green": 0,
    "coupon": 0,
    "accruedInterest": 0,
    "settleDate": "2023.07.07",
    "askEhmYield": "9,84",
    "bidYield": "10,53",
    "rawName": "D231129",
    "bidPrice": "95,9313",
    "maturityInDays": "145 nap",
    "securityType": "DKJ",
    "maturityDate": "2023.11.29",
    "name": "D231129",
    "bidEhmYield": "10,68",
    "askYield": "9,71",
    "currency": "HUF",
    "maturityInDays_val": 145,
    "issueDate": "2023.04.19",
    "longName": "D231129"
}