{
    "askPrice": "98,9209",
    "green": 0,
    "coupon": 0,
    "accruedInterest": 0,
    "settleDate": "2023.10.09",
    "askEhmYield": "7,81",
    "bidYield": "9,00",
    "rawName": "D231129",
    "bidPrice": "98,7411",
    "maturityInDays": "51 nap",
    "securityType": "DKJ",
    "maturityDate": "2023.11.29",
    "name": "D231129",
    "bidEhmYield": "9,12",
    "askYield": "7,70",
    "currency": "HUF",
    "maturityInDays_val": 51,
    "issueDate": "2023.04.19",
    "longName": "D231129"
}