{
    "askPrice": "98,8088",
    "green": 0,
    "coupon": 0,
    "accruedInterest": 0,
    "settleDate": "2023.10.04",
    "askEhmYield": "7,86",
    "bidYield": "9,05",
    "rawName": "D231129",
    "bidPrice": "98,6118",
    "maturityInDays": "56 nap",
    "securityType": "DKJ",
    "maturityDate": "2023.11.29",
    "name": "D231129",
    "bidEhmYield": "9,18",
    "askYield": "7,75",
    "currency": "HUF",
    "maturityInDays_val": 56,
    "issueDate": "2023.04.19",
    "longName": "D231129"
}