{
    "askPrice": "",
    "green": 0,
    "coupon": 0,
    "accruedInterest": 0,
    "settleDate": "2023.11.16",
    "askEhmYield": "",
    "bidYield": "8,88",
    "rawName": "D231129",
    "bidPrice": "99,6804",
    "maturityInDays": "13 nap",
    "securityType": "DKJ",
    "maturityDate": "2023.11.29",
    "name": "D231129",
    "bidEhmYield": "9,00",
    "askYield": "",
    "currency": "HUF",
    "maturityInDays_val": 13,
    "issueDate": "2023.04.19",
    "longName": "D231129"
}