{
    "askPrice": "96,1410",
    "green": 0,
    "coupon": 0,
    "accruedInterest": 0,
    "settleDate": "2023.07.05",
    "askEhmYield": "9,97",
    "bidYield": "10,51",
    "rawName": "D231129",
    "bidPrice": "95,8850",
    "maturityInDays": "147 nap",
    "securityType": "DKJ",
    "maturityDate": "2023.11.29",
    "name": "D231129",
    "bidEhmYield": "10,66",
    "askYield": "9,83",
    "currency": "HUF",
    "maturityInDays_val": 147,
    "issueDate": "2023.04.19",
    "longName": "D231129"
}