{
    "askPrice": "94,5424",
    "green": 0,
    "coupon": 0,
    "accruedInterest": 0,
    "settleDate": "2023.06.14",
    "askEhmYield": "12,54",
    "bidYield": "13,21",
    "rawName": "D231129",
    "bidPrice": "94,1933",
    "maturityInDays": "168 nap",
    "securityType": "DKJ",
    "maturityDate": "2023.11.29",
    "name": "D231129",
    "bidEhmYield": "13,39",
    "askYield": "12,37",
    "currency": "HUF",
    "maturityInDays_val": 168,
    "issueDate": "2023.04.19",
    "longName": "D231129"
}