{
    "askPrice": "96,8444",
    "green": 0,
    "coupon": 0,
    "accruedInterest": 0,
    "settleDate": "2023.07.28",
    "askEhmYield": "9,59",
    "bidYield": "10,28",
    "rawName": "D231129",
    "bidPrice": "96,5802",
    "maturityInDays": "124 nap",
    "securityType": "DKJ",
    "maturityDate": "2023.11.29",
    "name": "D231129",
    "bidEhmYield": "10,42",
    "askYield": "9,46",
    "currency": "HUF",
    "maturityInDays_val": 124,
    "issueDate": "2023.04.19",
    "longName": "D231129"
}