{
    "askPrice": "99,5796",
    "green": 0,
    "coupon": 0,
    "accruedInterest": 0,
    "settleDate": "2023.11.09",
    "askEhmYield": "7,70",
    "bidYield": "8,95",
    "rawName": "D231129",
    "bidPrice": "99,5052",
    "maturityInDays": "20 nap",
    "securityType": "DKJ",
    "maturityDate": "2023.11.29",
    "name": "D231129",
    "bidEhmYield": "9,08",
    "askYield": "7,60",
    "currency": "HUF",
    "maturityInDays_val": 20,
    "issueDate": "2023.04.19",
    "longName": "D231129"
}