{
    "askPrice": "93,2470",
    "green": 0,
    "coupon": 0,
    "accruedInterest": 0,
    "settleDate": "2023.05.22",
    "askEhmYield": "13,84",
    "bidYield": "14,45",
    "rawName": "D231129",
    "bidPrice": "92,8794",
    "maturityInDays": "191 nap",
    "securityType": "DKJ",
    "maturityDate": "2023.11.29",
    "name": "D231129",
    "bidEhmYield": "14,65",
    "askYield": "13,65",
    "currency": "HUF",
    "maturityInDays_val": 191,
    "issueDate": "2023.04.19",
    "longName": "D231129"
}