{
    "askPrice": "97,0765",
    "green": 0,
    "coupon": 0,
    "accruedInterest": 0,
    "settleDate": "2023.08.07",
    "askEhmYield": "9,64",
    "bidYield": "10,30",
    "rawName": "D231129",
    "bidPrice": "96,8414",
    "maturityInDays": "114 nap",
    "securityType": "DKJ",
    "maturityDate": "2023.11.29",
    "name": "D231129",
    "bidEhmYield": "10,44",
    "askYield": "9,51",
    "currency": "HUF",
    "maturityInDays_val": 114,
    "issueDate": "2023.04.19",
    "longName": "D231129"
}