{
    "askPrice": "99,1473",
    "green": 0,
    "coupon": 0,
    "accruedInterest": 0,
    "settleDate": "2023.10.17",
    "askEhmYield": "7,30",
    "bidYield": "8,48",
    "rawName": "D231129",
    "bidPrice": "98,9973",
    "maturityInDays": "43 nap",
    "securityType": "DKJ",
    "maturityDate": "2023.11.29",
    "name": "D231129",
    "bidEhmYield": "8,60",
    "askYield": "7,20",
    "currency": "HUF",
    "maturityInDays_val": 43,
    "issueDate": "2023.04.19",
    "longName": "D231129"
}