{
    "askPrice": "96,2929",
    "green": 0,
    "coupon": 0,
    "accruedInterest": 0,
    "settleDate": "2023.07.10",
    "askEhmYield": "9,90",
    "bidYield": "10,56",
    "rawName": "D231129",
    "bidPrice": "96,0012",
    "maturityInDays": "142 nap",
    "securityType": "DKJ",
    "maturityDate": "2023.11.29",
    "name": "D231129",
    "bidEhmYield": "10,71",
    "askYield": "9,76",
    "currency": "HUF",
    "maturityInDays_val": 142,
    "issueDate": "2023.04.19",
    "longName": "D231129"
}