{
    "askPrice": "96,3180",
    "green": 0,
    "coupon": 0,
    "accruedInterest": 0,
    "settleDate": "2023.07.12",
    "askEhmYield": "9,97",
    "bidYield": "10,64",
    "rawName": "D231129",
    "bidPrice": "96,0266",
    "maturityInDays": "140 nap",
    "securityType": "DKJ",
    "maturityDate": "2023.11.29",
    "name": "D231129",
    "bidEhmYield": "10,79",
    "askYield": "9,83",
    "currency": "HUF",
    "maturityInDays_val": 140,
    "issueDate": "2023.04.19",
    "longName": "D231129"
}