{
    "askPrice": "",
    "green": 0,
    "coupon": "2,50 %",
    "accruedInterest": "1,67",
    "settleDate": "2022.06.27",
    "askEhmYield": "",
    "bidYield": "",
    "rawName": "K2022/43",
    "bidPrice": "99,50",
    "coupon_val": 2.5,
    "maturityInDays": "121 nap",
    "securityType": "1MÁP",
    "maturityDate": "2022.10.26",
    "name": "K2022/43",
    "bidEhmYield": "3,96",
    "askYield": "",
    "currency": "HUF",
    "maturityInDays_val": 121,
    "longName": "K221026"
}