{
    "askPrice": "",
    "green": 0,
    "coupon": "2,50 %",
    "accruedInterest": "2,36",
    "settleDate": "2022.10.05",
    "askEhmYield": "",
    "bidYield": "",
    "rawName": "K2022/43",
    "bidPrice": "99,70",
    "coupon_val": 2.5,
    "maturityInDays": "21 nap",
    "securityType": "1MÁP",
    "maturityDate": "2022.10.26",
    "name": "K2022/43",
    "bidEhmYield": "7,56",
    "askYield": "",
    "currency": "HUF",
    "maturityInDays_val": 21,
    "longName": "K221026"
}