{
    "askPrice": "",
    "green": 0,
    "coupon": "2,50 %",
    "accruedInterest": "1,83",
    "settleDate": "2022.07.20",
    "askEhmYield": "",
    "bidYield": "",
    "rawName": "K2022/43",
    "bidPrice": "99,50",
    "coupon_val": 2.5,
    "maturityInDays": "98 nap",
    "securityType": "1MÁP",
    "maturityDate": "2022.10.26",
    "name": "K2022/43",
    "bidEhmYield": "4,31",
    "askYield": "",
    "currency": "HUF",
    "maturityInDays_val": 98,
    "longName": "K221026"
}