{
    "askPrice": "",
    "green": 0,
    "coupon": "2,50 %",
    "accruedInterest": "2,20",
    "settleDate": "2022.09.12",
    "askEhmYield": "",
    "bidYield": "",
    "rawName": "K2022/43",
    "bidPrice": "99,50",
    "coupon_val": 2.5,
    "maturityInDays": "44 nap",
    "securityType": "1MÁP",
    "maturityDate": "2022.10.26",
    "name": "K2022/43",
    "bidEhmYield": "6,54",
    "askYield": "",
    "currency": "HUF",
    "maturityInDays_val": 44,
    "longName": "K221026"
}