{
    "askPrice": "",
    "green": 0,
    "coupon": "3,50 %",
    "accruedInterest": 0,
    "settleDate": "2024.04.22",
    "askEhmYield": "",
    "bidYield": "5,02",
    "rawName": "N2029/17",
    "bidPrice": "99,5000",
    "coupon_val": 3.5,
    "maturityInDays": "1826 nap",
    "securityType": "MÁP Plusz",
    "maturityDate": "2029.04.22",
    "name": "N2029/17",
    "bidEhmYield": "",
    "askYield": "",
    "currency": "HUF",
    "maturityInDays_val": 1826,
    "issueDate": "2024.04.22",
    "longName": "N290422"
}