{
    "askPrice": "",
    "green": 0,
    "coupon": "3,50 %",
    "accruedInterest": "0,12",
    "settleDate": "2022.10.28",
    "askEhmYield": "",
    "bidYield": "5,37",
    "rawName": "N2026/42",
    "bidPrice": "99,50",
    "coupon_val": 3.5,
    "maturityInDays": "1451 nap",
    "securityType": "MÁP Plusz",
    "maturityDate": "2026.10.18",
    "name": "N2026/42",
    "bidEhmYield": "",
    "askYield": "",
    "currency": "HUF",
    "maturityInDays_val": 1451,
    "longName": "N261018"
}