{
    "askPrice": "",
    "green": 0,
    "coupon": "3,50 %",
    "accruedInterest": "0,25",
    "settleDate": "2022.11.07",
    "askEhmYield": "",
    "bidYield": "5,37",
    "rawName": "N2026/42",
    "bidPrice": "99,50",
    "coupon_val": 3.5,
    "maturityInDays": "1441 nap",
    "securityType": "MÁP Plusz",
    "maturityDate": "2026.10.18",
    "name": "N2026/42",
    "bidEhmYield": "",
    "askYield": "",
    "currency": "HUF",
    "maturityInDays_val": 1441,
    "issueDate": "2021-10-18",
    "longName": "N261018"
}