{
    "askPrice": "",
    "green": 0,
    "coupon": "3,50 %",
    "accruedInterest": "1,76",
    "settleDate": "2022.09.26",
    "askEhmYield": "",
    "bidYield": "",
    "rawName": "N2026/42",
    "bidPrice": "99,50",
    "coupon_val": 3.5,
    "maturityInDays": "1483 nap",
    "securityType": "MÁP Plusz",
    "maturityDate": "2026.10.18",
    "name": "N2026/42",
    "bidEhmYield": "",
    "askYield": "",
    "currency": "HUF",
    "maturityInDays_val": 1483,
    "longName": "N261018"
}