{
    "askPrice": "",
    "green": 0,
    "coupon": "3,50 %",
    "accruedInterest": "1,7137",
    "settleDate": "2023.03.06",
    "askEhmYield": "",
    "bidYield": "5,45",
    "rawName": "N2026/42",
    "bidPrice": "99,5000",
    "coupon_val": 3.5,
    "maturityInDays": "1322 nap",
    "securityType": "MÁP Plusz",
    "maturityDate": "2026.10.18",
    "name": "N2026/42",
    "bidEhmYield": "",
    "askYield": "",
    "currency": "HUF",
    "maturityInDays_val": 1322,
    "issueDate": "2021.10.18",
    "longName": "N261018"
}