{
    "askPrice": "",
    "green": 0,
    "coupon": "3,50 %",
    "accruedInterest": "2,2814",
    "settleDate": "2024.04.02",
    "askEhmYield": "",
    "bidYield": "5,78",
    "rawName": "N2026/42",
    "bidPrice": "99,5000",
    "coupon_val": 3.5,
    "maturityInDays": "929 nap",
    "securityType": "MÁP Plusz",
    "maturityDate": "2026.10.18",
    "name": "N2026/42",
    "bidEhmYield": "",
    "askYield": "",
    "currency": "HUF",
    "maturityInDays_val": 929,
    "issueDate": "2021.10.18",
    "longName": "N261018"
}