{
    "askPrice": "",
    "green": 0,
    "coupon": "3,50 %",
    "accruedInterest": "0,62",
    "settleDate": "2022.10.12",
    "askEhmYield": "",
    "bidYield": "",
    "rawName": "N2026/34",
    "bidPrice": "99,50",
    "coupon_val": 3.5,
    "maturityInDays": "1411 nap",
    "securityType": "MÁP Plusz",
    "maturityDate": "2026.08.23",
    "name": "N2026/34",
    "bidEhmYield": "",
    "askYield": "",
    "currency": "HUF",
    "maturityInDays_val": 1411,
    "longName": "N260823"
}