{
    "askPrice": "",
    "green": 0,
    "coupon": "3,50 %",
    "accruedInterest": "0,8470",
    "settleDate": "2023.10.24",
    "askEhmYield": "",
    "bidYield": "5,70",
    "rawName": "N2026/34",
    "bidPrice": "99,5000",
    "coupon_val": 3.5,
    "maturityInDays": "1034 nap",
    "securityType": "MÁP Plusz",
    "maturityDate": "2026.08.23",
    "name": "N2026/34",
    "bidEhmYield": "",
    "askYield": "",
    "currency": "HUF",
    "maturityInDays_val": 1034,
    "issueDate": "2021.08.23",
    "longName": "N260823"
}