{
    "askPrice": "",
    "green": 0,
    "coupon": "3,50 %",
    "accruedInterest": "0,9699",
    "settleDate": "2023.11.02",
    "askEhmYield": "",
    "bidYield": "5,71",
    "rawName": "N2026/34",
    "bidPrice": "99,5000",
    "coupon_val": 3.5,
    "maturityInDays": "1025 nap",
    "securityType": "MÁP Plusz",
    "maturityDate": "2026.08.23",
    "name": "N2026/34",
    "bidEhmYield": "",
    "askYield": "",
    "currency": "HUF",
    "maturityInDays_val": 1025,
    "issueDate": "2021.08.23",
    "longName": "N260823"
}