{
    "askPrice": "",
    "green": 0,
    "coupon": "3,50 %",
    "accruedInterest": "2,3634",
    "settleDate": "2024.02.12",
    "askEhmYield": "",
    "bidYield": "5,78",
    "rawName": "N2026/34",
    "bidPrice": "99,5000",
    "coupon_val": 3.5,
    "maturityInDays": "923 nap",
    "securityType": "MÁP Plusz",
    "maturityDate": "2026.08.23",
    "name": "N2026/34",
    "bidEhmYield": "",
    "askYield": "",
    "currency": "HUF",
    "maturityInDays_val": 923,
    "issueDate": "2021.08.23",
    "longName": "N260823"
}