{
    "askPrice": "",
    "green": 0,
    "coupon": "3,50 %",
    "accruedInterest": "0,5890",
    "settleDate": "2022.12.15",
    "askEhmYield": "",
    "bidYield": "5,69",
    "rawName": "N2025/44",
    "bidPrice": "99,5000",
    "coupon_val": 3.5,
    "maturityInDays": "1053 nap",
    "securityType": "MÁP Plusz",
    "maturityDate": "2025.11.02",
    "name": "N2025/44",
    "bidEhmYield": "",
    "askYield": "",
    "currency": "HUF",
    "maturityInDays_val": 1053,
    "issueDate": "2020.11.02",
    "longName": "N251102"
}