{
    "askPrice": "",
    "green": 0,
    "coupon": "3,50 %",
    "accruedInterest": "3,27",
    "settleDate": "2022.07.25",
    "askEhmYield": "",
    "bidYield": "",
    "rawName": "N2025/44",
    "bidPrice": "99,50",
    "coupon_val": 3.5,
    "maturityInDays": "1196 nap",
    "securityType": "MÁP Plusz",
    "maturityDate": "2025.11.02",
    "name": "N2025/44",
    "bidEhmYield": "",
    "askYield": "",
    "currency": "HUF",
    "maturityInDays_val": 1196,
    "longName": "N251102"
}