{
    "askPrice": "",
    "green": 0,
    "coupon": "3,50 %",
    "accruedInterest": "0,3699",
    "settleDate": "2022.11.29",
    "askEhmYield": "",
    "bidYield": "5,68",
    "rawName": "N2025/44",
    "bidPrice": "99,5000",
    "coupon_val": 3.5,
    "maturityInDays": "1069 nap",
    "securityType": "MÁP Plusz",
    "maturityDate": "2025.11.02",
    "name": "N2025/44",
    "bidEhmYield": "",
    "askYield": "",
    "currency": "HUF",
    "maturityInDays_val": 1069,
    "issueDate": "2020.11.02",
    "longName": "N251102"
}