{
    "askPrice": "",
    "green": 0,
    "coupon": "3,50 %",
    "accruedInterest": "2,3151",
    "settleDate": "2023.04.20",
    "askEhmYield": "",
    "bidYield": "5,78",
    "rawName": "N2025/44",
    "bidPrice": "99,5000",
    "coupon_val": 3.5,
    "maturityInDays": "927 nap",
    "securityType": "MÁP Plusz",
    "maturityDate": "2025.11.02",
    "name": "N2025/44",
    "bidEhmYield": "",
    "askYield": "",
    "currency": "HUF",
    "maturityInDays_val": 927,
    "issueDate": "2020.11.02",
    "longName": "N251102"
}