{
    "askPrice": "",
    "green": 0,
    "coupon": "3,50 %",
    "accruedInterest": "2,6448",
    "settleDate": "2024.04.26",
    "askEhmYield": "",
    "bidYield": "6,15",
    "rawName": "N2025/44",
    "bidPrice": "99,5000",
    "coupon_val": 3.5,
    "maturityInDays": "555 nap",
    "securityType": "MÁP Plusz",
    "maturityDate": "2025.11.02",
    "name": "N2025/44",
    "bidEhmYield": "",
    "askYield": "",
    "currency": "HUF",
    "maturityInDays_val": 555,
    "issueDate": "2020.11.02",
    "longName": "N251102"
}