{
    "askPrice": "",
    "green": 0,
    "coupon": "8,00 %",
    "accruedInterest": "3,2000",
    "settleDate": "2024.04.02",
    "askEhmYield": "",
    "bidYield": "9,64",
    "rawName": "K2024/45",
    "bidPrice": "99,0000",
    "coupon_val": 8,
    "maturityInDays": "219 nap",
    "securityType": "1MÁP",
    "maturityDate": "2024.11.07",
    "name": "K2024/45",
    "bidEhmYield": "9,42",
    "askYield": "",
    "currency": "HUF",
    "maturityInDays_val": 219,
    "issueDate": "2023.11.07",
    "longName": "K241107"
}