{
    "askPrice": "",
    "green": 0,
    "coupon": "8,00 %",
    "accruedInterest": "2,8932",
    "settleDate": "2024.03.18",
    "askEhmYield": "",
    "bidYield": "9,50",
    "rawName": "K2024/45",
    "bidPrice": "99,0000",
    "coupon_val": 8,
    "maturityInDays": "234 nap",
    "securityType": "1MÁP",
    "maturityDate": "2024.11.07",
    "name": "K2024/45",
    "bidEhmYield": "9,35",
    "askYield": "",
    "currency": "HUF",
    "maturityInDays_val": 234,
    "issueDate": "2023.11.07",
    "longName": "K241107"
}