{
    "askPrice": "",
    "green": 0,
    "coupon": "8,00 %",
    "accruedInterest": "4,0986",
    "settleDate": "2024.05.13",
    "askEhmYield": "",
    "bidYield": "9,99",
    "rawName": "K2024/45",
    "bidPrice": "99,0000",
    "coupon_val": 8,
    "maturityInDays": "178 nap",
    "securityType": "1MÁP",
    "maturityDate": "2024.11.07",
    "name": "K2024/45",
    "bidEhmYield": "9,70",
    "askYield": "",
    "currency": "HUF",
    "maturityInDays_val": 178,
    "issueDate": "2023.11.07",
    "longName": "K241107"
}