{
    "askPrice": "",
    "green": 0,
    "coupon": "8,00 %",
    "accruedInterest": "3,2658",
    "settleDate": "2024.04.05",
    "askEhmYield": "",
    "bidYield": "9,66",
    "rawName": "K2024/45",
    "bidPrice": "99,0000",
    "coupon_val": 8,
    "maturityInDays": "216 nap",
    "securityType": "1MÁP",
    "maturityDate": "2024.11.07",
    "name": "K2024/45",
    "bidEhmYield": "9,44",
    "askYield": "",
    "currency": "HUF",
    "maturityInDays_val": 216,
    "issueDate": "2023.11.07",
    "longName": "K241107"
}