{
    "askPrice": "",
    "green": 0,
    "coupon": null,
    "accruedInterest": "3,2482",
    "settleDate": "2023.07.31",
    "askEhmYield": "",
    "bidYield": "",
    "rawName": "2028/Y_EUR",
    "bidPrice": "99,0000",
    "maturityInDays": "1850 nap",
    "securityType": "PEMÁP",
    "maturityDate": "2028.08.23",
    "name": "2028/Y_EUR",
    "bidEhmYield": "",
    "askYield": "",
    "currency": "EUR",
    "maturityInDays_val": 1850,
    "issueDate": "2022.06.10",
    "longName": "C280823Y22"
}