{
    "askPrice": "98,2283",
    "green": 0,
    "coupon": 0,
    "accruedInterest": 0,
    "settleDate": "2023.11.20",
    "askEhmYield": "7,66",
    "bidYield": "8,80",
    "rawName": "D240214",
    "bidPrice": "97,9411",
    "maturityInDays": "86 nap",
    "securityType": "DKJ",
    "maturityDate": "2024.02.14",
    "name": "D240214",
    "bidEhmYield": "8,92",
    "askYield": "7,55",
    "currency": "HUF",
    "maturityInDays_val": 86,
    "issueDate": "2023.11.15",
    "longName": "D240214"
}