{
    "askPrice": "98,5028",
    "green": 0,
    "coupon": 0,
    "accruedInterest": 0,
    "settleDate": "2023.11.30",
    "askEhmYield": "7,30",
    "bidYield": "8,43",
    "rawName": "D240214",
    "bidPrice": "98,2515",
    "maturityInDays": "76 nap",
    "securityType": "DKJ",
    "maturityDate": "2024.02.14",
    "name": "D240214",
    "bidEhmYield": "8,55",
    "askYield": "7,20",
    "currency": "HUF",
    "maturityInDays_val": 76,
    "issueDate": "2023.11.15",
    "longName": "D240214"
}