{
    "askPrice": "98,7765",
    "green": 0,
    "coupon": 0,
    "accruedInterest": 0,
    "settleDate": "2023.12.11",
    "askEhmYield": "6,96",
    "bidYield": "8,20",
    "rawName": "D240214",
    "bidPrice": "98,5410",
    "maturityInDays": "65 nap",
    "securityType": "DKJ",
    "maturityDate": "2024.02.14",
    "name": "D240214",
    "bidEhmYield": "8,31",
    "askYield": "6,86",
    "currency": "HUF",
    "maturityInDays_val": 65,
    "issueDate": "2023.11.15",
    "longName": "D240214"
}