{
    "askPrice": "99,0434",
    "green": 0,
    "coupon": 0,
    "accruedInterest": 0,
    "settleDate": "2023.12.19",
    "askEhmYield": "6,18",
    "bidYield": "7,48",
    "rawName": "D240214",
    "bidPrice": "98,8295",
    "maturityInDays": "57 nap",
    "securityType": "DKJ",
    "maturityDate": "2024.02.14",
    "name": "D240214",
    "bidEhmYield": "7,58",
    "askYield": "6,10",
    "currency": "HUF",
    "maturityInDays_val": 57,
    "issueDate": "2023.11.15",
    "longName": "D240214"
}