{
    "askPrice": "98,6478",
    "green": 0,
    "coupon": 0,
    "accruedInterest": 0,
    "settleDate": "2023.12.05",
    "askEhmYield": "7,05",
    "bidYield": "8,34",
    "rawName": "D240214",
    "bidPrice": "98,3818",
    "maturityInDays": "71 nap",
    "securityType": "DKJ",
    "maturityDate": "2024.02.14",
    "name": "D240214",
    "bidEhmYield": "8,46",
    "askYield": "6,95",
    "currency": "HUF",
    "maturityInDays_val": 71,
    "issueDate": "2023.11.15",
    "longName": "D240214"
}