{
    "askPrice": "",
    "green": 0,
    "coupon": 0,
    "accruedInterest": 0,
    "settleDate": "2024.02.09",
    "askEhmYield": "",
    "bidYield": "7,80",
    "rawName": "D240214",
    "bidPrice": "99,8918",
    "maturityInDays": "5 nap",
    "securityType": "DKJ",
    "maturityDate": "2024.02.14",
    "name": "D240214",
    "bidEhmYield": "7,91",
    "askYield": "",
    "currency": "HUF",
    "maturityInDays_val": 5,
    "issueDate": "2023.11.15",
    "longName": "D240214"
}