{
    "askPrice": "99,3262",
    "green": 0,
    "coupon": 0,
    "accruedInterest": 0,
    "settleDate": "2024.01.08",
    "askEhmYield": "6,69",
    "bidYield": "7,90",
    "rawName": "D240214",
    "bidPrice": "99,1946",
    "maturityInDays": "37 nap",
    "securityType": "DKJ",
    "maturityDate": "2024.02.14",
    "name": "D240214",
    "bidEhmYield": "8,01",
    "askYield": "6,60",
    "currency": "HUF",
    "maturityInDays_val": 37,
    "issueDate": "2023.11.15",
    "longName": "D240214"
}