{
    "askPrice": "99,3576",
    "green": 0,
    "coupon": 0,
    "accruedInterest": 0,
    "settleDate": "2024.01.10",
    "askEhmYield": "6,74",
    "bidYield": "7,90",
    "rawName": "D240214",
    "bidPrice": "99,2378",
    "maturityInDays": "35 nap",
    "securityType": "DKJ",
    "maturityDate": "2024.02.14",
    "name": "D240214",
    "bidEhmYield": "8,01",
    "askYield": "6,65",
    "currency": "HUF",
    "maturityInDays_val": 35,
    "issueDate": "2023.11.15",
    "longName": "D240214"
}