{
    "askPrice": "",
    "green": 0,
    "coupon": null,
    "accruedInterest": "2,42",
    "settleDate": "2022.09.09",
    "askEhmYield": "",
    "bidYield": "",
    "rawName": "2028/J",
    "bidPrice": "99,00",
    "maturityInDays": "2050 nap",
    "securityType": "PMÁP",
    "maturityDate": "2028.04.20",
    "name": "2028/J",
    "bidEhmYield": "",
    "askYield": "",
    "currency": "HUF",
    "maturityInDays_val": 2050,
    "longName": "A280420J22"
}