{
    "askPrice": "",
    "green": 0,
    "coupon": null,
    "accruedInterest": "1,97",
    "settleDate": "2022.08.15",
    "askEhmYield": "",
    "bidYield": "",
    "rawName": "2028/J",
    "bidPrice": "99,00",
    "maturityInDays": "2075 nap",
    "securityType": "PMÁP",
    "maturityDate": "2028.04.20",
    "name": "2028/J",
    "bidEhmYield": "",
    "askYield": "",
    "currency": "HUF",
    "maturityInDays_val": 2075,
    "longName": "A280420J22"
}