{
    "askPrice": "",
    "green": 0,
    "coupon": null,
    "accruedInterest": "3,49",
    "settleDate": "2022.11.07",
    "askEhmYield": "",
    "bidYield": "",
    "rawName": "2028/J",
    "bidPrice": "99,00",
    "maturityInDays": "1991 nap",
    "securityType": "PMÁP",
    "maturityDate": "2028.04.20",
    "name": "2028/J",
    "bidEhmYield": "",
    "askYield": "",
    "currency": "HUF",
    "maturityInDays_val": 1991,
    "issueDate": "2022-04-28",
    "longName": "A280420J22"
}