{
    "askPrice": "",
    "green": 0,
    "coupon": null,
    "accruedInterest": "2,30",
    "settleDate": "2022.09.02",
    "askEhmYield": "",
    "bidYield": "",
    "rawName": "2028/J",
    "bidPrice": "99,00",
    "maturityInDays": "2057 nap",
    "securityType": "PMÁP",
    "maturityDate": "2028.04.20",
    "name": "2028/J",
    "bidEhmYield": "",
    "askYield": "",
    "currency": "HUF",
    "maturityInDays_val": 2057,
    "longName": "A280420J22"
}