{
    "askPrice": "",
    "green": 0,
    "coupon": null,
    "accruedInterest": "6,2951",
    "settleDate": "2023.09.11",
    "askEhmYield": "",
    "bidYield": "",
    "rawName": "2028/J",
    "bidPrice": "99,0000",
    "maturityInDays": "1683 nap",
    "securityType": "PMÁP",
    "maturityDate": "2028.04.20",
    "name": "2028/J",
    "bidEhmYield": "",
    "askYield": "",
    "currency": "HUF",
    "maturityInDays_val": 1683,
    "issueDate": "2022.04.28",
    "longName": "A280420J22"
}