{
    "askPrice": "",
    "green": 0,
    "coupon": null,
    "accruedInterest": "3,2350",
    "settleDate": "2023.07.03",
    "askEhmYield": "",
    "bidYield": "",
    "rawName": "2028/J",
    "bidPrice": "99,0000",
    "maturityInDays": "1753 nap",
    "securityType": "PMÁP",
    "maturityDate": "2028.04.20",
    "name": "2028/J",
    "bidEhmYield": "",
    "askYield": "",
    "currency": "HUF",
    "maturityInDays_val": 1753,
    "issueDate": "2022.04.28",
    "longName": "A280420J22"
}