{
    "askPrice": "",
    "green": 0,
    "coupon": "3,50 %",
    "accruedInterest": "0,0435",
    "settleDate": "2023.08.24",
    "askEhmYield": "",
    "bidYield": "5,08",
    "rawName": "N2028/08",
    "bidPrice": "100,0000",
    "coupon_val": 3.5,
    "maturityInDays": "1641 nap",
    "securityType": "MÁP Plusz",
    "maturityDate": "2028.02.20",
    "name": "N2028/08",
    "bidEhmYield": "",
    "askYield": "",
    "currency": "HUF",
    "maturityInDays_val": 1641,
    "issueDate": "2023.02.20",
    "longName": "N280220"
}