{
    "askPrice": "",
    "green": 0,
    "coupon": "3,50 %",
    "accruedInterest": "1,7210",
    "settleDate": "2023.08.17",
    "askEhmYield": "",
    "bidYield": "",
    "rawName": "N2028/08",
    "bidPrice": "",
    "coupon_val": 3.5,
    "maturityInDays": "1648 nap",
    "securityType": "MÁP Plusz",
    "maturityDate": "2028.02.20",
    "name": "N2028/08",
    "bidEhmYield": "",
    "askYield": "",
    "currency": "HUF",
    "maturityInDays_val": 1648,
    "issueDate": "2023.02.20",
    "longName": "N280220"
}