{
    "askPrice": "",
    "green": 0,
    "coupon": "3,50 %",
    "accruedInterest": "1,9239",
    "settleDate": "2024.02.13",
    "askEhmYield": "",
    "bidYield": "5,35",
    "rawName": "N2028/08",
    "bidPrice": "99,5000",
    "coupon_val": 3.5,
    "maturityInDays": "1468 nap",
    "securityType": "MÁP Plusz",
    "maturityDate": "2028.02.20",
    "name": "N2028/08",
    "bidEhmYield": "",
    "askYield": "",
    "currency": "HUF",
    "maturityInDays_val": 1468,
    "issueDate": "2023.02.20",
    "longName": "N280220"
}