{
    "askPrice": "98,3413",
    "green": 0,
    "coupon": 0,
    "accruedInterest": 0,
    "settleDate": "2023.01.31",
    "askEhmYield": "13,99",
    "bidYield": "14,65",
    "rawName": "D230316",
    "bidPrice": "98,2409",
    "maturityInDays": "44 nap",
    "securityType": "DKJ",
    "maturityDate": "2023.03.16",
    "name": "D230316",
    "bidEhmYield": "14,85",
    "askYield": "13,80",
    "currency": "HUF",
    "maturityInDays_val": 44,
    "issueDate": "2022.12.14",
    "longName": "D230316"
}