{
    "askPrice": "",
    "green": 0,
    "coupon": 0,
    "accruedInterest": 0,
    "settleDate": "2023.03.08",
    "askEhmYield": "",
    "bidYield": "14,95",
    "rawName": "D230316",
    "bidPrice": "99,6689",
    "maturityInDays": "8 nap",
    "securityType": "DKJ",
    "maturityDate": "2023.03.16",
    "name": "D230316",
    "bidEhmYield": "15,16",
    "askYield": "",
    "currency": "HUF",
    "maturityInDays_val": 8,
    "issueDate": "2022.12.14",
    "longName": "D230316"
}