{
    "askPrice": "99,1080",
    "green": 0,
    "coupon": 0,
    "accruedInterest": 0,
    "settleDate": "2023.02.20",
    "askEhmYield": "13,69",
    "bidYield": "14,79",
    "rawName": "D230316",
    "bidPrice": "99,0236",
    "maturityInDays": "24 nap",
    "securityType": "DKJ",
    "maturityDate": "2023.03.16",
    "name": "D230316",
    "bidEhmYield": "15,00",
    "askYield": "13,50",
    "currency": "HUF",
    "maturityInDays_val": 24,
    "issueDate": "2022.12.14",
    "longName": "D230316"
}