{
    "askPrice": "98,7811",
    "green": 0,
    "coupon": 0,
    "accruedInterest": 0,
    "settleDate": "2023.02.13",
    "askEhmYield": "14,53",
    "bidYield": "15,23",
    "rawName": "D230316",
    "bidPrice": "98,7055",
    "maturityInDays": "31 nap",
    "securityType": "DKJ",
    "maturityDate": "2023.03.16",
    "name": "D230316",
    "bidEhmYield": "15,44",
    "askYield": "14,33",
    "currency": "HUF",
    "maturityInDays_val": 31,
    "issueDate": "2022.12.14",
    "longName": "D230316"
}