{
    "askPrice": "",
    "green": 0,
    "coupon": "3,50 %",
    "accruedInterest": "0,5421",
    "settleDate": "2023.09.26",
    "askEhmYield": "",
    "bidYield": "5,07",
    "rawName": "N2028/31",
    "bidPrice": "99,5000",
    "coupon_val": 3.5,
    "maturityInDays": "1770 nap",
    "securityType": "MÁP Plusz",
    "maturityDate": "2028.07.31",
    "name": "N2028/31",
    "bidEhmYield": "",
    "askYield": "",
    "currency": "HUF",
    "maturityInDays_val": 1770,
    "issueDate": "2023.07.31",
    "longName": "N280731"
}