{
    "askPrice": "",
    "green": 0,
    "coupon": "3,50 %",
    "accruedInterest": "1,0549",
    "settleDate": "2024.05.06",
    "askEhmYield": "",
    "bidYield": "5,28",
    "rawName": "N2028/31",
    "bidPrice": "99,5000",
    "coupon_val": 3.5,
    "maturityInDays": "1547 nap",
    "securityType": "MÁP Plusz",
    "maturityDate": "2028.07.31",
    "name": "N2028/31",
    "bidEhmYield": "",
    "askYield": "",
    "currency": "HUF",
    "maturityInDays_val": 1547,
    "issueDate": "2023.07.31",
    "longName": "N280731"
}