{
    "askPrice": "",
    "green": 0,
    "coupon": "3,50 %",
    "accruedInterest": 0,
    "settleDate": "2024.01.30",
    "askEhmYield": "",
    "bidYield": "",
    "rawName": "N2028/31",
    "bidPrice": "",
    "coupon_val": 3.5,
    "maturityInDays": "1644 nap",
    "securityType": "MÁP Plusz",
    "maturityDate": "2028.07.31",
    "name": "N2028/31",
    "bidEhmYield": "",
    "askYield": "",
    "currency": "HUF",
    "maturityInDays_val": 1644,
    "issueDate": "2023.07.31",
    "longName": "N280731"
}