{
    "askPrice": "",
    "green": 0,
    "coupon": "3,50 %",
    "accruedInterest": "2,70",
    "settleDate": "2022.11.11",
    "askEhmYield": "",
    "bidYield": "5,51",
    "rawName": "N2026/14",
    "bidPrice": "99,50",
    "coupon_val": 3.5,
    "maturityInDays": "1242 nap",
    "securityType": "MÁP Plusz",
    "maturityDate": "2026.04.06",
    "name": "N2026/14",
    "bidEhmYield": "",
    "askYield": "",
    "currency": "HUF",
    "maturityInDays_val": 1242,
    "issueDate": "2021-04-06",
    "longName": "N260406"
}