{
    "askPrice": "",
    "green": 0,
    "coupon": "3,50 %",
    "accruedInterest": "1,92",
    "settleDate": "2022.09.09",
    "askEhmYield": "",
    "bidYield": "",
    "rawName": "N2026/14",
    "bidPrice": "99,50",
    "coupon_val": 3.5,
    "maturityInDays": "1305 nap",
    "securityType": "MÁP Plusz",
    "maturityDate": "2026.04.06",
    "name": "N2026/14",
    "bidEhmYield": "",
    "askYield": "",
    "currency": "HUF",
    "maturityInDays_val": 1305,
    "longName": "N260406"
}