{
    "askPrice": "",
    "green": 0,
    "coupon": "3,50 %",
    "accruedInterest": "3,6000",
    "settleDate": "2023.01.23",
    "askEhmYield": "",
    "bidYield": "5,58",
    "rawName": "N2026/14",
    "bidPrice": "99,5000",
    "coupon_val": 3.5,
    "maturityInDays": "1169 nap",
    "securityType": "MÁP Plusz",
    "maturityDate": "2026.04.06",
    "name": "N2026/14",
    "bidEhmYield": "",
    "askYield": "",
    "currency": "HUF",
    "maturityInDays_val": 1169,
    "issueDate": "2021.04.06",
    "longName": "N260406"
}