{
    "askPrice": "",
    "green": 0,
    "coupon": "3,50 %",
    "accruedInterest": "0,1093",
    "settleDate": "2023.04.14",
    "askEhmYield": "",
    "bidYield": "5,49",
    "rawName": "N2026/14",
    "bidPrice": "100,0000",
    "coupon_val": 3.5,
    "maturityInDays": "1088 nap",
    "securityType": "MÁP Plusz",
    "maturityDate": "2026.04.06",
    "name": "N2026/14",
    "bidEhmYield": "",
    "askYield": "",
    "currency": "HUF",
    "maturityInDays_val": 1088,
    "issueDate": "2021.04.06",
    "longName": "N260406"
}