{
    "askPrice": "",
    "green": 0,
    "coupon": "3,50 %",
    "accruedInterest": "1,4071",
    "settleDate": "2023.07.18",
    "askEhmYield": "",
    "bidYield": "5,73",
    "rawName": "N2026/14",
    "bidPrice": "99,5000",
    "coupon_val": 3.5,
    "maturityInDays": "993 nap",
    "securityType": "MÁP Plusz",
    "maturityDate": "2026.04.06",
    "name": "N2026/14",
    "bidEhmYield": "",
    "askYield": "",
    "currency": "HUF",
    "maturityInDays_val": 993,
    "issueDate": "2021.04.06",
    "longName": "N260406"
}