{
    "askPrice": "",
    "green": 0,
    "coupon": "3,50 %",
    "accruedInterest": "2,7732",
    "settleDate": "2023.10.26",
    "askEhmYield": "",
    "bidYield": "5,81",
    "rawName": "N2026/14",
    "bidPrice": "99,5000",
    "coupon_val": 3.5,
    "maturityInDays": "893 nap",
    "securityType": "MÁP Plusz",
    "maturityDate": "2026.04.06",
    "name": "N2026/14",
    "bidEhmYield": "",
    "askYield": "",
    "currency": "HUF",
    "maturityInDays_val": 893,
    "issueDate": "2021.04.06",
    "longName": "N260406"
}