{
    "askPrice": "",
    "green": 0,
    "coupon": "3,50 %",
    "accruedInterest": "4,1667",
    "settleDate": "2024.02.05",
    "askEhmYield": "",
    "bidYield": "5,93",
    "rawName": "N2026/14",
    "bidPrice": "99,5000",
    "coupon_val": 3.5,
    "maturityInDays": "791 nap",
    "securityType": "MÁP Plusz",
    "maturityDate": "2026.04.06",
    "name": "N2026/14",
    "bidEhmYield": "",
    "askYield": "",
    "currency": "HUF",
    "maturityInDays_val": 791,
    "issueDate": "2021.04.06",
    "longName": "N260406"
}