{
    "askPrice": "",
    "green": 0,
    "coupon": "3,50 %",
    "accruedInterest": "4,8634",
    "settleDate": "2024.03.27",
    "askEhmYield": "",
    "bidYield": "6,00",
    "rawName": "N2026/14",
    "bidPrice": "99,5000",
    "coupon_val": 3.5,
    "maturityInDays": "740 nap",
    "securityType": "MÁP Plusz",
    "maturityDate": "2026.04.06",
    "name": "N2026/14",
    "bidEhmYield": "",
    "askYield": "",
    "currency": "HUF",
    "maturityInDays_val": 740,
    "issueDate": "2021.04.06",
    "longName": "N260406"
}