{
    "askPrice": "97,6374",
    "green": 0,
    "coupon": 0,
    "accruedInterest": 0,
    "settleDate": "2023.04.06",
    "askEhmYield": "14,25",
    "bidYield": "15,37",
    "rawName": "D230607",
    "bidPrice": "97,4212",
    "maturityInDays": "62 nap",
    "securityType": "DKJ",
    "maturityDate": "2023.06.07",
    "name": "D230607",
    "bidEhmYield": "15,58",
    "askYield": "14,05",
    "currency": "HUF",
    "maturityInDays_val": 62,
    "issueDate": "2023.03.08",
    "longName": "D230607"
}