{
    "askPrice": "97,5088",
    "green": 0,
    "coupon": 0,
    "accruedInterest": 0,
    "settleDate": "2023.04.03",
    "askEhmYield": "14,35",
    "bidYield": "15,39",
    "rawName": "D230607",
    "bidPrice": "97,2964",
    "maturityInDays": "65 nap",
    "securityType": "DKJ",
    "maturityDate": "2023.06.07",
    "name": "D230607",
    "bidEhmYield": "15,60",
    "askYield": "14,15",
    "currency": "HUF",
    "maturityInDays_val": 65,
    "issueDate": "2023.03.08",
    "longName": "D230607"
}