{
    "askPrice": "98,7042",
    "green": 0,
    "coupon": 0,
    "accruedInterest": 0,
    "settleDate": "2023.05.04",
    "askEhmYield": "14,09",
    "bidYield": "15,20",
    "rawName": "D230607",
    "bidPrice": "98,5848",
    "maturityInDays": "34 nap",
    "securityType": "DKJ",
    "maturityDate": "2023.06.07",
    "name": "D230607",
    "bidEhmYield": "15,41",
    "askYield": "13,90",
    "currency": "HUF",
    "maturityInDays_val": 34,
    "issueDate": "2023.03.08",
    "longName": "D230607"
}