{
    "askPrice": "",
    "green": 0,
    "coupon": 0,
    "accruedInterest": 0,
    "settleDate": "2023.06.01",
    "askEhmYield": "",
    "bidYield": "14,32",
    "rawName": "D230607",
    "bidPrice": "99,7619",
    "maturityInDays": "6 nap",
    "securityType": "DKJ",
    "maturityDate": "2023.06.07",
    "name": "D230607",
    "bidEhmYield": "14,52",
    "askYield": "",
    "currency": "HUF",
    "maturityInDays_val": 6,
    "issueDate": "2023.03.08",
    "longName": "D230607"
}