{
    "askPrice": "98,1029",
    "green": 0,
    "coupon": 0,
    "accruedInterest": 0,
    "settleDate": "2023.04.17",
    "askEhmYield": "13,84",
    "bidYield": "14,98",
    "rawName": "D230607",
    "bidPrice": "97,9219",
    "maturityInDays": "51 nap",
    "securityType": "DKJ",
    "maturityDate": "2023.06.07",
    "name": "D230607",
    "bidEhmYield": "15,19",
    "askYield": "13,65",
    "currency": "HUF",
    "maturityInDays_val": 51,
    "issueDate": "2023.03.08",
    "longName": "D230607"
}