{
    "askPrice": "",
    "green": 0,
    "coupon": "4,25 %",
    "accruedInterest": "2,35",
    "settleDate": "2022.10.17",
    "askEhmYield": "",
    "bidYield": "",
    "rawName": "K2023/13",
    "bidPrice": "99,50",
    "coupon_val": 4.25,
    "maturityInDays": "163 nap",
    "securityType": "1MÁP",
    "maturityDate": "2023.03.29",
    "name": "K2023/13",
    "bidEhmYield": "5,27",
    "askYield": "",
    "currency": "HUF",
    "maturityInDays_val": 163,
    "longName": "K230329"
}