{
    "askPrice": "",
    "green": 0,
    "coupon": "4,25 %",
    "accruedInterest": "2,39",
    "settleDate": "2022.10.20",
    "askEhmYield": "",
    "bidYield": "5,37",
    "rawName": "K2023/13",
    "bidPrice": "99,50",
    "coupon_val": 4.25,
    "maturityInDays": "160 nap",
    "securityType": "1MÁP",
    "maturityDate": "2023.03.29",
    "name": "K2023/13",
    "bidEhmYield": "5,29",
    "askYield": "",
    "currency": "HUF",
    "maturityInDays_val": 160,
    "longName": "K230329"
}