{
    "askPrice": "",
    "green": 0,
    "coupon": "4,25 %",
    "accruedInterest": "3,1788",
    "settleDate": "2022.12.27",
    "askEhmYield": "",
    "bidYield": "8,29",
    "rawName": "K2023/13",
    "bidPrice": "99,0000",
    "coupon_val": 4.25,
    "maturityInDays": "92 nap",
    "securityType": "1MÁP",
    "maturityDate": "2023.03.29",
    "name": "K2023/13",
    "bidEhmYield": "8,04",
    "askYield": "",
    "currency": "HUF",
    "maturityInDays_val": 92,
    "issueDate": "2022.03.29",
    "longName": "K230329"
}