{
    "askPrice": "",
    "green": 0,
    "coupon": "4,25 %",
    "accruedInterest": "1,33",
    "settleDate": "2022.07.21",
    "askEhmYield": "",
    "bidYield": "",
    "rawName": "K2023/13",
    "bidPrice": "99,50",
    "coupon_val": 4.25,
    "maturityInDays": "251 nap",
    "securityType": "1MÁP",
    "maturityDate": "2023.03.29",
    "name": "K2023/13",
    "bidEhmYield": "4,94",
    "askYield": "",
    "currency": "HUF",
    "maturityInDays_val": 251,
    "longName": "K230329"
}