{
    "askPrice": "",
    "green": 0,
    "coupon": "4,25 %",
    "accruedInterest": "2,8760",
    "settleDate": "2022.12.01",
    "askEhmYield": "",
    "bidYield": "5,77",
    "rawName": "K2023/13",
    "bidPrice": "99,5000",
    "coupon_val": 4.25,
    "maturityInDays": "118 nap",
    "securityType": "1MÁP",
    "maturityDate": "2023.03.29",
    "name": "K2023/13",
    "bidEhmYield": "5,66",
    "askYield": "",
    "currency": "HUF",
    "maturityInDays_val": 118,
    "issueDate": "2022.03.29",
    "longName": "K230329"
}