{
    "askPrice": "",
    "green": 0,
    "coupon": "4,25 %",
    "accruedInterest": "2,48",
    "settleDate": "2022.10.28",
    "askEhmYield": "",
    "bidYield": "5,43",
    "rawName": "K2023/13",
    "bidPrice": "99,50",
    "coupon_val": 4.25,
    "maturityInDays": "152 nap",
    "securityType": "1MÁP",
    "maturityDate": "2023.03.29",
    "name": "K2023/13",
    "bidEhmYield": "5,34",
    "askYield": "",
    "currency": "HUF",
    "maturityInDays_val": 152,
    "longName": "K230329"
}