{
    "askPrice": "",
    "green": 0,
    "coupon": "4,25 %",
    "accruedInterest": "2,7596",
    "settleDate": "2022.11.21",
    "askEhmYield": "",
    "bidYield": "5,65",
    "rawName": "K2023/13",
    "bidPrice": "99,5000",
    "coupon_val": 4.25,
    "maturityInDays": "128 nap",
    "securityType": "1MÁP",
    "maturityDate": "2023.03.29",
    "name": "K2023/13",
    "bidEhmYield": "5,55",
    "askYield": "",
    "currency": "HUF",
    "maturityInDays_val": 128,
    "issueDate": "2022.03.29",
    "longName": "K230329"
}