{
    "askPrice": "",
    "green": 0,
    "coupon": "4,25 %",
    "accruedInterest": "3,0041",
    "settleDate": "2022.12.12",
    "askEhmYield": "",
    "bidYield": "7,71",
    "rawName": "K2023/13",
    "bidPrice": "99,0000",
    "coupon_val": 4.25,
    "maturityInDays": "107 nap",
    "securityType": "1MÁP",
    "maturityDate": "2023.03.29",
    "name": "K2023/13",
    "bidEhmYield": "7,51",
    "askYield": "",
    "currency": "HUF",
    "maturityInDays_val": 107,
    "issueDate": "2022.03.29",
    "longName": "K230329"
}