{
    "askPrice": "",
    "green": 0,
    "coupon": "4,25 %",
    "accruedInterest": "2,62",
    "settleDate": "2022.11.09",
    "askEhmYield": "",
    "bidYield": "5,53",
    "rawName": "K2023/13",
    "bidPrice": "99,50",
    "coupon_val": 4.25,
    "maturityInDays": "140 nap",
    "securityType": "1MÁP",
    "maturityDate": "2023.03.29",
    "name": "K2023/13",
    "bidEhmYield": "5,44",
    "askYield": "",
    "currency": "HUF",
    "maturityInDays_val": 140,
    "issueDate": "2022-03-29",
    "longName": "K230329"
}