{
    "askPrice": "",
    "green": 0,
    "coupon": "4,25 %",
    "accruedInterest": "3,2952",
    "settleDate": "2023.01.06",
    "askEhmYield": "",
    "bidYield": "8,79",
    "rawName": "K2023/13",
    "bidPrice": "99,0000",
    "coupon_val": 4.25,
    "maturityInDays": "82 nap",
    "securityType": "1MÁP",
    "maturityDate": "2023.03.29",
    "name": "K2023/13",
    "bidEhmYield": "8,51",
    "askYield": "",
    "currency": "HUF",
    "maturityInDays_val": 82,
    "issueDate": "2022.03.29",
    "longName": "K230329"
}