{
    "askPrice": "",
    "green": 0,
    "coupon": "4,25 %",
    "accruedInterest": "4,0055",
    "settleDate": "2023.03.08",
    "askEhmYield": "",
    "bidYield": "19,13",
    "rawName": "K2023/13",
    "bidPrice": "99,2000",
    "coupon_val": 4.25,
    "maturityInDays": "21 nap",
    "securityType": "1MÁP",
    "maturityDate": "2023.03.29",
    "name": "K2023/13",
    "bidEhmYield": "17,59",
    "askYield": "",
    "currency": "HUF",
    "maturityInDays_val": 21,
    "issueDate": "2022.03.29",
    "longName": "K230329"
}