{
    "askPrice": "",
    "green": 0,
    "coupon": "4,25 %",
    "accruedInterest": "3,5747",
    "settleDate": "2023.01.30",
    "askEhmYield": "",
    "bidYield": "10,73",
    "rawName": "K2023/13",
    "bidPrice": "99,0000",
    "coupon_val": 4.25,
    "maturityInDays": "58 nap",
    "securityType": "1MÁP",
    "maturityDate": "2023.03.29",
    "name": "K2023/13",
    "bidEhmYield": "10,28",
    "askYield": "",
    "currency": "HUF",
    "maturityInDays_val": 58,
    "issueDate": "2022.03.29",
    "longName": "K230329"
}