{
    "askPrice": "",
    "green": 0,
    "coupon": "4,25 %",
    "accruedInterest": "3,3767",
    "settleDate": "2023.01.13",
    "askEhmYield": "",
    "bidYield": "9,23",
    "rawName": "K2023/13",
    "bidPrice": "99,0000",
    "coupon_val": 4.25,
    "maturityInDays": "75 nap",
    "securityType": "1MÁP",
    "maturityDate": "2023.03.29",
    "name": "K2023/13",
    "bidEhmYield": "8,91",
    "askYield": "",
    "currency": "HUF",
    "maturityInDays_val": 75,
    "issueDate": "2022.03.29",
    "longName": "K230329"
}