{
    "askPrice": "",
    "green": 0,
    "coupon": "3,50 %",
    "accruedInterest": "0,76",
    "settleDate": "2022.08.25",
    "askEhmYield": "",
    "bidYield": "",
    "rawName": "N2027/23",
    "bidPrice": "99,50",
    "coupon_val": 3.5,
    "maturityInDays": "1747 nap",
    "securityType": "MÁP Plusz",
    "maturityDate": "2027.06.07",
    "name": "N2027/23",
    "bidEhmYield": "",
    "askYield": "",
    "currency": "HUF",
    "maturityInDays_val": 1747,
    "longName": "N270607"
}