{
    "askPrice": "",
    "green": 0,
    "coupon": "3,50 %",
    "accruedInterest": "1,43",
    "settleDate": "2022.11.04",
    "askEhmYield": "",
    "bidYield": "5,17",
    "rawName": "N2027/23",
    "bidPrice": "99,50",
    "coupon_val": 3.5,
    "maturityInDays": "1676 nap",
    "securityType": "MÁP Plusz",
    "maturityDate": "2027.06.07",
    "name": "N2027/23",
    "bidEhmYield": "",
    "askYield": "",
    "currency": "HUF",
    "maturityInDays_val": 1676,
    "issueDate": "2022-06-07",
    "longName": "N270607"
}