{
    "askPrice": "",
    "green": 0,
    "coupon": "3,50 %",
    "accruedInterest": "0,8681",
    "settleDate": "2023.02.24",
    "askEhmYield": "",
    "bidYield": "5,26",
    "rawName": "N2027/23",
    "bidPrice": "99,5000",
    "coupon_val": 3.5,
    "maturityInDays": "1564 nap",
    "securityType": "MÁP Plusz",
    "maturityDate": "2027.06.07",
    "name": "N2027/23",
    "bidEhmYield": "",
    "askYield": "",
    "currency": "HUF",
    "maturityInDays_val": 1564,
    "issueDate": "2022.06.07",
    "longName": "N270607"
}