{
    "askPrice": "",
    "green": 0,
    "coupon": "3,50 %",
    "accruedInterest": "0,5165",
    "settleDate": "2023.01.23",
    "askEhmYield": "",
    "bidYield": "5,24",
    "rawName": "N2027/23",
    "bidPrice": "99,5000",
    "coupon_val": 3.5,
    "maturityInDays": "1596 nap",
    "securityType": "MÁP Plusz",
    "maturityDate": "2027.06.07",
    "name": "N2027/23",
    "bidEhmYield": "",
    "askYield": "",
    "currency": "HUF",
    "maturityInDays_val": 1596,
    "issueDate": "2022.06.07",
    "longName": "N270607"
}