{
    "askPrice": "100,00",
    "green": 0,
    "coupon": null,
    "accruedInterest": "6,12",
    "settleDate": "2022.11.04",
    "askEhmYield": "",
    "bidYield": "",
    "rawName": "2035/S_BABA",
    "bidPrice": "100,00",
    "maturityInDays": "4472 nap",
    "securityType": "BABA",
    "maturityDate": "2035.02.01",
    "name": "2035/S_BABA",
    "bidEhmYield": "",
    "askYield": "",
    "currency": "HUF",
    "maturityInDays_val": 4472,
    "issueDate": "2016-02-01",
    "longName": "A350201S16"
}