{
    "askPrice": "100,0000",
    "green": 0,
    "coupon": null,
    "accruedInterest": "7,1236",
    "settleDate": "2022.12.19",
    "askEhmYield": "",
    "bidYield": "",
    "rawName": "2035/S_BABA",
    "bidPrice": "100,0000",
    "maturityInDays": "4427 nap",
    "securityType": "BABA",
    "maturityDate": "2035.02.01",
    "name": "2035/S_BABA",
    "bidEhmYield": "",
    "askYield": "",
    "currency": "HUF",
    "maturityInDays_val": 4427,
    "issueDate": "2016.02.01",
    "longName": "A350201S16"
}