{
    "askPrice": "100,00",
    "green": 0,
    "coupon": null,
    "accruedInterest": "4,79",
    "settleDate": "2022.09.05",
    "askEhmYield": "",
    "bidYield": "",
    "rawName": "2035/S_BABA",
    "bidPrice": "100,00",
    "maturityInDays": "4532 nap",
    "securityType": "BABA",
    "maturityDate": "2035.02.01",
    "name": "2035/S_BABA",
    "bidEhmYield": "",
    "askYield": "",
    "currency": "HUF",
    "maturityInDays_val": 4532,
    "longName": "A350201S16"
}