{
    "askPrice": "100,0000",
    "green": 0,
    "coupon": null,
    "accruedInterest": "9,4932",
    "settleDate": "2023.08.18",
    "askEhmYield": "",
    "bidYield": "",
    "rawName": "2035/S_BABA",
    "bidPrice": "100,0000",
    "maturityInDays": "4185 nap",
    "securityType": "BABA",
    "maturityDate": "2035.02.01",
    "name": "2035/S_BABA",
    "bidEhmYield": "",
    "askYield": "",
    "currency": "HUF",
    "maturityInDays_val": 4185,
    "issueDate": "2016.02.01",
    "longName": "A350201S16"
}