{
    "askPrice": "",
    "green": 0,
    "coupon": null,
    "accruedInterest": 0,
    "settleDate": "2024.01.31",
    "askEhmYield": "",
    "bidYield": "",
    "rawName": "2035/S_BABA",
    "bidPrice": "",
    "maturityInDays": "4019 nap",
    "securityType": "BABA",
    "maturityDate": "2035.02.01",
    "name": "2035/S_BABA",
    "bidEhmYield": "",
    "askYield": "",
    "currency": "HUF",
    "maturityInDays_val": 4019,
    "issueDate": "2016.02.01",
    "longName": "A350201S16"
}