{
    "askPrice": "100,0000",
    "green": 0,
    "coupon": null,
    "accruedInterest": "3,8836",
    "settleDate": "2024.04.10",
    "askEhmYield": "",
    "bidYield": "",
    "rawName": "2035/S_BABA",
    "bidPrice": "100,0000",
    "maturityInDays": "3949 nap",
    "securityType": "BABA",
    "maturityDate": "2035.02.01",
    "name": "2035/S_BABA",
    "bidEhmYield": "",
    "askYield": "",
    "currency": "HUF",
    "maturityInDays_val": 3949,
    "issueDate": "2016.02.01",
    "longName": "A350201S16"
}