{
    "askPrice": "",
    "green": 0,
    "coupon": "6,50 %",
    "accruedInterest": "0,3384",
    "settleDate": "2024.04.22",
    "askEhmYield": "",
    "bidYield": "7,62",
    "rawName": "K2025/14",
    "bidPrice": "99,0000",
    "coupon_val": 6.5,
    "maturityInDays": "346 nap",
    "securityType": "1MÁP",
    "maturityDate": "2025.04.03",
    "name": "K2025/14",
    "bidEhmYield": "7,61",
    "askYield": "",
    "currency": "HUF",
    "maturityInDays_val": 346,
    "issueDate": "2024.04.03",
    "longName": "K250403"
}