{
    "askPrice": "",
    "green": 0,
    "coupon": "6,50 %",
    "accruedInterest": "0,1247",
    "settleDate": "2024.04.10",
    "askEhmYield": "",
    "bidYield": "7,59",
    "rawName": "K2025/14",
    "bidPrice": "99,0000",
    "coupon_val": 6.5,
    "maturityInDays": "358 nap",
    "securityType": "1MÁP",
    "maturityDate": "2025.04.03",
    "name": "K2025/14",
    "bidEhmYield": "7,59",
    "askYield": "",
    "currency": "HUF",
    "maturityInDays_val": 358,
    "issueDate": "2024.04.03",
    "longName": "K250403"
}