{
    "askPrice": "",
    "green": 0,
    "coupon": "3,50 %",
    "accruedInterest": "3,61",
    "settleDate": "2022.11.14",
    "askEhmYield": "",
    "bidYield": "5,58",
    "rawName": "N2026/04",
    "bidPrice": "99,50",
    "coupon_val": 3.5,
    "maturityInDays": "1168 nap",
    "securityType": "MÁP Plusz",
    "maturityDate": "2026.01.25",
    "name": "N2026/04",
    "bidEhmYield": "",
    "askYield": "",
    "currency": "HUF",
    "maturityInDays_val": 1168,
    "issueDate": "2021-01-25",
    "longName": "N260125"
}