{
    "askPrice": "",
    "green": 0,
    "coupon": "3,50 %",
    "accruedInterest": "3,12",
    "settleDate": "2022.10.05",
    "askEhmYield": "",
    "bidYield": "",
    "rawName": "N2026/04",
    "bidPrice": "99,50",
    "coupon_val": 3.5,
    "maturityInDays": "1208 nap",
    "securityType": "MÁP Plusz",
    "maturityDate": "2026.01.25",
    "name": "N2026/04",
    "bidEhmYield": "",
    "askYield": "",
    "currency": "HUF",
    "maturityInDays_val": 1208,
    "longName": "N260125"
}