{
    "askPrice": "",
    "green": 0,
    "coupon": "3,50 %",
    "accruedInterest": "3,8493",
    "settleDate": "2023.11.02",
    "askEhmYield": "",
    "bidYield": "5,90",
    "rawName": "N2026/04",
    "bidPrice": "99,5000",
    "coupon_val": 3.5,
    "maturityInDays": "815 nap",
    "securityType": "MÁP Plusz",
    "maturityDate": "2026.01.25",
    "name": "N2026/04",
    "bidEhmYield": "",
    "askYield": "",
    "currency": "HUF",
    "maturityInDays_val": 815,
    "issueDate": "2021.01.25",
    "longName": "N260125"
}