{
    "askPrice": "",
    "green": 0,
    "coupon": "3,50 %",
    "accruedInterest": "4,5205",
    "settleDate": "2023.12.21",
    "askEhmYield": "",
    "bidYield": "5,96",
    "rawName": "N2026/04",
    "bidPrice": "99,5000",
    "coupon_val": 3.5,
    "maturityInDays": "766 nap",
    "securityType": "MÁP Plusz",
    "maturityDate": "2026.01.25",
    "name": "N2026/04",
    "bidEhmYield": "",
    "askYield": "",
    "currency": "HUF",
    "maturityInDays_val": 766,
    "issueDate": "2021.01.25",
    "longName": "N260125"
}