{
    "askPrice": "",
    "green": 0,
    "coupon": "3,50 %",
    "accruedInterest": "0,8566",
    "settleDate": "2024.03.22",
    "askEhmYield": "",
    "bidYield": "6,05",
    "rawName": "N2026/04",
    "bidPrice": "99,5000",
    "coupon_val": 3.5,
    "maturityInDays": "674 nap",
    "securityType": "MÁP Plusz",
    "maturityDate": "2026.01.25",
    "name": "N2026/04",
    "bidEhmYield": "",
    "askYield": "",
    "currency": "HUF",
    "maturityInDays_val": 674,
    "issueDate": "2021.01.25",
    "longName": "N260125"
}