{
    "askPrice": "",
    "green": 0,
    "coupon": "3,50 %",
    "accruedInterest": "0,8265",
    "settleDate": "2024.03.20",
    "askEhmYield": "",
    "bidYield": "6,05",
    "rawName": "N2026/04",
    "bidPrice": "99,5000",
    "coupon_val": 3.5,
    "maturityInDays": "676 nap",
    "securityType": "MÁP Plusz",
    "maturityDate": "2026.01.25",
    "name": "N2026/04",
    "bidEhmYield": "",
    "askYield": "",
    "currency": "HUF",
    "maturityInDays_val": 676,
    "issueDate": "2021.01.25",
    "longName": "N260125"
}