{
    "askPrice": "98,3994",
    "green": 0,
    "coupon": 0,
    "accruedInterest": 0,
    "settleDate": "2023.06.22",
    "askEhmYield": "12,37",
    "bidYield": "13,45",
    "rawName": "D230809",
    "bidPrice": "98,2383",
    "maturityInDays": "48 nap",
    "securityType": "DKJ",
    "maturityDate": "2023.08.09",
    "name": "D230809",
    "bidEhmYield": "13,64",
    "askYield": "12,20",
    "currency": "HUF",
    "maturityInDays_val": 48,
    "issueDate": "2023.05.10",
    "longName": "D230809"
}