{
    "askPrice": "99,3778",
    "green": 0,
    "coupon": 0,
    "accruedInterest": 0,
    "settleDate": "2023.07.17",
    "askEhmYield": "9,94",
    "bidYield": "11,09",
    "rawName": "D230809",
    "bidPrice": "99,2965",
    "maturityInDays": "23 nap",
    "securityType": "DKJ",
    "maturityDate": "2023.08.09",
    "name": "D230809",
    "bidEhmYield": "11,24",
    "askYield": "9,80",
    "currency": "HUF",
    "maturityInDays_val": 23,
    "issueDate": "2023.05.10",
    "longName": "D230809"
}