{
    "askPrice": "99,2175",
    "green": 0,
    "coupon": 0,
    "accruedInterest": 0,
    "settleDate": "2023.07.11",
    "askEhmYield": "9,93",
    "bidYield": "11,08",
    "rawName": "D230809",
    "bidPrice": "99,1153",
    "maturityInDays": "29 nap",
    "securityType": "DKJ",
    "maturityDate": "2023.08.09",
    "name": "D230809",
    "bidEhmYield": "11,23",
    "askYield": "9,79",
    "currency": "HUF",
    "maturityInDays_val": 29,
    "issueDate": "2023.05.10",
    "longName": "D230809"
}