{
    "askPrice": "97,2263",
    "green": 0,
    "coupon": 0,
    "accruedInterest": 0,
    "settleDate": "2023.05.22",
    "askEhmYield": "13,18",
    "bidYield": "14,30",
    "rawName": "D230809",
    "bidPrice": "96,9574",
    "maturityInDays": "79 nap",
    "securityType": "DKJ",
    "maturityDate": "2023.08.09",
    "name": "D230809",
    "bidEhmYield": "14,50",
    "askYield": "13,00",
    "currency": "HUF",
    "maturityInDays_val": 79,
    "issueDate": "2023.05.10",
    "longName": "D230809"
}