{
    "askPrice": "",
    "green": 0,
    "coupon": null,
    "accruedInterest": "5,00",
    "settleDate": "2022.11.14",
    "askEhmYield": "",
    "bidYield": "",
    "rawName": "2028/O",
    "bidPrice": "99,00",
    "maturityInDays": "1955 nap",
    "securityType": "BMÁP",
    "maturityDate": "2028.03.22",
    "name": "2028/O",
    "bidEhmYield": "",
    "askYield": "",
    "currency": "HUF",
    "maturityInDays_val": 1955,
    "issueDate": "2018-01-26",
    "longName": "A280322O18"
}