{
    "askPrice": "",
    "green": 0,
    "coupon": null,
    "accruedInterest": "2,11",
    "settleDate": "2022.06.30",
    "askEhmYield": "",
    "bidYield": "",
    "rawName": "2028/O",
    "bidPrice": "99,00",
    "maturityInDays": "2092 nap",
    "securityType": "BMÁP",
    "maturityDate": "2028.03.22",
    "name": "2028/O",
    "bidEhmYield": "",
    "askYield": "",
    "currency": "HUF",
    "maturityInDays_val": 2092,
    "longName": "A280322O18"
}