{
    "askPrice": "",
    "green": 0,
    "coupon": null,
    "accruedInterest": "2,55",
    "settleDate": "2022.07.21",
    "askEhmYield": "",
    "bidYield": "",
    "rawName": "2028/O",
    "bidPrice": "99,00",
    "maturityInDays": "2071 nap",
    "securityType": "BMÁP",
    "maturityDate": "2028.03.22",
    "name": "2028/O",
    "bidEhmYield": "",
    "askYield": "",
    "currency": "HUF",
    "maturityInDays_val": 2071,
    "longName": "A280322O18"
}