{
    "askPrice": "",
    "green": 0,
    "coupon": null,
    "accruedInterest": "4,60",
    "settleDate": "2022.10.26",
    "askEhmYield": "",
    "bidYield": "",
    "rawName": "2028/O",
    "bidPrice": "99,00",
    "maturityInDays": "1974 nap",
    "securityType": "BMÁP",
    "maturityDate": "2028.03.22",
    "name": "2028/O",
    "bidEhmYield": "",
    "askYield": "",
    "currency": "HUF",
    "maturityInDays_val": 1974,
    "longName": "A280322O18"
}