{
    "askPrice": "",
    "green": 0,
    "coupon": null,
    "accruedInterest": "7,6533",
    "settleDate": "2023.03.20",
    "askEhmYield": "",
    "bidYield": "",
    "rawName": "2028/O",
    "bidPrice": "",
    "maturityInDays": "1829 nap",
    "securityType": "BMÁP",
    "maturityDate": "2028.03.22",
    "name": "2028/O",
    "bidEhmYield": "",
    "askYield": "",
    "currency": "HUF",
    "maturityInDays_val": 1829,
    "issueDate": "2018.01.26",
    "longName": "A280322O18"
}