{
    "askPrice": "",
    "green": 0,
    "coupon": null,
    "accruedInterest": "0,2396",
    "settleDate": "2023.03.27",
    "askEhmYield": "",
    "bidYield": "",
    "rawName": "2028/O",
    "bidPrice": "99,0000",
    "maturityInDays": "1822 nap",
    "securityType": "BMÁP",
    "maturityDate": "2028.03.22",
    "name": "2028/O",
    "bidEhmYield": "",
    "askYield": "",
    "currency": "HUF",
    "maturityInDays_val": 1822,
    "issueDate": "2018.01.26",
    "longName": "A280322O18"
}