{
    "askPrice": "",
    "green": 0,
    "coupon": null,
    "accruedInterest": "4,58",
    "settleDate": "2022.09.19",
    "askEhmYield": "",
    "bidYield": "",
    "rawName": "2023/J",
    "bidPrice": "99,00",
    "maturityInDays": "374 nap",
    "securityType": "PMÁP",
    "maturityDate": "2023.09.28",
    "name": "2023/J",
    "bidEhmYield": "",
    "askYield": "",
    "currency": "HUF",
    "maturityInDays_val": 374,
    "longName": "A230928J18"
}