{
    "askPrice": "",
    "green": 0,
    "coupon": null,
    "accruedInterest": "0,62",
    "settleDate": "2022.11.02",
    "askEhmYield": "",
    "bidYield": "",
    "rawName": "2023/J",
    "bidPrice": "99,00",
    "maturityInDays": "330 nap",
    "securityType": "PMÁP",
    "maturityDate": "2023.09.28",
    "name": "2023/J",
    "bidEhmYield": "",
    "askYield": "",
    "currency": "HUF",
    "maturityInDays_val": 330,
    "issueDate": "2018-01-18",
    "longName": "A230928J18"
}