{
    "askPrice": "",
    "green": 0,
    "coupon": null,
    "accruedInterest": "1,4600",
    "settleDate": "2022.12.19",
    "askEhmYield": "",
    "bidYield": "",
    "rawName": "2023/J",
    "bidPrice": "99,0000",
    "maturityInDays": "283 nap",
    "securityType": "PMÁP",
    "maturityDate": "2023.09.28",
    "name": "2023/J",
    "bidEhmYield": "",
    "askYield": "",
    "currency": "HUF",
    "maturityInDays_val": 283,
    "issueDate": "2018.01.18",
    "longName": "A230928J18"
}