{
    "askPrice": "",
    "green": 0,
    "coupon": null,
    "accruedInterest": "6,3753",
    "settleDate": "2023.09.21",
    "askEhmYield": "",
    "bidYield": "",
    "rawName": "2023/J",
    "bidPrice": "99,0000",
    "maturityInDays": "7 nap",
    "securityType": "PMÁP",
    "maturityDate": "2023.09.28",
    "name": "2023/J",
    "bidEhmYield": "",
    "askYield": "",
    "currency": "HUF",
    "maturityInDays_val": 7,
    "issueDate": "2018.01.18",
    "longName": "A230928J18"
}