{
    "askPrice": "",
    "green": 0,
    "coupon": null,
    "accruedInterest": "2,2082",
    "settleDate": "2023.01.30",
    "askEhmYield": "",
    "bidYield": "",
    "rawName": "2023/J",
    "bidPrice": "99,0000",
    "maturityInDays": "241 nap",
    "securityType": "PMÁP",
    "maturityDate": "2023.09.28",
    "name": "2023/J",
    "bidEhmYield": "",
    "askYield": "",
    "currency": "HUF",
    "maturityInDays_val": 241,
    "issueDate": "2018.01.18",
    "longName": "A230928J18"
}