{
    "askPrice": "",
    "green": 0,
    "coupon": "3,50 %",
    "accruedInterest": "1,37",
    "settleDate": "2022.11.14",
    "askEhmYield": "",
    "bidYield": "5,43",
    "rawName": "N2026/30",
    "bidPrice": "99,50",
    "coupon_val": 3.5,
    "maturityInDays": "1350 nap",
    "securityType": "MÁP Plusz",
    "maturityDate": "2026.07.26",
    "name": "N2026/30",
    "bidEhmYield": "",
    "askYield": "",
    "currency": "HUF",
    "maturityInDays_val": 1350,
    "issueDate": "2021-07-26",
    "longName": "N260726"
}