{
    "askPrice": "",
    "green": 0,
    "coupon": "3,50 %",
    "accruedInterest": "0,10",
    "settleDate": "2022.08.03",
    "askEhmYield": "",
    "bidYield": "",
    "rawName": "N2026/30",
    "bidPrice": "99,50",
    "coupon_val": 3.5,
    "maturityInDays": "1453 nap",
    "securityType": "MÁP Plusz",
    "maturityDate": "2026.07.26",
    "name": "N2026/30",
    "bidEhmYield": "",
    "askYield": "",
    "currency": "HUF",
    "maturityInDays_val": 1453,
    "longName": "N260726"
}