{
    "askPrice": "",
    "green": 0,
    "coupon": "3,50 %",
    "accruedInterest": "1,7077",
    "settleDate": "2023.11.28",
    "askEhmYield": "",
    "bidYield": "5,74",
    "rawName": "N2026/30",
    "bidPrice": "99,5000",
    "coupon_val": 3.5,
    "maturityInDays": "971 nap",
    "securityType": "MÁP Plusz",
    "maturityDate": "2026.07.26",
    "name": "N2026/30",
    "bidEhmYield": "",
    "askYield": "",
    "currency": "HUF",
    "maturityInDays_val": 971,
    "issueDate": "2021.07.26",
    "longName": "N260726"
}