{
    "askPrice": "",
    "green": 0,
    "coupon": "3,50 %",
    "accruedInterest": "2,2438",
    "settleDate": "2023.01.24",
    "askEhmYield": "",
    "bidYield": "5,48",
    "rawName": "N2026/30",
    "bidPrice": "99,5000",
    "coupon_val": 3.5,
    "maturityInDays": "1279 nap",
    "securityType": "MÁP Plusz",
    "maturityDate": "2026.07.26",
    "name": "N2026/30",
    "bidEhmYield": "",
    "askYield": "",
    "currency": "HUF",
    "maturityInDays_val": 1279,
    "issueDate": "2021.07.26",
    "longName": "N260726"
}