{
    "askPrice": "",
    "green": 0,
    "coupon": "3,50 %",
    "accruedInterest": "2,6877",
    "settleDate": "2023.03.01",
    "askEhmYield": "",
    "bidYield": "5,51",
    "rawName": "N2026/30",
    "bidPrice": "99,5000",
    "coupon_val": 3.5,
    "maturityInDays": "1243 nap",
    "securityType": "MÁP Plusz",
    "maturityDate": "2026.07.26",
    "name": "N2026/30",
    "bidEhmYield": "",
    "askYield": "",
    "currency": "HUF",
    "maturityInDays_val": 1243,
    "issueDate": "2021.07.26",
    "longName": "N260726"
}