{
    "askPrice": "",
    "green": 0,
    "coupon": "3,00 %",
    "accruedInterest": "2,3096",
    "settleDate": "2022.11.23",
    "askEhmYield": "",
    "bidYield": "5,18",
    "rawName": "K2023/07",
    "bidPrice": "99,5000",
    "coupon_val": 3,
    "maturityInDays": "84 nap",
    "securityType": "1MÁP",
    "maturityDate": "2023.02.15",
    "name": "K2023/07",
    "bidEhmYield": "5,08",
    "askYield": "",
    "currency": "HUF",
    "maturityInDays_val": 84,
    "issueDate": "2022.02.15",
    "longName": "K230215"
}