{
    "askPrice": "",
    "green": 0,
    "coupon": "3,00 %",
    "accruedInterest": "1,95",
    "settleDate": "2022.10.10",
    "askEhmYield": "",
    "bidYield": "",
    "rawName": "K2023/07",
    "bidPrice": "99,50",
    "coupon_val": 3,
    "maturityInDays": "128 nap",
    "securityType": "1MÁP",
    "maturityDate": "2023.02.15",
    "name": "K2023/07",
    "bidEhmYield": "4,36",
    "askYield": "",
    "currency": "HUF",
    "maturityInDays_val": 128,
    "longName": "K230215"
}