{
    "askPrice": "",
    "green": 0,
    "coupon": "3,00 %",
    "accruedInterest": "2,08",
    "settleDate": "2022.10.26",
    "askEhmYield": "",
    "bidYield": "4,63",
    "rawName": "K2023/07",
    "bidPrice": "99,50",
    "coupon_val": 3,
    "maturityInDays": "112 nap",
    "securityType": "1MÁP",
    "maturityDate": "2023.02.15",
    "name": "K2023/07",
    "bidEhmYield": "4,56",
    "askYield": "",
    "currency": "HUF",
    "maturityInDays_val": 112,
    "longName": "K230215"
}