{
    "askPrice": "",
    "green": 0,
    "coupon": "3,00 %",
    "accruedInterest": "2,14",
    "settleDate": "2022.11.02",
    "askEhmYield": "",
    "bidYield": "4,74",
    "rawName": "K2023/07",
    "bidPrice": "99,50",
    "coupon_val": 3,
    "maturityInDays": "105 nap",
    "securityType": "1MÁP",
    "maturityDate": "2023.02.15",
    "name": "K2023/07",
    "bidEhmYield": "4,66",
    "askYield": "",
    "currency": "HUF",
    "maturityInDays_val": 105,
    "issueDate": "2022-02-15",
    "longName": "K230215"
}