{
    "askPrice": "",
    "green": 0,
    "coupon": "3,00 %",
    "accruedInterest": "2,4658",
    "settleDate": "2022.12.12",
    "askEhmYield": "",
    "bidYield": "8,79",
    "rawName": "K2023/07",
    "bidPrice": "99,0000",
    "coupon_val": 3,
    "maturityInDays": "65 nap",
    "securityType": "1MÁP",
    "maturityDate": "2023.02.15",
    "name": "K2023/07",
    "bidEhmYield": "8,49",
    "askYield": "",
    "currency": "HUF",
    "maturityInDays_val": 65,
    "issueDate": "2022.02.15",
    "longName": "K230215"
}