{
    "askPrice": "",
    "green": 0,
    "coupon": "3,00 %",
    "accruedInterest": "2,8192",
    "settleDate": "2023.01.24",
    "askEhmYield": "",
    "bidYield": "17,20",
    "rawName": "K2023/07",
    "bidPrice": "99,2000",
    "coupon_val": 3,
    "maturityInDays": "22 nap",
    "securityType": "1MÁP",
    "maturityDate": "2023.02.15",
    "name": "K2023/07",
    "bidEhmYield": "15,95",
    "askYield": "",
    "currency": "HUF",
    "maturityInDays_val": 22,
    "issueDate": "2022.02.15",
    "longName": "K230215"
}