{
    "askPrice": "",
    "green": 0,
    "coupon": "3,00 %",
    "accruedInterest": "2,9589",
    "settleDate": "2023.02.10",
    "askEhmYield": "",
    "bidYield": "57,74",
    "rawName": "K2023/07",
    "bidPrice": "99,4000",
    "coupon_val": 3,
    "maturityInDays": "5 nap",
    "securityType": "1MÁP",
    "maturityDate": "2023.02.15",
    "name": "K2023/07",
    "bidEhmYield": "45,72",
    "askYield": "",
    "currency": "HUF",
    "maturityInDays_val": 5,
    "issueDate": "2022.02.15",
    "longName": "K230215"
}