{
    "askPrice": "",
    "green": 0,
    "coupon": "3,00 %",
    "accruedInterest": "2,8356",
    "settleDate": "2023.01.26",
    "askEhmYield": "",
    "bidYield": "18,73",
    "rawName": "K2023/07",
    "bidPrice": "99,2000",
    "coupon_val": 3,
    "maturityInDays": "20 nap",
    "securityType": "1MÁP",
    "maturityDate": "2023.02.15",
    "name": "K2023/07",
    "bidEhmYield": "17,25",
    "askYield": "",
    "currency": "HUF",
    "maturityInDays_val": 20,
    "issueDate": "2022.02.15",
    "longName": "K230215"
}