{
    "askPrice": "",
    "green": 0,
    "coupon": "3,00 %",
    "accruedInterest": "2,6959",
    "settleDate": "2023.01.09",
    "askEhmYield": "",
    "bidYield": "13,39",
    "rawName": "K2023/07",
    "bidPrice": "99,0000",
    "coupon_val": 3,
    "maturityInDays": "37 nap",
    "securityType": "1MÁP",
    "maturityDate": "2023.02.15",
    "name": "K2023/07",
    "bidEhmYield": "12,65",
    "askYield": "",
    "currency": "HUF",
    "maturityInDays_val": 37,
    "issueDate": "2022.02.15",
    "longName": "K230215"
}