{
    "askPrice": "",
    "green": 0,
    "coupon": "8,00 %",
    "accruedInterest": "1,5562",
    "settleDate": "2024.03.21",
    "askEhmYield": "",
    "bidYield": "9,27",
    "rawName": "K2025/02",
    "bidPrice": "99,0000",
    "coupon_val": 8,
    "maturityInDays": "294 nap",
    "securityType": "1MÁP",
    "maturityDate": "2025.01.09",
    "name": "K2025/02",
    "bidEhmYield": "9,16",
    "askYield": "",
    "currency": "HUF",
    "maturityInDays_val": 294,
    "issueDate": "2024.01.09",
    "longName": "K250109"
}