{
    "askPrice": "",
    "green": 0,
    "coupon": "8,00 %",
    "accruedInterest": "1,8192",
    "settleDate": "2024.04.02",
    "askEhmYield": "",
    "bidYield": "9,31",
    "rawName": "K2025/02",
    "bidPrice": "99,0000",
    "coupon_val": 8,
    "maturityInDays": "282 nap",
    "securityType": "1MÁP",
    "maturityDate": "2025.01.09",
    "name": "K2025/02",
    "bidEhmYield": "9,19",
    "askYield": "",
    "currency": "HUF",
    "maturityInDays_val": 282,
    "issueDate": "2024.01.09",
    "longName": "K250109"
}