{
    "askPrice": "",
    "green": 0,
    "coupon": "8,00 %",
    "accruedInterest": "2,4986",
    "settleDate": "2024.05.03",
    "askEhmYield": "",
    "bidYield": "9,45",
    "rawName": "K2025/02",
    "bidPrice": "99,0000",
    "coupon_val": 8,
    "maturityInDays": "251 nap",
    "securityType": "1MÁP",
    "maturityDate": "2025.01.09",
    "name": "K2025/02",
    "bidEhmYield": "9,28",
    "askYield": "",
    "currency": "HUF",
    "maturityInDays_val": 251,
    "issueDate": "2024.01.09",
    "longName": "K250109"
}