{
    "askPrice": "",
    "green": 0,
    "coupon": "8,00 %",
    "accruedInterest": "0,6137",
    "settleDate": "2024.02.06",
    "askEhmYield": "",
    "bidYield": "9,12",
    "rawName": "K2025/02",
    "bidPrice": "99,0000",
    "coupon_val": 8,
    "maturityInDays": "338 nap",
    "securityType": "1MÁP",
    "maturityDate": "2025.01.09",
    "name": "K2025/02",
    "bidEhmYield": "9,09",
    "askYield": "",
    "currency": "HUF",
    "maturityInDays_val": 338,
    "issueDate": "2024.01.09",
    "longName": "K250109"
}