{
    "askPrice": "76,9113",
    "green": 0,
    "coupon": "1,50 %",
    "accruedInterest": "0,4233",
    "settleDate": "2022.12.07",
    "askEhmYield": "9,08",
    "bidYield": "9,92",
    "rawName": "2026/F",
    "bidPrice": "74,8219",
    "coupon_val": 1.5,
    "maturityInDays": "1358 nap",
    "securityType": "KTV",
    "maturityDate": "2026.08.26",
    "name": "2026/F",
    "bidEhmYield": "9,91",
    "askYield": "9,09",
    "currency": "HUF",
    "maturityInDays_val": 1358,
    "issueDate": "2021.02.24",
    "longName": "A260826F21"
}