{
    "askPrice": "73,26",
    "green": 0,
    "coupon": "1,50 %",
    "accruedInterest": "1,38",
    "settleDate": "2022.07.29",
    "askEhmYield": "9,76",
    "bidYield": "10,36",
    "rawName": "2026/F",
    "bidPrice": "71,69",
    "coupon_val": 1.5,
    "maturityInDays": "1489 nap",
    "securityType": "KTV",
    "maturityDate": "2026.08.26",
    "name": "2026/F",
    "bidEhmYield": "10,36",
    "askYield": "9,76",
    "currency": "HUF",
    "maturityInDays_val": 1489,
    "longName": "A260826F21"
}