{
    "askPrice": "70,35",
    "green": 0,
    "coupon": "1,50 %",
    "accruedInterest": "0,10",
    "settleDate": "2022.09.19",
    "askEhmYield": "11,23",
    "bidYield": "11,83",
    "rawName": "2026/F",
    "bidPrice": "68,92",
    "coupon_val": 1.5,
    "maturityInDays": "1437 nap",
    "securityType": "KTV",
    "maturityDate": "2026.08.26",
    "name": "2026/F",
    "bidEhmYield": "11,83",
    "askYield": "11,23",
    "currency": "HUF",
    "maturityInDays_val": 1437,
    "longName": "A260826F21"
}