{
    "askPrice": "69,95",
    "green": 0,
    "coupon": "1,50 %",
    "accruedInterest": "0,28",
    "settleDate": "2022.11.02",
    "askEhmYield": "11,70",
    "bidYield": "12,43",
    "rawName": "2026/F",
    "bidPrice": "68,30",
    "coupon_val": 1.5,
    "maturityInDays": "1393 nap",
    "securityType": "KTV",
    "maturityDate": "2026.08.26",
    "name": "2026/F",
    "bidEhmYield": "12,42",
    "askYield": "11,71",
    "currency": "HUF",
    "maturityInDays_val": 1393,
    "issueDate": "2021-02-24",
    "longName": "A260826F21"
}