{
    "askPrice": "",
    "green": 0,
    "coupon": "1,50 %",
    "accruedInterest": 0,
    "settleDate": "2022.08.24",
    "askEhmYield": "",
    "bidYield": "",
    "rawName": "2026/F",
    "bidPrice": "",
    "coupon_val": 1.5,
    "maturityInDays": "1463 nap",
    "securityType": "KTV",
    "maturityDate": "2026.08.26",
    "name": "2026/F",
    "bidEhmYield": "",
    "askYield": "",
    "currency": "HUF",
    "maturityInDays_val": 1463,
    "longName": "A260826F21"
}