{
    "askPrice": "77,3861",
    "green": 0,
    "coupon": "1,50 %",
    "accruedInterest": "0,4192",
    "settleDate": "2022.12.06",
    "askEhmYield": "8,89",
    "bidYield": "9,72",
    "rawName": "2026/F",
    "bidPrice": "75,3035",
    "coupon_val": 1.5,
    "maturityInDays": "1359 nap",
    "securityType": "KTV",
    "maturityDate": "2026.08.26",
    "name": "2026/F",
    "bidEhmYield": "9,71",
    "askYield": "8,90",
    "currency": "HUF",
    "maturityInDays_val": 1359,
    "issueDate": "2021.02.24",
    "longName": "A260826F21"
}