{
    "askPrice": "70,27",
    "green": 0,
    "coupon": "1,50 %",
    "accruedInterest": "0,12",
    "settleDate": "2022.09.23",
    "askEhmYield": "11,29",
    "bidYield": "11,89",
    "rawName": "2026/F",
    "bidPrice": "68,85",
    "coupon_val": 1.5,
    "maturityInDays": "1433 nap",
    "securityType": "KTV",
    "maturityDate": "2026.08.26",
    "name": "2026/F",
    "bidEhmYield": "11,89",
    "askYield": "11,29",
    "currency": "HUF",
    "maturityInDays_val": 1433,
    "longName": "A260826F21"
}