{
    "askPrice": "69,80",
    "green": 0,
    "coupon": "1,50 %",
    "accruedInterest": "0,07",
    "settleDate": "2022.09.12",
    "askEhmYield": "11,41",
    "bidYield": "12,01",
    "rawName": "2026/F",
    "bidPrice": "68,37",
    "coupon_val": 1.5,
    "maturityInDays": "1444 nap",
    "securityType": "KTV",
    "maturityDate": "2026.08.26",
    "name": "2026/F",
    "bidEhmYield": "12,01",
    "askYield": "11,41",
    "currency": "HUF",
    "maturityInDays_val": 1444,
    "longName": "A260826F21"
}