{
    "askPrice": "77,9797",
    "green": 0,
    "coupon": "1,50 %",
    "accruedInterest": "0,3945",
    "settleDate": "2022.11.30",
    "askEhmYield": "8,63",
    "bidYield": "9,48",
    "rawName": "2026/F",
    "bidPrice": "75,8166",
    "coupon_val": 1.5,
    "maturityInDays": "1365 nap",
    "securityType": "KTV",
    "maturityDate": "2026.08.26",
    "name": "2026/F",
    "bidEhmYield": "9,47",
    "askYield": "8,64",
    "currency": "HUF",
    "maturityInDays_val": 1365,
    "issueDate": "2021.02.24",
    "longName": "A260826F21"
}