{
    "askPrice": "74,54",
    "green": 0,
    "coupon": "1,50 %",
    "accruedInterest": "1,47",
    "settleDate": "2022.08.18",
    "askEhmYield": "9,39",
    "bidYield": "9,99",
    "rawName": "2026/F",
    "bidPrice": "72,96",
    "coupon_val": 1.5,
    "maturityInDays": "1469 nap",
    "securityType": "KTV",
    "maturityDate": "2026.08.26",
    "name": "2026/F",
    "bidEhmYield": "9,99",
    "askYield": "9,39",
    "currency": "HUF",
    "maturityInDays_val": 1469,
    "longName": "A260826F21"
}