{
    "askPrice": "74,3277",
    "green": 0,
    "coupon": "1,50 %",
    "accruedInterest": "0,5301",
    "settleDate": "2023.01.02",
    "askEhmYield": "10,28",
    "bidYield": "11,03",
    "rawName": "2026/F",
    "bidPrice": "72,5765",
    "coupon_val": 1.5,
    "maturityInDays": "1332 nap",
    "securityType": "KTV",
    "maturityDate": "2026.08.26",
    "name": "2026/F",
    "bidEhmYield": "11,02",
    "askYield": "10,29",
    "currency": "HUF",
    "maturityInDays_val": 1332,
    "issueDate": "2021.02.24",
    "longName": "A260826F21"
}