{
    "askPrice": "73,01",
    "green": 0,
    "coupon": "1,50 %",
    "accruedInterest": "1,40",
    "settleDate": "2022.08.01",
    "askEhmYield": "9,87",
    "bidYield": "10,47",
    "rawName": "2026/F",
    "bidPrice": "71,46",
    "coupon_val": 1.5,
    "maturityInDays": "1486 nap",
    "securityType": "KTV",
    "maturityDate": "2026.08.26",
    "name": "2026/F",
    "bidEhmYield": "10,47",
    "askYield": "9,87",
    "currency": "HUF",
    "maturityInDays_val": 1486,
    "longName": "A260826F21"
}