{
    "askPrice": "73,25",
    "green": 0,
    "coupon": "1,50 %",
    "accruedInterest": "1,37",
    "settleDate": "2022.07.25",
    "askEhmYield": "9,74",
    "bidYield": "10,34",
    "rawName": "2026/F",
    "bidPrice": "71,68",
    "coupon_val": 1.5,
    "maturityInDays": "1493 nap",
    "securityType": "KTV",
    "maturityDate": "2026.08.26",
    "name": "2026/F",
    "bidEhmYield": "10,34",
    "askYield": "9,74",
    "currency": "HUF",
    "maturityInDays_val": 1493,
    "longName": "A260826F21"
}