{
    "askPrice": "73,05",
    "green": 0,
    "coupon": "1,50 %",
    "accruedInterest": "1,48",
    "settleDate": "2022.08.22",
    "askEhmYield": "9,98",
    "bidYield": "10,58",
    "rawName": "2026/F",
    "bidPrice": "71,51",
    "coupon_val": 1.5,
    "maturityInDays": "1465 nap",
    "securityType": "KTV",
    "maturityDate": "2026.08.26",
    "name": "2026/F",
    "bidEhmYield": "10,58",
    "askYield": "9,98",
    "currency": "HUF",
    "maturityInDays_val": 1465,
    "longName": "A260826F21"
}