{
    "askPrice": "75,98",
    "green": 0,
    "coupon": "1,50 %",
    "accruedInterest": "1,29",
    "settleDate": "2022.07.07",
    "askEhmYield": "8,65",
    "bidYield": "9,25",
    "rawName": "2026/F",
    "bidPrice": "74,31",
    "coupon_val": 1.5,
    "maturityInDays": "1511 nap",
    "securityType": "KTV",
    "maturityDate": "2026.08.26",
    "name": "2026/F",
    "bidEhmYield": "9,25",
    "askYield": "8,65",
    "currency": "HUF",
    "maturityInDays_val": 1511,
    "longName": "A260826F21"
}