{
    "askPrice": "78,5702",
    "green": 0,
    "coupon": "1,50 %",
    "accruedInterest": "1,0767",
    "settleDate": "2023.05.15",
    "askEhmYield": "9,37",
    "bidYield": "10,21",
    "rawName": "2026/F",
    "bidPrice": "76,6799",
    "coupon_val": 1.5,
    "maturityInDays": "1199 nap",
    "securityType": "KTV",
    "maturityDate": "2026.08.26",
    "name": "2026/F",
    "bidEhmYield": "10,20",
    "askYield": "9,38",
    "currency": "HUF",
    "maturityInDays_val": 1199,
    "issueDate": "2021.02.24",
    "longName": "A260826F21"
}