{
    "askPrice": "81,8090",
    "green": 0,
    "coupon": "1,50 %",
    "accruedInterest": "1,3726",
    "settleDate": "2023.07.26",
    "askEhmYield": "8,43",
    "bidYield": "9,19",
    "rawName": "2026/F",
    "bidPrice": "80,1167",
    "coupon_val": 1.5,
    "maturityInDays": "1127 nap",
    "securityType": "KTV",
    "maturityDate": "2026.08.26",
    "name": "2026/F",
    "bidEhmYield": "9,18",
    "askYield": "8,44",
    "currency": "HUF",
    "maturityInDays_val": 1127,
    "issueDate": "2021.02.24",
    "longName": "A260826F21"
}