{
    "askPrice": "81,7794",
    "green": 0,
    "coupon": "1,50 %",
    "accruedInterest": "1,4096",
    "settleDate": "2023.08.04",
    "askEhmYield": "8,50",
    "bidYield": "9,22",
    "rawName": "2026/F",
    "bidPrice": "80,1903",
    "coupon_val": 1.5,
    "maturityInDays": "1118 nap",
    "securityType": "KTV",
    "maturityDate": "2026.08.26",
    "name": "2026/F",
    "bidEhmYield": "9,21",
    "askYield": "8,51",
    "currency": "HUF",
    "maturityInDays_val": 1118,
    "issueDate": "2021.02.24",
    "longName": "A260826F21"
}