{
    "askPrice": "84,8864",
    "green": 0,
    "coupon": "1,50 %",
    "accruedInterest": "0,0697",
    "settleDate": "2023.09.12",
    "askEhmYield": "7,37",
    "bidYield": "8,04",
    "rawName": "2026/F",
    "bidPrice": "83,3875",
    "coupon_val": 1.5,
    "maturityInDays": "1079 nap",
    "securityType": "KTV",
    "maturityDate": "2026.08.26",
    "name": "2026/F",
    "bidEhmYield": "8,03",
    "askYield": "7,38",
    "currency": "HUF",
    "maturityInDays_val": 1079,
    "issueDate": "2021.02.24",
    "longName": "A260826F21"
}