{
    "askPrice": "84,8286",
    "green": 0,
    "coupon": "1,50 %",
    "accruedInterest": "0,1107",
    "settleDate": "2023.09.22",
    "askEhmYield": "7,45",
    "bidYield": "8,15",
    "rawName": "2026/F",
    "bidPrice": "83,2785",
    "coupon_val": 1.5,
    "maturityInDays": "1069 nap",
    "securityType": "KTV",
    "maturityDate": "2026.08.26",
    "name": "2026/F",
    "bidEhmYield": "8,14",
    "askYield": "7,46",
    "currency": "HUF",
    "maturityInDays_val": 1069,
    "issueDate": "2021.02.24",
    "longName": "A260826F21"
}