{
    "askPrice": "75,6202",
    "green": 0,
    "coupon": "1,50 %",
    "accruedInterest": "0,8466",
    "settleDate": "2023.03.20",
    "askEhmYield": "10,26",
    "bidYield": "11,10",
    "rawName": "2026/F",
    "bidPrice": "73,7351",
    "coupon_val": 1.5,
    "maturityInDays": "1255 nap",
    "securityType": "KTV",
    "maturityDate": "2026.08.26",
    "name": "2026/F",
    "bidEhmYield": "11,09",
    "askYield": "10,27",
    "currency": "HUF",
    "maturityInDays_val": 1255,
    "issueDate": "2021.02.24",
    "longName": "A260826F21"
}