{
    "askPrice": "84,5756",
    "green": 0,
    "coupon": "1,50 %",
    "accruedInterest": "0,0656",
    "settleDate": "2023.09.11",
    "askEhmYield": "7,50",
    "bidYield": "8,19",
    "rawName": "2026/F",
    "bidPrice": "83,0381",
    "coupon_val": 1.5,
    "maturityInDays": "1080 nap",
    "securityType": "KTV",
    "maturityDate": "2026.08.26",
    "name": "2026/F",
    "bidEhmYield": "8,18",
    "askYield": "7,51",
    "currency": "HUF",
    "maturityInDays_val": 1080,
    "issueDate": "2021.02.24",
    "longName": "A260826F21"
}