{
    "askPrice": "81,9733",
    "green": 0,
    "coupon": "1,50 %",
    "accruedInterest": "1,4260",
    "settleDate": "2023.08.08",
    "askEhmYield": "8,44",
    "bidYield": "9,18",
    "rawName": "2026/F",
    "bidPrice": "80,3409",
    "coupon_val": 1.5,
    "maturityInDays": "1114 nap",
    "securityType": "KTV",
    "maturityDate": "2026.08.26",
    "name": "2026/F",
    "bidEhmYield": "9,17",
    "askYield": "8,45",
    "currency": "HUF",
    "maturityInDays_val": 1114,
    "issueDate": "2021.02.24",
    "longName": "A260826F21"
}