{
    "askPrice": "84,3568",
    "green": 0,
    "coupon": "1,50 %",
    "accruedInterest": "0,2500",
    "settleDate": "2023.10.26",
    "askEhmYield": "7,86",
    "bidYield": "8,53",
    "rawName": "2026/F",
    "bidPrice": "82,9320",
    "coupon_val": 1.5,
    "maturityInDays": "1035 nap",
    "securityType": "KTV",
    "maturityDate": "2026.08.26",
    "name": "2026/F",
    "bidEhmYield": "8,52",
    "askYield": "7,87",
    "currency": "HUF",
    "maturityInDays_val": 1035,
    "issueDate": "2021.02.24",
    "longName": "A260826F21"
}