{
    "askPrice": "88,8838",
    "green": 0,
    "coupon": "1,50 %",
    "accruedInterest": "0,4549",
    "settleDate": "2023.12.15",
    "askEhmYield": "6,08",
    "bidYield": "6,77",
    "rawName": "2026/F",
    "bidPrice": "87,3845",
    "coupon_val": 1.5,
    "maturityInDays": "985 nap",
    "securityType": "KTV",
    "maturityDate": "2026.08.26",
    "name": "2026/F",
    "bidEhmYield": "6,76",
    "askYield": "6,09",
    "currency": "HUF",
    "maturityInDays_val": 985,
    "issueDate": "2021.02.24",
    "longName": "A260826F21"
}