{
    "askPrice": "78,0148",
    "green": 0,
    "coupon": "1,50 %",
    "accruedInterest": "1,0521",
    "settleDate": "2023.05.09",
    "askEhmYield": "9,57",
    "bidYield": "10,41",
    "rawName": "2026/F",
    "bidPrice": "76,1324",
    "coupon_val": 1.5,
    "maturityInDays": "1205 nap",
    "securityType": "KTV",
    "maturityDate": "2026.08.26",
    "name": "2026/F",
    "bidEhmYield": "10,40",
    "askYield": "9,58",
    "currency": "HUF",
    "maturityInDays_val": 1205,
    "issueDate": "2021.02.24",
    "longName": "A260826F21"
}