{
    "askPrice": "81,5996",
    "green": 0,
    "coupon": "1,50 %",
    "accruedInterest": "1,3192",
    "settleDate": "2023.07.13",
    "askEhmYield": "8,44",
    "bidYield": "9,24",
    "rawName": "2026/F",
    "bidPrice": "79,8032",
    "coupon_val": 1.5,
    "maturityInDays": "1140 nap",
    "securityType": "KTV",
    "maturityDate": "2026.08.26",
    "name": "2026/F",
    "bidEhmYield": "9,23",
    "askYield": "8,45",
    "currency": "HUF",
    "maturityInDays_val": 1140,
    "issueDate": "2021.02.24",
    "longName": "A260826F21"
}