{
    "askPrice": "89,6880",
    "green": 0,
    "coupon": "1,50 %",
    "accruedInterest": "0,5287",
    "settleDate": "2024.01.02",
    "askEhmYield": "5,81",
    "bidYield": "6,48",
    "rawName": "2026/F",
    "bidPrice": "88,2195",
    "coupon_val": 1.5,
    "maturityInDays": "967 nap",
    "securityType": "KTV",
    "maturityDate": "2026.08.26",
    "name": "2026/F",
    "bidEhmYield": "6,47",
    "askYield": "5,81",
    "currency": "HUF",
    "maturityInDays_val": 967,
    "issueDate": "2021.02.24",
    "longName": "A260826F21"
}