{
    "askPrice": "85,9727",
    "green": 0,
    "coupon": "1,50 %",
    "accruedInterest": "0,2951",
    "settleDate": "2023.11.06",
    "askEhmYield": "7,19",
    "bidYield": "7,89",
    "rawName": "2026/F",
    "bidPrice": "84,4613",
    "coupon_val": 1.5,
    "maturityInDays": "1024 nap",
    "securityType": "KTV",
    "maturityDate": "2026.08.26",
    "name": "2026/F",
    "bidEhmYield": "7,88",
    "askYield": "7,20",
    "currency": "HUF",
    "maturityInDays_val": 1024,
    "issueDate": "2021.02.24",
    "longName": "A260826F21"
}