{
    "askPrice": "89,7727",
    "green": 0,
    "coupon": "1,50 %",
    "accruedInterest": "0,5082",
    "settleDate": "2023.12.28",
    "askEhmYield": "5,75",
    "bidYield": "6,44",
    "rawName": "2026/F",
    "bidPrice": "88,2510",
    "coupon_val": 1.5,
    "maturityInDays": "972 nap",
    "securityType": "KTV",
    "maturityDate": "2026.08.26",
    "name": "2026/F",
    "bidEhmYield": "6,43",
    "askYield": "5,75",
    "currency": "HUF",
    "maturityInDays_val": 972,
    "issueDate": "2021.02.24",
    "longName": "A260826F21"
}