{
    "askPrice": "80,6735",
    "green": 0,
    "coupon": "1,50 %",
    "accruedInterest": "1,2205",
    "settleDate": "2023.06.19",
    "askEhmYield": "8,69",
    "bidYield": "9,53",
    "rawName": "2026/F",
    "bidPrice": "78,7754",
    "coupon_val": 1.5,
    "maturityInDays": "1164 nap",
    "securityType": "KTV",
    "maturityDate": "2026.08.26",
    "name": "2026/F",
    "bidEhmYield": "9,52",
    "askYield": "8,70",
    "currency": "HUF",
    "maturityInDays_val": 1164,
    "issueDate": "2021.02.24",
    "longName": "A260826F21"
}