{
    "askPrice": "81,7325",
    "green": 0,
    "coupon": "1,50 %",
    "accruedInterest": "1,4219",
    "settleDate": "2023.08.07",
    "askEhmYield": "8,54",
    "bidYield": "9,23",
    "rawName": "2026/F",
    "bidPrice": "80,2151",
    "coupon_val": 1.5,
    "maturityInDays": "1115 nap",
    "securityType": "KTV",
    "maturityDate": "2026.08.26",
    "name": "2026/F",
    "bidEhmYield": "9,22",
    "askYield": "8,55",
    "currency": "HUF",
    "maturityInDays_val": 1115,
    "issueDate": "2021.02.24",
    "longName": "A260826F21"
}