{
    "askPrice": "80,9421",
    "green": 0,
    "coupon": "1,50 %",
    "accruedInterest": "1,2041",
    "settleDate": "2023.06.15",
    "askEhmYield": "8,55",
    "bidYield": "9,39",
    "rawName": "2026/F",
    "bidPrice": "79,0289",
    "coupon_val": 1.5,
    "maturityInDays": "1168 nap",
    "securityType": "KTV",
    "maturityDate": "2026.08.26",
    "name": "2026/F",
    "bidEhmYield": "9,38",
    "askYield": "8,56",
    "currency": "HUF",
    "maturityInDays_val": 1168,
    "issueDate": "2021.02.24",
    "longName": "A260826F21"
}