{
    "askPrice": "82,1608",
    "green": 0,
    "coupon": "1,50 %",
    "accruedInterest": "1,4342",
    "settleDate": "2023.08.10",
    "askEhmYield": "8,37",
    "bidYield": "9,10",
    "rawName": "2026/F",
    "bidPrice": "80,5486",
    "coupon_val": 1.5,
    "maturityInDays": "1112 nap",
    "securityType": "KTV",
    "maturityDate": "2026.08.26",
    "name": "2026/F",
    "bidEhmYield": "9,09",
    "askYield": "8,38",
    "currency": "HUF",
    "maturityInDays_val": 1112,
    "issueDate": "2021.02.24",
    "longName": "A260826F21"
}