{
    "askPrice": "80,4517",
    "green": 0,
    "coupon": "1,50 %",
    "accruedInterest": "1,1712",
    "settleDate": "2023.06.07",
    "askEhmYield": "8,71",
    "bidYield": "9,55",
    "rawName": "2026/F",
    "bidPrice": "78,5404",
    "coupon_val": 1.5,
    "maturityInDays": "1176 nap",
    "securityType": "KTV",
    "maturityDate": "2026.08.26",
    "name": "2026/F",
    "bidEhmYield": "9,54",
    "askYield": "8,72",
    "currency": "HUF",
    "maturityInDays_val": 1176,
    "issueDate": "2021.02.24",
    "longName": "A260826F21"
}