{
    "askPrice": "78,7399",
    "green": 0,
    "coupon": "1,50 %",
    "accruedInterest": "1,0849",
    "settleDate": "2023.05.17",
    "askEhmYield": "9,31",
    "bidYield": "10,16",
    "rawName": "2026/F",
    "bidPrice": "76,8252",
    "coupon_val": 1.5,
    "maturityInDays": "1197 nap",
    "securityType": "KTV",
    "maturityDate": "2026.08.26",
    "name": "2026/F",
    "bidEhmYield": "10,15",
    "askYield": "9,32",
    "currency": "HUF",
    "maturityInDays_val": 1197,
    "issueDate": "2021.02.24",
    "longName": "A260826F21"
}