{
    "askPrice": "77,1955",
    "green": 0,
    "coupon": "1,50 %",
    "accruedInterest": "0,6452",
    "settleDate": "2023.01.30",
    "askEhmYield": "9,28",
    "bidYield": "10,13",
    "rawName": "2026/F",
    "bidPrice": "75,1574",
    "coupon_val": 1.5,
    "maturityInDays": "1304 nap",
    "securityType": "KTV",
    "maturityDate": "2026.08.26",
    "name": "2026/F",
    "bidEhmYield": "10,12",
    "askYield": "9,29",
    "currency": "HUF",
    "maturityInDays_val": 1304,
    "issueDate": "2021.02.24",
    "longName": "A260826F21"
}