{
    "askPrice": "84,7090",
    "green": 0,
    "coupon": "1,50 %",
    "accruedInterest": "0,2090",
    "settleDate": "2023.10.16",
    "askEhmYield": "7,64",
    "bidYield": "8,31",
    "rawName": "2026/F",
    "bidPrice": "83,2620",
    "coupon_val": 1.5,
    "maturityInDays": "1045 nap",
    "securityType": "KTV",
    "maturityDate": "2026.08.26",
    "name": "2026/F",
    "bidEhmYield": "8,30",
    "askYield": "7,65",
    "currency": "HUF",
    "maturityInDays_val": 1045,
    "issueDate": "2021.02.24",
    "longName": "A260826F21"
}