{
    "askPrice": "78,9173",
    "green": 0,
    "coupon": "1,50 %",
    "accruedInterest": "1,1384",
    "settleDate": "2023.05.30",
    "askEhmYield": "9,32",
    "bidYield": "10,16",
    "rawName": "2026/F",
    "bidPrice": "77,0407",
    "coupon_val": 1.5,
    "maturityInDays": "1184 nap",
    "securityType": "KTV",
    "maturityDate": "2026.08.26",
    "name": "2026/F",
    "bidEhmYield": "10,15",
    "askYield": "9,33",
    "currency": "HUF",
    "maturityInDays_val": 1184,
    "issueDate": "2021.02.24",
    "longName": "A260826F21"
}