{
    "askPrice": "89,6737",
    "green": 0,
    "coupon": "1,50 %",
    "accruedInterest": "0,5041",
    "settleDate": "2023.12.27",
    "askEhmYield": "5,79",
    "bidYield": "6,46",
    "rawName": "2026/F",
    "bidPrice": "88,1963",
    "coupon_val": 1.5,
    "maturityInDays": "973 nap",
    "securityType": "KTV",
    "maturityDate": "2026.08.26",
    "name": "2026/F",
    "bidEhmYield": "6,45",
    "askYield": "5,79",
    "currency": "HUF",
    "maturityInDays_val": 973,
    "issueDate": "2021.02.24",
    "longName": "A260826F21"
}