{
    "askPrice": "76,8796",
    "green": 0,
    "coupon": "1,50 %",
    "accruedInterest": "0,9904",
    "settleDate": "2023.04.24",
    "askEhmYield": "9,96",
    "bidYield": "10,80",
    "rawName": "2026/F",
    "bidPrice": "75,0092",
    "coupon_val": 1.5,
    "maturityInDays": "1220 nap",
    "securityType": "KTV",
    "maturityDate": "2026.08.26",
    "name": "2026/F",
    "bidEhmYield": "10,79",
    "askYield": "9,97",
    "currency": "HUF",
    "maturityInDays_val": 1220,
    "issueDate": "2021.02.24",
    "longName": "A260826F21"
}