{
    "askPrice": "86,5371",
    "green": 0,
    "coupon": "1,50 %",
    "accruedInterest": "0,3361",
    "settleDate": "2023.11.16",
    "askEhmYield": "6,99",
    "bidYield": "7,68",
    "rawName": "2026/F",
    "bidPrice": "85,0489",
    "coupon_val": 1.5,
    "maturityInDays": "1014 nap",
    "securityType": "KTV",
    "maturityDate": "2026.08.26",
    "name": "2026/F",
    "bidEhmYield": "7,67",
    "askYield": "7,00",
    "currency": "HUF",
    "maturityInDays_val": 1014,
    "issueDate": "2021.02.24",
    "longName": "A260826F21"
}