{
    "askPrice": "81,9337",
    "green": 0,
    "coupon": "1,50 %",
    "accruedInterest": "1,3356",
    "settleDate": "2023.07.17",
    "askEhmYield": "8,32",
    "bidYield": "9,12",
    "rawName": "2026/F",
    "bidPrice": "80,1341",
    "coupon_val": 1.5,
    "maturityInDays": "1136 nap",
    "securityType": "KTV",
    "maturityDate": "2026.08.26",
    "name": "2026/F",
    "bidEhmYield": "9,11",
    "askYield": "8,33",
    "currency": "HUF",
    "maturityInDays_val": 1136,
    "issueDate": "2021.02.24",
    "longName": "A260826F21"
}