{
    "askPrice": "80,3729",
    "green": 0,
    "coupon": "1,50 %",
    "accruedInterest": "1,1753",
    "settleDate": "2023.06.08",
    "askEhmYield": "8,75",
    "bidYield": "9,59",
    "rawName": "2026/F",
    "bidPrice": "78,4656",
    "coupon_val": 1.5,
    "maturityInDays": "1175 nap",
    "securityType": "KTV",
    "maturityDate": "2026.08.26",
    "name": "2026/F",
    "bidEhmYield": "9,58",
    "askYield": "8,76",
    "currency": "HUF",
    "maturityInDays_val": 1175,
    "issueDate": "2021.02.24",
    "longName": "A260826F21"
}