{
    "askPrice": "89,1280",
    "green": 0,
    "coupon": "1,50 %",
    "accruedInterest": "0,9590",
    "settleDate": "2024.04.16",
    "askEhmYield": "6,62",
    "bidYield": "7,30",
    "rawName": "2026/F",
    "bidPrice": "87,8132",
    "coupon_val": 1.5,
    "maturityInDays": "862 nap",
    "securityType": "KTV",
    "maturityDate": "2026.08.26",
    "name": "2026/F",
    "bidEhmYield": "7,30",
    "askYield": "6,62",
    "currency": "HUF",
    "maturityInDays_val": 862,
    "issueDate": "2021.02.24",
    "longName": "A260826F21"
}