{
    "askPrice": "88,6673",
    "green": 0,
    "coupon": "1,50 %",
    "accruedInterest": "1,0000",
    "settleDate": "2024.04.26",
    "askEhmYield": "6,92",
    "bidYield": "7,57",
    "rawName": "2026/F",
    "bidPrice": "87,4340",
    "coupon_val": 1.5,
    "maturityInDays": "852 nap",
    "securityType": "KTV",
    "maturityDate": "2026.08.26",
    "name": "2026/F",
    "bidEhmYield": "7,57",
    "askYield": "6,92",
    "currency": "HUF",
    "maturityInDays_val": 852,
    "issueDate": "2021.02.24",
    "longName": "A260826F21"
}