{
    "askPrice": "88,6650",
    "green": 0,
    "coupon": "1,50 %",
    "accruedInterest": "1,0246",
    "settleDate": "2024.05.02",
    "askEhmYield": "6,96",
    "bidYield": "7,61",
    "rawName": "2026/F",
    "bidPrice": "87,4406",
    "coupon_val": 1.5,
    "maturityInDays": "846 nap",
    "securityType": "KTV",
    "maturityDate": "2026.08.26",
    "name": "2026/F",
    "bidEhmYield": "7,61",
    "askYield": "6,96",
    "currency": "HUF",
    "maturityInDays_val": 846,
    "issueDate": "2021.02.24",
    "longName": "A260826F21"
}