{
    "askPrice": "90,4521",
    "green": 0,
    "coupon": "1,50 %",
    "accruedInterest": "0,7131",
    "settleDate": "2024.02.16",
    "askEhmYield": "5,66",
    "bidYield": "6,34",
    "rawName": "2026/F",
    "bidPrice": "89,0147",
    "coupon_val": 1.5,
    "maturityInDays": "922 nap",
    "securityType": "KTV",
    "maturityDate": "2026.08.26",
    "name": "2026/F",
    "bidEhmYield": "6,34",
    "askYield": "5,66",
    "currency": "HUF",
    "maturityInDays_val": 922,
    "issueDate": "2021.02.24",
    "longName": "A260826F21"
}