{
    "askPrice": "88,9804",
    "green": 0,
    "coupon": "1,50 %",
    "accruedInterest": "1,0410",
    "settleDate": "2024.05.06",
    "askEhmYield": "6,82",
    "bidYield": "7,47",
    "rawName": "2026/F",
    "bidPrice": "87,7558",
    "coupon_val": 1.5,
    "maturityInDays": "842 nap",
    "securityType": "KTV",
    "maturityDate": "2026.08.26",
    "name": "2026/F",
    "bidEhmYield": "7,47",
    "askYield": "6,82",
    "currency": "HUF",
    "maturityInDays_val": 842,
    "issueDate": "2021.02.24",
    "longName": "A260826F21"
}