{
    "askPrice": "90,8986",
    "green": 0,
    "coupon": "1,50 %",
    "accruedInterest": "0,5820",
    "settleDate": "2024.01.15",
    "askEhmYield": "5,32",
    "bidYield": "6,01",
    "rawName": "2026/F",
    "bidPrice": "89,3791",
    "coupon_val": 1.5,
    "maturityInDays": "954 nap",
    "securityType": "KTV",
    "maturityDate": "2026.08.26",
    "name": "2026/F",
    "bidEhmYield": "6,01",
    "askYield": "5,32",
    "currency": "HUF",
    "maturityInDays_val": 954,
    "issueDate": "2021.02.24",
    "longName": "A260826F21"
}