{
    "askPrice": "90,0293",
    "green": 0,
    "coupon": "1,50 %",
    "accruedInterest": "0,8402",
    "settleDate": "2024.03.18",
    "askEhmYield": "6,01",
    "bidYield": "6,69",
    "rawName": "2026/F",
    "bidPrice": "88,6499",
    "coupon_val": 1.5,
    "maturityInDays": "891 nap",
    "securityType": "KTV",
    "maturityDate": "2026.08.26",
    "name": "2026/F",
    "bidEhmYield": "6,69",
    "askYield": "6,01",
    "currency": "HUF",
    "maturityInDays_val": 891,
    "issueDate": "2021.02.24",
    "longName": "A260826F21"
}