{
    "askPrice": "88,8857",
    "green": 0,
    "coupon": "1,50 %",
    "accruedInterest": "0,9959",
    "settleDate": "2024.04.25",
    "askEhmYield": "6,80",
    "bidYield": "7,46",
    "rawName": "2026/F",
    "bidPrice": "87,6276",
    "coupon_val": 1.5,
    "maturityInDays": "853 nap",
    "securityType": "KTV",
    "maturityDate": "2026.08.26",
    "name": "2026/F",
    "bidEhmYield": "7,46",
    "askYield": "6,80",
    "currency": "HUF",
    "maturityInDays_val": 853,
    "issueDate": "2021.02.24",
    "longName": "A260826F21"
}