{
    "askPrice": "81,96",
    "green": 0,
    "coupon": "2,50 %",
    "accruedInterest": "2,38",
    "settleDate": "2022.10.07",
    "askEhmYield": "13,11",
    "bidYield": "13,71",
    "rawName": "2024/C",
    "bidPrice": "81,09",
    "coupon_val": 2.5,
    "maturityInDays": "748 nap",
    "securityType": "KTV",
    "maturityDate": "2024.10.24",
    "name": "2024/C",
    "bidEhmYield": "13,71",
    "askYield": "13,11",
    "currency": "HUF",
    "maturityInDays_val": 748,
    "longName": "A241024C18"
}