{
    "askPrice": "85,7979",
    "green": 0,
    "coupon": "2,50 %",
    "accruedInterest": "0,3562",
    "settleDate": "2022.12.15",
    "askEhmYield": "11,38",
    "bidYield": "12,20",
    "rawName": "2024/C",
    "bidPrice": "84,6765",
    "coupon_val": 2.5,
    "maturityInDays": "679 nap",
    "securityType": "KTV",
    "maturityDate": "2024.10.24",
    "name": "2024/C",
    "bidEhmYield": "12,18",
    "askYield": "11,40",
    "currency": "HUF",
    "maturityInDays_val": 679,
    "issueDate": "2018.06.27",
    "longName": "A241024C18"
}