{
    "askPrice": "87,6105",
    "green": 0,
    "coupon": "2,50 %",
    "accruedInterest": "0,2877",
    "settleDate": "2022.12.05",
    "askEhmYield": "10,01",
    "bidYield": "10,80",
    "rawName": "2024/C",
    "bidPrice": "86,4785",
    "coupon_val": 2.5,
    "maturityInDays": "689 nap",
    "securityType": "KTV",
    "maturityDate": "2024.10.24",
    "name": "2024/C",
    "bidEhmYield": "10,78",
    "askYield": "10,03",
    "currency": "HUF",
    "maturityInDays_val": 689,
    "issueDate": "2018.06.27",
    "longName": "A241024C18"
}