{
    "askPrice": "86,26",
    "green": 0,
    "coupon": "2,50 %",
    "accruedInterest": "1,80",
    "settleDate": "2022.07.14",
    "askEhmYield": "9,47",
    "bidYield": "10,07",
    "rawName": "2024/C",
    "bidPrice": "85,21",
    "coupon_val": 2.5,
    "maturityInDays": "833 nap",
    "securityType": "KTV",
    "maturityDate": "2024.10.24",
    "name": "2024/C",
    "bidEhmYield": "10,07",
    "askYield": "9,47",
    "currency": "HUF",
    "maturityInDays_val": 833,
    "longName": "A241024C18"
}