{
    "askPrice": "82,38",
    "green": 0,
    "coupon": "2,50 %",
    "accruedInterest": "2,36",
    "settleDate": "2022.10.04",
    "askEhmYield": "12,78",
    "bidYield": "13,38",
    "rawName": "2024/C",
    "bidPrice": "81,50",
    "coupon_val": 2.5,
    "maturityInDays": "751 nap",
    "securityType": "KTV",
    "maturityDate": "2024.10.24",
    "name": "2024/C",
    "bidEhmYield": "13,38",
    "askYield": "12,78",
    "currency": "HUF",
    "maturityInDays_val": 751,
    "longName": "A241024C18"
}