{
    "askPrice": "88,39",
    "green": 0,
    "coupon": "2,50 %",
    "accruedInterest": "1,71",
    "settleDate": "2022.06.30",
    "askEhmYield": "8,19",
    "bidYield": "8,79",
    "rawName": "2024/C",
    "bidPrice": "87,28",
    "coupon_val": 2.5,
    "maturityInDays": "847 nap",
    "securityType": "KTV",
    "maturityDate": "2024.10.24",
    "name": "2024/C",
    "bidEhmYield": "8,79",
    "askYield": "8,19",
    "currency": "HUF",
    "maturityInDays_val": 847,
    "longName": "A241024C18"
}