{
    "askPrice": "82,30",
    "green": 0,
    "coupon": "2,50 %",
    "accruedInterest": "2,21",
    "settleDate": "2022.09.12",
    "askEhmYield": "12,53",
    "bidYield": "13,13",
    "rawName": "2024/C",
    "bidPrice": "81,39",
    "coupon_val": 2.5,
    "maturityInDays": "773 nap",
    "securityType": "KTV",
    "maturityDate": "2024.10.24",
    "name": "2024/C",
    "bidEhmYield": "13,13",
    "askYield": "12,53",
    "currency": "HUF",
    "maturityInDays_val": 773,
    "longName": "A241024C18"
}