{
    "askPrice": "82,75",
    "green": 0,
    "coupon": "2,50 %",
    "accruedInterest": "2,27",
    "settleDate": "2022.09.20",
    "askEhmYield": "12,34",
    "bidYield": "12,94",
    "rawName": "2024/C",
    "bidPrice": "81,85",
    "coupon_val": 2.5,
    "maturityInDays": "765 nap",
    "securityType": "KTV",
    "maturityDate": "2024.10.24",
    "name": "2024/C",
    "bidEhmYield": "12,94",
    "askYield": "12,34",
    "currency": "HUF",
    "maturityInDays_val": 765,
    "longName": "A241024C18"
}