{
    "askPrice": "87,63",
    "green": 0,
    "coupon": "2,50 %",
    "accruedInterest": "1,75",
    "settleDate": "2022.07.07",
    "askEhmYield": "8,65",
    "bidYield": "9,25",
    "rawName": "2024/C",
    "bidPrice": "86,55",
    "coupon_val": 2.5,
    "maturityInDays": "840 nap",
    "securityType": "KTV",
    "maturityDate": "2024.10.24",
    "name": "2024/C",
    "bidEhmYield": "9,25",
    "askYield": "8,65",
    "currency": "HUF",
    "maturityInDays_val": 840,
    "longName": "A241024C18"
}