{
    "askPrice": "85,5881",
    "green": 0,
    "coupon": "2,50 %",
    "accruedInterest": "0,4521",
    "settleDate": "2022.12.29",
    "askEhmYield": "11,72",
    "bidYield": "12,53",
    "rawName": "2024/C",
    "bidPrice": "84,5084",
    "coupon_val": 2.5,
    "maturityInDays": "665 nap",
    "securityType": "KTV",
    "maturityDate": "2024.10.24",
    "name": "2024/C",
    "bidEhmYield": "12,51",
    "askYield": "11,74",
    "currency": "HUF",
    "maturityInDays_val": 665,
    "issueDate": "2018.06.27",
    "longName": "A241024C18"
}