{
    "askPrice": "87,5526",
    "green": 0,
    "coupon": "2,50 %",
    "accruedInterest": "0,2055",
    "settleDate": "2022.11.23",
    "askEhmYield": "9,93",
    "bidYield": "10,69",
    "rawName": "2024/C",
    "bidPrice": "86,4312",
    "coupon_val": 2.5,
    "maturityInDays": "701 nap",
    "securityType": "KTV",
    "maturityDate": "2024.10.24",
    "name": "2024/C",
    "bidEhmYield": "10,67",
    "askYield": "9,94",
    "currency": "HUF",
    "maturityInDays_val": 701,
    "issueDate": "2018.06.27",
    "longName": "A241024C18"
}