{
    "askPrice": "82,30",
    "green": 0,
    "coupon": "2,50 %",
    "accruedInterest": "0,10",
    "settleDate": "2022.11.07",
    "askEhmYield": "13,32",
    "bidYield": "14,05",
    "rawName": "2024/C",
    "bidPrice": "81,31",
    "coupon_val": 2.5,
    "maturityInDays": "717 nap",
    "securityType": "KTV",
    "maturityDate": "2024.10.24",
    "name": "2024/C",
    "bidEhmYield": "14,03",
    "askYield": "13,34",
    "currency": "HUF",
    "maturityInDays_val": 717,
    "issueDate": "2018-06-27",
    "longName": "A241024C18"
}