{
    "askPrice": "85,82",
    "green": 0,
    "coupon": "2,50 %",
    "accruedInterest": "2,05",
    "settleDate": "2022.08.19",
    "askEhmYield": "10,05",
    "bidYield": "10,65",
    "rawName": "2024/C",
    "bidPrice": "84,83",
    "coupon_val": 2.5,
    "maturityInDays": "797 nap",
    "securityType": "KTV",
    "maturityDate": "2024.10.24",
    "name": "2024/C",
    "bidEhmYield": "10,65",
    "askYield": "10,05",
    "currency": "HUF",
    "maturityInDays_val": 797,
    "longName": "A241024C18"
}