{
    "askPrice": "85,34",
    "green": 0,
    "coupon": "2,50 %",
    "accruedInterest": "0,14",
    "settleDate": "2022.11.14",
    "askEhmYield": "11,30",
    "bidYield": "12,03",
    "rawName": "2024/C",
    "bidPrice": "84,31",
    "coupon_val": 2.5,
    "maturityInDays": "710 nap",
    "securityType": "KTV",
    "maturityDate": "2024.10.24",
    "name": "2024/C",
    "bidEhmYield": "12,01",
    "askYield": "11,32",
    "currency": "HUF",
    "maturityInDays_val": 710,
    "issueDate": "2018-06-27",
    "longName": "A241024C18"
}