{
    "askPrice": "88,40",
    "green": 0,
    "coupon": "2,50 %",
    "accruedInterest": "1,65",
    "settleDate": "2022.06.22",
    "askEhmYield": "8,13",
    "bidYield": "8,73",
    "rawName": "2024/C",
    "bidPrice": "87,28",
    "coupon_val": 2.5,
    "maturityInDays": "855 nap",
    "securityType": "KTV",
    "maturityDate": "2024.10.24",
    "name": "2024/C",
    "bidEhmYield": "8,73",
    "askYield": "8,13",
    "currency": "HUF",
    "maturityInDays_val": 855,
    "longName": "A241024C18"
}