{
    "askPrice": "82,96",
    "green": 0,
    "coupon": "2,50 %",
    "accruedInterest": "2,23",
    "settleDate": "2022.09.15",
    "askEhmYield": "12,14",
    "bidYield": "12,74",
    "rawName": "2024/C",
    "bidPrice": "82,04",
    "coupon_val": 2.5,
    "maturityInDays": "770 nap",
    "securityType": "KTV",
    "maturityDate": "2024.10.24",
    "name": "2024/C",
    "bidEhmYield": "12,74",
    "askYield": "12,14",
    "currency": "HUF",
    "maturityInDays_val": 770,
    "longName": "A241024C18"
}