{
    "askPrice": "87,8000",
    "green": 0,
    "coupon": "2,50 %",
    "accruedInterest": "0,2603",
    "settleDate": "2022.12.01",
    "askEhmYield": "9,85",
    "bidYield": "10,62",
    "rawName": "2024/C",
    "bidPrice": "86,6722",
    "coupon_val": 2.5,
    "maturityInDays": "693 nap",
    "securityType": "KTV",
    "maturityDate": "2024.10.24",
    "name": "2024/C",
    "bidEhmYield": "10,60",
    "askYield": "9,86",
    "currency": "HUF",
    "maturityInDays_val": 693,
    "issueDate": "2018.06.27",
    "longName": "A241024C18"
}