{
    "askPrice": "85,7742",
    "green": 0,
    "coupon": "2,50 %",
    "accruedInterest": "0,4041",
    "settleDate": "2022.12.22",
    "askEhmYield": "11,49",
    "bidYield": "12,30",
    "rawName": "2024/C",
    "bidPrice": "84,6790",
    "coupon_val": 2.5,
    "maturityInDays": "672 nap",
    "securityType": "KTV",
    "maturityDate": "2024.10.24",
    "name": "2024/C",
    "bidEhmYield": "12,28",
    "askYield": "11,51",
    "currency": "HUF",
    "maturityInDays_val": 672,
    "issueDate": "2018.06.27",
    "longName": "A241024C18"
}