{
    "askPrice": "86,19",
    "green": 0,
    "coupon": "2,50 %",
    "accruedInterest": "2,03",
    "settleDate": "2022.08.17",
    "askEhmYield": "9,81",
    "bidYield": "10,41",
    "rawName": "2024/C",
    "bidPrice": "85,19",
    "coupon_val": 2.5,
    "maturityInDays": "799 nap",
    "securityType": "KTV",
    "maturityDate": "2024.10.24",
    "name": "2024/C",
    "bidEhmYield": "10,41",
    "askYield": "9,81",
    "currency": "HUF",
    "maturityInDays_val": 799,
    "longName": "A241024C18"
}