{
    "askPrice": "94,4196",
    "green": 0,
    "coupon": "2,50 %",
    "accruedInterest": "2,4521",
    "settleDate": "2023.10.17",
    "askEhmYield": "8,42",
    "bidYield": "9,09",
    "rawName": "2024/C",
    "bidPrice": "93,8462",
    "coupon_val": 2.5,
    "maturityInDays": "373 nap",
    "securityType": "KTV",
    "maturityDate": "2024.10.24",
    "name": "2024/C",
    "bidEhmYield": "9,06",
    "askYield": "8,44",
    "currency": "HUF",
    "maturityInDays_val": 373,
    "issueDate": "2018.06.27",
    "longName": "A241024C18"
}