{
    "askPrice": "91,9104",
    "green": 0,
    "coupon": "2,50 %",
    "accruedInterest": "1,9863",
    "settleDate": "2023.08.10",
    "askEhmYield": "9,91",
    "bidYield": "10,63",
    "rawName": "2024/C",
    "bidPrice": "91,2101",
    "coupon_val": 2.5,
    "maturityInDays": "441 nap",
    "securityType": "KTV",
    "maturityDate": "2024.10.24",
    "name": "2024/C",
    "bidEhmYield": "10,60",
    "askYield": "9,93",
    "currency": "HUF",
    "maturityInDays_val": 441,
    "issueDate": "2018.06.27",
    "longName": "A241024C18"
}