{
    "askPrice": "86,1091",
    "green": 0,
    "coupon": "2,50 %",
    "accruedInterest": "0,7671",
    "settleDate": "2023.02.13",
    "askEhmYield": "12,01",
    "bidYield": "12,88",
    "rawName": "2024/C",
    "bidPrice": "85,0217",
    "coupon_val": 2.5,
    "maturityInDays": "619 nap",
    "securityType": "KTV",
    "maturityDate": "2024.10.24",
    "name": "2024/C",
    "bidEhmYield": "12,86",
    "askYield": "12,03",
    "currency": "HUF",
    "maturityInDays_val": 619,
    "issueDate": "2018.06.27",
    "longName": "A241024C18"
}