{
    "askPrice": "96,3816",
    "green": 0,
    "coupon": "2,50 %",
    "accruedInterest": "0,3893",
    "settleDate": "2023.12.20",
    "askEhmYield": "6,99",
    "bidYield": "7,70",
    "rawName": "2024/C",
    "bidPrice": "95,8883",
    "coupon_val": 2.5,
    "maturityInDays": "309 nap",
    "securityType": "KTV",
    "maturityDate": "2024.10.24",
    "name": "2024/C",
    "bidEhmYield": "7,63",
    "askYield": "7,05",
    "currency": "HUF",
    "maturityInDays_val": 309,
    "issueDate": "2018.06.27",
    "longName": "A241024C18"
}