{
    "askPrice": "87,2889",
    "green": 0,
    "coupon": "2,50 %",
    "accruedInterest": "1,3425",
    "settleDate": "2023.05.08",
    "askEhmYield": "12,49",
    "bidYield": "13,32",
    "rawName": "2024/C",
    "bidPrice": "86,3805",
    "coupon_val": 2.5,
    "maturityInDays": "535 nap",
    "securityType": "KTV",
    "maturityDate": "2024.10.24",
    "name": "2024/C",
    "bidEhmYield": "13,29",
    "askYield": "12,51",
    "currency": "HUF",
    "maturityInDays_val": 535,
    "issueDate": "2018.06.27",
    "longName": "A241024C18"
}