{
    "askPrice": "94,8350",
    "green": 0,
    "coupon": "2,50 %",
    "accruedInterest": "0,1025",
    "settleDate": "2023.11.08",
    "askEhmYield": "8,30",
    "bidYield": "8,97",
    "rawName": "2024/C",
    "bidPrice": "94,2919",
    "coupon_val": 2.5,
    "maturityInDays": "351 nap",
    "securityType": "KTV",
    "maturityDate": "2024.10.24",
    "name": "2024/C",
    "bidEhmYield": "8,94",
    "askYield": "8,32",
    "currency": "HUF",
    "maturityInDays_val": 351,
    "issueDate": "2018.06.27",
    "longName": "A241024C18"
}