{
    "askPrice": "86,0845",
    "green": 0,
    "coupon": "2,50 %",
    "accruedInterest": "1,0137",
    "settleDate": "2023.03.21",
    "askEhmYield": "12,63",
    "bidYield": "13,45",
    "rawName": "2024/C",
    "bidPrice": "85,1235",
    "coupon_val": 2.5,
    "maturityInDays": "583 nap",
    "securityType": "KTV",
    "maturityDate": "2024.10.24",
    "name": "2024/C",
    "bidEhmYield": "13,43",
    "askYield": "12,65",
    "currency": "HUF",
    "maturityInDays_val": 583,
    "issueDate": "2018.06.27",
    "longName": "A241024C18"
}