{
    "askPrice": "95,1030",
    "green": 0,
    "coupon": "2,50 %",
    "accruedInterest": "0,1981",
    "settleDate": "2023.11.22",
    "askEhmYield": "8,21",
    "bidYield": "8,89",
    "rawName": "2024/C",
    "bidPrice": "94,5710",
    "coupon_val": 2.5,
    "maturityInDays": "337 nap",
    "securityType": "KTV",
    "maturityDate": "2024.10.24",
    "name": "2024/C",
    "bidEhmYield": "8,86",
    "askYield": "8,23",
    "currency": "HUF",
    "maturityInDays_val": 337,
    "issueDate": "2018.06.27",
    "longName": "A241024C18"
}