{
    "askPrice": "95,0521",
    "green": 0,
    "coupon": "2,50 %",
    "accruedInterest": "0,2322",
    "settleDate": "2023.11.27",
    "askEhmYield": "8,36",
    "bidYield": "9,04",
    "rawName": "2024/C",
    "bidPrice": "94,5288",
    "coupon_val": 2.5,
    "maturityInDays": "332 nap",
    "securityType": "KTV",
    "maturityDate": "2024.10.24",
    "name": "2024/C",
    "bidEhmYield": "9,01",
    "askYield": "8,38",
    "currency": "HUF",
    "maturityInDays_val": 332,
    "issueDate": "2018.06.27",
    "longName": "A241024C18"
}