{
    "askPrice": "90,1711",
    "green": 0,
    "coupon": "2,50 %",
    "accruedInterest": "1,7055",
    "settleDate": "2023.06.30",
    "askEhmYield": "10,86",
    "bidYield": "11,69",
    "rawName": "2024/C",
    "bidPrice": "89,3116",
    "coupon_val": 2.5,
    "maturityInDays": "482 nap",
    "securityType": "KTV",
    "maturityDate": "2024.10.24",
    "name": "2024/C",
    "bidEhmYield": "11,66",
    "askYield": "10,88",
    "currency": "HUF",
    "maturityInDays_val": 482,
    "issueDate": "2018.06.27",
    "longName": "A241024C18"
}