{
    "askPrice": "95,0510",
    "green": 0,
    "coupon": "2,50 %",
    "accruedInterest": "0,1844",
    "settleDate": "2023.11.20",
    "askEhmYield": "8,24",
    "bidYield": "8,87",
    "rawName": "2024/C",
    "bidPrice": "94,5567",
    "coupon_val": 2.5,
    "maturityInDays": "339 nap",
    "securityType": "KTV",
    "maturityDate": "2024.10.24",
    "name": "2024/C",
    "bidEhmYield": "8,84",
    "askYield": "8,26",
    "currency": "HUF",
    "maturityInDays_val": 339,
    "issueDate": "2018.06.27",
    "longName": "A241024C18"
}