{
    "askPrice": "86,1307",
    "green": 0,
    "coupon": "2,50 %",
    "accruedInterest": "0,6986",
    "settleDate": "2023.02.03",
    "askEhmYield": "11,84",
    "bidYield": "12,65",
    "rawName": "2024/C",
    "bidPrice": "85,1018",
    "coupon_val": 2.5,
    "maturityInDays": "629 nap",
    "securityType": "KTV",
    "maturityDate": "2024.10.24",
    "name": "2024/C",
    "bidEhmYield": "12,63",
    "askYield": "11,86",
    "currency": "HUF",
    "maturityInDays_val": 629,
    "issueDate": "2018.06.27",
    "longName": "A241024C18"
}