{
    "askPrice": "94,5049",
    "green": 0,
    "coupon": "2,50 %",
    "accruedInterest": 0,
    "settleDate": "2023.10.24",
    "askEhmYield": "8,44",
    "bidYield": "9,13",
    "rawName": "2024/C",
    "bidPrice": "93,9247",
    "coupon_val": 2.5,
    "maturityInDays": "366 nap",
    "securityType": "KTV",
    "maturityDate": "2024.10.24",
    "name": "2024/C",
    "bidEhmYield": "9,10",
    "askYield": "8,46",
    "currency": "HUF",
    "maturityInDays_val": 366,
    "issueDate": "2018.06.27",
    "longName": "A241024C18"
}