{
    "askPrice": "86,1916",
    "green": 0,
    "coupon": "2,50 %",
    "accruedInterest": "0,6507",
    "settleDate": "2023.01.27",
    "askEhmYield": "11,69",
    "bidYield": "12,47",
    "rawName": "2024/C",
    "bidPrice": "85,1888",
    "coupon_val": 2.5,
    "maturityInDays": "636 nap",
    "securityType": "KTV",
    "maturityDate": "2024.10.24",
    "name": "2024/C",
    "bidEhmYield": "12,45",
    "askYield": "11,71",
    "currency": "HUF",
    "maturityInDays_val": 636,
    "issueDate": "2018.06.27",
    "longName": "A241024C18"
}