{
    "askPrice": "86,8737",
    "green": 0,
    "coupon": "2,50 %",
    "accruedInterest": "1,2260",
    "settleDate": "2023.04.21",
    "askEhmYield": "12,53",
    "bidYield": "13,31",
    "rawName": "2024/C",
    "bidPrice": "85,9989",
    "coupon_val": 2.5,
    "maturityInDays": "552 nap",
    "securityType": "KTV",
    "maturityDate": "2024.10.24",
    "name": "2024/C",
    "bidEhmYield": "13,28",
    "askYield": "12,55",
    "currency": "HUF",
    "maturityInDays_val": 552,
    "issueDate": "2018.06.27",
    "longName": "A241024C18"
}