{
    "askPrice": "87,0504",
    "green": 0,
    "coupon": "2,50 %",
    "accruedInterest": "1,0753",
    "settleDate": "2023.03.30",
    "askEhmYield": "11,99",
    "bidYield": "12,75",
    "rawName": "2024/C",
    "bidPrice": "86,1595",
    "coupon_val": 2.5,
    "maturityInDays": "574 nap",
    "securityType": "KTV",
    "maturityDate": "2024.10.24",
    "name": "2024/C",
    "bidEhmYield": "12,73",
    "askYield": "12,01",
    "currency": "HUF",
    "maturityInDays_val": 574,
    "issueDate": "2018.06.27",
    "longName": "A241024C18"
}