{
    "askPrice": "87,2594",
    "green": 0,
    "coupon": "2,50 %",
    "accruedInterest": "1,2603",
    "settleDate": "2023.04.26",
    "askEhmYield": "12,29",
    "bidYield": "13,10",
    "rawName": "2024/C",
    "bidPrice": "86,3525",
    "coupon_val": 2.5,
    "maturityInDays": "547 nap",
    "securityType": "KTV",
    "maturityDate": "2024.10.24",
    "name": "2024/C",
    "bidEhmYield": "13,07",
    "askYield": "12,31",
    "currency": "HUF",
    "maturityInDays_val": 547,
    "issueDate": "2018.06.27",
    "longName": "A241024C18"
}