{
    "askPrice": "95,2606",
    "green": 0,
    "coupon": "2,50 %",
    "accruedInterest": "0,2801",
    "settleDate": "2023.12.04",
    "askEhmYield": "8,22",
    "bidYield": "8,88",
    "rawName": "2024/C",
    "bidPrice": "94,7618",
    "coupon_val": 2.5,
    "maturityInDays": "325 nap",
    "securityType": "KTV",
    "maturityDate": "2024.10.24",
    "name": "2024/C",
    "bidEhmYield": "8,85",
    "askYield": "8,24",
    "currency": "HUF",
    "maturityInDays_val": 325,
    "issueDate": "2018.06.27",
    "longName": "A241024C18"
}