{
    "askPrice": "85,5002",
    "green": 0,
    "coupon": "2,50 %",
    "accruedInterest": "0,7945",
    "settleDate": "2023.02.17",
    "askEhmYield": "12,55",
    "bidYield": "13,35",
    "rawName": "2024/C",
    "bidPrice": "84,5194",
    "coupon_val": 2.5,
    "maturityInDays": "615 nap",
    "securityType": "KTV",
    "maturityDate": "2024.10.24",
    "name": "2024/C",
    "bidEhmYield": "13,33",
    "askYield": "12,57",
    "currency": "HUF",
    "maturityInDays_val": 615,
    "issueDate": "2018.06.27",
    "longName": "A241024C18"
}