{
    "askPrice": "",
    "green": 0,
    "coupon": "2,50 %",
    "accruedInterest": "2,4658",
    "settleDate": "2023.10.19",
    "askEhmYield": "",
    "bidYield": "",
    "rawName": "2024/C",
    "bidPrice": "",
    "coupon_val": 2.5,
    "maturityInDays": "371 nap",
    "securityType": "KTV",
    "maturityDate": "2024.10.24",
    "name": "2024/C",
    "bidEhmYield": "",
    "askYield": "",
    "currency": "HUF",
    "maturityInDays_val": 371,
    "issueDate": "2018.06.27",
    "longName": "A241024C18"
}