{
    "askPrice": "95,0892",
    "green": 0,
    "coupon": "2,50 %",
    "accruedInterest": "0,1913",
    "settleDate": "2023.11.21",
    "askEhmYield": "8,21",
    "bidYield": "8,88",
    "rawName": "2024/C",
    "bidPrice": "94,5638",
    "coupon_val": 2.5,
    "maturityInDays": "338 nap",
    "securityType": "KTV",
    "maturityDate": "2024.10.24",
    "name": "2024/C",
    "bidEhmYield": "8,85",
    "askYield": "8,23",
    "currency": "HUF",
    "maturityInDays_val": 338,
    "issueDate": "2018.06.27",
    "longName": "A241024C18"
}