{
    "askPrice": "90,6501",
    "green": 0,
    "coupon": "2,50 %",
    "accruedInterest": "1,7397",
    "settleDate": "2023.07.05",
    "askEhmYield": "10,50",
    "bidYield": "11,28",
    "rawName": "2024/C",
    "bidPrice": "89,8446",
    "coupon_val": 2.5,
    "maturityInDays": "477 nap",
    "securityType": "KTV",
    "maturityDate": "2024.10.24",
    "name": "2024/C",
    "bidEhmYield": "11,26",
    "askYield": "10,52",
    "currency": "HUF",
    "maturityInDays_val": 477,
    "issueDate": "2018.06.27",
    "longName": "A241024C18"
}