{
    "askPrice": "93,6551",
    "green": 0,
    "coupon": "2,50 %",
    "accruedInterest": "2,2192",
    "settleDate": "2023.09.13",
    "askEhmYield": "8,70",
    "bidYield": "9,38",
    "rawName": "2024/C",
    "bidPrice": "93,0267",
    "coupon_val": 2.5,
    "maturityInDays": "407 nap",
    "securityType": "KTV",
    "maturityDate": "2024.10.24",
    "name": "2024/C",
    "bidEhmYield": "9,36",
    "askYield": "8,72",
    "currency": "HUF",
    "maturityInDays_val": 407,
    "issueDate": "2018.06.27",
    "longName": "A241024C18"
}