{
    "askPrice": "85,5831",
    "green": 0,
    "coupon": "2,50 %",
    "accruedInterest": "0,4795",
    "settleDate": "2023.01.02",
    "askEhmYield": "11,78",
    "bidYield": "12,54",
    "rawName": "2024/C",
    "bidPrice": "84,5775",
    "coupon_val": 2.5,
    "maturityInDays": "661 nap",
    "securityType": "KTV",
    "maturityDate": "2024.10.24",
    "name": "2024/C",
    "bidEhmYield": "12,52",
    "askYield": "11,80",
    "currency": "HUF",
    "maturityInDays_val": 661,
    "issueDate": "2018.06.27",
    "longName": "A241024C18"
}