{
    "askPrice": "86,3210",
    "green": 0,
    "coupon": "2,50 %",
    "accruedInterest": "0,5274",
    "settleDate": "2023.01.09",
    "askEhmYield": "11,34",
    "bidYield": "12,18",
    "rawName": "2024/C",
    "bidPrice": "85,2052",
    "coupon_val": 2.5,
    "maturityInDays": "654 nap",
    "securityType": "KTV",
    "maturityDate": "2024.10.24",
    "name": "2024/C",
    "bidEhmYield": "12,16",
    "askYield": "11,36",
    "currency": "HUF",
    "maturityInDays_val": 654,
    "issueDate": "2018.06.27",
    "longName": "A241024C18"
}