{
    "askPrice": "91,1216",
    "green": 0,
    "coupon": "2,50 %",
    "accruedInterest": "1,8836",
    "settleDate": "2023.07.26",
    "askEhmYield": "10,42",
    "bidYield": "11,14",
    "rawName": "2024/C",
    "bidPrice": "90,4073",
    "coupon_val": 2.5,
    "maturityInDays": "456 nap",
    "securityType": "KTV",
    "maturityDate": "2024.10.24",
    "name": "2024/C",
    "bidEhmYield": "11,11",
    "askYield": "10,44",
    "currency": "HUF",
    "maturityInDays_val": 456,
    "issueDate": "2018.06.27",
    "longName": "A241024C18"
}