{
    "askPrice": "85,8880",
    "green": 0,
    "coupon": "2,50 %",
    "accruedInterest": "0,5000",
    "settleDate": "2023.01.05",
    "askEhmYield": "11,60",
    "bidYield": "12,40",
    "rawName": "2024/C",
    "bidPrice": "84,8277",
    "coupon_val": 2.5,
    "maturityInDays": "658 nap",
    "securityType": "KTV",
    "maturityDate": "2024.10.24",
    "name": "2024/C",
    "bidEhmYield": "12,38",
    "askYield": "11,62",
    "currency": "HUF",
    "maturityInDays_val": 658,
    "issueDate": "2018.06.27",
    "longName": "A241024C18"
}