{
    "askPrice": "86,1646",
    "green": 0,
    "coupon": "2,50 %",
    "accruedInterest": "0,7329",
    "settleDate": "2023.02.08",
    "askEhmYield": "11,89",
    "bidYield": "12,74",
    "rawName": "2024/C",
    "bidPrice": "85,0924",
    "coupon_val": 2.5,
    "maturityInDays": "624 nap",
    "securityType": "KTV",
    "maturityDate": "2024.10.24",
    "name": "2024/C",
    "bidEhmYield": "12,72",
    "askYield": "11,91",
    "currency": "HUF",
    "maturityInDays_val": 624,
    "issueDate": "2018.06.27",
    "longName": "A241024C18"
}