{
    "askPrice": "86,3190",
    "green": 0,
    "coupon": "2,50 %",
    "accruedInterest": "0,6438",
    "settleDate": "2023.01.26",
    "askEhmYield": "11,58",
    "bidYield": "12,43",
    "rawName": "2024/C",
    "bidPrice": "85,2204",
    "coupon_val": 2.5,
    "maturityInDays": "637 nap",
    "securityType": "KTV",
    "maturityDate": "2024.10.24",
    "name": "2024/C",
    "bidEhmYield": "12,41",
    "askYield": "11,60",
    "currency": "HUF",
    "maturityInDays_val": 637,
    "issueDate": "2018.06.27",
    "longName": "A241024C18"
}