{
    "askPrice": "95,1736",
    "green": 0,
    "coupon": "2,50 %",
    "accruedInterest": "0,2527",
    "settleDate": "2023.11.30",
    "askEhmYield": "8,26",
    "bidYield": "8,88",
    "rawName": "2024/C",
    "bidPrice": "94,7008",
    "coupon_val": 2.5,
    "maturityInDays": "329 nap",
    "securityType": "KTV",
    "maturityDate": "2024.10.24",
    "name": "2024/C",
    "bidEhmYield": "8,85",
    "askYield": "8,28",
    "currency": "HUF",
    "maturityInDays_val": 329,
    "issueDate": "2018.06.27",
    "longName": "A241024C18"
}