{
    "askPrice": "94,6460",
    "green": 0,
    "coupon": "2,50 %",
    "accruedInterest": "0,0137",
    "settleDate": "2023.10.26",
    "askEhmYield": "8,31",
    "bidYield": "8,98",
    "rawName": "2024/C",
    "bidPrice": "94,0845",
    "coupon_val": 2.5,
    "maturityInDays": "364 nap",
    "securityType": "KTV",
    "maturityDate": "2024.10.24",
    "name": "2024/C",
    "bidEhmYield": "8,95",
    "askYield": "8,33",
    "currency": "HUF",
    "maturityInDays_val": 364,
    "issueDate": "2018.06.27",
    "longName": "A241024C18"
}