{
    "askPrice": "96,7522",
    "green": 0,
    "coupon": "2,50 %",
    "accruedInterest": "0,4372",
    "settleDate": "2023.12.27",
    "askEhmYield": "6,60",
    "bidYield": "7,26",
    "rawName": "2024/C",
    "bidPrice": "96,3034",
    "coupon_val": 2.5,
    "maturityInDays": "302 nap",
    "securityType": "KTV",
    "maturityDate": "2024.10.24",
    "name": "2024/C",
    "bidEhmYield": "7,19",
    "askYield": "6,66",
    "currency": "HUF",
    "maturityInDays_val": 302,
    "issueDate": "2018.06.27",
    "longName": "A241024C18"
}