{
    "askPrice": "84,3886",
    "green": 0,
    "coupon": "2,50 %",
    "accruedInterest": "0,8151",
    "settleDate": "2023.02.20",
    "askEhmYield": "13,49",
    "bidYield": "14,24",
    "rawName": "2024/C",
    "bidPrice": "83,4938",
    "coupon_val": 2.5,
    "maturityInDays": "612 nap",
    "securityType": "KTV",
    "maturityDate": "2024.10.24",
    "name": "2024/C",
    "bidEhmYield": "14,22",
    "askYield": "13,51",
    "currency": "HUF",
    "maturityInDays_val": 612,
    "issueDate": "2018.06.27",
    "longName": "A241024C18"
}