{
    "askPrice": "95,0452",
    "green": 0,
    "coupon": "2,50 %",
    "accruedInterest": "0,1571",
    "settleDate": "2023.11.16",
    "askEhmYield": "8,18",
    "bidYield": "8,85",
    "rawName": "2024/C",
    "bidPrice": "94,5123",
    "coupon_val": 2.5,
    "maturityInDays": "343 nap",
    "securityType": "KTV",
    "maturityDate": "2024.10.24",
    "name": "2024/C",
    "bidEhmYield": "8,82",
    "askYield": "8,20",
    "currency": "HUF",
    "maturityInDays_val": 343,
    "issueDate": "2018.06.27",
    "longName": "A241024C18"
}