{
    "askPrice": "94,2867",
    "green": 0,
    "coupon": "2,50 %",
    "accruedInterest": "2,4110",
    "settleDate": "2023.10.11",
    "askEhmYield": "8,47",
    "bidYield": "9,12",
    "rawName": "2024/C",
    "bidPrice": "93,7230",
    "coupon_val": 2.5,
    "maturityInDays": "379 nap",
    "securityType": "KTV",
    "maturityDate": "2024.10.24",
    "name": "2024/C",
    "bidEhmYield": "9,09",
    "askYield": "8,49",
    "currency": "HUF",
    "maturityInDays_val": 379,
    "issueDate": "2018.06.27",
    "longName": "A241024C18"
}