{
    "askPrice": "92,9002",
    "green": 0,
    "coupon": "2,50 %",
    "accruedInterest": "2,1096",
    "settleDate": "2023.08.28",
    "askEhmYield": "9,22",
    "bidYield": "9,88",
    "rawName": "2024/C",
    "bidPrice": "92,2750",
    "coupon_val": 2.5,
    "maturityInDays": "423 nap",
    "securityType": "KTV",
    "maturityDate": "2024.10.24",
    "name": "2024/C",
    "bidEhmYield": "9,86",
    "askYield": "9,24",
    "currency": "HUF",
    "maturityInDays_val": 423,
    "issueDate": "2018.06.27",
    "longName": "A241024C18"
}