{
    "askPrice": "89,0679",
    "green": 0,
    "coupon": "2,50 %",
    "accruedInterest": "1,5479",
    "settleDate": "2023.06.07",
    "askEhmYield": "11,46",
    "bidYield": "12,29",
    "rawName": "2024/C",
    "bidPrice": "88,1838",
    "coupon_val": 2.5,
    "maturityInDays": "505 nap",
    "securityType": "KTV",
    "maturityDate": "2024.10.24",
    "name": "2024/C",
    "bidEhmYield": "12,26",
    "askYield": "11,48",
    "currency": "HUF",
    "maturityInDays_val": 505,
    "issueDate": "2018.06.27",
    "longName": "A241024C18"
}