{
    "askPrice": "96,4726",
    "green": 0,
    "coupon": "2,50 %",
    "accruedInterest": "0,5191",
    "settleDate": "2024.01.08",
    "askEhmYield": "7,15",
    "bidYield": "7,85",
    "rawName": "2024/C",
    "bidPrice": "96,0234",
    "coupon_val": 2.5,
    "maturityInDays": "290 nap",
    "securityType": "KTV",
    "maturityDate": "2024.10.24",
    "name": "2024/C",
    "bidEhmYield": "7,76",
    "askYield": "7,22",
    "currency": "HUF",
    "maturityInDays_val": 290,
    "issueDate": "2018.06.27",
    "longName": "A241024C18"
}