{
    "askPrice": "",
    "green": 0,
    "coupon": "2,50 %",
    "accruedInterest": "0,5738",
    "settleDate": "2024.01.16",
    "askEhmYield": "",
    "bidYield": "7,25",
    "rawName": "2024/C",
    "bidPrice": "96,5450",
    "coupon_val": 2.5,
    "maturityInDays": "282 nap",
    "securityType": "KTV",
    "maturityDate": "2024.10.24",
    "name": "2024/C",
    "bidEhmYield": "7,17",
    "askYield": "",
    "currency": "HUF",
    "maturityInDays_val": 282,
    "issueDate": "2018.06.27",
    "longName": "A241024C18"
}