{
    "askPrice": "",
    "green": 0,
    "coupon": "2,50 %",
    "accruedInterest": "1,1885",
    "settleDate": "2024.04.15",
    "askEhmYield": "",
    "bidYield": "7,58",
    "rawName": "2024/C",
    "bidPrice": "97,4571",
    "coupon_val": 2.5,
    "maturityInDays": "192 nap",
    "securityType": "KTV",
    "maturityDate": "2024.10.24",
    "name": "2024/C",
    "bidEhmYield": "7,42",
    "askYield": "",
    "currency": "HUF",
    "maturityInDays_val": 192,
    "issueDate": "2018.06.27",
    "longName": "A241024C18"
}