{
    "askPrice": "",
    "green": 0,
    "coupon": "2,50 %",
    "accruedInterest": "0,9153",
    "settleDate": "2024.03.06",
    "askEhmYield": "",
    "bidYield": "7,38",
    "rawName": "2024/C",
    "bidPrice": "97,0613",
    "coupon_val": 2.5,
    "maturityInDays": "232 nap",
    "securityType": "KTV",
    "maturityDate": "2024.10.24",
    "name": "2024/C",
    "bidEhmYield": "7,26",
    "askYield": "",
    "currency": "HUF",
    "maturityInDays_val": 232,
    "issueDate": "2018.06.27",
    "longName": "A241024C18"
}