{
    "askPrice": "",
    "green": 0,
    "coupon": "2,50 %",
    "accruedInterest": "0,8811",
    "settleDate": "2024.03.01",
    "askEhmYield": "",
    "bidYield": "7,35",
    "rawName": "2024/C",
    "bidPrice": "97,0179",
    "coupon_val": 2.5,
    "maturityInDays": "237 nap",
    "securityType": "KTV",
    "maturityDate": "2024.10.24",
    "name": "2024/C",
    "bidEhmYield": "7,23",
    "askYield": "",
    "currency": "HUF",
    "maturityInDays_val": 237,
    "issueDate": "2018.06.27",
    "longName": "A241024C18"
}