{
    "askPrice": "",
    "green": 0,
    "coupon": "2,50 %",
    "accruedInterest": "1,2363",
    "settleDate": "2024.04.22",
    "askEhmYield": "",
    "bidYield": "7,63",
    "rawName": "2024/C",
    "bidPrice": "97,5240",
    "coupon_val": 2.5,
    "maturityInDays": "185 nap",
    "securityType": "KTV",
    "maturityDate": "2024.10.24",
    "name": "2024/C",
    "bidEhmYield": "7,46",
    "askYield": "",
    "currency": "HUF",
    "maturityInDays_val": 185,
    "issueDate": "2018.06.27",
    "longName": "A241024C18"
}