{
    "askPrice": "",
    "green": 0,
    "coupon": "2,50 %",
    "accruedInterest": "0,9016",
    "settleDate": "2024.03.04",
    "askEhmYield": "",
    "bidYield": "7,37",
    "rawName": "2024/C",
    "bidPrice": "97,0426",
    "coupon_val": 2.5,
    "maturityInDays": "234 nap",
    "securityType": "KTV",
    "maturityDate": "2024.10.24",
    "name": "2024/C",
    "bidEhmYield": "7,25",
    "askYield": "",
    "currency": "HUF",
    "maturityInDays_val": 234,
    "issueDate": "2018.06.27",
    "longName": "A241024C18"
}