{
    "askPrice": "",
    "green": 0,
    "coupon": "3,50 %",
    "accruedInterest": "1,29",
    "settleDate": "2022.11.15",
    "askEhmYield": "",
    "bidYield": "5,42",
    "rawName": "N2026/31",
    "bidPrice": "99,50",
    "coupon_val": 3.5,
    "maturityInDays": "1356 nap",
    "securityType": "MÁP Plusz",
    "maturityDate": "2026.08.02",
    "name": "N2026/31",
    "bidEhmYield": "",
    "askYield": "",
    "currency": "HUF",
    "maturityInDays_val": 1356,
    "issueDate": "2021-08-02",
    "longName": "N260802"
}