{
    "askPrice": "",
    "green": 0,
    "coupon": "3,50 %",
    "accruedInterest": "0,91",
    "settleDate": "2022.10.15",
    "askEhmYield": "",
    "bidYield": "",
    "rawName": "N2026/31",
    "bidPrice": "99,50",
    "coupon_val": 3.5,
    "maturityInDays": "1387 nap",
    "securityType": "MÁP Plusz",
    "maturityDate": "2026.08.02",
    "name": "N2026/31",
    "bidEhmYield": "",
    "askYield": "",
    "currency": "HUF",
    "maturityInDays_val": 1387,
    "longName": "N260802"
}