{
    "askPrice": "",
    "green": 0,
    "coupon": "3,50 %",
    "accruedInterest": "3,1808",
    "settleDate": "2023.04.17",
    "askEhmYield": "",
    "bidYield": "5,55",
    "rawName": "N2026/31",
    "bidPrice": "99,5000",
    "coupon_val": 3.5,
    "maturityInDays": "1203 nap",
    "securityType": "MÁP Plusz",
    "maturityDate": "2026.08.02",
    "name": "N2026/31",
    "bidEhmYield": "",
    "askYield": "",
    "currency": "HUF",
    "maturityInDays_val": 1203,
    "issueDate": "2021.08.02",
    "longName": "N260802"
}