{
    "askPrice": "",
    "green": 0,
    "coupon": "3,50 %",
    "accruedInterest": "2,6913",
    "settleDate": "2024.02.15",
    "askEhmYield": "",
    "bidYield": "5,80",
    "rawName": "N2026/31",
    "bidPrice": "99,5000",
    "coupon_val": 3.5,
    "maturityInDays": "899 nap",
    "securityType": "MÁP Plusz",
    "maturityDate": "2026.08.02",
    "name": "N2026/31",
    "bidEhmYield": "",
    "askYield": "",
    "currency": "HUF",
    "maturityInDays_val": 899,
    "issueDate": "2021.08.02",
    "longName": "N260802"
}