{
    "askPrice": "",
    "green": 0,
    "coupon": "3,50 %",
    "accruedInterest": "0,0761",
    "settleDate": "2024.05.13",
    "askEhmYield": "",
    "bidYield": "5,08",
    "rawName": "N2028/45",
    "bidPrice": "100,0000",
    "coupon_val": 3.5,
    "maturityInDays": "1638 nap",
    "securityType": "MÁP Plusz",
    "maturityDate": "2028.11.06",
    "name": "N2028/45",
    "bidEhmYield": "",
    "askYield": "",
    "currency": "HUF",
    "maturityInDays_val": 1638,
    "issueDate": "2023.11.06",
    "longName": "N281106"
}