{
    "askPrice": "",
    "green": 0,
    "coupon": "3,50 %",
    "accruedInterest": "1,0288",
    "settleDate": "2024.02.21",
    "askEhmYield": "",
    "bidYield": "5,12",
    "rawName": "N2028/45",
    "bidPrice": "99,5000",
    "coupon_val": 3.5,
    "maturityInDays": "1720 nap",
    "securityType": "MÁP Plusz",
    "maturityDate": "2028.11.06",
    "name": "N2028/45",
    "bidEhmYield": "",
    "askYield": "",
    "currency": "HUF",
    "maturityInDays_val": 1720,
    "issueDate": "2023.11.06",
    "longName": "N281106"
}