{
    "askPrice": "",
    "green": 0,
    "coupon": "3,50 %",
    "accruedInterest": "0,7746",
    "settleDate": "2023.09.01",
    "askEhmYield": "",
    "bidYield": "5,09",
    "rawName": "N2028/24",
    "bidPrice": "99,5000",
    "coupon_val": 3.5,
    "maturityInDays": "1746 nap",
    "securityType": "MÁP Plusz",
    "maturityDate": "2028.06.12",
    "name": "N2028/24",
    "bidEhmYield": "",
    "askYield": "",
    "currency": "HUF",
    "maturityInDays_val": 1746,
    "issueDate": "2023.06.12",
    "longName": "N280612"
}