{
    "askPrice": "",
    "green": 0,
    "coupon": "3,50 %",
    "accruedInterest": "1,0929",
    "settleDate": "2024.03.21",
    "askEhmYield": "",
    "bidYield": "5,28",
    "rawName": "N2028/24",
    "bidPrice": "99,5000",
    "coupon_val": 3.5,
    "maturityInDays": "1544 nap",
    "securityType": "MÁP Plusz",
    "maturityDate": "2028.06.12",
    "name": "N2028/24",
    "bidEhmYield": "",
    "askYield": "",
    "currency": "HUF",
    "maturityInDays_val": 1544,
    "issueDate": "2023.06.12",
    "longName": "N280612"
}