{
    "askPrice": "",
    "green": 0,
    "coupon": "3,50 %",
    "accruedInterest": "2,9863",
    "settleDate": "2022.12.08",
    "askEhmYield": "",
    "bidYield": "5,83",
    "rawName": "N2025/18",
    "bidPrice": "99,5000",
    "coupon_val": 3.5,
    "maturityInDays": "878 nap",
    "securityType": "MÁP Plusz",
    "maturityDate": "2025.05.04",
    "name": "N2025/18",
    "bidEhmYield": "",
    "askYield": "",
    "currency": "HUF",
    "maturityInDays_val": 878,
    "issueDate": "2020.05.04",
    "longName": "N250504"
}