{
    "askPrice": "",
    "green": 0,
    "coupon": "3,50 %",
    "accruedInterest": "0,99",
    "settleDate": "2022.07.15",
    "askEhmYield": "",
    "bidYield": "",
    "rawName": "N2025/18",
    "bidPrice": "99,50",
    "coupon_val": 3.5,
    "maturityInDays": "1024 nap",
    "securityType": "MÁP Plusz",
    "maturityDate": "2025.05.04",
    "name": "N2025/18",
    "bidEhmYield": "",
    "askYield": "",
    "currency": "HUF",
    "maturityInDays_val": 1024,
    "longName": "N250504"
}