{
    "askPrice": "",
    "green": 0,
    "coupon": "3,50 %",
    "accruedInterest": "3,3511",
    "settleDate": "2023.12.13",
    "askEhmYield": "",
    "bidYield": "6,21",
    "rawName": "N2025/18",
    "bidPrice": "99,5000",
    "coupon_val": 3.5,
    "maturityInDays": "508 nap",
    "securityType": "MÁP Plusz",
    "maturityDate": "2025.05.04",
    "name": "N2025/18",
    "bidEhmYield": "",
    "askYield": "",
    "currency": "HUF",
    "maturityInDays_val": 508,
    "issueDate": "2020.05.04",
    "longName": "N250504"
}