{
    "askPrice": "",
    "green": 0,
    "coupon": "3,50 %",
    "accruedInterest": "0,6311",
    "settleDate": "2023.06.15",
    "askEhmYield": "",
    "bidYield": "6,04",
    "rawName": "N2025/18",
    "bidPrice": "99,5000",
    "coupon_val": 3.5,
    "maturityInDays": "689 nap",
    "securityType": "MÁP Plusz",
    "maturityDate": "2025.05.04",
    "name": "N2025/18",
    "bidEhmYield": "",
    "askYield": "",
    "currency": "HUF",
    "maturityInDays_val": 689,
    "issueDate": "2020.05.04",
    "longName": "N250504"
}