{
    "askPrice": "",
    "green": 0,
    "coupon": "3,50 %",
    "accruedInterest": "0,0493",
    "settleDate": "2024.05.07",
    "askEhmYield": "",
    "bidYield": "6,00",
    "rawName": "N2025/18",
    "bidPrice": "100,0000",
    "coupon_val": 3.5,
    "maturityInDays": "362 nap",
    "securityType": "MÁP Plusz",
    "maturityDate": "2025.05.04",
    "name": "N2025/18",
    "bidEhmYield": "",
    "askYield": "",
    "currency": "HUF",
    "maturityInDays_val": 362,
    "issueDate": "2020.05.04",
    "longName": "N250504"
}