{
    "askPrice": "",
    "green": 0,
    "coupon": "3,50 %",
    "accruedInterest": "5,4699",
    "settleDate": "2024.05.02",
    "askEhmYield": "",
    "bidYield": "",
    "rawName": "N2025/18",
    "bidPrice": "",
    "coupon_val": 3.5,
    "maturityInDays": "367 nap",
    "securityType": "MÁP Plusz",
    "maturityDate": "2025.05.04",
    "name": "N2025/18",
    "bidEhmYield": "",
    "askYield": "",
    "currency": "HUF",
    "maturityInDays_val": 367,
    "issueDate": "2020.05.04",
    "longName": "N250504"
}