{
    "askPrice": "",
    "green": 0,
    "coupon": "3,50 %",
    "accruedInterest": "0,0765",
    "settleDate": "2023.10.18",
    "askEhmYield": "",
    "bidYield": "5,08",
    "rawName": "N2028/15",
    "bidPrice": "100,0000",
    "coupon_val": 3.5,
    "maturityInDays": "1637 nap",
    "securityType": "MÁP Plusz",
    "maturityDate": "2028.04.11",
    "name": "N2028/15",
    "bidEhmYield": "",
    "askYield": "",
    "currency": "HUF",
    "maturityInDays_val": 1637,
    "issueDate": "2023.04.11",
    "longName": "N280411"
}