{
    "askPrice": "",
    "green": 0,
    "coupon": "3,50 %",
    "accruedInterest": "0,9276",
    "settleDate": "2023.07.17",
    "askEhmYield": "",
    "bidYield": "5,11",
    "rawName": "N2028/15",
    "bidPrice": "99,5000",
    "coupon_val": 3.5,
    "maturityInDays": "1730 nap",
    "securityType": "MÁP Plusz",
    "maturityDate": "2028.04.11",
    "name": "N2028/15",
    "bidEhmYield": "",
    "askYield": "",
    "currency": "HUF",
    "maturityInDays_val": 1730,
    "issueDate": "2023.04.11",
    "longName": "N280411"
}