{
    "askPrice": "100,0000",
    "green": 0,
    "coupon": null,
    "accruedInterest": "1,6700",
    "settleDate": "2022.11.21",
    "askEhmYield": "",
    "bidYield": "",
    "rawName": "2027/J",
    "bidPrice": "99,0000",
    "maturityInDays": "1528 nap",
    "securityType": "PMÁP",
    "maturityDate": "2027.01.27",
    "name": "2027/J",
    "bidEhmYield": "",
    "askYield": "",
    "currency": "HUF",
    "maturityInDays_val": 1528,
    "issueDate": "2022.09.30",
    "longName": "A270127J22"
}