{
    "askPrice": "100,0000",
    "green": 0,
    "coupon": null,
    "accruedInterest": "2,9300",
    "settleDate": "2022.12.30",
    "askEhmYield": "",
    "bidYield": "",
    "rawName": "2027/J",
    "bidPrice": "99,0000",
    "maturityInDays": "1489 nap",
    "securityType": "PMÁP",
    "maturityDate": "2027.01.27",
    "name": "2027/J",
    "bidEhmYield": "",
    "askYield": "",
    "currency": "HUF",
    "maturityInDays_val": 1489,
    "issueDate": "2022.09.30",
    "longName": "A270127J22"
}