{
    "askPrice": "",
    "green": 0,
    "coupon": null,
    "accruedInterest": "2,7993",
    "settleDate": "2023.04.04",
    "askEhmYield": "",
    "bidYield": "",
    "rawName": "2027/J",
    "bidPrice": "99,0000",
    "maturityInDays": "1394 nap",
    "securityType": "PMÁP",
    "maturityDate": "2027.01.27",
    "name": "2027/J",
    "bidEhmYield": "",
    "askYield": "",
    "currency": "HUF",
    "maturityInDays_val": 1394,
    "issueDate": "2022.09.30",
    "longName": "A270127J22"
}