{
    "askPrice": "",
    "green": 0,
    "coupon": null,
    "accruedInterest": "8,3979",
    "settleDate": "2023.08.16",
    "askEhmYield": "",
    "bidYield": "",
    "rawName": "2027/J",
    "bidPrice": "99,0000",
    "maturityInDays": "1260 nap",
    "securityType": "PMÁP",
    "maturityDate": "2027.01.27",
    "name": "2027/J",
    "bidEhmYield": "",
    "askYield": "",
    "currency": "HUF",
    "maturityInDays_val": 1260,
    "issueDate": "2022.09.30",
    "longName": "A270127J22"
}