{
    "askPrice": "",
    "green": 0,
    "coupon": null,
    "accruedInterest": "2,9079",
    "settleDate": "2024.03.25",
    "askEhmYield": "",
    "bidYield": "",
    "rawName": "2027/J",
    "bidPrice": "99,0000",
    "maturityInDays": "1038 nap",
    "securityType": "PMÁP",
    "maturityDate": "2027.01.27",
    "name": "2027/J",
    "bidEhmYield": "",
    "askYield": "",
    "currency": "HUF",
    "maturityInDays_val": 1038,
    "issueDate": "2022.09.30",
    "longName": "A270127J22"
}