{
    "askPrice": "",
    "green": 0,
    "coupon": null,
    "accruedInterest": "0,2507",
    "settleDate": "2024.02.01",
    "askEhmYield": "",
    "bidYield": "",
    "rawName": "2027/J",
    "bidPrice": "99,0000",
    "maturityInDays": "1091 nap",
    "securityType": "PMÁP",
    "maturityDate": "2027.01.27",
    "name": "2027/J",
    "bidEhmYield": "",
    "askYield": "",
    "currency": "HUF",
    "maturityInDays_val": 1091,
    "issueDate": "2022.09.30",
    "longName": "A270127J22"
}