{
    "askPrice": "",
    "green": 0,
    "coupon": "9,00 %",
    "accruedInterest": "7,4959",
    "settleDate": "2023.12.22",
    "askEhmYield": "",
    "bidYield": "14,92",
    "rawName": "K2024/08",
    "bidPrice": "99,0000",
    "coupon_val": 9,
    "maturityInDays": "61 nap",
    "securityType": "1MÁP",
    "maturityDate": "2024.02.21",
    "name": "K2024/08",
    "bidEhmYield": "14,07",
    "askYield": "",
    "currency": "HUF",
    "maturityInDays_val": 61,
    "issueDate": "2023.02.21",
    "longName": "K240221"
}