{
    "askPrice": "",
    "green": 0,
    "coupon": "9,00 %",
    "accruedInterest": "6,1890",
    "settleDate": "2023.10.30",
    "askEhmYield": "",
    "bidYield": "12,07",
    "rawName": "K2024/08",
    "bidPrice": "99,0000",
    "coupon_val": 9,
    "maturityInDays": "114 nap",
    "securityType": "1MÁP",
    "maturityDate": "2024.02.21",
    "name": "K2024/08",
    "bidEhmYield": "11,60",
    "askYield": "",
    "currency": "HUF",
    "maturityInDays_val": 114,
    "issueDate": "2023.02.21",
    "longName": "K240221"
}