{
    "askPrice": "",
    "green": 0,
    "coupon": "9,00 %",
    "accruedInterest": "1,2082",
    "settleDate": "2023.04.11",
    "askEhmYield": "",
    "bidYield": "10,20",
    "rawName": "K2024/08",
    "bidPrice": "99,0000",
    "coupon_val": 9,
    "maturityInDays": "316 nap",
    "securityType": "1MÁP",
    "maturityDate": "2024.02.21",
    "name": "K2024/08",
    "bidEhmYield": "10,13",
    "askYield": "",
    "currency": "HUF",
    "maturityInDays_val": 316,
    "issueDate": "2023.02.21",
    "longName": "K240221"
}