{
    "askPrice": "",
    "green": 0,
    "coupon": "9,00 %",
    "accruedInterest": "4,2904",
    "settleDate": "2023.08.14",
    "askEhmYield": "",
    "bidYield": "10,83",
    "rawName": "K2024/08",
    "bidPrice": "99,0000",
    "coupon_val": 9,
    "maturityInDays": "191 nap",
    "securityType": "1MÁP",
    "maturityDate": "2024.02.21",
    "name": "K2024/08",
    "bidEhmYield": "10,56",
    "askYield": "",
    "currency": "HUF",
    "maturityInDays_val": 191,
    "issueDate": "2023.02.21",
    "longName": "K240221"
}