{
    "askPrice": "",
    "green": 0,
    "coupon": "9,00 %",
    "accruedInterest": "4,3397",
    "settleDate": "2023.08.16",
    "askEhmYield": "",
    "bidYield": "10,85",
    "rawName": "K2024/08",
    "bidPrice": "99,0000",
    "coupon_val": 9,
    "maturityInDays": "189 nap",
    "securityType": "1MÁP",
    "maturityDate": "2024.02.21",
    "name": "K2024/08",
    "bidEhmYield": "10,58",
    "askYield": "",
    "currency": "HUF",
    "maturityInDays_val": 189,
    "issueDate": "2023.02.21",
    "longName": "K240221"
}