{
    "askPrice": "",
    "green": 0,
    "coupon": "9,00 %",
    "accruedInterest": "3,2548",
    "settleDate": "2023.07.03",
    "askEhmYield": "",
    "bidYield": "10,52",
    "rawName": "K2024/08",
    "bidPrice": "99,0000",
    "coupon_val": 9,
    "maturityInDays": "233 nap",
    "securityType": "1MÁP",
    "maturityDate": "2024.02.21",
    "name": "K2024/08",
    "bidEhmYield": "10,33",
    "askYield": "",
    "currency": "HUF",
    "maturityInDays_val": 233,
    "issueDate": "2023.02.21",
    "longName": "K240221"
}