{
    "askPrice": "",
    "green": 0,
    "coupon": "9,00 %",
    "accruedInterest": "7,7671",
    "settleDate": "2024.01.02",
    "askEhmYield": "",
    "bidYield": "16,31",
    "rawName": "K2024/08",
    "bidPrice": "99,0000",
    "coupon_val": 9,
    "maturityInDays": "50 nap",
    "securityType": "1MÁP",
    "maturityDate": "2024.02.21",
    "name": "K2024/08",
    "bidEhmYield": "15,27",
    "askYield": "",
    "currency": "HUF",
    "maturityInDays_val": 50,
    "issueDate": "2023.02.21",
    "longName": "K240221"
}