{
    "askPrice": "",
    "green": 0,
    "coupon": "9,00 %",
    "accruedInterest": "8,7041",
    "settleDate": "2024.02.09",
    "askEhmYield": "",
    "bidYield": "32,20",
    "rawName": "K2024/08",
    "bidPrice": "99,3000",
    "coupon_val": 9,
    "maturityInDays": "12 nap",
    "securityType": "1MÁP",
    "maturityDate": "2024.02.21",
    "name": "K2024/08",
    "bidEhmYield": "28,05",
    "askYield": "",
    "currency": "HUF",
    "maturityInDays_val": 12,
    "issueDate": "2023.02.21",
    "longName": "K240221"
}