{
    "askPrice": "",
    "green": 0,
    "coupon": "9,00 %",
    "accruedInterest": "8,4329",
    "settleDate": "2024.01.29",
    "askEhmYield": "",
    "bidYield": "22,18",
    "rawName": "K2024/08",
    "bidPrice": "99,2000",
    "coupon_val": 9,
    "maturityInDays": "23 nap",
    "securityType": "1MÁP",
    "maturityDate": "2024.02.21",
    "name": "K2024/08",
    "bidEhmYield": "20,16",
    "askYield": "",
    "currency": "HUF",
    "maturityInDays_val": 23,
    "issueDate": "2023.02.21",
    "longName": "K240221"
}