{
    "askPrice": "",
    "green": 0,
    "coupon": "3,50 %",
    "accruedInterest": "0,51",
    "settleDate": "2022.07.01",
    "askEhmYield": "",
    "bidYield": "",
    "rawName": "N2026/46",
    "bidPrice": "99,50",
    "coupon_val": 3.5,
    "maturityInDays": "1598 nap",
    "securityType": "MÁP Plusz",
    "maturityDate": "2026.11.15",
    "name": "N2026/46",
    "bidEhmYield": "",
    "askYield": "",
    "currency": "HUF",
    "maturityInDays_val": 1598,
    "longName": "N261115"
}