{
    "askPrice": "",
    "green": 0,
    "coupon": "3,50 %",
    "accruedInterest": "3,7973",
    "settleDate": "2023.09.19",
    "askEhmYield": "",
    "bidYield": "5,60",
    "rawName": "N2026/46",
    "bidPrice": "99,5000",
    "coupon_val": 3.5,
    "maturityInDays": "1153 nap",
    "securityType": "MÁP Plusz",
    "maturityDate": "2026.11.15",
    "name": "N2026/46",
    "bidEhmYield": "",
    "askYield": "",
    "currency": "HUF",
    "maturityInDays_val": 1153,
    "issueDate": "2021.11.15",
    "longName": "N261115"
}