{
    "askPrice": "",
    "green": 0,
    "coupon": "3,50 %",
    "accruedInterest": "1,6274",
    "settleDate": "2023.03.27",
    "askEhmYield": "",
    "bidYield": "5,44",
    "rawName": "N2026/46",
    "bidPrice": "99,5000",
    "coupon_val": 3.5,
    "maturityInDays": "1329 nap",
    "securityType": "MÁP Plusz",
    "maturityDate": "2026.11.15",
    "name": "N2026/46",
    "bidEhmYield": "",
    "askYield": "",
    "currency": "HUF",
    "maturityInDays_val": 1329,
    "issueDate": "2021.11.15",
    "longName": "N261115"
}