{
    "askPrice": "",
    "green": 0,
    "coupon": "3,50 %",
    "accruedInterest": "2,1311",
    "settleDate": "2024.04.19",
    "askEhmYield": "",
    "bidYield": "5,77",
    "rawName": "N2026/46",
    "bidPrice": "99,5000",
    "coupon_val": 3.5,
    "maturityInDays": "940 nap",
    "securityType": "MÁP Plusz",
    "maturityDate": "2026.11.15",
    "name": "N2026/46",
    "bidEhmYield": "",
    "askYield": "",
    "currency": "HUF",
    "maturityInDays_val": 940,
    "issueDate": "2021.11.15",
    "longName": "N261115"
}