{
    "askPrice": "",
    "green": 0,
    "coupon": "3,50 %",
    "accruedInterest": "0,99",
    "settleDate": "2022.09.19",
    "askEhmYield": "",
    "bidYield": "",
    "rawName": "N2026/51",
    "bidPrice": "99,50",
    "coupon_val": 3.5,
    "maturityInDays": "1553 nap",
    "securityType": "MÁP Plusz",
    "maturityDate": "2026.12.20",
    "name": "N2026/51",
    "bidEhmYield": "",
    "askYield": "",
    "currency": "HUF",
    "maturityInDays_val": 1553,
    "longName": "N261220"
}