{
    "askPrice": "",
    "green": 0,
    "coupon": "3,50 %",
    "accruedInterest": "1,9454",
    "settleDate": "2022.12.15",
    "askEhmYield": "",
    "bidYield": "5,35",
    "rawName": "N2026/51",
    "bidPrice": "99,5000",
    "coupon_val": 3.5,
    "maturityInDays": "1466 nap",
    "securityType": "MÁP Plusz",
    "maturityDate": "2026.12.20",
    "name": "N2026/51",
    "bidEhmYield": "",
    "askYield": "",
    "currency": "HUF",
    "maturityInDays_val": 1466,
    "issueDate": "2021.12.20",
    "longName": "N261220"
}