{
    "askPrice": "",
    "green": 0,
    "coupon": "3,50 %",
    "accruedInterest": "1,53",
    "settleDate": "2022.11.07",
    "askEhmYield": "",
    "bidYield": "5,32",
    "rawName": "N2026/51",
    "bidPrice": "99,50",
    "coupon_val": 3.5,
    "maturityInDays": "1504 nap",
    "securityType": "MÁP Plusz",
    "maturityDate": "2026.12.20",
    "name": "N2026/51",
    "bidEhmYield": "",
    "askYield": "",
    "currency": "HUF",
    "maturityInDays_val": 1504,
    "issueDate": "2021-12-20",
    "longName": "N261220"
}