{
    "askPrice": "",
    "green": 0,
    "coupon": "3,50 %",
    "accruedInterest": "4,1795",
    "settleDate": "2023.11.24",
    "askEhmYield": "",
    "bidYield": "5,64",
    "rawName": "N2026/51",
    "bidPrice": "99,5000",
    "coupon_val": 3.5,
    "maturityInDays": "1122 nap",
    "securityType": "MÁP Plusz",
    "maturityDate": "2026.12.20",
    "name": "N2026/51",
    "bidEhmYield": "",
    "askYield": "",
    "currency": "HUF",
    "maturityInDays_val": 1122,
    "issueDate": "2021.12.20",
    "longName": "N261220"
}