{
    "askPrice": "",
    "green": 0,
    "coupon": "7,00 %",
    "accruedInterest": "0,0385",
    "settleDate": "2024.04.24",
    "askEhmYield": "",
    "bidYield": "7,61",
    "rawName": "2027/Q1",
    "bidPrice": "99,0000",
    "coupon_val": 7,
    "maturityInDays": "1003 nap",
    "securityType": "FixMÁP",
    "maturityDate": "2027.01.22",
    "name": "2027/Q1",
    "bidEhmYield": "7,61",
    "askYield": "",
    "currency": "HUF",
    "maturityInDays_val": 1003,
    "issueDate": "2024.01.09",
    "longName": "A270122Q24"
}