{
    "askPrice": "100,0000",
    "green": 0,
    "coupon": "7,00 %",
    "accruedInterest": "0,6511",
    "settleDate": "2024.02.12",
    "askEhmYield": "7,18",
    "bidYield": "7,59",
    "rawName": "2027/Q1",
    "bidPrice": "99,0000",
    "coupon_val": 7,
    "maturityInDays": "1075 nap",
    "securityType": "FixMÁP",
    "maturityDate": "2027.01.22",
    "name": "2027/Q1",
    "bidEhmYield": "7,58",
    "askYield": "7,18",
    "currency": "HUF",
    "maturityInDays_val": 1075,
    "issueDate": "2024.01.09",
    "longName": "A270122Q24"
}