{
    "askPrice": "100,0000",
    "green": 0,
    "coupon": "7,00 %",
    "accruedInterest": "1,4011",
    "settleDate": "2024.03.22",
    "askEhmYield": "7,18",
    "bidYield": "7,60",
    "rawName": "2027/Q1",
    "bidPrice": "99,0000",
    "coupon_val": 7,
    "maturityInDays": "1036 nap",
    "securityType": "FixMÁP",
    "maturityDate": "2027.01.22",
    "name": "2027/Q1",
    "bidEhmYield": "7,59",
    "askYield": "7,19",
    "currency": "HUF",
    "maturityInDays_val": 1036,
    "issueDate": "2024.01.09",
    "longName": "A270122Q24"
}