{
    "askPrice": "",
    "green": 0,
    "coupon": null,
    "accruedInterest": "0,41",
    "settleDate": "2022.10.17",
    "askEhmYield": "",
    "bidYield": "",
    "rawName": "2024/J",
    "bidPrice": "99,00",
    "maturityInDays": "709 nap",
    "securityType": "PMÁP",
    "maturityDate": "2024.09.25",
    "name": "2024/J",
    "bidEhmYield": "",
    "askYield": "",
    "currency": "HUF",
    "maturityInDays_val": 709,
    "longName": "A240925J19"
}