{
    "askPrice": "",
    "green": 0,
    "coupon": null,
    "accruedInterest": "0,71",
    "settleDate": "2022.11.02",
    "askEhmYield": "",
    "bidYield": "",
    "rawName": "2024/J",
    "bidPrice": "99,00",
    "maturityInDays": "693 nap",
    "securityType": "PMÁP",
    "maturityDate": "2024.09.25",
    "name": "2024/J",
    "bidEhmYield": "",
    "askYield": "",
    "currency": "HUF",
    "maturityInDays_val": 693,
    "issueDate": "2019-06-04",
    "longName": "A240925J19"
}