{
    "askPrice": "",
    "green": 0,
    "coupon": null,
    "accruedInterest": "4,95",
    "settleDate": "2022.09.21",
    "askEhmYield": "",
    "bidYield": "",
    "rawName": "2024/J",
    "bidPrice": "99,00",
    "maturityInDays": "735 nap",
    "securityType": "PMÁP",
    "maturityDate": "2024.09.25",
    "name": "2024/J",
    "bidEhmYield": "",
    "askYield": "",
    "currency": "HUF",
    "maturityInDays_val": 735,
    "longName": "A240925J19"
}