{
    "askPrice": "",
    "green": 0,
    "coupon": null,
    "accruedInterest": "3,70",
    "settleDate": "2022.06.22",
    "askEhmYield": "",
    "bidYield": "",
    "rawName": "2024/J",
    "bidPrice": "99,00",
    "maturityInDays": "826 nap",
    "securityType": "PMÁP",
    "maturityDate": "2024.09.25",
    "name": "2024/J",
    "bidEhmYield": "",
    "askYield": "",
    "currency": "HUF",
    "maturityInDays_val": 826,
    "longName": "A240925J19"
}