{
    "askPrice": "",
    "green": 0,
    "coupon": null,
    "accruedInterest": "4,0800",
    "settleDate": "2023.05.02",
    "askEhmYield": "",
    "bidYield": "",
    "rawName": "2024/J",
    "bidPrice": "99,0000",
    "maturityInDays": "512 nap",
    "securityType": "PMÁP",
    "maturityDate": "2024.09.25",
    "name": "2024/J",
    "bidEhmYield": "",
    "askYield": "",
    "currency": "HUF",
    "maturityInDays_val": 512,
    "issueDate": "2019.06.04",
    "longName": "A240925J19"
}