{
    "askPrice": "",
    "green": 0,
    "coupon": null,
    "accruedInterest": "2,8877",
    "settleDate": "2023.02.27",
    "askEhmYield": "",
    "bidYield": "",
    "rawName": "2024/J",
    "bidPrice": "99,0000",
    "maturityInDays": "576 nap",
    "securityType": "PMÁP",
    "maturityDate": "2024.09.25",
    "name": "2024/J",
    "bidEhmYield": "",
    "askYield": "",
    "currency": "HUF",
    "maturityInDays_val": 576,
    "issueDate": "2019.06.04",
    "longName": "A240925J19"
}