{
    "askPrice": "",
    "green": 0,
    "coupon": "3,50 %",
    "accruedInterest": "2,92",
    "settleDate": "2022.11.14",
    "askEhmYield": "",
    "bidYield": "5,53",
    "rawName": "N2026/12",
    "bidPrice": "99,50",
    "coupon_val": 3.5,
    "maturityInDays": "1224 nap",
    "securityType": "MÁP Plusz",
    "maturityDate": "2026.03.22",
    "name": "N2026/12",
    "bidEhmYield": "",
    "askYield": "",
    "currency": "HUF",
    "maturityInDays_val": 1224,
    "issueDate": "2021-03-22",
    "longName": "N260322"
}