{
    "askPrice": "",
    "green": 0,
    "coupon": "3,50 %",
    "accruedInterest": "1,57",
    "settleDate": "2022.07.27",
    "askEhmYield": "",
    "bidYield": "",
    "rawName": "N2026/12",
    "bidPrice": "99,50",
    "coupon_val": 3.5,
    "maturityInDays": "1334 nap",
    "securityType": "MÁP Plusz",
    "maturityDate": "2026.03.22",
    "name": "N2026/12",
    "bidEhmYield": "",
    "askYield": "",
    "currency": "HUF",
    "maturityInDays_val": 1334,
    "longName": "N260322"
}