{
    "askPrice": "",
    "green": 0,
    "coupon": "3,50 %",
    "accruedInterest": "3,7158",
    "settleDate": "2023.12.19",
    "askEhmYield": "",
    "bidYield": "5,88",
    "rawName": "N2026/12",
    "bidPrice": "99,5000",
    "coupon_val": 3.5,
    "maturityInDays": "824 nap",
    "securityType": "MÁP Plusz",
    "maturityDate": "2026.03.22",
    "name": "N2026/12",
    "bidEhmYield": "",
    "askYield": "",
    "currency": "HUF",
    "maturityInDays_val": 824,
    "issueDate": "2021.03.22",
    "longName": "N260322"
}