{
    "askPrice": "",
    "green": 0,
    "coupon": "3,50 %",
    "accruedInterest": "2,8689",
    "settleDate": "2023.10.18",
    "askEhmYield": "",
    "bidYield": "5,82",
    "rawName": "N2026/12",
    "bidPrice": "99,5000",
    "coupon_val": 3.5,
    "maturityInDays": "886 nap",
    "securityType": "MÁP Plusz",
    "maturityDate": "2026.03.22",
    "name": "N2026/12",
    "bidEhmYield": "",
    "askYield": "",
    "currency": "HUF",
    "maturityInDays_val": 886,
    "issueDate": "2021.03.22",
    "longName": "N260322"
}