{
    "askPrice": "",
    "green": 0,
    "coupon": "3,50 %",
    "accruedInterest": "0,5738",
    "settleDate": "2023.05.03",
    "askEhmYield": "",
    "bidYield": "5,69",
    "rawName": "N2026/12",
    "bidPrice": "99,5000",
    "coupon_val": 3.5,
    "maturityInDays": "1054 nap",
    "securityType": "MÁP Plusz",
    "maturityDate": "2026.03.22",
    "name": "N2026/12",
    "bidEhmYield": "",
    "askYield": "",
    "currency": "HUF",
    "maturityInDays_val": 1054,
    "issueDate": "2021.03.22",
    "longName": "N260322"
}