{
    "askPrice": "",
    "green": 0,
    "coupon": "3,50 %",
    "accruedInterest": "3,7479",
    "settleDate": "2023.01.20",
    "askEhmYield": "",
    "bidYield": "5,60",
    "rawName": "N2026/12",
    "bidPrice": "99,5000",
    "coupon_val": 3.5,
    "maturityInDays": "1157 nap",
    "securityType": "MÁP Plusz",
    "maturityDate": "2026.03.22",
    "name": "N2026/12",
    "bidEhmYield": "",
    "askYield": "",
    "currency": "HUF",
    "maturityInDays_val": 1157,
    "issueDate": "2021.03.22",
    "longName": "N260322"
}