{
    "askPrice": "",
    "green": 0,
    "coupon": "3,50 %",
    "accruedInterest": "0,1658",
    "settleDate": "2024.04.02",
    "askEhmYield": "",
    "bidYield": "5,74",
    "rawName": "N2026/12",
    "bidPrice": "100,0000",
    "coupon_val": 3.5,
    "maturityInDays": "719 nap",
    "securityType": "MÁP Plusz",
    "maturityDate": "2026.03.22",
    "name": "N2026/12",
    "bidEhmYield": "",
    "askYield": "",
    "currency": "HUF",
    "maturityInDays_val": 719,
    "issueDate": "2021.03.22",
    "longName": "N260322"
}