{
    "askPrice": "",
    "green": 0,
    "coupon": "3,50 %",
    "accruedInterest": "0,7986",
    "settleDate": "2024.05.14",
    "askEhmYield": "",
    "bidYield": "6,04",
    "rawName": "N2026/12",
    "bidPrice": "99,5000",
    "coupon_val": 3.5,
    "maturityInDays": "677 nap",
    "securityType": "MÁP Plusz",
    "maturityDate": "2026.03.22",
    "name": "N2026/12",
    "bidEhmYield": "",
    "askYield": "",
    "currency": "HUF",
    "maturityInDays_val": 677,
    "issueDate": "2021.03.22",
    "longName": "N260322"
}