{
    "askPrice": "",
    "green": 0,
    "coupon": "4,25 %",
    "accruedInterest": "2,03",
    "settleDate": "2022.11.07",
    "askEhmYield": "",
    "bidYield": "5,19",
    "rawName": "K2023/20",
    "bidPrice": "99,50",
    "coupon_val": 4.25,
    "maturityInDays": "191 nap",
    "securityType": "1MÁP",
    "maturityDate": "2023.05.17",
    "name": "K2023/20",
    "bidEhmYield": "5,13",
    "askYield": "",
    "currency": "HUF",
    "maturityInDays_val": 191,
    "issueDate": "2022-05-17",
    "longName": "K230517"
}