{
    "askPrice": "",
    "green": 0,
    "coupon": "4,25 %",
    "accruedInterest": "2,4336",
    "settleDate": "2022.12.12",
    "askEhmYield": "",
    "bidYield": "6,62",
    "rawName": "K2023/20",
    "bidPrice": "99,0000",
    "coupon_val": 4.25,
    "maturityInDays": "156 nap",
    "securityType": "1MÁP",
    "maturityDate": "2023.05.17",
    "name": "K2023/20",
    "bidEhmYield": "6,50",
    "askYield": "",
    "currency": "HUF",
    "maturityInDays_val": 156,
    "issueDate": "2022.05.17",
    "longName": "K230517"
}