{
    "askPrice": "",
    "green": 0,
    "coupon": "4,25 %",
    "accruedInterest": "3,0390",
    "settleDate": "2023.02.02",
    "askEhmYield": "",
    "bidYield": "7,81",
    "rawName": "K2023/20",
    "bidPrice": "99,0000",
    "coupon_val": 4.25,
    "maturityInDays": "104 nap",
    "securityType": "1MÁP",
    "maturityDate": "2023.05.17",
    "name": "K2023/20",
    "bidEhmYield": "7,60",
    "askYield": "",
    "currency": "HUF",
    "maturityInDays_val": 104,
    "issueDate": "2022.05.17",
    "longName": "K230517"
}