{
    "askPrice": "",
    "green": 0,
    "coupon": "4,25 %",
    "accruedInterest": "2,9342",
    "settleDate": "2023.01.24",
    "askEhmYield": "",
    "bidYield": "7,53",
    "rawName": "K2023/20",
    "bidPrice": "99,0000",
    "coupon_val": 4.25,
    "maturityInDays": "113 nap",
    "securityType": "1MÁP",
    "maturityDate": "2023.05.17",
    "name": "K2023/20",
    "bidEhmYield": "7,34",
    "askYield": "",
    "currency": "HUF",
    "maturityInDays_val": 113,
    "issueDate": "2022.05.17",
    "longName": "K230517"
}