{
    "askPrice": "",
    "green": 0,
    "coupon": "4,25 %",
    "accruedInterest": "3,1671",
    "settleDate": "2023.02.13",
    "askEhmYield": "",
    "bidYield": "8,24",
    "rawName": "K2023/20",
    "bidPrice": "99,0000",
    "coupon_val": 4.25,
    "maturityInDays": "93 nap",
    "securityType": "1MÁP",
    "maturityDate": "2023.05.17",
    "name": "K2023/20",
    "bidEhmYield": "8,00",
    "askYield": "",
    "currency": "HUF",
    "maturityInDays_val": 93,
    "issueDate": "2022.05.17",
    "longName": "K230517"
}