{
    "askPrice": "",
    "green": 0,
    "coupon": "4,25 %",
    "accruedInterest": "3,8308",
    "settleDate": "2023.04.11",
    "askEhmYield": "",
    "bidYield": "14,91",
    "rawName": "K2023/20",
    "bidPrice": "99,0000",
    "coupon_val": 4.25,
    "maturityInDays": "36 nap",
    "securityType": "1MÁP",
    "maturityDate": "2023.05.17",
    "name": "K2023/20",
    "bidEhmYield": "13,99",
    "askYield": "",
    "currency": "HUF",
    "maturityInDays_val": 36,
    "issueDate": "2022.05.17",
    "longName": "K230517"
}