{
    "askPrice": "",
    "green": 0,
    "coupon": "4,25 %",
    "accruedInterest": "3,2719",
    "settleDate": "2023.02.22",
    "askEhmYield": "",
    "bidYield": "8,68",
    "rawName": "K2023/20",
    "bidPrice": "99,0000",
    "coupon_val": 4.25,
    "maturityInDays": "84 nap",
    "securityType": "1MÁP",
    "maturityDate": "2023.05.17",
    "name": "K2023/20",
    "bidEhmYield": "8,40",
    "askYield": "",
    "currency": "HUF",
    "maturityInDays_val": 84,
    "issueDate": "2022.05.17",
    "longName": "K230517"
}