{
    "askPrice": "",
    "green": 0,
    "coupon": "3,50 %",
    "accruedInterest": "0,21",
    "settleDate": "2022.10.04",
    "askEhmYield": "",
    "bidYield": "",
    "rawName": "N2027/37",
    "bidPrice": "99,50",
    "coupon_val": 3.5,
    "maturityInDays": "1804 nap",
    "securityType": "MÁP Plusz",
    "maturityDate": "2027.09.12",
    "name": "N2027/37",
    "bidEhmYield": "",
    "askYield": "",
    "currency": "HUF",
    "maturityInDays_val": 1804,
    "longName": "N270912"
}