{
    "askPrice": "",
    "green": 0,
    "coupon": "3,50 %",
    "accruedInterest": "0,63",
    "settleDate": "2022.11.16",
    "askEhmYield": "",
    "bidYield": "5,08",
    "rawName": "N2027/37",
    "bidPrice": "99,50",
    "coupon_val": 3.5,
    "maturityInDays": "1761 nap",
    "securityType": "MÁP Plusz",
    "maturityDate": "2027.09.12",
    "name": "N2027/37",
    "bidEhmYield": "",
    "askYield": "",
    "currency": "HUF",
    "maturityInDays_val": 1761,
    "issueDate": "2022-09-12",
    "longName": "N270912"
}