{
    "askPrice": "",
    "green": 0,
    "coupon": "3,50 %",
    "accruedInterest": "1,4213",
    "settleDate": "2023.02.06",
    "askEhmYield": "",
    "bidYield": "5,16",
    "rawName": "N2027/37",
    "bidPrice": "99,5000",
    "coupon_val": 3.5,
    "maturityInDays": "1679 nap",
    "securityType": "MÁP Plusz",
    "maturityDate": "2027.09.12",
    "name": "N2027/37",
    "bidEhmYield": "",
    "askYield": "",
    "currency": "HUF",
    "maturityInDays_val": 1679,
    "issueDate": "2022.09.12",
    "longName": "N270912"
}