{
    "askPrice": "",
    "green": 0,
    "coupon": "3,50 %",
    "accruedInterest": "1,4565",
    "settleDate": "2022.12.19",
    "askEhmYield": "",
    "bidYield": "5,31",
    "rawName": "N2027/06",
    "bidPrice": "99,5000",
    "coupon_val": 3.5,
    "maturityInDays": "1511 nap",
    "securityType": "MÁP Plusz",
    "maturityDate": "2027.02.07",
    "name": "N2027/06",
    "bidEhmYield": "",
    "askYield": "",
    "currency": "HUF",
    "maturityInDays_val": 1511,
    "issueDate": "2022.02.07",
    "longName": "N270207"
}