{
    "askPrice": "",
    "green": 0,
    "coupon": "3,50 %",
    "accruedInterest": "1,31",
    "settleDate": "2022.06.23",
    "askEhmYield": "",
    "bidYield": "",
    "rawName": "N2027/06",
    "bidPrice": "99,50",
    "coupon_val": 3.5,
    "maturityInDays": "1690 nap",
    "securityType": "MÁP Plusz",
    "maturityDate": "2027.02.07",
    "name": "N2027/06",
    "bidEhmYield": "",
    "askYield": "",
    "currency": "HUF",
    "maturityInDays_val": 1690,
    "longName": "N270207"
}