{
    "askPrice": "",
    "green": 0,
    "coupon": "3,50 %",
    "accruedInterest": "1,04",
    "settleDate": "2022.11.11",
    "askEhmYield": "",
    "bidYield": "5,28",
    "rawName": "N2027/06",
    "bidPrice": "99,50",
    "coupon_val": 3.5,
    "maturityInDays": "1549 nap",
    "securityType": "MÁP Plusz",
    "maturityDate": "2027.02.07",
    "name": "N2027/06",
    "bidEhmYield": "",
    "askYield": "",
    "currency": "HUF",
    "maturityInDays_val": 1549,
    "issueDate": "2022-02-07",
    "longName": "N270207"
}