{
    "askPrice": "",
    "green": 0,
    "coupon": "3,50 %",
    "accruedInterest": "1,6274",
    "settleDate": "2023.06.19",
    "askEhmYield": "",
    "bidYield": "5,44",
    "rawName": "N2027/06",
    "bidPrice": "99,5000",
    "coupon_val": 3.5,
    "maturityInDays": "1329 nap",
    "securityType": "MÁP Plusz",
    "maturityDate": "2027.02.07",
    "name": "N2027/06",
    "bidEhmYield": "",
    "askYield": "",
    "currency": "HUF",
    "maturityInDays_val": 1329,
    "issueDate": "2022.02.07",
    "longName": "N270207"
}