{
    "askPrice": "",
    "green": 0,
    "coupon": "3,50 %",
    "accruedInterest": "0,2186",
    "settleDate": "2024.02.23",
    "askEhmYield": "",
    "bidYield": "5,68",
    "rawName": "N2027/06",
    "bidPrice": "99,5000",
    "coupon_val": 3.5,
    "maturityInDays": "1080 nap",
    "securityType": "MÁP Plusz",
    "maturityDate": "2027.02.07",
    "name": "N2027/06",
    "bidEhmYield": "",
    "askYield": "",
    "currency": "HUF",
    "maturityInDays_val": 1080,
    "issueDate": "2022.02.07",
    "longName": "N270207"
}