{
    "askPrice": "",
    "green": 0,
    "coupon": "3,50 %",
    "accruedInterest": 0,
    "settleDate": "2022.08.15",
    "askEhmYield": "",
    "bidYield": "",
    "rawName": "N2025/33",
    "bidPrice": "",
    "coupon_val": 3.5,
    "maturityInDays": "1098 nap",
    "securityType": "MÁP Plusz",
    "maturityDate": "2025.08.17",
    "name": "N2025/33",
    "bidEhmYield": "",
    "askYield": "",
    "currency": "HUF",
    "maturityInDays_val": 1098,
    "longName": "N250817"
}