{
    "askPrice": "",
    "green": 0,
    "coupon": "3,50 %",
    "accruedInterest": "1,5068",
    "settleDate": "2022.12.05",
    "askEhmYield": "",
    "bidYield": "5,73",
    "rawName": "N2025/33",
    "bidPrice": "99,5000",
    "coupon_val": 3.5,
    "maturityInDays": "986 nap",
    "securityType": "MÁP Plusz",
    "maturityDate": "2025.08.17",
    "name": "N2025/33",
    "bidEhmYield": "",
    "askYield": "",
    "currency": "HUF",
    "maturityInDays_val": 986,
    "issueDate": "2020.08.17",
    "longName": "N250817"
}