{
    "askPrice": "",
    "green": 0,
    "coupon": "3,50 %",
    "accruedInterest": "3,83",
    "settleDate": "2022.06.24",
    "askEhmYield": "",
    "bidYield": "",
    "rawName": "N2025/33",
    "bidPrice": "99,50",
    "coupon_val": 3.5,
    "maturityInDays": "1150 nap",
    "securityType": "MÁP Plusz",
    "maturityDate": "2025.08.17",
    "name": "N2025/33",
    "bidEhmYield": "",
    "askYield": "",
    "currency": "HUF",
    "maturityInDays_val": 1150,
    "longName": "N250817"
}