{
    "askPrice": "",
    "green": 0,
    "coupon": "3,50 %",
    "accruedInterest": "1,07",
    "settleDate": "2022.11.03",
    "askEhmYield": "",
    "bidYield": "5,71",
    "rawName": "N2025/33",
    "bidPrice": "99,50",
    "coupon_val": 3.5,
    "maturityInDays": "1018 nap",
    "securityType": "MÁP Plusz",
    "maturityDate": "2025.08.17",
    "name": "N2025/33",
    "bidEhmYield": "",
    "askYield": "",
    "currency": "HUF",
    "maturityInDays_val": 1018,
    "issueDate": "2020-08-17",
    "longName": "N250817"
}