{
    "askPrice": "",
    "green": 0,
    "coupon": "3,50 %",
    "accruedInterest": "3,0548",
    "settleDate": "2023.03.28",
    "askEhmYield": "",
    "bidYield": "5,83",
    "rawName": "N2025/33",
    "bidPrice": "99,5000",
    "coupon_val": 3.5,
    "maturityInDays": "873 nap",
    "securityType": "MÁP Plusz",
    "maturityDate": "2025.08.17",
    "name": "N2025/33",
    "bidEhmYield": "",
    "askYield": "",
    "currency": "HUF",
    "maturityInDays_val": 873,
    "issueDate": "2020.08.17",
    "longName": "N250817"
}