{
    "askPrice": "",
    "green": 0,
    "coupon": "3,50 %",
    "accruedInterest": "3,7671",
    "settleDate": "2023.05.19",
    "askEhmYield": "",
    "bidYield": "5,89",
    "rawName": "N2025/33",
    "bidPrice": "99,5000",
    "coupon_val": 3.5,
    "maturityInDays": "821 nap",
    "securityType": "MÁP Plusz",
    "maturityDate": "2025.08.17",
    "name": "N2025/33",
    "bidEhmYield": "",
    "askYield": "",
    "currency": "HUF",
    "maturityInDays_val": 821,
    "issueDate": "2020.08.17",
    "longName": "N250817"
}