{
    "askPrice": "",
    "green": 0,
    "coupon": "3,50 %",
    "accruedInterest": "2,8101",
    "settleDate": "2024.02.20",
    "askEhmYield": "",
    "bidYield": "6,16",
    "rawName": "N2025/33",
    "bidPrice": "99,5000",
    "coupon_val": 3.5,
    "maturityInDays": "544 nap",
    "securityType": "MÁP Plusz",
    "maturityDate": "2025.08.17",
    "name": "N2025/33",
    "bidEhmYield": "",
    "askYield": "",
    "currency": "HUF",
    "maturityInDays_val": 544,
    "issueDate": "2020.08.17",
    "longName": "N250817"
}