{
    "askPrice": "99,4537",
    "green": 0,
    "coupon": 0,
    "accruedInterest": 0,
    "settleDate": "2023.06.12",
    "askEhmYield": "12,53",
    "bidYield": "13,54",
    "rawName": "D230628",
    "bidPrice": "99,4018",
    "maturityInDays": "16 nap",
    "securityType": "DKJ",
    "maturityDate": "2023.06.28",
    "name": "D230628",
    "bidEhmYield": "13,73",
    "askYield": "12,36",
    "currency": "HUF",
    "maturityInDays_val": 16,
    "issueDate": "2022.06.29",
    "longName": "D230628"
}