{
    "askPrice": "96,8623",
    "green": 0,
    "coupon": 0,
    "accruedInterest": 0,
    "settleDate": "2023.04.06",
    "askEhmYield": "14,25",
    "bidYield": "15,37",
    "rawName": "D230628",
    "bidPrice": "96,5776",
    "maturityInDays": "83 nap",
    "securityType": "DKJ",
    "maturityDate": "2023.06.28",
    "name": "D230628",
    "bidEhmYield": "15,58",
    "askYield": "14,05",
    "currency": "HUF",
    "maturityInDays_val": 83,
    "issueDate": "2022.06.29",
    "longName": "D230628"
}