{
    "askPrice": "94,9631",
    "green": 0,
    "coupon": 0,
    "accruedInterest": 0,
    "settleDate": "2023.01.18",
    "askEhmYield": "12,02",
    "bidYield": "12,70",
    "rawName": "D230628",
    "bidPrice": "94,6255",
    "maturityInDays": "161 nap",
    "securityType": "DKJ",
    "maturityDate": "2023.06.28",
    "name": "D230628",
    "bidEhmYield": "12,88",
    "askYield": "11,86",
    "currency": "HUF",
    "maturityInDays_val": 161,
    "issueDate": "2022.06.29",
    "longName": "D230628"
}