{
    "askPrice": "94,9069",
    "green": 0,
    "coupon": 0,
    "accruedInterest": 0,
    "settleDate": "2023.01.27",
    "askEhmYield": "12,89",
    "bidYield": "13,50",
    "rawName": "D230628",
    "bidPrice": "94,6074",
    "maturityInDays": "152 nap",
    "securityType": "DKJ",
    "maturityDate": "2023.06.28",
    "name": "D230628",
    "bidEhmYield": "13,69",
    "askYield": "12,71",
    "currency": "HUF",
    "maturityInDays_val": 152,
    "issueDate": "2022.06.29",
    "longName": "D230628"
}