{
    "askPrice": "97,2270",
    "green": 0,
    "coupon": 0,
    "accruedInterest": 0,
    "settleDate": "2023.04.14",
    "askEhmYield": "13,88",
    "bidYield": "14,98",
    "rawName": "D230628",
    "bidPrice": "96,9736",
    "maturityInDays": "75 nap",
    "securityType": "DKJ",
    "maturityDate": "2023.06.28",
    "name": "D230628",
    "bidEhmYield": "15,19",
    "askYield": "13,69",
    "currency": "HUF",
    "maturityInDays_val": 75,
    "issueDate": "2022.06.29",
    "longName": "D230628"
}