{
    "askPrice": "95,4037",
    "green": 0,
    "coupon": 0,
    "accruedInterest": 0,
    "settleDate": "2023.02.20",
    "askEhmYield": "13,74",
    "bidYield": "14,34",
    "rawName": "D230628",
    "bidPrice": "95,1487",
    "maturityInDays": "128 nap",
    "securityType": "DKJ",
    "maturityDate": "2023.06.28",
    "name": "D230628",
    "bidEhmYield": "14,54",
    "askYield": "13,55",
    "currency": "HUF",
    "maturityInDays_val": 128,
    "issueDate": "2022.06.29",
    "longName": "D230628"
}