{
    "askPrice": "98,0634",
    "green": 0,
    "coupon": 0,
    "accruedInterest": 0,
    "settleDate": "2023.05.08",
    "askEhmYield": "14,13",
    "bidYield": "15,25",
    "rawName": "D230628",
    "bidPrice": "97,8853",
    "maturityInDays": "51 nap",
    "securityType": "DKJ",
    "maturityDate": "2023.06.28",
    "name": "D230628",
    "bidEhmYield": "15,46",
    "askYield": "13,94",
    "currency": "HUF",
    "maturityInDays_val": 51,
    "issueDate": "2022.06.29",
    "longName": "D230628"
}