{
    "askPrice": "",
    "green": 0,
    "coupon": 0,
    "accruedInterest": 0,
    "settleDate": "2023.06.20",
    "askEhmYield": "",
    "bidYield": "13,44",
    "rawName": "D230628",
    "bidPrice": "99,7022",
    "maturityInDays": "8 nap",
    "securityType": "DKJ",
    "maturityDate": "2023.06.28",
    "name": "D230628",
    "bidEhmYield": "13,63",
    "askYield": "",
    "currency": "HUF",
    "maturityInDays_val": 8,
    "issueDate": "2022.06.29",
    "longName": "D230628"
}