{
    "askPrice": "",
    "green": 0,
    "coupon": "3,50 %",
    "accruedInterest": "0,47",
    "settleDate": "2022.08.29",
    "askEhmYield": "",
    "bidYield": "",
    "rawName": "N2027/03",
    "bidPrice": "99,50",
    "coupon_val": 3.5,
    "maturityInDays": "1602 nap",
    "securityType": "MÁP Plusz",
    "maturityDate": "2027.01.17",
    "name": "N2027/03",
    "bidEhmYield": "",
    "askYield": "",
    "currency": "HUF",
    "maturityInDays_val": 1602,
    "longName": "N270117"
}