{
    "askPrice": "",
    "green": 0,
    "coupon": "3,50 %",
    "accruedInterest": "1,6848",
    "settleDate": "2022.12.19",
    "askEhmYield": "",
    "bidYield": "5,33",
    "rawName": "N2027/03",
    "bidPrice": "99,5000",
    "coupon_val": 3.5,
    "maturityInDays": "1490 nap",
    "securityType": "MÁP Plusz",
    "maturityDate": "2027.01.17",
    "name": "N2027/03",
    "bidEhmYield": "",
    "askYield": "",
    "currency": "HUF",
    "maturityInDays_val": 1490,
    "issueDate": "2022.01.17",
    "longName": "N270117"
}