{
    "askPrice": "",
    "green": 0,
    "coupon": "3,50 %",
    "accruedInterest": "1,02",
    "settleDate": "2022.10.19",
    "askEhmYield": "",
    "bidYield": "5,28",
    "rawName": "N2027/03",
    "bidPrice": "99,50",
    "coupon_val": 3.5,
    "maturityInDays": "1551 nap",
    "securityType": "MÁP Plusz",
    "maturityDate": "2027.01.17",
    "name": "N2027/03",
    "bidEhmYield": "",
    "askYield": "",
    "currency": "HUF",
    "maturityInDays_val": 1551,
    "longName": "N270117"
}