{
    "askPrice": "",
    "green": 0,
    "coupon": "3,50 %",
    "accruedInterest": "1,17",
    "settleDate": "2022.11.02",
    "askEhmYield": "",
    "bidYield": "5,29",
    "rawName": "N2027/03",
    "bidPrice": "99,50",
    "coupon_val": 3.5,
    "maturityInDays": "1537 nap",
    "securityType": "MÁP Plusz",
    "maturityDate": "2027.01.17",
    "name": "N2027/03",
    "bidEhmYield": "",
    "askYield": "",
    "currency": "HUF",
    "maturityInDays_val": 1537,
    "issueDate": "2022-01-17",
    "longName": "N270117"
}