{
    "askPrice": "",
    "green": 0,
    "coupon": "3,50 %",
    "accruedInterest": "0,7767",
    "settleDate": "2023.03.21",
    "askEhmYield": "",
    "bidYield": "5,40",
    "rawName": "N2027/03",
    "bidPrice": "99,5000",
    "coupon_val": 3.5,
    "maturityInDays": "1398 nap",
    "securityType": "MÁP Plusz",
    "maturityDate": "2027.01.17",
    "name": "N2027/03",
    "bidEhmYield": "",
    "askYield": "",
    "currency": "HUF",
    "maturityInDays_val": 1398,
    "issueDate": "2022.01.17",
    "longName": "N270117"
}