{
    "askPrice": "",
    "green": 0,
    "coupon": "3,50 %",
    "accruedInterest": "0,5055",
    "settleDate": "2024.02.23",
    "askEhmYield": "",
    "bidYield": "5,69",
    "rawName": "N2027/03",
    "bidPrice": "99,5000",
    "coupon_val": 3.5,
    "maturityInDays": "1059 nap",
    "securityType": "MÁP Plusz",
    "maturityDate": "2027.01.17",
    "name": "N2027/03",
    "bidEhmYield": "",
    "askYield": "",
    "currency": "HUF",
    "maturityInDays_val": 1059,
    "issueDate": "2022.01.17",
    "longName": "N270117"
}