{
    "askPrice": "",
    "green": 0,
    "coupon": "3,50 %",
    "accruedInterest": "0,56",
    "settleDate": "2022.11.02",
    "askEhmYield": "",
    "bidYield": "5,07",
    "rawName": "N2027/36",
    "bidPrice": "99,50",
    "coupon_val": 3.5,
    "maturityInDays": "1768 nap",
    "securityType": "MÁP Plusz",
    "maturityDate": "2027.09.05",
    "name": "N2027/36",
    "bidEhmYield": "",
    "askYield": "",
    "currency": "HUF",
    "maturityInDays_val": 1768,
    "issueDate": "2022-09-05",
    "longName": "N270905"
}