{
    "askPrice": "",
    "green": 0,
    "coupon": "3,50 %",
    "accruedInterest": "0,9475",
    "settleDate": "2022.12.12",
    "askEhmYield": "",
    "bidYield": "5,11",
    "rawName": "N2027/36",
    "bidPrice": "99,5000",
    "coupon_val": 3.5,
    "maturityInDays": "1728 nap",
    "securityType": "MÁP Plusz",
    "maturityDate": "2027.09.05",
    "name": "N2027/36",
    "bidEhmYield": "",
    "askYield": "",
    "currency": "HUF",
    "maturityInDays_val": 1728,
    "issueDate": "2022.09.05",
    "longName": "N270905"
}