{
    "askPrice": "",
    "green": 0,
    "coupon": "3,50 %",
    "accruedInterest": "0,38",
    "settleDate": "2022.10.14",
    "askEhmYield": "",
    "bidYield": "",
    "rawName": "N2027/36",
    "bidPrice": "99,50",
    "coupon_val": 3.5,
    "maturityInDays": "1787 nap",
    "securityType": "MÁP Plusz",
    "maturityDate": "2027.09.05",
    "name": "N2027/36",
    "bidEhmYield": "",
    "askYield": "",
    "currency": "HUF",
    "maturityInDays_val": 1787,
    "longName": "N270905"
}