{
    "askPrice": "",
    "green": 0,
    "coupon": "3,50 %",
    "accruedInterest": "0,9185",
    "settleDate": "2022.12.09",
    "askEhmYield": "",
    "bidYield": "5,11",
    "rawName": "N2027/36",
    "bidPrice": "99,5000",
    "coupon_val": 3.5,
    "maturityInDays": "1731 nap",
    "securityType": "MÁP Plusz",
    "maturityDate": "2027.09.05",
    "name": "N2027/36",
    "bidEhmYield": "",
    "askYield": "",
    "currency": "HUF",
    "maturityInDays_val": 1731,
    "issueDate": "2022.09.05",
    "longName": "N270905"
}