{
    "askPrice": "",
    "green": 0,
    "coupon": "3,50 %",
    "accruedInterest": "0,8484",
    "settleDate": "2023.11.13",
    "askEhmYield": "",
    "bidYield": "5,40",
    "rawName": "N2027/36",
    "bidPrice": "99,5000",
    "coupon_val": 3.5,
    "maturityInDays": "1392 nap",
    "securityType": "MÁP Plusz",
    "maturityDate": "2027.09.05",
    "name": "N2027/36",
    "bidEhmYield": "",
    "askYield": "",
    "currency": "HUF",
    "maturityInDays_val": 1392,
    "issueDate": "2022.09.05",
    "longName": "N270905"
}