{
    "askPrice": "",
    "green": 0,
    "coupon": "3,50 %",
    "accruedInterest": "1,6243",
    "settleDate": "2023.02.20",
    "askEhmYield": "",
    "bidYield": "5,18",
    "rawName": "N2027/36",
    "bidPrice": "99,5000",
    "coupon_val": 3.5,
    "maturityInDays": "1658 nap",
    "securityType": "MÁP Plusz",
    "maturityDate": "2027.09.05",
    "name": "N2027/36",
    "bidEhmYield": "",
    "askYield": "",
    "currency": "HUF",
    "maturityInDays_val": 1658,
    "issueDate": "2022.09.05",
    "longName": "N270905"
}