{
    "askPrice": "",
    "green": 0,
    "coupon": "3,50 %",
    "accruedInterest": "1,10",
    "settleDate": "2022.11.02",
    "askEhmYield": "",
    "bidYield": "5,28",
    "rawName": "N2027/04",
    "bidPrice": "99,50",
    "coupon_val": 3.5,
    "maturityInDays": "1544 nap",
    "securityType": "MÁP Plusz",
    "maturityDate": "2027.01.24",
    "name": "N2027/04",
    "bidEhmYield": "",
    "askYield": "",
    "currency": "HUF",
    "maturityInDays_val": 1544,
    "issueDate": "2022-01-24",
    "longName": "N270124"
}