{
    "askPrice": "",
    "green": 0,
    "coupon": "3,50 %",
    "accruedInterest": "1,2082",
    "settleDate": "2023.05.02",
    "askEhmYield": "",
    "bidYield": "5,42",
    "rawName": "N2027/04",
    "bidPrice": "99,5000",
    "coupon_val": 3.5,
    "maturityInDays": "1363 nap",
    "securityType": "MÁP Plusz",
    "maturityDate": "2027.01.24",
    "name": "N2027/04",
    "bidEhmYield": "",
    "askYield": "",
    "currency": "HUF",
    "maturityInDays_val": 1363,
    "issueDate": "2022.01.24",
    "longName": "N270124"
}