{
    "askPrice": "",
    "green": 0,
    "coupon": "3,50 %",
    "accruedInterest": "0,3689",
    "settleDate": "2024.02.20",
    "askEhmYield": "",
    "bidYield": "5,68",
    "rawName": "N2027/04",
    "bidPrice": "99,5000",
    "coupon_val": 3.5,
    "maturityInDays": "1069 nap",
    "securityType": "MÁP Plusz",
    "maturityDate": "2027.01.24",
    "name": "N2027/04",
    "bidEhmYield": "",
    "askYield": "",
    "currency": "HUF",
    "maturityInDays_val": 1069,
    "issueDate": "2022.01.24",
    "longName": "N270124"
}