{
    "askPrice": "",
    "green": 0,
    "coupon": "3,50 %",
    "accruedInterest": 0,
    "settleDate": "2024.01.23",
    "askEhmYield": "",
    "bidYield": "",
    "rawName": "N2027/04",
    "bidPrice": "",
    "coupon_val": 3.5,
    "maturityInDays": "1097 nap",
    "securityType": "MÁP Plusz",
    "maturityDate": "2027.01.24",
    "name": "N2027/04",
    "bidEhmYield": "",
    "askYield": "",
    "currency": "HUF",
    "maturityInDays_val": 1097,
    "issueDate": "2022.01.24",
    "longName": "N270124"
}