{
    "askPrice": "",
    "green": 0,
    "coupon": 0,
    "accruedInterest": 0,
    "settleDate": "2023.12.20",
    "askEhmYield": "",
    "bidYield": "7,45",
    "rawName": "D240117",
    "bidPrice": "99,4239",
    "maturityInDays": "28 nap",
    "securityType": "DKJ",
    "maturityDate": "2024.01.17",
    "name": "D240117",
    "bidEhmYield": "7,55",
    "askYield": "",
    "currency": "HUF",
    "maturityInDays_val": 28,
    "issueDate": "2023.10.18",
    "longName": "D240117"
}