{
    "askPrice": "",
    "green": 0,
    "coupon": 0,
    "accruedInterest": 0,
    "settleDate": "2024.01.02",
    "askEhmYield": "",
    "bidYield": "7,15",
    "rawName": "D240117",
    "bidPrice": "99,7030",
    "maturityInDays": "15 nap",
    "securityType": "DKJ",
    "maturityDate": "2024.01.17",
    "name": "D240117",
    "bidEhmYield": "7,25",
    "askYield": "",
    "currency": "HUF",
    "maturityInDays_val": 15,
    "issueDate": "2023.10.18",
    "longName": "D240117"
}