{
    "askPrice": "",
    "green": 0,
    "coupon": 0,
    "accruedInterest": 0,
    "settleDate": "2023.12.14",
    "askEhmYield": "",
    "bidYield": "7,69",
    "rawName": "D240117",
    "bidPrice": "99,2790",
    "maturityInDays": "34 nap",
    "securityType": "DKJ",
    "maturityDate": "2024.01.17",
    "name": "D240117",
    "bidEhmYield": "7,80",
    "askYield": "",
    "currency": "HUF",
    "maturityInDays_val": 34,
    "issueDate": "2023.10.18",
    "longName": "D240117"
}