{
    "askPrice": "98,4313",
    "green": 0,
    "coupon": 0,
    "accruedInterest": 0,
    "settleDate": "2023.11.03",
    "askEhmYield": "7,76",
    "bidYield": "8,90",
    "rawName": "D240117",
    "bidPrice": "98,1796",
    "maturityInDays": "75 nap",
    "securityType": "DKJ",
    "maturityDate": "2024.01.17",
    "name": "D240117",
    "bidEhmYield": "9,02",
    "askYield": "7,65",
    "currency": "HUF",
    "maturityInDays_val": 75,
    "issueDate": "2023.10.18",
    "longName": "D240117"
}