{
    "askPrice": "99,0082",
    "green": 0,
    "coupon": 0,
    "accruedInterest": 0,
    "settleDate": "2023.11.29",
    "askEhmYield": "7,46",
    "bidYield": "8,69",
    "rawName": "D240117",
    "bidPrice": "98,8310",
    "maturityInDays": "49 nap",
    "securityType": "DKJ",
    "maturityDate": "2024.01.17",
    "name": "D240117",
    "bidEhmYield": "8,81",
    "askYield": "7,36",
    "currency": "HUF",
    "maturityInDays_val": 49,
    "issueDate": "2023.10.18",
    "longName": "D240117"
}