{
    "askPrice": "98,4424",
    "green": 0,
    "coupon": 0,
    "accruedInterest": 0,
    "settleDate": "2023.10.20",
    "askEhmYield": "6,49",
    "bidYield": "7,70",
    "rawName": "D240117",
    "bidPrice": "98,1319",
    "maturityInDays": "89 nap",
    "securityType": "DKJ",
    "maturityDate": "2024.01.17",
    "name": "D240117",
    "bidEhmYield": "7,81",
    "askYield": "6,40",
    "currency": "HUF",
    "maturityInDays_val": 89,
    "issueDate": "2023.10.18",
    "longName": "D240117"
}