{
    "askPrice": "",
    "green": 0,
    "coupon": 0,
    "accruedInterest": 0,
    "settleDate": "2023.12.21",
    "askEhmYield": "",
    "bidYield": "6,54",
    "rawName": "D240117",
    "bidPrice": "99,5119",
    "maturityInDays": "27 nap",
    "securityType": "DKJ",
    "maturityDate": "2024.01.17",
    "name": "D240117",
    "bidEhmYield": "6,63",
    "askYield": "",
    "currency": "HUF",
    "maturityInDays_val": 27,
    "issueDate": "2023.10.18",
    "longName": "D240117"
}