{
    "askPrice": "98,7982",
    "green": 0,
    "coupon": 0,
    "accruedInterest": 0,
    "settleDate": "2023.11.20",
    "askEhmYield": "7,66",
    "bidYield": "8,80",
    "rawName": "D240117",
    "bidPrice": "98,6020",
    "maturityInDays": "58 nap",
    "securityType": "DKJ",
    "maturityDate": "2024.01.17",
    "name": "D240117",
    "bidEhmYield": "8,92",
    "askYield": "7,55",
    "currency": "HUF",
    "maturityInDays_val": 58,
    "issueDate": "2023.10.18",
    "longName": "D240117"
}