{
    "askPrice": "98,5114",
    "green": 0,
    "coupon": 0,
    "accruedInterest": 0,
    "settleDate": "2023.10.24",
    "askEhmYield": "6,49",
    "bidYield": "7,75",
    "rawName": "D240117",
    "bidPrice": "98,2030",
    "maturityInDays": "85 nap",
    "securityType": "DKJ",
    "maturityDate": "2024.01.17",
    "name": "D240117",
    "bidEhmYield": "7,86",
    "askYield": "6,40",
    "currency": "HUF",
    "maturityInDays_val": 85,
    "issueDate": "2023.10.18",
    "longName": "D240117"
}