{
    "askPrice": "",
    "green": 0,
    "coupon": 0,
    "accruedInterest": 0,
    "settleDate": "2023.12.11",
    "askEhmYield": "",
    "bidYield": "8,20",
    "rawName": "D240117",
    "bidPrice": "99,1643",
    "maturityInDays": "37 nap",
    "securityType": "DKJ",
    "maturityDate": "2024.01.17",
    "name": "D240117",
    "bidEhmYield": "8,31",
    "askYield": "",
    "currency": "HUF",
    "maturityInDays_val": 37,
    "issueDate": "2023.10.18",
    "longName": "D240117"
}