{
    "askPrice": "",
    "green": 0,
    "coupon": "3,50 %",
    "accruedInterest": "0,9986",
    "settleDate": "2023.08.21",
    "askEhmYield": "",
    "bidYield": "5,12",
    "rawName": "N2028/19",
    "bidPrice": "99,5000",
    "coupon_val": 3.5,
    "maturityInDays": "1722 nap",
    "securityType": "MÁP Plusz",
    "maturityDate": "2028.05.08",
    "name": "N2028/19",
    "bidEhmYield": "",
    "askYield": "",
    "currency": "HUF",
    "maturityInDays_val": 1722,
    "issueDate": "2023.05.08",
    "longName": "N280508"
}