{
    "askPrice": "",
    "green": 0,
    "coupon": "3,50 %",
    "accruedInterest": "1,5313",
    "settleDate": "2023.10.16",
    "askEhmYield": "",
    "bidYield": "5,18",
    "rawName": "N2028/19",
    "bidPrice": "99,5000",
    "coupon_val": 3.5,
    "maturityInDays": "1666 nap",
    "securityType": "MÁP Plusz",
    "maturityDate": "2028.05.08",
    "name": "N2028/19",
    "bidEhmYield": "",
    "askYield": "",
    "currency": "HUF",
    "maturityInDays_val": 1666,
    "issueDate": "2023.05.08",
    "longName": "N280508"
}