{
    "askPrice": "",
    "green": 0,
    "coupon": "3,50 %",
    "accruedInterest": "0,6154",
    "settleDate": "2024.01.03",
    "askEhmYield": "",
    "bidYield": "5,25",
    "rawName": "N2028/19",
    "bidPrice": "99,5000",
    "coupon_val": 3.5,
    "maturityInDays": "1587 nap",
    "securityType": "MÁP Plusz",
    "maturityDate": "2028.05.08",
    "name": "N2028/19",
    "bidEhmYield": "",
    "askYield": "",
    "currency": "HUF",
    "maturityInDays_val": 1587,
    "issueDate": "2023.05.08",
    "longName": "N280508"
}