{
    "askPrice": "",
    "green": 0,
    "coupon": "3,50 %",
    "accruedInterest": "1,1319",
    "settleDate": "2024.02.19",
    "askEhmYield": "",
    "bidYield": "5,29",
    "rawName": "N2028/19",
    "bidPrice": "99,5000",
    "coupon_val": 3.5,
    "maturityInDays": "1540 nap",
    "securityType": "MÁP Plusz",
    "maturityDate": "2028.05.08",
    "name": "N2028/19",
    "bidEhmYield": "",
    "askYield": "",
    "currency": "HUF",
    "maturityInDays_val": 1540,
    "issueDate": "2023.05.08",
    "longName": "N280508"
}