{
    "askPrice": "",
    "green": 0,
    "coupon": "3,50 %",
    "accruedInterest": "1,8242",
    "settleDate": "2024.04.22",
    "askEhmYield": "",
    "bidYield": "5,34",
    "rawName": "N2028/19",
    "bidPrice": "99,5000",
    "coupon_val": 3.5,
    "maturityInDays": "1477 nap",
    "securityType": "MÁP Plusz",
    "maturityDate": "2028.05.08",
    "name": "N2028/19",
    "bidEhmYield": "",
    "askYield": "",
    "currency": "HUF",
    "maturityInDays_val": 1477,
    "issueDate": "2023.05.08",
    "longName": "N280508"
}