{
    "askPrice": "",
    "green": 0,
    "coupon": "3,50 %",
    "accruedInterest": "0,0740",
    "settleDate": "2024.05.14",
    "askEhmYield": "",
    "bidYield": "5,22",
    "rawName": "N2028/19",
    "bidPrice": "100,0000",
    "coupon_val": 3.5,
    "maturityInDays": "1455 nap",
    "securityType": "MÁP Plusz",
    "maturityDate": "2028.05.08",
    "name": "N2028/19",
    "bidEhmYield": "",
    "askYield": "",
    "currency": "HUF",
    "maturityInDays_val": 1455,
    "issueDate": "2023.05.08",
    "longName": "N280508"
}