{
    "askPrice": "",
    "green": 0,
    "coupon": null,
    "accruedInterest": "0,99",
    "settleDate": "2022.09.15",
    "askEhmYield": "",
    "bidYield": "",
    "rawName": "2026/I",
    "bidPrice": "99,00",
    "maturityInDays": "1404 nap",
    "securityType": "PMÁP",
    "maturityDate": "2026.07.20",
    "name": "2026/I",
    "bidEhmYield": "",
    "askYield": "",
    "currency": "HUF",
    "maturityInDays_val": 1404,
    "longName": "A260720I21"
}