{
    "askPrice": "",
    "green": 0,
    "coupon": null,
    "accruedInterest": "1,57",
    "settleDate": "2022.10.18",
    "askEhmYield": "",
    "bidYield": "1,58",
    "rawName": "2026/I",
    "bidPrice": "99,00",
    "maturityInDays": "1371 nap",
    "securityType": "PMÁP",
    "maturityDate": "2026.07.20",
    "name": "2026/I",
    "bidEhmYield": "",
    "askYield": "",
    "currency": "HUF",
    "maturityInDays_val": 1371,
    "longName": "A260720I21"
}