{
    "askPrice": "",
    "green": 0,
    "coupon": null,
    "accruedInterest": "2,8832",
    "settleDate": "2023.09.25",
    "askEhmYield": "",
    "bidYield": "",
    "rawName": "2026/I",
    "bidPrice": "99,0000",
    "maturityInDays": "1029 nap",
    "securityType": "PMÁP",
    "maturityDate": "2026.07.20",
    "name": "2026/I",
    "bidEhmYield": "",
    "askYield": "",
    "currency": "HUF",
    "maturityInDays_val": 1029,
    "issueDate": "2021.01.20",
    "longName": "A260720I21"
}