{
    "askPrice": "",
    "green": 0,
    "coupon": null,
    "accruedInterest": "3,5287",
    "settleDate": "2023.10.10",
    "askEhmYield": "",
    "bidYield": "",
    "rawName": "2026/I",
    "bidPrice": "99,0000",
    "maturityInDays": "1014 nap",
    "securityType": "PMÁP",
    "maturityDate": "2026.07.20",
    "name": "2026/I",
    "bidEhmYield": "",
    "askYield": "",
    "currency": "HUF",
    "maturityInDays_val": 1014,
    "issueDate": "2021.01.20",
    "longName": "A260720I21"
}