{
    "askPrice": "",
    "green": 0,
    "coupon": null,
    "accruedInterest": "11,3176",
    "settleDate": "2024.04.08",
    "askEhmYield": "",
    "bidYield": "",
    "rawName": "2026/I",
    "bidPrice": "99,0000",
    "maturityInDays": "833 nap",
    "securityType": "PMÁP",
    "maturityDate": "2026.07.20",
    "name": "2026/I",
    "bidEhmYield": "",
    "askYield": "",
    "currency": "HUF",
    "maturityInDays_val": 833,
    "issueDate": "2021.01.20",
    "longName": "A260720I21"
}