{
    "askPrice": "102,3703",
    "green": 0,
    "coupon": "9,50 %",
    "accruedInterest": "5,3096",
    "settleDate": "2023.08.10",
    "askEhmYield": "8,60",
    "bidYield": "9,34",
    "rawName": "2026/H",
    "bidPrice": "100,3946",
    "coupon_val": 9.5,
    "maturityInDays": "1168 nap",
    "securityType": "KTV",
    "maturityDate": "2026.10.21",
    "name": "2026/H",
    "bidEhmYield": "9,33",
    "askYield": "8,61",
    "currency": "HUF",
    "maturityInDays_val": 1168,
    "issueDate": "2023.01.18",
    "longName": "A261021H23"
}