{
    "askPrice": "101,6606",
    "green": 0,
    "coupon": "9,50 %",
    "accruedInterest": "4,1384",
    "settleDate": "2023.06.26",
    "askEhmYield": "8,88",
    "bidYield": "9,70",
    "rawName": "2026/H",
    "bidPrice": "99,4223",
    "coupon_val": 9.5,
    "maturityInDays": "1213 nap",
    "securityType": "KTV",
    "maturityDate": "2026.10.21",
    "name": "2026/H",
    "bidEhmYield": "9,69",
    "askYield": "8,89",
    "currency": "HUF",
    "maturityInDays_val": 1213,
    "issueDate": "2023.01.18",
    "longName": "A261021H23"
}