{
    "askPrice": "107,2849",
    "green": 0,
    "coupon": "9,50 %",
    "accruedInterest": "1,4016",
    "settleDate": "2023.12.14",
    "askEhmYield": "6,59",
    "bidYield": "7,25",
    "rawName": "2026/H",
    "bidPrice": "105,5752",
    "coupon_val": 9.5,
    "maturityInDays": "1042 nap",
    "securityType": "KTV",
    "maturityDate": "2026.10.21",
    "name": "2026/H",
    "bidEhmYield": "7,24",
    "askYield": "6,60",
    "currency": "HUF",
    "maturityInDays_val": 1042,
    "issueDate": "2023.01.18",
    "longName": "A261021H23"
}