{
    "askPrice": "103,3758",
    "green": 0,
    "coupon": "9,50 %",
    "accruedInterest": "0,1038",
    "settleDate": "2023.10.25",
    "askEhmYield": "8,17",
    "bidYield": "8,82",
    "rawName": "2026/H",
    "bidPrice": "101,7170",
    "coupon_val": 9.5,
    "maturityInDays": "1092 nap",
    "securityType": "KTV",
    "maturityDate": "2026.10.21",
    "name": "2026/H",
    "bidEhmYield": "8,81",
    "askYield": "8,18",
    "currency": "HUF",
    "maturityInDays_val": 1092,
    "issueDate": "2023.01.18",
    "longName": "A261021H23"
}