{
    "askPrice": "102,4425",
    "green": 0,
    "coupon": "9,50 %",
    "accruedInterest": "5,0493",
    "settleDate": "2023.07.31",
    "askEhmYield": "8,58",
    "bidYield": "9,34",
    "rawName": "2026/H",
    "bidPrice": "100,3966",
    "coupon_val": 9.5,
    "maturityInDays": "1178 nap",
    "securityType": "KTV",
    "maturityDate": "2026.10.21",
    "name": "2026/H",
    "bidEhmYield": "9,33",
    "askYield": "8,59",
    "currency": "HUF",
    "maturityInDays_val": 1178,
    "issueDate": "2023.01.18",
    "longName": "A261021H23"
}