{
    "askPrice": "103,8460",
    "green": 0,
    "coupon": "9,50 %",
    "accruedInterest": "7,0795",
    "settleDate": "2023.10.17",
    "askEhmYield": "8,00",
    "bidYield": "8,67",
    "rawName": "2026/H",
    "bidPrice": "102,1144",
    "coupon_val": 9.5,
    "maturityInDays": "1100 nap",
    "securityType": "KTV",
    "maturityDate": "2026.10.21",
    "name": "2026/H",
    "bidEhmYield": "8,66",
    "askYield": "8,01",
    "currency": "HUF",
    "maturityInDays_val": 1100,
    "issueDate": "2023.01.18",
    "longName": "A261021H23"
}