{
    "askPrice": "99,7588",
    "green": 0,
    "coupon": "9,50 %",
    "accruedInterest": "2,7068",
    "settleDate": "2023.05.02",
    "askEhmYield": "9,57",
    "bidYield": "10,36",
    "rawName": "2026/H",
    "bidPrice": "97,5794",
    "coupon_val": 9.5,
    "maturityInDays": "1268 nap",
    "securityType": "KTV",
    "maturityDate": "2026.10.21",
    "name": "2026/H",
    "bidEhmYield": "10,35",
    "askYield": "9,58",
    "currency": "HUF",
    "maturityInDays_val": 1268,
    "issueDate": "2023.01.18",
    "longName": "A261021H23"
}