{
    "askPrice": "105,8142",
    "green": 0,
    "coupon": "9,50 %",
    "accruedInterest": "1,1421",
    "settleDate": "2023.12.04",
    "askEhmYield": "7,17",
    "bidYield": "7,83",
    "rawName": "2026/H",
    "bidPrice": "104,1246",
    "coupon_val": 9.5,
    "maturityInDays": "1052 nap",
    "securityType": "KTV",
    "maturityDate": "2026.10.21",
    "name": "2026/H",
    "bidEhmYield": "7,82",
    "askYield": "7,18",
    "currency": "HUF",
    "maturityInDays_val": 1052,
    "issueDate": "2023.01.18",
    "longName": "A261021H23"
}