{
    "askPrice": "108,2140",
    "green": 0,
    "coupon": "9,50 %",
    "accruedInterest": "1,4276",
    "settleDate": "2023.12.15",
    "askEhmYield": "6,24",
    "bidYield": "6,90",
    "rawName": "2026/H",
    "bidPrice": "106,4847",
    "coupon_val": 9.5,
    "maturityInDays": "1041 nap",
    "securityType": "KTV",
    "maturityDate": "2026.10.21",
    "name": "2026/H",
    "bidEhmYield": "6,89",
    "askYield": "6,25",
    "currency": "HUF",
    "maturityInDays_val": 1041,
    "issueDate": "2023.01.18",
    "longName": "A261021H23"
}