{
    "askPrice": "104,0792",
    "green": 0,
    "coupon": "9,50 %",
    "accruedInterest": "0,3115",
    "settleDate": "2023.11.02",
    "askEhmYield": "7,89",
    "bidYield": "8,57",
    "rawName": "2026/H",
    "bidPrice": "102,3371",
    "coupon_val": 9.5,
    "maturityInDays": "1084 nap",
    "securityType": "KTV",
    "maturityDate": "2026.10.21",
    "name": "2026/H",
    "bidEhmYield": "8,56",
    "askYield": "7,90",
    "currency": "HUF",
    "maturityInDays_val": 1084,
    "issueDate": "2023.01.18",
    "longName": "A261021H23"
}