{
    "askPrice": "103,6463",
    "green": 0,
    "coupon": "9,50 %",
    "accruedInterest": "5,8301",
    "settleDate": "2023.08.30",
    "askEhmYield": "8,12",
    "bidYield": "8,84",
    "rawName": "2026/H",
    "bidPrice": "101,7195",
    "coupon_val": 9.5,
    "maturityInDays": "1148 nap",
    "securityType": "KTV",
    "maturityDate": "2026.10.21",
    "name": "2026/H",
    "bidEhmYield": "8,83",
    "askYield": "8,13",
    "currency": "HUF",
    "maturityInDays_val": 1148,
    "issueDate": "2023.01.18",
    "longName": "A261021H23"
}