{
    "askPrice": "104,9342",
    "green": 0,
    "coupon": "9,50 %",
    "accruedInterest": "0,9604",
    "settleDate": "2023.11.27",
    "askEhmYield": "7,52",
    "bidYield": "8,20",
    "rawName": "2026/H",
    "bidPrice": "103,2044",
    "coupon_val": 9.5,
    "maturityInDays": "1059 nap",
    "securityType": "KTV",
    "maturityDate": "2026.10.21",
    "name": "2026/H",
    "bidEhmYield": "8,19",
    "askYield": "7,53",
    "currency": "HUF",
    "maturityInDays_val": 1059,
    "issueDate": "2023.01.18",
    "longName": "A261021H23"
}