{
    "askPrice": "105,0125",
    "green": 0,
    "coupon": "9,50 %",
    "accruedInterest": "0,4153",
    "settleDate": "2023.11.06",
    "askEhmYield": "7,53",
    "bidYield": "8,21",
    "rawName": "2026/H",
    "bidPrice": "103,2536",
    "coupon_val": 9.5,
    "maturityInDays": "1080 nap",
    "securityType": "KTV",
    "maturityDate": "2026.10.21",
    "name": "2026/H",
    "bidEhmYield": "8,20",
    "askYield": "7,54",
    "currency": "HUF",
    "maturityInDays_val": 1080,
    "issueDate": "2023.01.18",
    "longName": "A261021H23"
}