{
    "askPrice": "103,9126",
    "green": 0,
    "coupon": "9,50 %",
    "accruedInterest": "6,6890",
    "settleDate": "2023.10.02",
    "askEhmYield": "7,99",
    "bidYield": "8,66",
    "rawName": "2026/H",
    "bidPrice": "102,1586",
    "coupon_val": 9.5,
    "maturityInDays": "1115 nap",
    "securityType": "KTV",
    "maturityDate": "2026.10.21",
    "name": "2026/H",
    "bidEhmYield": "8,65",
    "askYield": "8,00",
    "currency": "HUF",
    "maturityInDays_val": 1115,
    "issueDate": "2023.01.18",
    "longName": "A261021H23"
}