{
    "askPrice": "104,5794",
    "green": 0,
    "coupon": "9,50 %",
    "accruedInterest": "6,3247",
    "settleDate": "2023.09.18",
    "askEhmYield": "7,76",
    "bidYield": "8,42",
    "rawName": "2026/H",
    "bidPrice": "102,8170",
    "coupon_val": 9.5,
    "maturityInDays": "1129 nap",
    "securityType": "KTV",
    "maturityDate": "2026.10.21",
    "name": "2026/H",
    "bidEhmYield": "8,41",
    "askYield": "7,77",
    "currency": "HUF",
    "maturityInDays_val": 1129,
    "issueDate": "2023.01.18",
    "longName": "A261021H23"
}