{
    "askPrice": "102,6976",
    "green": 0,
    "coupon": "9,50 %",
    "accruedInterest": "4,6068",
    "settleDate": "2023.07.14",
    "askEhmYield": "8,50",
    "bidYield": "9,29",
    "rawName": "2026/H",
    "bidPrice": "100,5378",
    "coupon_val": 9.5,
    "maturityInDays": "1195 nap",
    "securityType": "KTV",
    "maturityDate": "2026.10.21",
    "name": "2026/H",
    "bidEhmYield": "9,28",
    "askYield": "8,51",
    "currency": "HUF",
    "maturityInDays_val": 1195,
    "issueDate": "2023.01.18",
    "longName": "A261021H23"
}