{
    "askPrice": "104,5390",
    "green": 0,
    "coupon": "9,50 %",
    "accruedInterest": "6,4288",
    "settleDate": "2023.09.22",
    "askEhmYield": "7,77",
    "bidYield": "8,47",
    "rawName": "2026/H",
    "bidPrice": "102,6762",
    "coupon_val": 9.5,
    "maturityInDays": "1125 nap",
    "securityType": "KTV",
    "maturityDate": "2026.10.21",
    "name": "2026/H",
    "bidEhmYield": "8,46",
    "askYield": "7,78",
    "currency": "HUF",
    "maturityInDays_val": 1125,
    "issueDate": "2023.01.18",
    "longName": "A261021H23"
}