{
    "askPrice": "108,7293",
    "green": 0,
    "coupon": "9,50 %",
    "accruedInterest": "1,5055",
    "settleDate": "2023.12.18",
    "askEhmYield": "6,04",
    "bidYield": "6,69",
    "rawName": "2026/H",
    "bidPrice": "107,0188",
    "coupon_val": 9.5,
    "maturityInDays": "1038 nap",
    "securityType": "KTV",
    "maturityDate": "2026.10.21",
    "name": "2026/H",
    "bidEhmYield": "6,68",
    "askYield": "6,05",
    "currency": "HUF",
    "maturityInDays_val": 1038,
    "issueDate": "2023.01.18",
    "longName": "A261021H23"
}