{
    "askPrice": "105,6775",
    "green": 0,
    "coupon": "9,50 %",
    "accruedInterest": "0,6749",
    "settleDate": "2023.11.16",
    "askEhmYield": "7,26",
    "bidYield": "7,95",
    "rawName": "2026/H",
    "bidPrice": "103,8899",
    "coupon_val": 9.5,
    "maturityInDays": "1070 nap",
    "securityType": "KTV",
    "maturityDate": "2026.10.21",
    "name": "2026/H",
    "bidEhmYield": "7,94",
    "askYield": "7,27",
    "currency": "HUF",
    "maturityInDays_val": 1070,
    "issueDate": "2023.01.18",
    "longName": "A261021H23"
}