{
    "askPrice": "102,0518",
    "green": 0,
    "coupon": "9,50 %",
    "accruedInterest": "5,1274",
    "settleDate": "2023.08.03",
    "askEhmYield": "8,72",
    "bidYield": "9,42",
    "rawName": "2026/H",
    "bidPrice": "100,1816",
    "coupon_val": 9.5,
    "maturityInDays": "1175 nap",
    "securityType": "KTV",
    "maturityDate": "2026.10.21",
    "name": "2026/H",
    "bidEhmYield": "9,41",
    "askYield": "8,73",
    "currency": "HUF",
    "maturityInDays_val": 1175,
    "issueDate": "2023.01.18",
    "longName": "A261021H23"
}