{
    "askPrice": "99,5600",
    "green": 0,
    "coupon": "9,50 %",
    "accruedInterest": "2,7589",
    "settleDate": "2023.05.04",
    "askEhmYield": "9,64",
    "bidYield": "10,45",
    "rawName": "2026/H",
    "bidPrice": "97,3347",
    "coupon_val": 9.5,
    "maturityInDays": "1266 nap",
    "securityType": "KTV",
    "maturityDate": "2026.10.21",
    "name": "2026/H",
    "bidEhmYield": "10,44",
    "askYield": "9,65",
    "currency": "HUF",
    "maturityInDays_val": 1266,
    "issueDate": "2023.01.18",
    "longName": "A261021H23"
}