{
    "askPrice": "101,2303",
    "green": 0,
    "coupon": "9,50 %",
    "accruedInterest": "0,4945",
    "settleDate": "2023.02.06",
    "askEhmYield": "9,10",
    "bidYield": "9,94",
    "rawName": "2026/H",
    "bidPrice": "98,7426",
    "coupon_val": 9.5,
    "maturityInDays": "1353 nap",
    "securityType": "KTV",
    "maturityDate": "2026.10.21",
    "name": "2026/H",
    "bidEhmYield": "9,93",
    "askYield": "9,11",
    "currency": "HUF",
    "maturityInDays_val": 1353,
    "issueDate": "2023.01.18",
    "longName": "A261021H23"
}