{
    "askPrice": "102,1012",
    "green": 0,
    "coupon": "9,50 %",
    "accruedInterest": "3,8521",
    "settleDate": "2023.06.15",
    "askEhmYield": "8,73",
    "bidYield": "9,56",
    "rawName": "2026/H",
    "bidPrice": "99,8049",
    "coupon_val": 9.5,
    "maturityInDays": "1224 nap",
    "securityType": "KTV",
    "maturityDate": "2026.10.21",
    "name": "2026/H",
    "bidEhmYield": "9,55",
    "askYield": "8,74",
    "currency": "HUF",
    "maturityInDays_val": 1224,
    "issueDate": "2023.01.18",
    "longName": "A261021H23"
}