{
    "askPrice": "103,5389",
    "green": 0,
    "coupon": "9,50 %",
    "accruedInterest": "5,8041",
    "settleDate": "2023.08.29",
    "askEhmYield": "8,16",
    "bidYield": "8,86",
    "rawName": "2026/H",
    "bidPrice": "101,6670",
    "coupon_val": 9.5,
    "maturityInDays": "1149 nap",
    "securityType": "KTV",
    "maturityDate": "2026.10.21",
    "name": "2026/H",
    "bidEhmYield": "8,85",
    "askYield": "8,17",
    "currency": "HUF",
    "maturityInDays_val": 1149,
    "issueDate": "2023.01.18",
    "longName": "A261021H23"
}