{
    "askPrice": "101,8820",
    "green": 0,
    "coupon": "9,50 %",
    "accruedInterest": "5,2315",
    "settleDate": "2023.08.07",
    "askEhmYield": "8,78",
    "bidYield": "9,49",
    "rawName": "2026/H",
    "bidPrice": "99,9949",
    "coupon_val": 9.5,
    "maturityInDays": "1171 nap",
    "securityType": "KTV",
    "maturityDate": "2026.10.21",
    "name": "2026/H",
    "bidEhmYield": "9,48",
    "askYield": "8,79",
    "currency": "HUF",
    "maturityInDays_val": 1171,
    "issueDate": "2023.01.18",
    "longName": "A261021H23"
}