{
    "askPrice": "105,1788",
    "green": 0,
    "coupon": "9,50 %",
    "accruedInterest": "0,6489",
    "settleDate": "2023.11.15",
    "askEhmYield": "7,45",
    "bidYield": "8,13",
    "rawName": "2026/H",
    "bidPrice": "103,4276",
    "coupon_val": 9.5,
    "maturityInDays": "1071 nap",
    "securityType": "KTV",
    "maturityDate": "2026.10.21",
    "name": "2026/H",
    "bidEhmYield": "8,12",
    "askYield": "7,46",
    "currency": "HUF",
    "maturityInDays_val": 1071,
    "issueDate": "2023.01.18",
    "longName": "A261021H23"
}