{
    "askPrice": "104,7028",
    "green": 0,
    "coupon": "9,50 %",
    "accruedInterest": "6,2205",
    "settleDate": "2023.09.14",
    "askEhmYield": "7,72",
    "bidYield": "8,38",
    "rawName": "2026/H",
    "bidPrice": "102,9321",
    "coupon_val": 9.5,
    "maturityInDays": "1133 nap",
    "securityType": "KTV",
    "maturityDate": "2026.10.21",
    "name": "2026/H",
    "bidEhmYield": "8,37",
    "askYield": "7,73",
    "currency": "HUF",
    "maturityInDays_val": 1133,
    "issueDate": "2023.01.18",
    "longName": "A261021H23"
}