{
    "askPrice": "109,7355",
    "green": 0,
    "coupon": "9,50 %",
    "accruedInterest": "2,4139",
    "settleDate": "2024.01.22",
    "askEhmYield": "5,55",
    "bidYield": "6,22",
    "rawName": "2026/H",
    "bidPrice": "107,9980",
    "coupon_val": 9.5,
    "maturityInDays": "1003 nap",
    "securityType": "KTV",
    "maturityDate": "2026.10.21",
    "name": "2026/H",
    "bidEhmYield": "6,21",
    "askYield": "5,56",
    "currency": "HUF",
    "maturityInDays_val": 1003,
    "issueDate": "2023.01.18",
    "longName": "A261021H23"
}