{
    "askPrice": "106,6376",
    "green": 0,
    "coupon": "9,50 %",
    "accruedInterest": "4,3347",
    "settleDate": "2024.04.05",
    "askEhmYield": "6,54",
    "bidYield": "7,22",
    "rawName": "2026/H",
    "bidPrice": "105,0494",
    "coupon_val": 9.5,
    "maturityInDays": "929 nap",
    "securityType": "KTV",
    "maturityDate": "2026.10.21",
    "name": "2026/H",
    "bidEhmYield": "7,21",
    "askYield": "6,55",
    "currency": "HUF",
    "maturityInDays_val": 929,
    "issueDate": "2023.01.18",
    "longName": "A261021H23"
}