{
    "askPrice": "109,0708",
    "green": 0,
    "coupon": "9,50 %",
    "accruedInterest": "2,9590",
    "settleDate": "2024.02.12",
    "askEhmYield": "5,73",
    "bidYield": "6,39",
    "rawName": "2026/H",
    "bidPrice": "107,4033",
    "coupon_val": 9.5,
    "maturityInDays": "982 nap",
    "securityType": "KTV",
    "maturityDate": "2026.10.21",
    "name": "2026/H",
    "bidEhmYield": "6,38",
    "askYield": "5,74",
    "currency": "HUF",
    "maturityInDays_val": 982,
    "issueDate": "2023.01.18",
    "longName": "A261021H23"
}