{
    "askPrice": "107,1606",
    "green": 0,
    "coupon": "9,50 %",
    "accruedInterest": "3,9194",
    "settleDate": "2024.03.20",
    "askEhmYield": "6,37",
    "bidYield": "7,06",
    "rawName": "2026/H",
    "bidPrice": "105,5140",
    "coupon_val": 9.5,
    "maturityInDays": "945 nap",
    "securityType": "KTV",
    "maturityDate": "2026.10.21",
    "name": "2026/H",
    "bidEhmYield": "7,05",
    "askYield": "6,38",
    "currency": "HUF",
    "maturityInDays_val": 945,
    "issueDate": "2023.01.18",
    "longName": "A261021H23"
}