{
    "askPrice": "109,0639",
    "green": 0,
    "coupon": "9,50 %",
    "accruedInterest": "2,5956",
    "settleDate": "2024.01.29",
    "askEhmYield": "5,78",
    "bidYield": "6,46",
    "rawName": "2026/H",
    "bidPrice": "107,3257",
    "coupon_val": 9.5,
    "maturityInDays": "996 nap",
    "securityType": "KTV",
    "maturityDate": "2026.10.21",
    "name": "2026/H",
    "bidEhmYield": "6,45",
    "askYield": "5,79",
    "currency": "HUF",
    "maturityInDays_val": 996,
    "issueDate": "2023.01.18",
    "longName": "A261021H23"
}