{
    "askPrice": "106,7609",
    "green": 0,
    "coupon": "9,50 %",
    "accruedInterest": "4,4126",
    "settleDate": "2024.04.08",
    "askEhmYield": "6,48",
    "bidYield": "7,17",
    "rawName": "2026/H",
    "bidPrice": "105,1510",
    "coupon_val": 9.5,
    "maturityInDays": "926 nap",
    "securityType": "KTV",
    "maturityDate": "2026.10.21",
    "name": "2026/H",
    "bidEhmYield": "7,16",
    "askYield": "6,49",
    "currency": "HUF",
    "maturityInDays_val": 926,
    "issueDate": "2023.01.18",
    "longName": "A261021H23"
}