{
    "askPrice": "108,9572",
    "green": 0,
    "coupon": "9,50 %",
    "accruedInterest": "3,1407",
    "settleDate": "2024.02.19",
    "askEhmYield": "5,75",
    "bidYield": "6,42",
    "rawName": "2026/H",
    "bidPrice": "107,2768",
    "coupon_val": 9.5,
    "maturityInDays": "975 nap",
    "securityType": "KTV",
    "maturityDate": "2026.10.21",
    "name": "2026/H",
    "bidEhmYield": "6,41",
    "askYield": "5,76",
    "currency": "HUF",
    "maturityInDays_val": 975,
    "issueDate": "2023.01.18",
    "longName": "A261021H23"
}