{
    "askPrice": "105,5182",
    "green": 0,
    "coupon": "9,50 %",
    "accruedInterest": "4,7760",
    "settleDate": "2024.04.22",
    "askEhmYield": "6,97",
    "bidYield": "7,65",
    "rawName": "2026/H",
    "bidPrice": "103,9785",
    "coupon_val": 9.5,
    "maturityInDays": "912 nap",
    "securityType": "KTV",
    "maturityDate": "2026.10.21",
    "name": "2026/H",
    "bidEhmYield": "7,64",
    "askYield": "6,98",
    "currency": "HUF",
    "maturityInDays_val": 912,
    "issueDate": "2023.01.18",
    "longName": "A261021H23"
}