{
    "askPrice": "109,4423",
    "green": 0,
    "coupon": "9,50 %",
    "accruedInterest": "2,4918",
    "settleDate": "2024.01.25",
    "askEhmYield": "5,65",
    "bidYield": "6,32",
    "rawName": "2026/H",
    "bidPrice": "107,7156",
    "coupon_val": 9.5,
    "maturityInDays": "1000 nap",
    "securityType": "KTV",
    "maturityDate": "2026.10.21",
    "name": "2026/H",
    "bidEhmYield": "6,31",
    "askYield": "5,66",
    "currency": "HUF",
    "maturityInDays_val": 1000,
    "issueDate": "2023.01.18",
    "longName": "A261021H23"
}