{
    "askPrice": "108,9502",
    "green": 0,
    "coupon": "9,50 %",
    "accruedInterest": "2,8552",
    "settleDate": "2024.02.08",
    "askEhmYield": "5,79",
    "bidYield": "6,47",
    "rawName": "2026/H",
    "bidPrice": "107,2289",
    "coupon_val": 9.5,
    "maturityInDays": "986 nap",
    "securityType": "KTV",
    "maturityDate": "2026.10.21",
    "name": "2026/H",
    "bidEhmYield": "6,46",
    "askYield": "5,80",
    "currency": "HUF",
    "maturityInDays_val": 986,
    "issueDate": "2023.01.18",
    "longName": "A261021H23"
}