{
    "askPrice": "",
    "green": 0,
    "coupon": "2,50 %",
    "accruedInterest": "1,30",
    "settleDate": "2022.06.22",
    "askEhmYield": "",
    "bidYield": "",
    "rawName": "K2022/50",
    "bidPrice": "99,50",
    "coupon_val": 2.5,
    "maturityInDays": "175 nap",
    "securityType": "1MÁP",
    "maturityDate": "2022.12.14",
    "name": "K2022/50",
    "bidEhmYield": "3,51",
    "askYield": "",
    "currency": "HUF",
    "maturityInDays_val": 175,
    "longName": "K221214"
}