{
    "askPrice": "",
    "green": 0,
    "coupon": "2,50 %",
    "accruedInterest": "2,27",
    "settleDate": "2022.11.10",
    "askEhmYield": "",
    "bidYield": "8,01",
    "rawName": "K2022/50",
    "bidPrice": "99,50",
    "coupon_val": 2.5,
    "maturityInDays": "34 nap",
    "securityType": "1MÁP",
    "maturityDate": "2022.12.14",
    "name": "K2022/50",
    "bidEhmYield": "7,73",
    "askYield": "",
    "currency": "HUF",
    "maturityInDays_val": 34,
    "issueDate": "2021-12-14",
    "longName": "K221214"
}