{
    "askPrice": "",
    "green": 0,
    "coupon": "2,50 %",
    "accruedInterest": "1,91",
    "settleDate": "2022.09.19",
    "askEhmYield": "",
    "bidYield": "",
    "rawName": "K2022/50",
    "bidPrice": "99,50",
    "coupon_val": 2.5,
    "maturityInDays": "86 nap",
    "securityType": "1MÁP",
    "maturityDate": "2022.12.14",
    "name": "K2022/50",
    "bidEhmYield": "4,56",
    "askYield": "",
    "currency": "HUF",
    "maturityInDays_val": 86,
    "longName": "K221214"
}