{
    "askPrice": "",
    "green": 0,
    "coupon": "2,50 %",
    "accruedInterest": "2,15",
    "settleDate": "2022.10.24",
    "askEhmYield": "",
    "bidYield": "6,14",
    "rawName": "K2022/50",
    "bidPrice": "99,50",
    "coupon_val": 2.5,
    "maturityInDays": "51 nap",
    "securityType": "1MÁP",
    "maturityDate": "2022.12.14",
    "name": "K2022/50",
    "bidEhmYield": "5,98",
    "askYield": "",
    "currency": "HUF",
    "maturityInDays_val": 51,
    "longName": "K221214"
}