{
    "askPrice": "91,78",
    "green": 0,
    "coupon": "1,50 %",
    "accruedInterest": "1,36",
    "settleDate": "2022.07.20",
    "askEhmYield": "9,78",
    "bidYield": "10,47",
    "rawName": "2023/C",
    "bidPrice": "91,16",
    "coupon_val": 1.5,
    "maturityInDays": "399 nap",
    "securityType": "KTV",
    "maturityDate": "2023.08.23",
    "name": "2023/C",
    "bidEhmYield": "10,47",
    "askYield": "9,78",
    "currency": "HUF",
    "maturityInDays_val": 399,
    "longName": "A230823C20"
}