{
    "askPrice": "93,3722",
    "green": 0,
    "coupon": "1,50 %",
    "accruedInterest": "0,4726",
    "settleDate": "2022.12.16",
    "askEhmYield": "12,13",
    "bidYield": "12,90",
    "rawName": "2023/C",
    "bidPrice": "92,9333",
    "coupon_val": 1.5,
    "maturityInDays": "250 nap",
    "securityType": "KTV",
    "maturityDate": "2023.08.23",
    "name": "2023/C",
    "bidEhmYield": "12,90",
    "askYield": "12,13",
    "currency": "HUF",
    "maturityInDays_val": 250,
    "issueDate": "2020.04.15",
    "longName": "A230823C20"
}