{
    "askPrice": "92,18",
    "green": 0,
    "coupon": "1,50 %",
    "accruedInterest": "0,07",
    "settleDate": "2022.09.08",
    "askEhmYield": "10,51",
    "bidYield": "11,31",
    "rawName": "2023/C",
    "bidPrice": "91,55",
    "coupon_val": 1.5,
    "maturityInDays": "349 nap",
    "securityType": "KTV",
    "maturityDate": "2023.08.23",
    "name": "2023/C",
    "bidEhmYield": "11,31",
    "askYield": "10,51",
    "currency": "HUF",
    "maturityInDays_val": 349,
    "longName": "A230823C20"
}