{
    "askPrice": "92,91",
    "green": 0,
    "coupon": "1,50 %",
    "accruedInterest": "0,32",
    "settleDate": "2022.11.10",
    "askEhmYield": "11,45",
    "bidYield": "12,14",
    "rawName": "2023/C",
    "bidPrice": "92,46",
    "coupon_val": 1.5,
    "maturityInDays": "286 nap",
    "securityType": "KTV",
    "maturityDate": "2023.08.23",
    "name": "2023/C",
    "bidEhmYield": "12,14",
    "askYield": "11,45",
    "currency": "HUF",
    "maturityInDays_val": 286,
    "issueDate": "2020-04-15",
    "longName": "A230823C20"
}