{
    "askPrice": "91,74",
    "green": 0,
    "coupon": "1,50 %",
    "accruedInterest": "0,14",
    "settleDate": "2022.09.26",
    "askEhmYield": "11,60",
    "bidYield": "12,40",
    "rawName": "2023/C",
    "bidPrice": "91,15",
    "coupon_val": 1.5,
    "maturityInDays": "331 nap",
    "securityType": "KTV",
    "maturityDate": "2023.08.23",
    "name": "2023/C",
    "bidEhmYield": "12,40",
    "askYield": "11,60",
    "currency": "HUF",
    "maturityInDays_val": 331,
    "longName": "A230823C20"
}