{
    "askPrice": "91,78",
    "green": 0,
    "coupon": "1,50 %",
    "accruedInterest": "1,36",
    "settleDate": "2022.07.19",
    "askEhmYield": "9,76",
    "bidYield": "10,45",
    "rawName": "2023/C",
    "bidPrice": "91,15",
    "coupon_val": 1.5,
    "maturityInDays": "400 nap",
    "securityType": "KTV",
    "maturityDate": "2023.08.23",
    "name": "2023/C",
    "bidEhmYield": "10,45",
    "askYield": "9,76",
    "currency": "HUF",
    "maturityInDays_val": 400,
    "longName": "A230823C20"
}