{
    "askPrice": "93,4484",
    "green": 0,
    "coupon": "1,50 %",
    "accruedInterest": "0,5178",
    "settleDate": "2022.12.27",
    "askEhmYield": "12,50",
    "bidYield": "13,30",
    "rawName": "2023/C",
    "bidPrice": "93,0134",
    "coupon_val": 1.5,
    "maturityInDays": "239 nap",
    "securityType": "KTV",
    "maturityDate": "2023.08.23",
    "name": "2023/C",
    "bidEhmYield": "13,30",
    "askYield": "12,50",
    "currency": "HUF",
    "maturityInDays_val": 239,
    "issueDate": "2020.04.15",
    "longName": "A230823C20"
}