{
    "askPrice": "91,73",
    "green": 0,
    "coupon": "1,50 %",
    "accruedInterest": "1,41",
    "settleDate": "2022.08.01",
    "askEhmYield": "10,11",
    "bidYield": "10,80",
    "rawName": "2023/C",
    "bidPrice": "91,12",
    "coupon_val": 1.5,
    "maturityInDays": "387 nap",
    "securityType": "KTV",
    "maturityDate": "2023.08.23",
    "name": "2023/C",
    "bidEhmYield": "10,80",
    "askYield": "10,11",
    "currency": "HUF",
    "maturityInDays_val": 387,
    "longName": "A230823C20"
}