{
    "askPrice": "",
    "green": 0,
    "coupon": "1,50 %",
    "accruedInterest": 0,
    "settleDate": "2022.08.19",
    "askEhmYield": "",
    "bidYield": "",
    "rawName": "2023/C",
    "bidPrice": "",
    "coupon_val": 1.5,
    "maturityInDays": "369 nap",
    "securityType": "KTV",
    "maturityDate": "2023.08.23",
    "name": "2023/C",
    "bidEhmYield": "",
    "askYield": "",
    "currency": "HUF",
    "maturityInDays_val": 369,
    "longName": "A230823C20"
}