{
    "askPrice": "91,93",
    "green": 0,
    "coupon": "1,50 %",
    "accruedInterest": "1,43",
    "settleDate": "2022.08.05",
    "askEhmYield": "9,97",
    "bidYield": "10,67",
    "rawName": "2023/C",
    "bidPrice": "91,33",
    "coupon_val": 1.5,
    "maturityInDays": "383 nap",
    "securityType": "KTV",
    "maturityDate": "2023.08.23",
    "name": "2023/C",
    "bidEhmYield": "10,67",
    "askYield": "9,97",
    "currency": "HUF",
    "maturityInDays_val": 383,
    "longName": "A230823C20"
}