{
    "askPrice": "91,11",
    "green": 0,
    "coupon": "1,50 %",
    "accruedInterest": "0,26",
    "settleDate": "2022.10.25",
    "askEhmYield": "13,55",
    "bidYield": "14,25",
    "rawName": "2023/C",
    "bidPrice": "90,65",
    "coupon_val": 1.5,
    "maturityInDays": "302 nap",
    "securityType": "KTV",
    "maturityDate": "2023.08.23",
    "name": "2023/C",
    "bidEhmYield": "14,25",
    "askYield": "13,55",
    "currency": "HUF",
    "maturityInDays_val": 302,
    "longName": "A230823C20"
}