{
    "askPrice": "91,82",
    "green": 0,
    "coupon": "1,50 %",
    "accruedInterest": "1,42",
    "settleDate": "2022.08.03",
    "askEhmYield": "10,05",
    "bidYield": "10,74",
    "rawName": "2023/C",
    "bidPrice": "91,22",
    "coupon_val": 1.5,
    "maturityInDays": "385 nap",
    "securityType": "KTV",
    "maturityDate": "2023.08.23",
    "name": "2023/C",
    "bidEhmYield": "10,74",
    "askYield": "10,05",
    "currency": "HUF",
    "maturityInDays_val": 385,
    "longName": "A230823C20"
}