{
    "askPrice": "91,97",
    "green": 0,
    "coupon": "1,50 %",
    "accruedInterest": "1,45",
    "settleDate": "2022.08.10",
    "askEhmYield": "10,04",
    "bidYield": "10,83",
    "rawName": "2023/C",
    "bidPrice": "91,29",
    "coupon_val": 1.5,
    "maturityInDays": "378 nap",
    "securityType": "KTV",
    "maturityDate": "2023.08.23",
    "name": "2023/C",
    "bidEhmYield": "10,83",
    "askYield": "10,04",
    "currency": "HUF",
    "maturityInDays_val": 378,
    "longName": "A230823C20"
}