{
    "askPrice": "92,67",
    "green": 0,
    "coupon": "1,50 %",
    "accruedInterest": "1,32",
    "settleDate": "2022.07.11",
    "askEhmYield": "8,65",
    "bidYield": "9,34",
    "rawName": "2023/C",
    "bidPrice": "92,02",
    "coupon_val": 1.5,
    "maturityInDays": "408 nap",
    "securityType": "KTV",
    "maturityDate": "2023.08.23",
    "name": "2023/C",
    "bidEhmYield": "9,34",
    "askYield": "8,65",
    "currency": "HUF",
    "maturityInDays_val": 408,
    "longName": "A230823C20"
}