{
    "askPrice": "91,50",
    "green": 0,
    "coupon": "1,50 %",
    "accruedInterest": "0,08",
    "settleDate": "2022.09.12",
    "askEhmYield": "11,49",
    "bidYield": "12,29",
    "rawName": "2023/C",
    "bidPrice": "90,88",
    "coupon_val": 1.5,
    "maturityInDays": "345 nap",
    "securityType": "KTV",
    "maturityDate": "2023.08.23",
    "name": "2023/C",
    "bidEhmYield": "12,29",
    "askYield": "11,49",
    "currency": "HUF",
    "maturityInDays_val": 345,
    "longName": "A230823C20"
}