{
    "askPrice": "93,7075",
    "green": 0,
    "coupon": "1,50 %",
    "accruedInterest": "0,5425",
    "settleDate": "2023.01.02",
    "askEhmYield": "12,31",
    "bidYield": "13,04",
    "rawName": "2023/C",
    "bidPrice": "93,3185",
    "coupon_val": 1.5,
    "maturityInDays": "233 nap",
    "securityType": "KTV",
    "maturityDate": "2023.08.23",
    "name": "2023/C",
    "bidEhmYield": "13,04",
    "askYield": "12,31",
    "currency": "HUF",
    "maturityInDays_val": 233,
    "issueDate": "2020.04.15",
    "longName": "A230823C20"
}