{
    "askPrice": "92,07",
    "green": 0,
    "coupon": "1,50 %",
    "accruedInterest": "1,44",
    "settleDate": "2022.08.09",
    "askEhmYield": "9,91",
    "bidYield": "10,61",
    "rawName": "2023/C",
    "bidPrice": "91,46",
    "coupon_val": 1.5,
    "maturityInDays": "379 nap",
    "securityType": "KTV",
    "maturityDate": "2023.08.23",
    "name": "2023/C",
    "bidEhmYield": "10,61",
    "askYield": "9,91",
    "currency": "HUF",
    "maturityInDays_val": 379,
    "longName": "A230823C20"
}