{
    "askPrice": "91,50",
    "green": 0,
    "coupon": "1,50 %",
    "accruedInterest": "0,20",
    "settleDate": "2022.10.10",
    "askEhmYield": "12,40",
    "bidYield": "13,20",
    "rawName": "2023/C",
    "bidPrice": "90,94",
    "coupon_val": 1.5,
    "maturityInDays": "317 nap",
    "securityType": "KTV",
    "maturityDate": "2023.08.23",
    "name": "2023/C",
    "bidEhmYield": "13,20",
    "askYield": "12,40",
    "currency": "HUF",
    "maturityInDays_val": 317,
    "longName": "A230823C20"
}