{
    "askPrice": "93,2582",
    "green": 0,
    "coupon": "1,50 %",
    "accruedInterest": "0,3699",
    "settleDate": "2022.11.21",
    "askEhmYield": "11,31",
    "bidYield": "12,00",
    "rawName": "2023/C",
    "bidPrice": "92,8233",
    "coupon_val": 1.5,
    "maturityInDays": "275 nap",
    "securityType": "KTV",
    "maturityDate": "2023.08.23",
    "name": "2023/C",
    "bidEhmYield": "12,00",
    "askYield": "11,31",
    "currency": "HUF",
    "maturityInDays_val": 275,
    "issueDate": "2020.04.15",
    "longName": "A230823C20"
}