{
    "askPrice": "91,95",
    "green": 0,
    "coupon": "1,50 %",
    "accruedInterest": "1,37",
    "settleDate": "2022.07.22",
    "askEhmYield": "9,64",
    "bidYield": "10,33",
    "rawName": "2023/C",
    "bidPrice": "91,32",
    "coupon_val": 1.5,
    "maturityInDays": "397 nap",
    "securityType": "KTV",
    "maturityDate": "2023.08.23",
    "name": "2023/C",
    "bidEhmYield": "10,33",
    "askYield": "9,64",
    "currency": "HUF",
    "maturityInDays_val": 397,
    "longName": "A230823C20"
}