{
    "askPrice": "91,73",
    "green": 0,
    "coupon": "1,50 %",
    "accruedInterest": "0,09",
    "settleDate": "2022.09.14",
    "askEhmYield": "11,25",
    "bidYield": "12,05",
    "rawName": "2023/C",
    "bidPrice": "91,12",
    "coupon_val": 1.5,
    "maturityInDays": "343 nap",
    "securityType": "KTV",
    "maturityDate": "2023.08.23",
    "name": "2023/C",
    "bidEhmYield": "12,05",
    "askYield": "11,25",
    "currency": "HUF",
    "maturityInDays_val": 343,
    "longName": "A230823C20"
}