{
    "askPrice": "92,57",
    "green": 0,
    "coupon": "1,50 %",
    "accruedInterest": "1,34",
    "settleDate": "2022.07.14",
    "askEhmYield": "8,81",
    "bidYield": "9,50",
    "rawName": "2023/C",
    "bidPrice": "91,93",
    "coupon_val": 1.5,
    "maturityInDays": "405 nap",
    "securityType": "KTV",
    "maturityDate": "2023.08.23",
    "name": "2023/C",
    "bidEhmYield": "9,50",
    "askYield": "8,81",
    "currency": "HUF",
    "maturityInDays_val": 405,
    "longName": "A230823C20"
}