{
    "askPrice": "93,58",
    "green": 0,
    "coupon": "1,50 %",
    "accruedInterest": "1,25",
    "settleDate": "2022.06.23",
    "askEhmYield": "7,44",
    "bidYield": "8,12",
    "rawName": "2023/C",
    "bidPrice": "92,89",
    "coupon_val": 1.5,
    "maturityInDays": "426 nap",
    "securityType": "KTV",
    "maturityDate": "2023.08.23",
    "name": "2023/C",
    "bidEhmYield": "8,12",
    "askYield": "7,44",
    "currency": "HUF",
    "maturityInDays_val": 426,
    "longName": "A230823C20"
}