{
    "askPrice": "93,0274",
    "green": 0,
    "coupon": "1,50 %",
    "accruedInterest": "0,4562",
    "settleDate": "2022.12.12",
    "askEhmYield": "12,55",
    "bidYield": "13,30",
    "rawName": "2023/C",
    "bidPrice": "92,5963",
    "coupon_val": 1.5,
    "maturityInDays": "254 nap",
    "securityType": "KTV",
    "maturityDate": "2023.08.23",
    "name": "2023/C",
    "bidEhmYield": "13,30",
    "askYield": "12,55",
    "currency": "HUF",
    "maturityInDays_val": 254,
    "issueDate": "2020.04.15",
    "longName": "A230823C20"
}