{
    "askPrice": "92,23",
    "green": 0,
    "coupon": "1,50 %",
    "accruedInterest": "1,34",
    "settleDate": "2022.07.15",
    "askEhmYield": "9,20",
    "bidYield": "9,89",
    "rawName": "2023/C",
    "bidPrice": "91,58",
    "coupon_val": 1.5,
    "maturityInDays": "404 nap",
    "securityType": "KTV",
    "maturityDate": "2023.08.23",
    "name": "2023/C",
    "bidEhmYield": "9,89",
    "askYield": "9,20",
    "currency": "HUF",
    "maturityInDays_val": 404,
    "longName": "A230823C20"
}