{
    "askPrice": "94,2222",
    "green": 0,
    "coupon": "1,50 %",
    "accruedInterest": "0,6575",
    "settleDate": "2023.01.30",
    "askEhmYield": "12,76",
    "bidYield": "13,55",
    "rawName": "2023/C",
    "bidPrice": "93,8509",
    "coupon_val": 1.5,
    "maturityInDays": "205 nap",
    "securityType": "KTV",
    "maturityDate": "2023.08.23",
    "name": "2023/C",
    "bidEhmYield": "13,55",
    "askYield": "12,76",
    "currency": "HUF",
    "maturityInDays_val": 205,
    "issueDate": "2020.04.15",
    "longName": "A230823C20"
}