{
    "askPrice": "",
    "green": 0,
    "coupon": "1,50 %",
    "accruedInterest": "1,4712",
    "settleDate": "2023.08.16",
    "askEhmYield": "",
    "bidYield": "10,24",
    "rawName": "2023/C",
    "bidPrice": "99,8392",
    "coupon_val": 1.5,
    "maturityInDays": "7 nap",
    "securityType": "KTV",
    "maturityDate": "2023.08.23",
    "name": "2023/C",
    "bidEhmYield": "10,24",
    "askYield": "",
    "currency": "HUF",
    "maturityInDays_val": 7,
    "issueDate": "2020.04.15",
    "longName": "A230823C20"
}