{
    "askPrice": "95,8742",
    "green": 0,
    "coupon": "1,50 %",
    "accruedInterest": "0,9493",
    "settleDate": "2023.04.11",
    "askEhmYield": "13,71",
    "bidYield": "14,54",
    "rawName": "2023/C",
    "bidPrice": "95,6161",
    "coupon_val": 1.5,
    "maturityInDays": "134 nap",
    "securityType": "KTV",
    "maturityDate": "2023.08.23",
    "name": "2023/C",
    "bidEhmYield": "14,54",
    "askYield": "13,71",
    "currency": "HUF",
    "maturityInDays_val": 134,
    "issueDate": "2020.04.15",
    "longName": "A230823C20"
}