{
    "askPrice": "94,3844",
    "green": 0,
    "coupon": "1,50 %",
    "accruedInterest": "0,7603",
    "settleDate": "2023.02.24",
    "askEhmYield": "14,01",
    "bidYield": "14,72",
    "rawName": "2023/C",
    "bidPrice": "94,0936",
    "coupon_val": 1.5,
    "maturityInDays": "180 nap",
    "securityType": "KTV",
    "maturityDate": "2023.08.23",
    "name": "2023/C",
    "bidEhmYield": "14,72",
    "askYield": "14,01",
    "currency": "HUF",
    "maturityInDays_val": 180,
    "issueDate": "2020.04.15",
    "longName": "A230823C20"
}