{
    "askPrice": "94,3087",
    "green": 0,
    "coupon": "1,50 %",
    "accruedInterest": "0,6041",
    "settleDate": "2023.01.17",
    "askEhmYield": "11,89",
    "bidYield": "12,64",
    "rawName": "2023/C",
    "bidPrice": "93,9308",
    "coupon_val": 1.5,
    "maturityInDays": "218 nap",
    "securityType": "KTV",
    "maturityDate": "2023.08.23",
    "name": "2023/C",
    "bidEhmYield": "12,64",
    "askYield": "11,89",
    "currency": "HUF",
    "maturityInDays_val": 218,
    "issueDate": "2020.04.15",
    "longName": "A230823C20"
}