{
    "askPrice": "96,1650",
    "green": 0,
    "coupon": "1,50 %",
    "accruedInterest": "0,9863",
    "settleDate": "2023.04.20",
    "askEhmYield": "13,64",
    "bidYield": "14,49",
    "rawName": "2023/C",
    "bidPrice": "95,9174",
    "coupon_val": 1.5,
    "maturityInDays": "125 nap",
    "securityType": "KTV",
    "maturityDate": "2023.08.23",
    "name": "2023/C",
    "bidEhmYield": "14,49",
    "askYield": "13,64",
    "currency": "HUF",
    "maturityInDays_val": 125,
    "issueDate": "2020.04.15",
    "longName": "A230823C20"
}