{
    "askPrice": "99,2163",
    "green": 0,
    "coupon": "1,50 %",
    "accruedInterest": "1,3521",
    "settleDate": "2023.07.18",
    "askEhmYield": "9,80",
    "bidYield": "11,09",
    "rawName": "2023/C",
    "bidPrice": "99,1005",
    "coupon_val": 1.5,
    "maturityInDays": "36 nap",
    "securityType": "KTV",
    "maturityDate": "2023.08.23",
    "name": "2023/C",
    "bidEhmYield": "11,09",
    "askYield": "9,80",
    "currency": "HUF",
    "maturityInDays_val": 36,
    "issueDate": "2020.04.15",
    "longName": "A230823C20"
}