{
    "askPrice": "99,2613",
    "green": 0,
    "coupon": "1,50 %",
    "accruedInterest": "1,3603",
    "settleDate": "2023.07.20",
    "askEhmYield": "9,78",
    "bidYield": "11,09",
    "rawName": "2023/C",
    "bidPrice": "99,1502",
    "coupon_val": 1.5,
    "maturityInDays": "34 nap",
    "securityType": "KTV",
    "maturityDate": "2023.08.23",
    "name": "2023/C",
    "bidEhmYield": "11,09",
    "askYield": "9,78",
    "currency": "HUF",
    "maturityInDays_val": 34,
    "issueDate": "2020.04.15",
    "longName": "A230823C20"
}