{
    "askPrice": "97,5012",
    "green": 0,
    "coupon": "1,50 %",
    "accruedInterest": "1,1507",
    "settleDate": "2023.05.30",
    "askEhmYield": "13,00",
    "bidYield": "14,30",
    "rawName": "2023/C",
    "bidPrice": "97,2387",
    "coupon_val": 1.5,
    "maturityInDays": "85 nap",
    "securityType": "KTV",
    "maturityDate": "2023.08.23",
    "name": "2023/C",
    "bidEhmYield": "14,30",
    "askYield": "13,00",
    "currency": "HUF",
    "maturityInDays_val": 85,
    "issueDate": "2020.04.15",
    "longName": "A230823C20"
}