{
    "askPrice": "95,6084",
    "green": 0,
    "coupon": "1,50 %",
    "accruedInterest": "0,9164",
    "settleDate": "2023.04.03",
    "askEhmYield": "13,79",
    "bidYield": "14,55",
    "rawName": "2023/C",
    "bidPrice": "95,3588",
    "coupon_val": 1.5,
    "maturityInDays": "142 nap",
    "securityType": "KTV",
    "maturityDate": "2023.08.23",
    "name": "2023/C",
    "bidEhmYield": "14,55",
    "askYield": "13,79",
    "currency": "HUF",
    "maturityInDays_val": 142,
    "issueDate": "2020.04.15",
    "longName": "A230823C20"
}