{
    "askPrice": "",
    "green": 0,
    "coupon": "3,50 %",
    "accruedInterest": "1,41",
    "settleDate": "2022.11.14",
    "askEhmYield": "",
    "bidYield": "5,16",
    "rawName": "N2027/25",
    "bidPrice": "99,50",
    "coupon_val": 3.5,
    "maturityInDays": "1679 nap",
    "securityType": "MÁP Plusz",
    "maturityDate": "2027.06.20",
    "name": "N2027/25",
    "bidEhmYield": "",
    "askYield": "",
    "currency": "HUF",
    "maturityInDays_val": 1679,
    "issueDate": "2022-06-20",
    "longName": "N270620"
}