{
    "askPrice": "",
    "green": 0,
    "coupon": "3,50 %",
    "accruedInterest": "1,08",
    "settleDate": "2022.10.11",
    "askEhmYield": "",
    "bidYield": "",
    "rawName": "N2027/25",
    "bidPrice": "99,50",
    "coupon_val": 3.5,
    "maturityInDays": "1713 nap",
    "securityType": "MÁP Plusz",
    "maturityDate": "2027.06.20",
    "name": "N2027/25",
    "bidEhmYield": "",
    "askYield": "",
    "currency": "HUF",
    "maturityInDays_val": 1713,
    "longName": "N270620"
}