{
    "askPrice": "",
    "green": 0,
    "coupon": "3,50 %",
    "accruedInterest": "1,15",
    "settleDate": "2022.10.18",
    "askEhmYield": "",
    "bidYield": "5,14",
    "rawName": "N2027/25",
    "bidPrice": "99,50",
    "coupon_val": 3.5,
    "maturityInDays": "1706 nap",
    "securityType": "MÁP Plusz",
    "maturityDate": "2027.06.20",
    "name": "N2027/25",
    "bidEhmYield": "",
    "askYield": "",
    "currency": "HUF",
    "maturityInDays_val": 1706,
    "longName": "N270620"
}