{
    "askPrice": "",
    "green": 0,
    "coupon": "3,50 %",
    "accruedInterest": "0,7912",
    "settleDate": "2023.03.02",
    "askEhmYield": "",
    "bidYield": "5,26",
    "rawName": "N2027/25",
    "bidPrice": "99,5000",
    "coupon_val": 3.5,
    "maturityInDays": "1571 nap",
    "securityType": "MÁP Plusz",
    "maturityDate": "2027.06.20",
    "name": "N2027/25",
    "bidEhmYield": "",
    "askYield": "",
    "currency": "HUF",
    "maturityInDays_val": 1571,
    "issueDate": "2022.06.20",
    "longName": "N270620"
}