{
    "askPrice": "",
    "green": 0,
    "coupon": "3,50 %",
    "accruedInterest": "3,0123",
    "settleDate": "2024.02.20",
    "askEhmYield": "",
    "bidYield": "5,54",
    "rawName": "N2027/25",
    "bidPrice": "99,5000",
    "coupon_val": 3.5,
    "maturityInDays": "1216 nap",
    "securityType": "MÁP Plusz",
    "maturityDate": "2027.06.20",
    "name": "N2027/25",
    "bidEhmYield": "",
    "askYield": "",
    "currency": "HUF",
    "maturityInDays_val": 1216,
    "issueDate": "2022.06.20",
    "longName": "N270620"
}