{
    "askPrice": "",
    "green": 0,
    "coupon": "3,00 %",
    "accruedInterest": "0,94",
    "settleDate": "2022.07.14",
    "askEhmYield": "",
    "bidYield": "",
    "rawName": "K2023/12",
    "bidPrice": "99,50",
    "coupon_val": 3,
    "maturityInDays": "251 nap",
    "securityType": "1MÁP",
    "maturityDate": "2023.03.22",
    "name": "K2023/12",
    "bidEhmYield": "3,71",
    "askYield": "",
    "currency": "HUF",
    "maturityInDays_val": 251,
    "longName": "K230322"
}