{
    "askPrice": "",
    "green": 0,
    "coupon": "3,00 %",
    "accruedInterest": "1,37",
    "settleDate": "2022.09.05",
    "askEhmYield": "",
    "bidYield": "",
    "rawName": "K2023/12",
    "bidPrice": "99,50",
    "coupon_val": 3,
    "maturityInDays": "198 nap",
    "securityType": "1MÁP",
    "maturityDate": "2023.03.22",
    "name": "K2023/12",
    "bidEhmYield": "3,89",
    "askYield": "",
    "currency": "HUF",
    "maturityInDays_val": 198,
    "longName": "K230322"
}