{
    "askPrice": "",
    "green": 0,
    "coupon": "3,00 %",
    "accruedInterest": "2,0301",
    "settleDate": "2022.11.24",
    "askEhmYield": "",
    "bidYield": "4,55",
    "rawName": "K2023/12",
    "bidPrice": "99,5000",
    "coupon_val": 3,
    "maturityInDays": "118 nap",
    "securityType": "1MÁP",
    "maturityDate": "2023.03.22",
    "name": "K2023/12",
    "bidEhmYield": "4,48",
    "askYield": "",
    "currency": "HUF",
    "maturityInDays_val": 118,
    "issueDate": "2022.03.22",
    "longName": "K230322"
}