{
    "askPrice": "",
    "green": 0,
    "coupon": "3,00 %",
    "accruedInterest": "0,77",
    "settleDate": "2022.06.24",
    "askEhmYield": "",
    "bidYield": "",
    "rawName": "K2023/12",
    "bidPrice": "99,50",
    "coupon_val": 3,
    "maturityInDays": "271 nap",
    "securityType": "1MÁP",
    "maturityDate": "2023.03.22",
    "name": "K2023/12",
    "bidEhmYield": "3,66",
    "askYield": "",
    "currency": "HUF",
    "maturityInDays_val": 271,
    "longName": "K230322"
}