{
    "askPrice": "",
    "green": 0,
    "coupon": "3,00 %",
    "accruedInterest": "2,3014",
    "settleDate": "2022.12.27",
    "askEhmYield": "",
    "bidYield": "7,40",
    "rawName": "K2023/12",
    "bidPrice": "99,0000",
    "coupon_val": 3,
    "maturityInDays": "85 nap",
    "securityType": "1MÁP",
    "maturityDate": "2023.03.22",
    "name": "K2023/12",
    "bidEhmYield": "7,20",
    "askYield": "",
    "currency": "HUF",
    "maturityInDays_val": 85,
    "issueDate": "2022.03.22",
    "longName": "K230322"
}