{
    "askPrice": "",
    "green": 0,
    "coupon": "3,00 %",
    "accruedInterest": "2,4658",
    "settleDate": "2023.01.16",
    "askEhmYield": "",
    "bidYield": "8,79",
    "rawName": "K2023/12",
    "bidPrice": "99,0000",
    "coupon_val": 3,
    "maturityInDays": "65 nap",
    "securityType": "1MÁP",
    "maturityDate": "2023.03.22",
    "name": "K2023/12",
    "bidEhmYield": "8,49",
    "askYield": "",
    "currency": "HUF",
    "maturityInDays_val": 65,
    "issueDate": "2022.03.22",
    "longName": "K230322"
}