{
    "askPrice": "",
    "green": 0,
    "coupon": "3,00 %",
    "accruedInterest": "2,6055",
    "settleDate": "2023.02.02",
    "askEhmYield": "",
    "bidYield": "10,92",
    "rawName": "K2023/12",
    "bidPrice": "99,0000",
    "coupon_val": 3,
    "maturityInDays": "48 nap",
    "securityType": "1MÁP",
    "maturityDate": "2023.03.22",
    "name": "K2023/12",
    "bidEhmYield": "10,44",
    "askYield": "",
    "currency": "HUF",
    "maturityInDays_val": 48,
    "issueDate": "2022.03.22",
    "longName": "K230322"
}