{
    "askPrice": "",
    "green": 0,
    "coupon": "3,00 %",
    "accruedInterest": "2,6466",
    "settleDate": "2023.02.07",
    "askEhmYield": "",
    "bidYield": "11,88",
    "rawName": "K2023/12",
    "bidPrice": "99,0000",
    "coupon_val": 3,
    "maturityInDays": "43 nap",
    "securityType": "1MÁP",
    "maturityDate": "2023.03.22",
    "name": "K2023/12",
    "bidEhmYield": "11,30",
    "askYield": "",
    "currency": "HUF",
    "maturityInDays_val": 43,
    "issueDate": "2022.03.22",
    "longName": "K230322"
}