{
    "askPrice": "",
    "green": 0,
    "coupon": null,
    "accruedInterest": "3,2500",
    "settleDate": "2022.12.21",
    "askEhmYield": "",
    "bidYield": "",
    "rawName": "2026/N",
    "bidPrice": "99,0000",
    "maturityInDays": "1371 nap",
    "securityType": "BMÁP",
    "maturityDate": "2026.09.22",
    "name": "2026/N",
    "bidEhmYield": "",
    "askYield": "",
    "currency": "HUF",
    "maturityInDays_val": 1371,
    "issueDate": "2016.03.02",
    "longName": "A260922N16"
}