{
    "askPrice": "",
    "green": 0,
    "coupon": null,
    "accruedInterest": "1,95",
    "settleDate": "2022.11.15",
    "askEhmYield": "",
    "bidYield": "",
    "rawName": "2026/N",
    "bidPrice": "99,00",
    "maturityInDays": "1407 nap",
    "securityType": "BMÁP",
    "maturityDate": "2026.09.22",
    "name": "2026/N",
    "bidEhmYield": "",
    "askYield": "",
    "currency": "HUF",
    "maturityInDays_val": 1407,
    "issueDate": "2016-03-02",
    "longName": "A260922N16"
}