{
    "askPrice": "",
    "green": 0,
    "coupon": null,
    "accruedInterest": "0,51",
    "settleDate": "2022.10.06",
    "askEhmYield": "",
    "bidYield": "",
    "rawName": "2026/N",
    "bidPrice": "99,00",
    "maturityInDays": "1447 nap",
    "securityType": "BMÁP",
    "maturityDate": "2026.09.22",
    "name": "2026/N",
    "bidEhmYield": "",
    "askYield": "",
    "currency": "HUF",
    "maturityInDays_val": 1447,
    "longName": "A260922N16"
}