{
    "askPrice": "",
    "green": 0,
    "coupon": null,
    "accruedInterest": "10,5164",
    "settleDate": "2023.07.10",
    "askEhmYield": "",
    "bidYield": "",
    "rawName": "2026/N",
    "bidPrice": "99,0000",
    "maturityInDays": "1170 nap",
    "securityType": "BMÁP",
    "maturityDate": "2026.09.22",
    "name": "2026/N",
    "bidEhmYield": "",
    "askYield": "",
    "currency": "HUF",
    "maturityInDays_val": 1170,
    "issueDate": "2016.03.02",
    "longName": "A260922N16"
}