{
    "askPrice": "",
    "green": 0,
    "coupon": null,
    "accruedInterest": "7,1575",
    "settleDate": "2024.04.19",
    "askEhmYield": "",
    "bidYield": "",
    "rawName": "2026/N",
    "bidPrice": "99,0000",
    "maturityInDays": "886 nap",
    "securityType": "BMÁP",
    "maturityDate": "2026.09.22",
    "name": "2026/N",
    "bidEhmYield": "",
    "askYield": "",
    "currency": "HUF",
    "maturityInDays_val": 886,
    "issueDate": "2016.03.02",
    "longName": "A260922N16"
}