{
    "askPrice": "",
    "green": 0,
    "coupon": "3,50 %",
    "accruedInterest": "3,42",
    "settleDate": "2022.11.07",
    "askEhmYield": "",
    "bidYield": "5,86",
    "rawName": "N2025/09",
    "bidPrice": "99,50",
    "coupon_val": 3.5,
    "maturityInDays": "846 nap",
    "securityType": "MÁP Plusz",
    "maturityDate": "2025.03.02",
    "name": "N2025/09",
    "bidEhmYield": "",
    "askYield": "",
    "currency": "HUF",
    "maturityInDays_val": 846,
    "issueDate": "2020-03-02",
    "longName": "N250302"
}