{
    "askPrice": "",
    "green": 0,
    "coupon": "3,50 %",
    "accruedInterest": "4,1370",
    "settleDate": "2022.12.29",
    "askEhmYield": "",
    "bidYield": "5,92",
    "rawName": "N2025/09",
    "bidPrice": "99,5000",
    "coupon_val": 3.5,
    "maturityInDays": "794 nap",
    "securityType": "MÁP Plusz",
    "maturityDate": "2025.03.02",
    "name": "N2025/09",
    "bidEhmYield": "",
    "askYield": "",
    "currency": "HUF",
    "maturityInDays_val": 794,
    "issueDate": "2020.03.02",
    "longName": "N250302"
}