{
    "askPrice": "",
    "green": 0,
    "coupon": "3,50 %",
    "accruedInterest": "1,51",
    "settleDate": "2022.06.20",
    "askEhmYield": "",
    "bidYield": "",
    "rawName": "N2025/09",
    "bidPrice": "99,50",
    "coupon_val": 3.5,
    "maturityInDays": "986 nap",
    "securityType": "MÁP Plusz",
    "maturityDate": "2025.03.02",
    "name": "N2025/09",
    "bidEhmYield": "",
    "askYield": "",
    "currency": "HUF",
    "maturityInDays_val": 986,
    "longName": "N250302"
}