{
    "askPrice": "",
    "green": 0,
    "coupon": "3,50 %",
    "accruedInterest": "1,8033",
    "settleDate": "2023.06.30",
    "askEhmYield": "",
    "bidYield": "6,09",
    "rawName": "N2025/09",
    "bidPrice": "99,5000",
    "coupon_val": 3.5,
    "maturityInDays": "611 nap",
    "securityType": "MÁP Plusz",
    "maturityDate": "2025.03.02",
    "name": "N2025/09",
    "bidEhmYield": "",
    "askYield": "",
    "currency": "HUF",
    "maturityInDays_val": 611,
    "issueDate": "2020.03.02",
    "longName": "N250302"
}