{
    "askPrice": "",
    "green": 0,
    "coupon": "3,50 %",
    "accruedInterest": "3,5464",
    "settleDate": "2023.10.24",
    "askEhmYield": "",
    "bidYield": "6,23",
    "rawName": "N2025/09",
    "bidPrice": "99,5000",
    "coupon_val": 3.5,
    "maturityInDays": "495 nap",
    "securityType": "MÁP Plusz",
    "maturityDate": "2025.03.02",
    "name": "N2025/09",
    "bidEhmYield": "",
    "askYield": "",
    "currency": "HUF",
    "maturityInDays_val": 495,
    "issueDate": "2020.03.02",
    "longName": "N250302"
}