{
    "askPrice": "",
    "green": 0,
    "coupon": "3,50 %",
    "accruedInterest": "4,6134",
    "settleDate": "2024.01.03",
    "askEhmYield": "",
    "bidYield": "6,37",
    "rawName": "N2025/09",
    "bidPrice": "99,5000",
    "coupon_val": 3.5,
    "maturityInDays": "424 nap",
    "securityType": "MÁP Plusz",
    "maturityDate": "2025.03.02",
    "name": "N2025/09",
    "bidEhmYield": "",
    "askYield": "",
    "currency": "HUF",
    "maturityInDays_val": 424,
    "issueDate": "2020.03.02",
    "longName": "N250302"
}