{
    "askPrice": "100,00",
    "green": 0,
    "coupon": null,
    "accruedInterest": "6,39",
    "settleDate": "2022.11.16",
    "askEhmYield": "",
    "bidYield": "",
    "rawName": "2034/S_BABA",
    "bidPrice": "100,00",
    "maturityInDays": "4095 nap",
    "securityType": "BABA",
    "maturityDate": "2034.02.01",
    "name": "2034/S_BABA",
    "bidEhmYield": "",
    "askYield": "",
    "currency": "HUF",
    "maturityInDays_val": 4095,
    "issueDate": "2015-02-02",
    "longName": "A340201S15"
}