{
    "askPrice": "100,00",
    "green": 0,
    "coupon": null,
    "accruedInterest": "3,24",
    "settleDate": "2022.06.27",
    "askEhmYield": "",
    "bidYield": "",
    "rawName": "2034/S_BABA",
    "bidPrice": "100,00",
    "maturityInDays": "4237 nap",
    "securityType": "BABA",
    "maturityDate": "2034.02.01",
    "name": "2034/S_BABA",
    "bidEhmYield": "",
    "askYield": "",
    "currency": "HUF",
    "maturityInDays_val": 4237,
    "longName": "A340201S15"
}