{
    "askPrice": "100,0000",
    "green": 0,
    "coupon": null,
    "accruedInterest": "6,6164",
    "settleDate": "2023.06.19",
    "askEhmYield": "",
    "bidYield": "",
    "rawName": "2034/S_BABA",
    "bidPrice": "100,0000",
    "maturityInDays": "3880 nap",
    "securityType": "BABA",
    "maturityDate": "2034.02.01",
    "name": "2034/S_BABA",
    "bidEhmYield": "",
    "askYield": "",
    "currency": "HUF",
    "maturityInDays_val": 3880,
    "issueDate": "2015.02.02",
    "longName": "A340201S15"
}