{
    "askPrice": "",
    "green": 0,
    "coupon": null,
    "accruedInterest": "8,0556",
    "settleDate": "2023.01.30",
    "askEhmYield": "",
    "bidYield": "",
    "rawName": "2034/S_BABA",
    "bidPrice": "",
    "maturityInDays": "4020 nap",
    "securityType": "BABA",
    "maturityDate": "2034.02.01",
    "name": "2034/S_BABA",
    "bidEhmYield": "",
    "askYield": "",
    "currency": "HUF",
    "maturityInDays_val": 4020,
    "issueDate": "2015.02.02",
    "longName": "A340201S15"
}