{
    "askPrice": "",
    "green": 0,
    "coupon": "4,75 %",
    "accruedInterest": "0,29",
    "settleDate": "2022.09.07",
    "askEhmYield": "",
    "bidYield": "",
    "rawName": "K2023/33",
    "bidPrice": "99,50",
    "coupon_val": 4.75,
    "maturityInDays": "343 nap",
    "securityType": "1MÁP",
    "maturityDate": "2023.08.16",
    "name": "K2023/33",
    "bidEhmYield": "5,29",
    "askYield": "",
    "currency": "HUF",
    "maturityInDays_val": 343,
    "longName": "K230816"
}