{
    "askPrice": "",
    "green": 0,
    "coupon": "4,75 %",
    "accruedInterest": "1,8089",
    "settleDate": "2023.01.02",
    "askEhmYield": "",
    "bidYield": "6,39",
    "rawName": "K2023/33",
    "bidPrice": "99,0000",
    "coupon_val": 4.75,
    "maturityInDays": "226 nap",
    "securityType": "1MÁP",
    "maturityDate": "2023.08.16",
    "name": "K2023/33",
    "bidEhmYield": "6,31",
    "askYield": "",
    "currency": "HUF",
    "maturityInDays_val": 226,
    "issueDate": "2022.08.16",
    "longName": "K230816"
}