{
    "askPrice": "",
    "green": 0,
    "coupon": "4,75 %",
    "accruedInterest": "1,6527",
    "settleDate": "2022.12.21",
    "askEhmYield": "",
    "bidYield": "6,31",
    "rawName": "K2023/33",
    "bidPrice": "99,0000",
    "coupon_val": 4.75,
    "maturityInDays": "238 nap",
    "securityType": "1MÁP",
    "maturityDate": "2023.08.16",
    "name": "K2023/33",
    "bidEhmYield": "6,24",
    "askYield": "",
    "currency": "HUF",
    "maturityInDays_val": 238,
    "issueDate": "2022.08.16",
    "longName": "K230816"
}