{
    "askPrice": "",
    "green": 0,
    "coupon": "4,75 %",
    "accruedInterest": "1,5356",
    "settleDate": "2022.12.12",
    "askEhmYield": "",
    "bidYield": "6,26",
    "rawName": "K2023/33",
    "bidPrice": "99,0000",
    "coupon_val": 4.75,
    "maturityInDays": "247 nap",
    "securityType": "1MÁP",
    "maturityDate": "2023.08.16",
    "name": "K2023/33",
    "bidEhmYield": "6,19",
    "askYield": "",
    "currency": "HUF",
    "maturityInDays_val": 247,
    "issueDate": "2022.08.16",
    "longName": "K230816"
}