{
    "askPrice": "",
    "green": 0,
    "coupon": "4,75 %",
    "accruedInterest": "1,3014",
    "settleDate": "2022.11.24",
    "askEhmYield": "",
    "bidYield": "5,44",
    "rawName": "K2023/33",
    "bidPrice": "99,5000",
    "coupon_val": 4.75,
    "maturityInDays": "265 nap",
    "securityType": "1MÁP",
    "maturityDate": "2023.08.16",
    "name": "K2023/33",
    "bidEhmYield": "5,40",
    "askYield": "",
    "currency": "HUF",
    "maturityInDays_val": 265,
    "issueDate": "2022.08.16",
    "longName": "K230816"
}