{
    "askPrice": "",
    "green": 0,
    "coupon": "4,75 %",
    "accruedInterest": "3,3966",
    "settleDate": "2023.05.04",
    "askEhmYield": "",
    "bidYield": "8,30",
    "rawName": "K2023/33",
    "bidPrice": "99,0000",
    "coupon_val": 4.75,
    "maturityInDays": "104 nap",
    "securityType": "1MÁP",
    "maturityDate": "2023.08.16",
    "name": "K2023/33",
    "bidEhmYield": "8,07",
    "askYield": "",
    "currency": "HUF",
    "maturityInDays_val": 104,
    "issueDate": "2022.08.16",
    "longName": "K230816"
}