{
    "askPrice": "",
    "green": 0,
    "coupon": "4,75 %",
    "accruedInterest": "2,8110",
    "settleDate": "2023.03.20",
    "askEhmYield": "",
    "bidYield": "7,22",
    "rawName": "K2023/33",
    "bidPrice": "99,0000",
    "coupon_val": 4.75,
    "maturityInDays": "149 nap",
    "securityType": "1MÁP",
    "maturityDate": "2023.08.16",
    "name": "K2023/33",
    "bidEhmYield": "7,07",
    "askYield": "",
    "currency": "HUF",
    "maturityInDays_val": 149,
    "issueDate": "2022.08.16",
    "longName": "K230816"
}