{
    "askPrice": "",
    "green": 0,
    "coupon": "4,75 %",
    "accruedInterest": "2,1993",
    "settleDate": "2023.02.01",
    "askEhmYield": "",
    "bidYield": "6,63",
    "rawName": "K2023/33",
    "bidPrice": "99,0000",
    "coupon_val": 4.75,
    "maturityInDays": "196 nap",
    "securityType": "1MÁP",
    "maturityDate": "2023.08.16",
    "name": "K2023/33",
    "bidEhmYield": "6,53",
    "askYield": "",
    "currency": "HUF",
    "maturityInDays_val": 196,
    "issueDate": "2022.08.16",
    "longName": "K230816"
}