{
    "askPrice": "",
    "green": 0,
    "coupon": "4,75 %",
    "accruedInterest": "4,1123",
    "settleDate": "2023.06.28",
    "askEhmYield": "",
    "bidYield": "12,45",
    "rawName": "K2023/33",
    "bidPrice": "99,0000",
    "coupon_val": 4.75,
    "maturityInDays": "49 nap",
    "securityType": "1MÁP",
    "maturityDate": "2023.08.16",
    "name": "K2023/33",
    "bidEhmYield": "11,83",
    "askYield": "",
    "currency": "HUF",
    "maturityInDays_val": 49,
    "issueDate": "2022.08.16",
    "longName": "K230816"
}