{
    "askPrice": "",
    "green": 0,
    "coupon": "4,75 %",
    "accruedInterest": "4,3075",
    "settleDate": "2023.07.13",
    "askEhmYield": "",
    "bidYield": "16,05",
    "rawName": "K2023/33",
    "bidPrice": "99,0000",
    "coupon_val": 4.75,
    "maturityInDays": "34 nap",
    "securityType": "1MÁP",
    "maturityDate": "2023.08.16",
    "name": "K2023/33",
    "bidEhmYield": "14,99",
    "askYield": "",
    "currency": "HUF",
    "maturityInDays_val": 34,
    "issueDate": "2022.08.16",
    "longName": "K230816"
}