{
    "askPrice": "",
    "green": 0,
    "coupon": "4,75 %",
    "accruedInterest": "4,0473",
    "settleDate": "2023.06.23",
    "askEhmYield": "",
    "bidYield": "11,71",
    "rawName": "K2023/33",
    "bidPrice": "99,0000",
    "coupon_val": 4.75,
    "maturityInDays": "54 nap",
    "securityType": "1MÁP",
    "maturityDate": "2023.08.16",
    "name": "K2023/33",
    "bidEhmYield": "11,17",
    "askYield": "",
    "currency": "HUF",
    "maturityInDays_val": 54,
    "issueDate": "2022.08.16",
    "longName": "K230816"
}