{
    "askPrice": "",
    "green": 0,
    "coupon": "2,50 %",
    "accruedInterest": "1,98",
    "settleDate": "2022.09.22",
    "askEhmYield": "",
    "bidYield": "",
    "rawName": "K2022/49",
    "bidPrice": "99,50",
    "coupon_val": 2.5,
    "maturityInDays": "76 nap",
    "securityType": "1MÁP",
    "maturityDate": "2022.12.07",
    "name": "K2022/49",
    "bidEhmYield": "4,83",
    "askYield": "",
    "currency": "HUF",
    "maturityInDays_val": 76,
    "longName": "K221207"
}