{
    "askPrice": "",
    "green": 0,
    "coupon": "2,50 %",
    "accruedInterest": "2,16",
    "settleDate": "2022.10.19",
    "askEhmYield": "",
    "bidYield": "6,29",
    "rawName": "K2022/49",
    "bidPrice": "99,50",
    "coupon_val": 2.5,
    "maturityInDays": "49 nap",
    "securityType": "1MÁP",
    "maturityDate": "2022.12.07",
    "name": "K2022/49",
    "bidEhmYield": "6,12",
    "askYield": "",
    "currency": "HUF",
    "maturityInDays_val": 49,
    "longName": "K221207"
}