{
    "askPrice": "",
    "green": 0,
    "coupon": "3,50 %",
    "accruedInterest": "1,30",
    "settleDate": "2022.07.12",
    "askEhmYield": "",
    "bidYield": "",
    "rawName": "N2027/09",
    "bidPrice": "99,50",
    "coupon_val": 3.5,
    "maturityInDays": "1692 nap",
    "securityType": "MÁP Plusz",
    "maturityDate": "2027.02.28",
    "name": "N2027/09",
    "bidEhmYield": "",
    "askYield": "",
    "currency": "HUF",
    "maturityInDays_val": 1692,
    "longName": "N270228"
}