{
    "askPrice": "",
    "green": 0,
    "coupon": "3,50 %",
    "accruedInterest": "0,73",
    "settleDate": "2022.11.03",
    "askEhmYield": "",
    "bidYield": "5,25",
    "rawName": "N2027/09",
    "bidPrice": "99,50",
    "coupon_val": 3.5,
    "maturityInDays": "1578 nap",
    "securityType": "MÁP Plusz",
    "maturityDate": "2027.02.28",
    "name": "N2027/09",
    "bidEhmYield": "",
    "askYield": "",
    "currency": "HUF",
    "maturityInDays_val": 1578,
    "issueDate": "2022-02-28",
    "longName": "N270228"
}