{
    "askPrice": "",
    "green": 0,
    "coupon": "3,50 %",
    "accruedInterest": "1,1466",
    "settleDate": "2023.06.01",
    "askEhmYield": "",
    "bidYield": "5,42",
    "rawName": "N2027/09",
    "bidPrice": "99,5000",
    "coupon_val": 3.5,
    "maturityInDays": "1368 nap",
    "securityType": "MÁP Plusz",
    "maturityDate": "2027.02.28",
    "name": "N2027/09",
    "bidEhmYield": "",
    "askYield": "",
    "currency": "HUF",
    "maturityInDays_val": 1368,
    "issueDate": "2022.02.28",
    "longName": "N270228"
}