{
    "askPrice": "",
    "green": 0,
    "coupon": "3,50 %",
    "accruedInterest": "0,0370",
    "settleDate": "2023.03.03",
    "askEhmYield": "",
    "bidYield": "5,22",
    "rawName": "N2027/09",
    "bidPrice": "100,0000",
    "coupon_val": 3.5,
    "maturityInDays": "1458 nap",
    "securityType": "MÁP Plusz",
    "maturityDate": "2027.02.28",
    "name": "N2027/09",
    "bidEhmYield": "",
    "askYield": "",
    "currency": "HUF",
    "maturityInDays_val": 1458,
    "issueDate": "2022.02.28",
    "longName": "N270228"
}