{
    "askPrice": "45,59",
    "green": 0,
    "coupon": "3,00 %",
    "accruedInterest": "1,33",
    "settleDate": "2022.10.04",
    "askEhmYield": "9,23",
    "bidYield": "9,73",
    "rawName": "2041/A",
    "bidPrice": "43,15",
    "coupon_val": 3,
    "maturityInDays": "6778 nap",
    "securityType": "KTV",
    "maturityDate": "2041.04.25",
    "name": "2041/A",
    "bidEhmYield": "9,73",
    "askYield": "9,23",
    "currency": "HUF",
    "maturityInDays_val": 6778,
    "longName": "A410425A20"
}