{
    "askPrice": "57,05",
    "green": 0,
    "coupon": "3,00 %",
    "accruedInterest": "0,89",
    "settleDate": "2022.08.11",
    "askEhmYield": "7,27",
    "bidYield": "7,77",
    "rawName": "2041/A",
    "bidPrice": "53,73",
    "coupon_val": 3,
    "maturityInDays": "6832 nap",
    "securityType": "KTV",
    "maturityDate": "2041.04.25",
    "name": "2041/A",
    "bidEhmYield": "7,77",
    "askYield": "7,27",
    "currency": "HUF",
    "maturityInDays_val": 6832,
    "longName": "A410425A20"
}