{
    "askPrice": "56,05",
    "green": 0,
    "coupon": "3,00 %",
    "accruedInterest": "0,95",
    "settleDate": "2022.08.18",
    "askEhmYield": "7,42",
    "bidYield": "7,92",
    "rawName": "2041/A",
    "bidPrice": "52,81",
    "coupon_val": 3,
    "maturityInDays": "6825 nap",
    "securityType": "KTV",
    "maturityDate": "2041.04.25",
    "name": "2041/A",
    "bidEhmYield": "7,92",
    "askYield": "7,42",
    "currency": "HUF",
    "maturityInDays_val": 6825,
    "longName": "A410425A20"
}