{
    "askPrice": "46,86",
    "green": 0,
    "coupon": "3,00 %",
    "accruedInterest": "1,28",
    "settleDate": "2022.09.28",
    "askEhmYield": "8,98",
    "bidYield": "9,48",
    "rawName": "2041/A",
    "bidPrice": "44,32",
    "coupon_val": 3,
    "maturityInDays": "6784 nap",
    "securityType": "KTV",
    "maturityDate": "2041.04.25",
    "name": "2041/A",
    "bidEhmYield": "9,48",
    "askYield": "8,98",
    "currency": "HUF",
    "maturityInDays_val": 6784,
    "longName": "A410425A20"
}