{
    "askPrice": "53,35",
    "green": 0,
    "coupon": "3,00 %",
    "accruedInterest": "0,72",
    "settleDate": "2022.07.22",
    "askEhmYield": "7,82",
    "bidYield": "8,32",
    "rawName": "2041/A",
    "bidPrice": "50,31",
    "coupon_val": 3,
    "maturityInDays": "6852 nap",
    "securityType": "KTV",
    "maturityDate": "2041.04.25",
    "name": "2041/A",
    "bidEhmYield": "8,32",
    "askYield": "7,82",
    "currency": "HUF",
    "maturityInDays_val": 6852,
    "longName": "A410425A20"
}