{
    "askPrice": "56,6170",
    "green": 0,
    "coupon": "3,00 %",
    "accruedInterest": "1,7507",
    "settleDate": "2022.11.24",
    "askEhmYield": "7,37",
    "bidYield": "8,05",
    "rawName": "2041/A",
    "bidPrice": "52,3134",
    "coupon_val": 3,
    "maturityInDays": "6727 nap",
    "securityType": "KTV",
    "maturityDate": "2041.04.25",
    "name": "2041/A",
    "bidEhmYield": "8,04",
    "askYield": "7,38",
    "currency": "HUF",
    "maturityInDays_val": 6727,
    "issueDate": "2020.01.22",
    "longName": "A410425A20"
}