{
    "askPrice": "53,51",
    "green": 0,
    "coupon": "3,00 %",
    "accruedInterest": "0,99",
    "settleDate": "2022.08.23",
    "askEhmYield": "7,81",
    "bidYield": "8,31",
    "rawName": "2041/A",
    "bidPrice": "50,47",
    "coupon_val": 3,
    "maturityInDays": "6820 nap",
    "securityType": "KTV",
    "maturityDate": "2041.04.25",
    "name": "2041/A",
    "bidEhmYield": "8,31",
    "askYield": "7,81",
    "currency": "HUF",
    "maturityInDays_val": 6820,
    "longName": "A410425A20"
}