{
    "askPrice": "54,46",
    "green": 0,
    "coupon": "3,00 %",
    "accruedInterest": "0,58",
    "settleDate": "2022.07.04",
    "askEhmYield": "7,64",
    "bidYield": "8,14",
    "rawName": "2041/A",
    "bidPrice": "51,33",
    "coupon_val": 3,
    "maturityInDays": "6870 nap",
    "securityType": "KTV",
    "maturityDate": "2041.04.25",
    "name": "2041/A",
    "bidEhmYield": "8,14",
    "askYield": "7,64",
    "currency": "HUF",
    "maturityInDays_val": 6870,
    "longName": "A410425A20"
}