{
    "askPrice": "57,18",
    "green": 0,
    "coupon": "3,00 %",
    "accruedInterest": "0,86",
    "settleDate": "2022.08.08",
    "askEhmYield": "7,25",
    "bidYield": "7,75",
    "rawName": "2041/A",
    "bidPrice": "53,85",
    "coupon_val": 3,
    "maturityInDays": "6835 nap",
    "securityType": "KTV",
    "maturityDate": "2041.04.25",
    "name": "2041/A",
    "bidEhmYield": "7,75",
    "askYield": "7,25",
    "currency": "HUF",
    "maturityInDays_val": 6835,
    "longName": "A410425A20"
}