{
    "askPrice": "44,21",
    "green": 0,
    "coupon": "3,00 %",
    "accruedInterest": "1,61",
    "settleDate": "2022.11.07",
    "askEhmYield": "9,52",
    "bidYield": "10,15",
    "rawName": "2041/A",
    "bidPrice": "41,34",
    "coupon_val": 3,
    "maturityInDays": "6744 nap",
    "securityType": "KTV",
    "maturityDate": "2041.04.25",
    "name": "2041/A",
    "bidEhmYield": "10,14",
    "askYield": "9,53",
    "currency": "HUF",
    "maturityInDays_val": 6744,
    "issueDate": "2020-01-22",
    "longName": "A410425A20"
}