{
    "askPrice": "52,28",
    "green": 0,
    "coupon": "3,00 %",
    "accruedInterest": "1,04",
    "settleDate": "2022.08.29",
    "askEhmYield": "8,01",
    "bidYield": "8,51",
    "rawName": "2041/A",
    "bidPrice": "49,34",
    "coupon_val": 3,
    "maturityInDays": "6814 nap",
    "securityType": "KTV",
    "maturityDate": "2041.04.25",
    "name": "2041/A",
    "bidEhmYield": "8,51",
    "askYield": "8,01",
    "currency": "HUF",
    "maturityInDays_val": 6814,
    "longName": "A410425A20"
}