{
    "askPrice": "55,7149",
    "green": 0,
    "coupon": "3,00 %",
    "accruedInterest": "1,8411",
    "settleDate": "2022.12.05",
    "askEhmYield": "7,51",
    "bidYield": "8,33",
    "rawName": "2041/A",
    "bidPrice": "50,6813",
    "coupon_val": 3,
    "maturityInDays": "6716 nap",
    "securityType": "KTV",
    "maturityDate": "2041.04.25",
    "name": "2041/A",
    "bidEhmYield": "8,32",
    "askYield": "7,52",
    "currency": "HUF",
    "maturityInDays_val": 6716,
    "issueDate": "2020.01.22",
    "longName": "A410425A20"
}