{
    "askPrice": "48,82",
    "green": 0,
    "coupon": "3,00 %",
    "accruedInterest": "1,16",
    "settleDate": "2022.09.13",
    "askEhmYield": "8,61",
    "bidYield": "9,11",
    "rawName": "2041/A",
    "bidPrice": "46,13",
    "coupon_val": 3,
    "maturityInDays": "6799 nap",
    "securityType": "KTV",
    "maturityDate": "2041.04.25",
    "name": "2041/A",
    "bidEhmYield": "9,11",
    "askYield": "8,61",
    "currency": "HUF",
    "maturityInDays_val": 6799,
    "longName": "A410425A20"
}