{
    "askPrice": "50,73",
    "green": 0,
    "coupon": "3,00 %",
    "accruedInterest": "1,05",
    "settleDate": "2022.08.31",
    "askEhmYield": "8,27",
    "bidYield": "8,77",
    "rawName": "2041/A",
    "bidPrice": "47,90",
    "coupon_val": 3,
    "maturityInDays": "6812 nap",
    "securityType": "KTV",
    "maturityDate": "2041.04.25",
    "name": "2041/A",
    "bidEhmYield": "8,77",
    "askYield": "8,27",
    "currency": "HUF",
    "maturityInDays_val": 6812,
    "longName": "A410425A20"
}