{
    "askPrice": "52,28",
    "green": 0,
    "coupon": "3,00 %",
    "accruedInterest": "1,67",
    "settleDate": "2022.11.14",
    "askEhmYield": "8,04",
    "bidYield": "8,72",
    "rawName": "2041/A",
    "bidPrice": "48,41",
    "coupon_val": 3,
    "maturityInDays": "6737 nap",
    "securityType": "KTV",
    "maturityDate": "2041.04.25",
    "name": "2041/A",
    "bidEhmYield": "8,71",
    "askYield": "8,05",
    "currency": "HUF",
    "maturityInDays_val": 6737,
    "issueDate": "2020-01-22",
    "longName": "A410425A20"
}