{
    "askPrice": "43,79",
    "green": 0,
    "coupon": "3,00 %",
    "accruedInterest": "1,41",
    "settleDate": "2022.10.13",
    "askEhmYield": "9,60",
    "bidYield": "10,10",
    "rawName": "2041/A",
    "bidPrice": "41,49",
    "coupon_val": 3,
    "maturityInDays": "6769 nap",
    "securityType": "KTV",
    "maturityDate": "2041.04.25",
    "name": "2041/A",
    "bidEhmYield": "10,10",
    "askYield": "9,60",
    "currency": "HUF",
    "maturityInDays_val": 6769,
    "longName": "A410425A20"
}