{
    "askPrice": "57,73",
    "green": 0,
    "coupon": "3,00 %",
    "accruedInterest": "0,83",
    "settleDate": "2022.08.04",
    "askEhmYield": "7,17",
    "bidYield": "7,67",
    "rawName": "2041/A",
    "bidPrice": "54,35",
    "coupon_val": 3,
    "maturityInDays": "6839 nap",
    "securityType": "KTV",
    "maturityDate": "2041.04.25",
    "name": "2041/A",
    "bidEhmYield": "7,67",
    "askYield": "7,17",
    "currency": "HUF",
    "maturityInDays_val": 6839,
    "longName": "A410425A20"
}