{
    "askPrice": "55,6810",
    "green": 0,
    "coupon": "3,00 %",
    "accruedInterest": "1,9233",
    "settleDate": "2022.12.15",
    "askEhmYield": "7,52",
    "bidYield": "8,33",
    "rawName": "2041/A",
    "bidPrice": "50,7143",
    "coupon_val": 3,
    "maturityInDays": "6706 nap",
    "securityType": "KTV",
    "maturityDate": "2041.04.25",
    "name": "2041/A",
    "bidEhmYield": "8,32",
    "askYield": "7,53",
    "currency": "HUF",
    "maturityInDays_val": 6706,
    "issueDate": "2020.01.22",
    "longName": "A410425A20"
}