{
    "askPrice": "64,1362",
    "green": 0,
    "coupon": "3,00 %",
    "accruedInterest": "1,1967",
    "settleDate": "2023.09.18",
    "askEhmYield": "6,46",
    "bidYield": "7,16",
    "rawName": "2041/A",
    "bidPrice": "59,0763",
    "coupon_val": 3,
    "maturityInDays": "6429 nap",
    "securityType": "KTV",
    "maturityDate": "2041.04.25",
    "name": "2041/A",
    "bidEhmYield": "7,15",
    "askYield": "6,47",
    "currency": "HUF",
    "maturityInDays_val": 6429,
    "issueDate": "2020.01.22",
    "longName": "A410425A20"
}