{
    "askPrice": "64,1079",
    "green": 0,
    "coupon": "3,00 %",
    "accruedInterest": "0,4590",
    "settleDate": "2023.06.20",
    "askEhmYield": "6,43",
    "bidYield": "7,26",
    "rawName": "2041/A",
    "bidPrice": "58,1065",
    "coupon_val": 3,
    "maturityInDays": "6519 nap",
    "securityType": "KTV",
    "maturityDate": "2041.04.25",
    "name": "2041/A",
    "bidEhmYield": "7,25",
    "askYield": "6,44",
    "currency": "HUF",
    "maturityInDays_val": 6519,
    "issueDate": "2020.01.22",
    "longName": "A410425A20"
}