{
    "askPrice": "60,6965",
    "green": 0,
    "coupon": "3,00 %",
    "accruedInterest": "0,7951",
    "settleDate": "2023.07.31",
    "askEhmYield": "6,90",
    "bidYield": "7,67",
    "rawName": "2041/A",
    "bidPrice": "55,5101",
    "coupon_val": 3,
    "maturityInDays": "6478 nap",
    "securityType": "KTV",
    "maturityDate": "2041.04.25",
    "name": "2041/A",
    "bidEhmYield": "7,66",
    "askYield": "6,91",
    "currency": "HUF",
    "maturityInDays_val": 6478,
    "issueDate": "2020.01.22",
    "longName": "A410425A20"
}