{
    "askPrice": "63,3807",
    "green": 0,
    "coupon": "3,00 %",
    "accruedInterest": "1,8279",
    "settleDate": "2023.12.04",
    "askEhmYield": "6,59",
    "bidYield": "7,25",
    "rawName": "2041/A",
    "bidPrice": "58,7091",
    "coupon_val": 3,
    "maturityInDays": "6352 nap",
    "securityType": "KTV",
    "maturityDate": "2041.04.25",
    "name": "2041/A",
    "bidEhmYield": "7,24",
    "askYield": "6,60",
    "currency": "HUF",
    "maturityInDays_val": 6352,
    "issueDate": "2020.01.22",
    "longName": "A410425A20"
}