{
    "askPrice": "60,9777",
    "green": 0,
    "coupon": "3,00 %",
    "accruedInterest": "0,7705",
    "settleDate": "2023.07.28",
    "askEhmYield": "6,86",
    "bidYield": "7,62",
    "rawName": "2041/A",
    "bidPrice": "55,8234",
    "coupon_val": 3,
    "maturityInDays": "6481 nap",
    "securityType": "KTV",
    "maturityDate": "2041.04.25",
    "name": "2041/A",
    "bidEhmYield": "7,61",
    "askYield": "6,87",
    "currency": "HUF",
    "maturityInDays_val": 6481,
    "issueDate": "2020.01.22",
    "longName": "A410425A20"
}