{
    "askPrice": "64,3397",
    "green": 0,
    "coupon": "3,00 %",
    "accruedInterest": "0,4508",
    "settleDate": "2023.06.19",
    "askEhmYield": "6,40",
    "bidYield": "7,23",
    "rawName": "2041/A",
    "bidPrice": "58,3097",
    "coupon_val": 3,
    "maturityInDays": "6520 nap",
    "securityType": "KTV",
    "maturityDate": "2041.04.25",
    "name": "2041/A",
    "bidEhmYield": "7,22",
    "askYield": "6,41",
    "currency": "HUF",
    "maturityInDays_val": 6520,
    "issueDate": "2020.01.22",
    "longName": "A410425A20"
}