{
    "askPrice": "54,5523",
    "green": 0,
    "coupon": "3,00 %",
    "accruedInterest": "2,9507",
    "settleDate": "2023.04.19",
    "askEhmYield": "7,76",
    "bidYield": "8,53",
    "rawName": "2041/A",
    "bidPrice": "50,0032",
    "coupon_val": 3,
    "maturityInDays": "6581 nap",
    "securityType": "KTV",
    "maturityDate": "2041.04.25",
    "name": "2041/A",
    "bidEhmYield": "8,52",
    "askYield": "7,77",
    "currency": "HUF",
    "maturityInDays_val": 6581,
    "issueDate": "2020.01.22",
    "longName": "A410425A20"
}