{
    "askPrice": "61,3185",
    "green": 0,
    "coupon": "3,00 %",
    "accruedInterest": "1,0984",
    "settleDate": "2023.09.06",
    "askEhmYield": "6,83",
    "bidYield": "7,46",
    "rawName": "2041/A",
    "bidPrice": "57,0005",
    "coupon_val": 3,
    "maturityInDays": "6441 nap",
    "securityType": "KTV",
    "maturityDate": "2041.04.25",
    "name": "2041/A",
    "bidEhmYield": "7,45",
    "askYield": "6,84",
    "currency": "HUF",
    "maturityInDays_val": 6441,
    "issueDate": "2020.01.22",
    "longName": "A410425A20"
}