{
    "askPrice": "58,9753",
    "green": 0,
    "coupon": "3,00 %",
    "accruedInterest": "0,9344",
    "settleDate": "2023.08.17",
    "askEhmYield": "7,15",
    "bidYield": "7,86",
    "rawName": "2041/A",
    "bidPrice": "54,3604",
    "coupon_val": 3,
    "maturityInDays": "6461 nap",
    "securityType": "KTV",
    "maturityDate": "2041.04.25",
    "name": "2041/A",
    "bidEhmYield": "7,85",
    "askYield": "7,16",
    "currency": "HUF",
    "maturityInDays_val": 6461,
    "issueDate": "2020.01.22",
    "longName": "A410425A20"
}