{
    "askPrice": "61,2881",
    "green": 0,
    "coupon": "3,00 %",
    "accruedInterest": "1,7705",
    "settleDate": "2023.11.27",
    "askEhmYield": "6,87",
    "bidYield": "7,54",
    "rawName": "2041/A",
    "bidPrice": "56,7460",
    "coupon_val": 3,
    "maturityInDays": "6359 nap",
    "securityType": "KTV",
    "maturityDate": "2041.04.25",
    "name": "2041/A",
    "bidEhmYield": "7,53",
    "askYield": "6,88",
    "currency": "HUF",
    "maturityInDays_val": 6359,
    "issueDate": "2020.01.22",
    "longName": "A410425A20"
}