{
    "askPrice": "63,7250",
    "green": 0,
    "coupon": "3,00 %",
    "accruedInterest": "0,6967",
    "settleDate": "2023.07.19",
    "askEhmYield": "6,49",
    "bidYield": "7,28",
    "rawName": "2041/A",
    "bidPrice": "58,0581",
    "coupon_val": 3,
    "maturityInDays": "6490 nap",
    "securityType": "KTV",
    "maturityDate": "2041.04.25",
    "name": "2041/A",
    "bidEhmYield": "7,27",
    "askYield": "6,50",
    "currency": "HUF",
    "maturityInDays_val": 6490,
    "issueDate": "2020.01.22",
    "longName": "A410425A20"
}