{
    "askPrice": "58,9880",
    "green": 0,
    "coupon": "3,00 %",
    "accruedInterest": "2,1370",
    "settleDate": "2023.01.10",
    "askEhmYield": "7,05",
    "bidYield": "7,88",
    "rawName": "2041/A",
    "bidPrice": "53,5173",
    "coupon_val": 3,
    "maturityInDays": "6680 nap",
    "securityType": "KTV",
    "maturityDate": "2041.04.25",
    "name": "2041/A",
    "bidEhmYield": "7,87",
    "askYield": "7,06",
    "currency": "HUF",
    "maturityInDays_val": 6680,
    "issueDate": "2020.01.22",
    "longName": "A410425A20"
}