{
    "askPrice": "58,1024",
    "green": 0,
    "coupon": "3,00 %",
    "accruedInterest": "1,5082",
    "settleDate": "2023.10.26",
    "askEhmYield": "7,31",
    "bidYield": "7,96",
    "rawName": "2041/A",
    "bidPrice": "53,9737",
    "coupon_val": 3,
    "maturityInDays": "6391 nap",
    "securityType": "KTV",
    "maturityDate": "2041.04.25",
    "name": "2041/A",
    "bidEhmYield": "7,95",
    "askYield": "7,32",
    "currency": "HUF",
    "maturityInDays_val": 6391,
    "issueDate": "2020.01.22",
    "longName": "A410425A20"
}