{
    "askPrice": "54,7685",
    "green": 0,
    "coupon": "3,00 %",
    "accruedInterest": "2,7123",
    "settleDate": "2023.03.21",
    "askEhmYield": "7,71",
    "bidYield": "8,53",
    "rawName": "2041/A",
    "bidPrice": "49,8983",
    "coupon_val": 3,
    "maturityInDays": "6610 nap",
    "securityType": "KTV",
    "maturityDate": "2041.04.25",
    "name": "2041/A",
    "bidEhmYield": "8,52",
    "askYield": "7,72",
    "currency": "HUF",
    "maturityInDays_val": 6610,
    "issueDate": "2020.01.22",
    "longName": "A410425A20"
}