{
    "askPrice": "56,4448",
    "green": 0,
    "coupon": "3,00 %",
    "accruedInterest": "2,8192",
    "settleDate": "2023.04.03",
    "askEhmYield": "7,46",
    "bidYield": "8,30",
    "rawName": "2041/A",
    "bidPrice": "51,2663",
    "coupon_val": 3,
    "maturityInDays": "6597 nap",
    "securityType": "KTV",
    "maturityDate": "2041.04.25",
    "name": "2041/A",
    "bidEhmYield": "8,29",
    "askYield": "7,47",
    "currency": "HUF",
    "maturityInDays_val": 6597,
    "issueDate": "2020.01.22",
    "longName": "A410425A20"
}