{
    "askPrice": "61,7434",
    "green": 0,
    "coupon": "3,00 %",
    "accruedInterest": "1,0574",
    "settleDate": "2023.09.01",
    "askEhmYield": "6,77",
    "bidYield": "7,45",
    "rawName": "2041/A",
    "bidPrice": "57,0508",
    "coupon_val": 3,
    "maturityInDays": "6446 nap",
    "securityType": "KTV",
    "maturityDate": "2041.04.25",
    "name": "2041/A",
    "bidEhmYield": "7,44",
    "askYield": "6,78",
    "currency": "HUF",
    "maturityInDays_val": 6446,
    "issueDate": "2020.01.22",
    "longName": "A410425A20"
}