{
    "askPrice": "60,8534",
    "green": 0,
    "coupon": "3,00 %",
    "accruedInterest": "0,2213",
    "settleDate": "2023.05.22",
    "askEhmYield": "6,85",
    "bidYield": "7,66",
    "rawName": "2041/A",
    "bidPrice": "55,3581",
    "coupon_val": 3,
    "maturityInDays": "6548 nap",
    "securityType": "KTV",
    "maturityDate": "2041.04.25",
    "name": "2041/A",
    "bidEhmYield": "7,65",
    "askYield": "6,86",
    "currency": "HUF",
    "maturityInDays_val": 6548,
    "issueDate": "2020.01.22",
    "longName": "A410425A20"
}