{
    "askPrice": "58,6389",
    "green": 0,
    "coupon": "3,00 %",
    "accruedInterest": "0,0164",
    "settleDate": "2023.04.27",
    "askEhmYield": "7,15",
    "bidYield": "7,97",
    "rawName": "2041/A",
    "bidPrice": "53,3306",
    "coupon_val": 3,
    "maturityInDays": "6573 nap",
    "securityType": "KTV",
    "maturityDate": "2041.04.25",
    "name": "2041/A",
    "bidEhmYield": "7,96",
    "askYield": "7,16",
    "currency": "HUF",
    "maturityInDays_val": 6573,
    "issueDate": "2020.01.22",
    "longName": "A410425A20"
}