{
    "askPrice": "69,9547",
    "green": 0,
    "coupon": "3,00 %",
    "accruedInterest": "2,2295",
    "settleDate": "2024.01.22",
    "askEhmYield": "5,80",
    "bidYield": "6,43",
    "rawName": "2041/A",
    "bidPrice": "64,8372",
    "coupon_val": 3,
    "maturityInDays": "6303 nap",
    "securityType": "KTV",
    "maturityDate": "2041.04.25",
    "name": "2041/A",
    "bidEhmYield": "6,42",
    "askYield": "5,80",
    "currency": "HUF",
    "maturityInDays_val": 6303,
    "issueDate": "2020.01.22",
    "longName": "A410425A20"
}