{
    "askPrice": "63,4491",
    "green": 0,
    "coupon": "3,00 %",
    "accruedInterest": "2,9180",
    "settleDate": "2024.04.15",
    "askEhmYield": "6,64",
    "bidYield": "7,31",
    "rawName": "2041/A",
    "bidPrice": "58,7722",
    "coupon_val": 3,
    "maturityInDays": "6219 nap",
    "securityType": "KTV",
    "maturityDate": "2041.04.25",
    "name": "2041/A",
    "bidEhmYield": "7,30",
    "askYield": "6,65",
    "currency": "HUF",
    "maturityInDays_val": 6219,
    "issueDate": "2020.01.22",
    "longName": "A410425A20"
}