{
    "askPrice": "62,3696",
    "green": 0,
    "coupon": "3,00 %",
    "accruedInterest": "2,9754",
    "settleDate": "2024.04.22",
    "askEhmYield": "6,79",
    "bidYield": "7,44",
    "rawName": "2041/A",
    "bidPrice": "57,9306",
    "coupon_val": 3,
    "maturityInDays": "6212 nap",
    "securityType": "KTV",
    "maturityDate": "2041.04.25",
    "name": "2041/A",
    "bidEhmYield": "7,43",
    "askYield": "6,80",
    "currency": "HUF",
    "maturityInDays_val": 6212,
    "issueDate": "2020.01.22",
    "longName": "A410425A20"
}