{
    "askPrice": "68,4262",
    "green": 0,
    "coupon": "3,00 %",
    "accruedInterest": "2,6311",
    "settleDate": "2024.03.11",
    "askEhmYield": "6,00",
    "bidYield": "6,67",
    "rawName": "2041/A",
    "bidPrice": "63,1796",
    "coupon_val": 3,
    "maturityInDays": "6254 nap",
    "securityType": "KTV",
    "maturityDate": "2041.04.25",
    "name": "2041/A",
    "bidEhmYield": "6,66",
    "askYield": "6,00",
    "currency": "HUF",
    "maturityInDays_val": 6254,
    "issueDate": "2020.01.22",
    "longName": "A410425A20"
}