{
    "askPrice": "68,6338",
    "green": 0,
    "coupon": "3,00 %",
    "accruedInterest": "2,0738",
    "settleDate": "2024.01.03",
    "askEhmYield": "5,95",
    "bidYield": "6,63",
    "rawName": "2041/A",
    "bidPrice": "63,2516",
    "coupon_val": 3,
    "maturityInDays": "6322 nap",
    "securityType": "KTV",
    "maturityDate": "2041.04.25",
    "name": "2041/A",
    "bidEhmYield": "6,62",
    "askYield": "5,95",
    "currency": "HUF",
    "maturityInDays_val": 6322,
    "issueDate": "2020.01.22",
    "longName": "A410425A20"
}