{
    "askPrice": "62,4682",
    "green": 0,
    "coupon": "3,00 %",
    "accruedInterest": "0,0411",
    "settleDate": "2024.04.30",
    "askEhmYield": "6,79",
    "bidYield": "7,46",
    "rawName": "2041/A",
    "bidPrice": "57,8258",
    "coupon_val": 3,
    "maturityInDays": "6204 nap",
    "securityType": "KTV",
    "maturityDate": "2041.04.25",
    "name": "2041/A",
    "bidEhmYield": "7,46",
    "askYield": "6,79",
    "currency": "HUF",
    "maturityInDays_val": 6204,
    "issueDate": "2020.01.22",
    "longName": "A410425A20"
}