{
    "askPrice": "68,9082",
    "green": 0,
    "coupon": "3,00 %",
    "accruedInterest": "2,1393",
    "settleDate": "2024.01.11",
    "askEhmYield": "5,92",
    "bidYield": "6,54",
    "rawName": "2041/A",
    "bidPrice": "63,9578",
    "coupon_val": 3,
    "maturityInDays": "6314 nap",
    "securityType": "KTV",
    "maturityDate": "2041.04.25",
    "name": "2041/A",
    "bidEhmYield": "6,53",
    "askYield": "5,92",
    "currency": "HUF",
    "maturityInDays_val": 6314,
    "issueDate": "2020.01.22",
    "longName": "A410425A20"
}