{
    "askPrice": "67,9533",
    "green": 0,
    "coupon": "3,00 %",
    "accruedInterest": "2,4672",
    "settleDate": "2024.02.20",
    "askEhmYield": "6,05",
    "bidYield": "6,72",
    "rawName": "2041/A",
    "bidPrice": "62,7410",
    "coupon_val": 3,
    "maturityInDays": "6274 nap",
    "securityType": "KTV",
    "maturityDate": "2041.04.25",
    "name": "2041/A",
    "bidEhmYield": "6,71",
    "askYield": "6,05",
    "currency": "HUF",
    "maturityInDays_val": 6274,
    "issueDate": "2020.01.22",
    "longName": "A410425A20"
}