{
    "askPrice": "67,8066",
    "green": 0,
    "coupon": "3,00 %",
    "accruedInterest": "2,2951",
    "settleDate": "2024.01.30",
    "askEhmYield": "6,06",
    "bidYield": "6,72",
    "rawName": "2041/A",
    "bidPrice": "62,6703",
    "coupon_val": 3,
    "maturityInDays": "6295 nap",
    "securityType": "KTV",
    "maturityDate": "2041.04.25",
    "name": "2041/A",
    "bidEhmYield": "6,71",
    "askYield": "6,06",
    "currency": "HUF",
    "maturityInDays_val": 6295,
    "issueDate": "2020.01.22",
    "longName": "A410425A20"
}