{
    "askPrice": "68,2052",
    "green": 0,
    "coupon": "3,00 %",
    "accruedInterest": "2,2623",
    "settleDate": "2024.01.26",
    "askEhmYield": "6,01",
    "bidYield": "6,69",
    "rawName": "2041/A",
    "bidPrice": "62,8793",
    "coupon_val": 3,
    "maturityInDays": "6299 nap",
    "securityType": "KTV",
    "maturityDate": "2041.04.25",
    "name": "2041/A",
    "bidEhmYield": "6,68",
    "askYield": "6,01",
    "currency": "HUF",
    "maturityInDays_val": 6299,
    "issueDate": "2020.01.22",
    "longName": "A410425A20"
}