{
    "askPrice": "64,4934",
    "green": 0,
    "coupon": "3,00 %",
    "accruedInterest": "0,0904",
    "settleDate": "2024.05.06",
    "askEhmYield": "6,52",
    "bidYield": "7,18",
    "rawName": "2041/A",
    "bidPrice": "59,7281",
    "coupon_val": 3,
    "maturityInDays": "6198 nap",
    "securityType": "KTV",
    "maturityDate": "2041.04.25",
    "name": "2041/A",
    "bidEhmYield": "7,18",
    "askYield": "6,52",
    "currency": "HUF",
    "maturityInDays_val": 6198,
    "issueDate": "2020.01.22",
    "longName": "A410425A20"
}