{
    "askPrice": "62,8398",
    "green": 0,
    "coupon": "3,00 %",
    "accruedInterest": "0,0575",
    "settleDate": "2024.05.02",
    "askEhmYield": "6,74",
    "bidYield": "7,41",
    "rawName": "2041/A",
    "bidPrice": "58,1627",
    "coupon_val": 3,
    "maturityInDays": "6202 nap",
    "securityType": "KTV",
    "maturityDate": "2041.04.25",
    "name": "2041/A",
    "bidEhmYield": "7,41",
    "askYield": "6,74",
    "currency": "HUF",
    "maturityInDays_val": 6202,
    "issueDate": "2020.01.22",
    "longName": "A410425A20"
}