{
    "askPrice": "63,5584",
    "green": 0,
    "coupon": "3,00 %",
    "accruedInterest": 0,
    "settleDate": "2024.04.25",
    "askEhmYield": "6,64",
    "bidYield": "7,28",
    "rawName": "2041/A",
    "bidPrice": "59,0118",
    "coupon_val": 3,
    "maturityInDays": "6209 nap",
    "securityType": "KTV",
    "maturityDate": "2041.04.25",
    "name": "2041/A",
    "bidEhmYield": "7,28",
    "askYield": "6,64",
    "currency": "HUF",
    "maturityInDays_val": 6209,
    "issueDate": "2020.01.22",
    "longName": "A410425A20"
}