{
    "askPrice": "68,5453",
    "green": 0,
    "coupon": "3,00 %",
    "accruedInterest": "2,2869",
    "settleDate": "2024.01.29",
    "askEhmYield": "5,97",
    "bidYield": "6,61",
    "rawName": "2041/A",
    "bidPrice": "63,4872",
    "coupon_val": 3,
    "maturityInDays": "6296 nap",
    "securityType": "KTV",
    "maturityDate": "2041.04.25",
    "name": "2041/A",
    "bidEhmYield": "6,60",
    "askYield": "5,97",
    "currency": "HUF",
    "maturityInDays_val": 6296,
    "issueDate": "2020.01.22",
    "longName": "A410425A20"
}