{
    "askPrice": "67,2267",
    "green": 0,
    "coupon": "3,00 %",
    "accruedInterest": "2,6885",
    "settleDate": "2024.03.18",
    "askEhmYield": "6,15",
    "bidYield": "6,82",
    "rawName": "2041/A",
    "bidPrice": "62,1012",
    "coupon_val": 3,
    "maturityInDays": "6247 nap",
    "securityType": "KTV",
    "maturityDate": "2041.04.25",
    "name": "2041/A",
    "bidEhmYield": "6,81",
    "askYield": "6,15",
    "currency": "HUF",
    "maturityInDays_val": 6247,
    "issueDate": "2020.01.22",
    "longName": "A410425A20"
}