{
    "askPrice": "",
    "green": 0,
    "coupon": "4,25 %",
    "accruedInterest": "0,83",
    "settleDate": "2022.08.18",
    "askEhmYield": "",
    "bidYield": "",
    "rawName": "K2023/23",
    "bidPrice": "99,50",
    "coupon_val": 4.25,
    "maturityInDays": "294 nap",
    "securityType": "1MÁP",
    "maturityDate": "2023.06.08",
    "name": "K2023/23",
    "bidEhmYield": "4,86",
    "askYield": "",
    "currency": "HUF",
    "maturityInDays_val": 294,
    "longName": "K230608"
}