{
    "askPrice": "",
    "green": 0,
    "coupon": "4,25 %",
    "accruedInterest": "1,73",
    "settleDate": "2022.11.04",
    "askEhmYield": "",
    "bidYield": "5,08",
    "rawName": "K2023/23",
    "bidPrice": "99,50",
    "coupon_val": 4.25,
    "maturityInDays": "216 nap",
    "securityType": "1MÁP",
    "maturityDate": "2023.06.08",
    "name": "K2023/23",
    "bidEhmYield": "5,03",
    "askYield": "",
    "currency": "HUF",
    "maturityInDays_val": 216,
    "issueDate": "2022-06-08",
    "longName": "K230608"
}