{
    "askPrice": "",
    "green": 0,
    "coupon": "4,25 %",
    "accruedInterest": "1,36",
    "settleDate": "2022.10.03",
    "askEhmYield": "",
    "bidYield": "",
    "rawName": "K2023/23",
    "bidPrice": "99,50",
    "coupon_val": 4.25,
    "maturityInDays": "248 nap",
    "securityType": "1MÁP",
    "maturityDate": "2023.06.08",
    "name": "K2023/23",
    "bidEhmYield": "4,94",
    "askYield": "",
    "currency": "HUF",
    "maturityInDays_val": 248,
    "longName": "K230608"
}