{
    "askPrice": "",
    "green": 0,
    "coupon": "4,25 %",
    "accruedInterest": "1,79",
    "settleDate": "2022.11.09",
    "askEhmYield": "",
    "bidYield": "5,10",
    "rawName": "K2023/23",
    "bidPrice": "99,50",
    "coupon_val": 4.25,
    "maturityInDays": "211 nap",
    "securityType": "1MÁP",
    "maturityDate": "2023.06.08",
    "name": "K2023/23",
    "bidEhmYield": "5,05",
    "askYield": "",
    "currency": "HUF",
    "maturityInDays_val": 211,
    "issueDate": "2022-06-08",
    "longName": "K230608"
}