{
    "askPrice": "",
    "green": 0,
    "coupon": "4,25 %",
    "accruedInterest": "2,6199",
    "settleDate": "2023.01.19",
    "askEhmYield": "",
    "bidYield": "6,89",
    "rawName": "K2023/23",
    "bidPrice": "99,0000",
    "coupon_val": 4.25,
    "maturityInDays": "140 nap",
    "securityType": "1MÁP",
    "maturityDate": "2023.06.08",
    "name": "K2023/23",
    "bidEhmYield": "6,75",
    "askYield": "",
    "currency": "HUF",
    "maturityInDays_val": 140,
    "issueDate": "2022.06.08",
    "longName": "K230608"
}