{
    "askPrice": "",
    "green": 0,
    "coupon": "4,25 %",
    "accruedInterest": "3,9705",
    "settleDate": "2023.05.15",
    "askEhmYield": "",
    "bidYield": "17,15",
    "rawName": "K2023/23",
    "bidPrice": "99,2000",
    "coupon_val": 4.25,
    "maturityInDays": "24 nap",
    "securityType": "1MÁP",
    "maturityDate": "2023.06.08",
    "name": "K2023/23",
    "bidEhmYield": "15,91",
    "askYield": "",
    "currency": "HUF",
    "maturityInDays_val": 24,
    "issueDate": "2022.06.08",
    "longName": "K230608"
}