{
    "askPrice": "",
    "green": 0,
    "coupon": "4,25 %",
    "accruedInterest": "2,5267",
    "settleDate": "2023.01.11",
    "askEhmYield": "",
    "bidYield": "6,75",
    "rawName": "K2023/23",
    "bidPrice": "99,0000",
    "coupon_val": 4.25,
    "maturityInDays": "148 nap",
    "securityType": "1MÁP",
    "maturityDate": "2023.06.08",
    "name": "K2023/23",
    "bidEhmYield": "6,62",
    "askYield": "",
    "currency": "HUF",
    "maturityInDays_val": 148,
    "issueDate": "2022.06.08",
    "longName": "K230608"
}