{
    "askPrice": "",
    "green": 0,
    "coupon": "4,25 %",
    "accruedInterest": "3,1555",
    "settleDate": "2023.03.06",
    "askEhmYield": "",
    "bidYield": "8,20",
    "rawName": "K2023/23",
    "bidPrice": "99,0000",
    "coupon_val": 4.25,
    "maturityInDays": "94 nap",
    "securityType": "1MÁP",
    "maturityDate": "2023.06.08",
    "name": "K2023/23",
    "bidEhmYield": "7,96",
    "askYield": "",
    "currency": "HUF",
    "maturityInDays_val": 94,
    "issueDate": "2022.06.08",
    "longName": "K230608"
}