{
    "askPrice": "",
    "green": 0,
    "coupon": "4,25 %",
    "accruedInterest": "2,8295",
    "settleDate": "2023.02.06",
    "askEhmYield": "",
    "bidYield": "7,28",
    "rawName": "K2023/23",
    "bidPrice": "99,0000",
    "coupon_val": 4.25,
    "maturityInDays": "122 nap",
    "securityType": "1MÁP",
    "maturityDate": "2023.06.08",
    "name": "K2023/23",
    "bidEhmYield": "7,11",
    "askYield": "",
    "currency": "HUF",
    "maturityInDays_val": 122,
    "issueDate": "2022.06.08",
    "longName": "K230608"
}