{
    "askPrice": "",
    "green": 0,
    "coupon": "3,50 %",
    "accruedInterest": "0,9088",
    "settleDate": "2023.02.23",
    "askEhmYield": "",
    "bidYield": "5,11",
    "rawName": "N2027/47",
    "bidPrice": "99,5000",
    "coupon_val": 3.5,
    "maturityInDays": "1732 nap",
    "securityType": "MÁP Plusz",
    "maturityDate": "2027.11.21",
    "name": "N2027/47",
    "bidEhmYield": "",
    "askYield": "",
    "currency": "HUF",
    "maturityInDays_val": 1732,
    "issueDate": "2022.11.21",
    "longName": "N271121"
}