{
    "askPrice": "",
    "green": 0,
    "coupon": "3,50 %",
    "accruedInterest": "1,5180",
    "settleDate": "2023.04.27",
    "askEhmYield": "",
    "bidYield": "5,17",
    "rawName": "N2027/47",
    "bidPrice": "99,5000",
    "coupon_val": 3.5,
    "maturityInDays": "1669 nap",
    "securityType": "MÁP Plusz",
    "maturityDate": "2027.11.21",
    "name": "N2027/47",
    "bidEhmYield": "",
    "askYield": "",
    "currency": "HUF",
    "maturityInDays_val": 1669,
    "issueDate": "2022.11.21",
    "longName": "N271121"
}