{
    "askPrice": "",
    "green": 0,
    "coupon": "2,50 %",
    "accruedInterest": "2,42",
    "settleDate": "2022.09.02",
    "askEhmYield": "",
    "bidYield": "",
    "rawName": "K2022/37",
    "bidPrice": "99,80",
    "coupon_val": 2.5,
    "maturityInDays": "12 nap",
    "securityType": "1MÁP",
    "maturityDate": "2022.09.14",
    "name": "K2022/37",
    "bidEhmYield": "8,40",
    "askYield": "",
    "currency": "HUF",
    "maturityInDays_val": 12,
    "longName": "K220914"
}