{
    "askPrice": "",
    "green": 0,
    "coupon": "3,50 %",
    "accruedInterest": "1,0820",
    "settleDate": "2024.03.27",
    "askEhmYield": "",
    "bidYield": "5,28",
    "rawName": "N2028/25",
    "bidPrice": "99,5000",
    "coupon_val": 3.5,
    "maturityInDays": "1545 nap",
    "securityType": "MÁP Plusz",
    "maturityDate": "2028.06.19",
    "name": "N2028/25",
    "bidEhmYield": "",
    "askYield": "",
    "currency": "HUF",
    "maturityInDays_val": 1545,
    "issueDate": "2023.06.19",
    "longName": "N280619"
}