{
    "askPrice": "",
    "green": 0,
    "coupon": "3,50 %",
    "accruedInterest": "0,7445",
    "settleDate": "2023.01.30",
    "askEhmYield": "",
    "bidYield": "5,09",
    "rawName": "N2027/46",
    "bidPrice": "99,5000",
    "coupon_val": 3.5,
    "maturityInDays": "1749 nap",
    "securityType": "MÁP Plusz",
    "maturityDate": "2027.11.14",
    "name": "N2027/46",
    "bidEhmYield": "",
    "askYield": "",
    "currency": "HUF",
    "maturityInDays_val": 1749,
    "issueDate": "2022.11.14",
    "longName": "N271114"
}