{
    "askPrice": "",
    "green": 0,
    "coupon": "3,50 %",
    "accruedInterest": "1,9565",
    "settleDate": "2023.11.10",
    "askEhmYield": "",
    "bidYield": "",
    "rawName": "N2027/46",
    "bidPrice": "",
    "coupon_val": 3.5,
    "maturityInDays": "1465 nap",
    "securityType": "MÁP Plusz",
    "maturityDate": "2027.11.14",
    "name": "N2027/46",
    "bidEhmYield": "",
    "askYield": "",
    "currency": "HUF",
    "maturityInDays_val": 1465,
    "issueDate": "2022.11.14",
    "longName": "N271114"
}