{
    "askPrice": "",
    "green": 0,
    "coupon": "3,50 %",
    "accruedInterest": "1,9348",
    "settleDate": "2023.11.08",
    "askEhmYield": "",
    "bidYield": "5,35",
    "rawName": "N2027/46",
    "bidPrice": "99,5000",
    "coupon_val": 3.5,
    "maturityInDays": "1467 nap",
    "securityType": "MÁP Plusz",
    "maturityDate": "2027.11.14",
    "name": "N2027/46",
    "bidEhmYield": "",
    "askYield": "",
    "currency": "HUF",
    "maturityInDays_val": 1467,
    "issueDate": "2022.11.14",
    "longName": "N271114"
}