{
    "askPrice": "",
    "green": 0,
    "coupon": "3,50 %",
    "accruedInterest": "0,9475",
    "settleDate": "2023.02.20",
    "askEhmYield": "",
    "bidYield": "5,11",
    "rawName": "N2027/46",
    "bidPrice": "99,5000",
    "coupon_val": 3.5,
    "maturityInDays": "1728 nap",
    "securityType": "MÁP Plusz",
    "maturityDate": "2027.11.14",
    "name": "N2027/46",
    "bidEhmYield": "",
    "askYield": "",
    "currency": "HUF",
    "maturityInDays_val": 1728,
    "issueDate": "2022.11.14",
    "longName": "N271114"
}