{
    "askPrice": "",
    "green": 0,
    "coupon": "3,50 %",
    "accruedInterest": "3,89",
    "settleDate": "2022.10.17",
    "askEhmYield": "",
    "bidYield": "",
    "rawName": "N2025/01",
    "bidPrice": "99,50",
    "coupon_val": 3.5,
    "maturityInDays": "812 nap",
    "securityType": "MÁP Plusz",
    "maturityDate": "2025.01.06",
    "name": "N2025/01",
    "bidEhmYield": "",
    "askYield": "",
    "currency": "HUF",
    "maturityInDays_val": 812,
    "longName": "N250106"
}