{
    "askPrice": "",
    "green": 0,
    "coupon": "3,50 %",
    "accruedInterest": "4,14",
    "settleDate": "2022.11.04",
    "askEhmYield": "",
    "bidYield": "5,92",
    "rawName": "N2025/01",
    "bidPrice": "99,50",
    "coupon_val": 3.5,
    "maturityInDays": "794 nap",
    "securityType": "MÁP Plusz",
    "maturityDate": "2025.01.06",
    "name": "N2025/01",
    "bidEhmYield": "",
    "askYield": "",
    "currency": "HUF",
    "maturityInDays_val": 794,
    "issueDate": "2020-01-06",
    "longName": "N250106"
}