{
    "askPrice": "",
    "green": 0,
    "coupon": "3,50 %",
    "accruedInterest": "4,5068",
    "settleDate": "2022.12.01",
    "askEhmYield": "",
    "bidYield": "5,96",
    "rawName": "N2025/01",
    "bidPrice": "99,5000",
    "coupon_val": 3.5,
    "maturityInDays": "767 nap",
    "securityType": "MÁP Plusz",
    "maturityDate": "2025.01.06",
    "name": "N2025/01",
    "bidEhmYield": "",
    "askYield": "",
    "currency": "HUF",
    "maturityInDays_val": 767,
    "issueDate": "2020.01.06",
    "longName": "N250106"
}