{
    "askPrice": "",
    "green": 0,
    "coupon": "3,50 %",
    "accruedInterest": "1,7630",
    "settleDate": "2023.05.03",
    "askEhmYield": "",
    "bidYield": "6,09",
    "rawName": "N2025/01",
    "bidPrice": "99,5000",
    "coupon_val": 3.5,
    "maturityInDays": "614 nap",
    "securityType": "MÁP Plusz",
    "maturityDate": "2025.01.06",
    "name": "N2025/01",
    "bidEhmYield": "",
    "askYield": "",
    "currency": "HUF",
    "maturityInDays_val": 614,
    "issueDate": "2020.01.06",
    "longName": "N250106"
}