{
    "askPrice": "",
    "green": 0,
    "coupon": "3,50 %",
    "accruedInterest": "4,9575",
    "settleDate": "2023.12.01",
    "askEhmYield": "",
    "bidYield": "6,42",
    "rawName": "N2025/01",
    "bidPrice": "99,5000",
    "coupon_val": 3.5,
    "maturityInDays": "402 nap",
    "securityType": "MÁP Plusz",
    "maturityDate": "2025.01.06",
    "name": "N2025/01",
    "bidEhmYield": "",
    "askYield": "",
    "currency": "HUF",
    "maturityInDays_val": 402,
    "issueDate": "2020.01.06",
    "longName": "N250106"
}