{
    "askPrice": "",
    "green": 0,
    "coupon": "3,50 %",
    "accruedInterest": "3,8425",
    "settleDate": "2023.09.18",
    "askEhmYield": "",
    "bidYield": "6,26",
    "rawName": "N2025/01",
    "bidPrice": "99,5000",
    "coupon_val": 3.5,
    "maturityInDays": "476 nap",
    "securityType": "MÁP Plusz",
    "maturityDate": "2025.01.06",
    "name": "N2025/01",
    "bidEhmYield": "",
    "askYield": "",
    "currency": "HUF",
    "maturityInDays_val": 476,
    "issueDate": "2020.01.06",
    "longName": "N250106"
}