{
    "askPrice": "",
    "green": 0,
    "coupon": "3,50 %",
    "accruedInterest": "2,1699",
    "settleDate": "2023.05.30",
    "askEhmYield": "",
    "bidYield": "6,12",
    "rawName": "N2025/01",
    "bidPrice": "99,5000",
    "coupon_val": 3.5,
    "maturityInDays": "587 nap",
    "securityType": "MÁP Plusz",
    "maturityDate": "2025.01.06",
    "name": "N2025/01",
    "bidEhmYield": "",
    "askYield": "",
    "currency": "HUF",
    "maturityInDays_val": 587,
    "issueDate": "2020.01.06",
    "longName": "N250106"
}