{
    "askPrice": "",
    "green": 0,
    "coupon": "9,00 %",
    "accruedInterest": "4,6356",
    "settleDate": "2023.11.13",
    "askEhmYield": "",
    "bidYield": "10,90",
    "rawName": "K2024/19",
    "bidPrice": "99,0000",
    "coupon_val": 9,
    "maturityInDays": "178 nap",
    "securityType": "1MÁP",
    "maturityDate": "2024.05.09",
    "name": "K2024/19",
    "bidEhmYield": "10,61",
    "askYield": "",
    "currency": "HUF",
    "maturityInDays_val": 178,
    "issueDate": "2023.05.09",
    "longName": "K240509"
}