{
    "askPrice": "",
    "green": 0,
    "coupon": "9,00 %",
    "accruedInterest": "2,7863",
    "settleDate": "2023.08.30",
    "askEhmYield": "",
    "bidYield": "10,38",
    "rawName": "K2024/19",
    "bidPrice": "99,0000",
    "coupon_val": 9,
    "maturityInDays": "253 nap",
    "securityType": "1MÁP",
    "maturityDate": "2024.05.09",
    "name": "K2024/19",
    "bidEhmYield": "10,22",
    "askYield": "",
    "currency": "HUF",
    "maturityInDays_val": 253,
    "issueDate": "2023.05.09",
    "longName": "K240509"
}