{
    "askPrice": "",
    "green": 0,
    "coupon": "9,00 %",
    "accruedInterest": "4,4630",
    "settleDate": "2023.11.06",
    "askEhmYield": "",
    "bidYield": "10,83",
    "rawName": "K2024/19",
    "bidPrice": "99,0000",
    "coupon_val": 9,
    "maturityInDays": "185 nap",
    "securityType": "1MÁP",
    "maturityDate": "2024.05.09",
    "name": "K2024/19",
    "bidEhmYield": "10,56",
    "askYield": "",
    "currency": "HUF",
    "maturityInDays_val": 185,
    "issueDate": "2023.05.09",
    "longName": "K240509"
}