{
    "askPrice": "",
    "green": 0,
    "coupon": "9,00 %",
    "accruedInterest": "4,1918",
    "settleDate": "2023.10.26",
    "askEhmYield": "",
    "bidYield": "10,74",
    "rawName": "K2024/19",
    "bidPrice": "99,0000",
    "coupon_val": 9,
    "maturityInDays": "196 nap",
    "securityType": "1MÁP",
    "maturityDate": "2024.05.09",
    "name": "K2024/19",
    "bidEhmYield": "10,48",
    "askYield": "",
    "currency": "HUF",
    "maturityInDays_val": 196,
    "issueDate": "2023.05.09",
    "longName": "K240509"
}