{
    "askPrice": "",
    "green": 0,
    "coupon": "9,00 %",
    "accruedInterest": "0,5178",
    "settleDate": "2023.05.30",
    "askEhmYield": "",
    "bidYield": "10,11",
    "rawName": "K2024/19",
    "bidPrice": "99,0000",
    "coupon_val": 9,
    "maturityInDays": "345 nap",
    "securityType": "1MÁP",
    "maturityDate": "2024.05.09",
    "name": "K2024/19",
    "bidEhmYield": "10,08",
    "askYield": "",
    "currency": "HUF",
    "maturityInDays_val": 345,
    "issueDate": "2023.05.09",
    "longName": "K240509"
}