{
    "askPrice": "",
    "green": 0,
    "coupon": "9,00 %",
    "accruedInterest": "1,0603",
    "settleDate": "2023.06.21",
    "askEhmYield": "",
    "bidYield": "10,15",
    "rawName": "K2024/19",
    "bidPrice": "99,0000",
    "coupon_val": 9,
    "maturityInDays": "323 nap",
    "securityType": "1MÁP",
    "maturityDate": "2024.05.09",
    "name": "K2024/19",
    "bidEhmYield": "10,10",
    "askYield": "",
    "currency": "HUF",
    "maturityInDays_val": 323,
    "issueDate": "2023.05.09",
    "longName": "K240509"
}