{
    "askPrice": "",
    "green": 0,
    "coupon": "9,00 %",
    "accruedInterest": "6,9041",
    "settleDate": "2024.02.13",
    "askEhmYield": "",
    "bidYield": "13,01",
    "rawName": "K2024/19",
    "bidPrice": "99,0000",
    "coupon_val": 9,
    "maturityInDays": "86 nap",
    "securityType": "1MÁP",
    "maturityDate": "2024.05.09",
    "name": "K2024/19",
    "bidEhmYield": "12,41",
    "askYield": "",
    "currency": "HUF",
    "maturityInDays_val": 86,
    "issueDate": "2023.05.09",
    "longName": "K240509"
}