{
    "askPrice": "",
    "green": 0,
    "coupon": "9,00 %",
    "accruedInterest": "7,7425",
    "settleDate": "2024.03.18",
    "askEhmYield": "",
    "bidYield": "15,82",
    "rawName": "K2024/19",
    "bidPrice": "99,0000",
    "coupon_val": 9,
    "maturityInDays": "52 nap",
    "securityType": "1MÁP",
    "maturityDate": "2024.05.09",
    "name": "K2024/19",
    "bidEhmYield": "14,85",
    "askYield": "",
    "currency": "HUF",
    "maturityInDays_val": 52,
    "issueDate": "2023.05.09",
    "longName": "K240509"
}