{
    "askPrice": "",
    "green": 0,
    "coupon": "9,00 %",
    "accruedInterest": "8,8274",
    "settleDate": "2024.05.02",
    "askEhmYield": "",
    "bidYield": "44,91",
    "rawName": "K2024/19",
    "bidPrice": "99,4000",
    "coupon_val": 9,
    "maturityInDays": "7 nap",
    "securityType": "1MÁP",
    "maturityDate": "2024.05.09",
    "name": "K2024/19",
    "bidEhmYield": "36,03",
    "askYield": "",
    "currency": "HUF",
    "maturityInDays_val": 7,
    "issueDate": "2023.05.09",
    "longName": "K240509"
}