{
    "askPrice": "",
    "green": 0,
    "coupon": "9,00 %",
    "accruedInterest": "7,8164",
    "settleDate": "2024.03.22",
    "askEhmYield": "",
    "bidYield": "16,63",
    "rawName": "K2024/19",
    "bidPrice": "99,0000",
    "coupon_val": 9,
    "maturityInDays": "48 nap",
    "securityType": "1MÁP",
    "maturityDate": "2024.05.09",
    "name": "K2024/19",
    "bidEhmYield": "15,37",
    "askYield": "",
    "currency": "HUF",
    "maturityInDays_val": 48,
    "issueDate": "2023.05.09",
    "longName": "K240509"
}