{
    "askPrice": "",
    "green": 0,
    "coupon": "9,00 %",
    "accruedInterest": "6,5589",
    "settleDate": "2024.01.30",
    "askEhmYield": "",
    "bidYield": "12,42",
    "rawName": "K2024/19",
    "bidPrice": "99,0000",
    "coupon_val": 9,
    "maturityInDays": "100 nap",
    "securityType": "1MÁP",
    "maturityDate": "2024.05.09",
    "name": "K2024/19",
    "bidEhmYield": "11,90",
    "askYield": "",
    "currency": "HUF",
    "maturityInDays_val": 100,
    "issueDate": "2023.05.09",
    "longName": "K240509"
}