{
    "askPrice": "",
    "green": 0,
    "coupon": "9,00 %",
    "accruedInterest": "2,3178",
    "settleDate": "2023.09.22",
    "askEhmYield": "",
    "bidYield": "10,30",
    "rawName": "K2024/25",
    "bidPrice": "99,0000",
    "coupon_val": 9,
    "maturityInDays": "272 nap",
    "securityType": "1MÁP",
    "maturityDate": "2024.06.20",
    "name": "K2024/25",
    "bidEhmYield": "10,17",
    "askYield": "",
    "currency": "HUF",
    "maturityInDays_val": 272,
    "issueDate": "2023.06.20",
    "longName": "K240620"
}