{
    "askPrice": "",
    "green": 0,
    "coupon": "9,00 %",
    "accruedInterest": "0,3205",
    "settleDate": "2023.07.03",
    "askEhmYield": "",
    "bidYield": "10,09",
    "rawName": "K2024/25",
    "bidPrice": "99,0000",
    "coupon_val": 9,
    "maturityInDays": "353 nap",
    "securityType": "1MÁP",
    "maturityDate": "2024.06.20",
    "name": "K2024/25",
    "bidEhmYield": "10,08",
    "askYield": "",
    "currency": "HUF",
    "maturityInDays_val": 353,
    "issueDate": "2023.06.20",
    "longName": "K240620"
}