{
    "askPrice": "",
    "green": 0,
    "coupon": "9,00 %",
    "accruedInterest": "7,6438",
    "settleDate": "2024.04.26",
    "askEhmYield": "",
    "bidYield": "15,61",
    "rawName": "K2024/25",
    "bidPrice": "99,0000",
    "coupon_val": 9,
    "maturityInDays": "55 nap",
    "securityType": "1MÁP",
    "maturityDate": "2024.06.20",
    "name": "K2024/25",
    "bidEhmYield": "14,51",
    "askYield": "",
    "currency": "HUF",
    "maturityInDays_val": 55,
    "issueDate": "2023.06.20",
    "longName": "K240620"
}