{
    "askPrice": "",
    "green": 0,
    "coupon": "9,00 %",
    "accruedInterest": "6,0411",
    "settleDate": "2024.02.20",
    "askEhmYield": "",
    "bidYield": "11,81",
    "rawName": "K2024/25",
    "bidPrice": "99,0000",
    "coupon_val": 9,
    "maturityInDays": "121 nap",
    "securityType": "1MÁP",
    "maturityDate": "2024.06.20",
    "name": "K2024/25",
    "bidEhmYield": "11,37",
    "askYield": "",
    "currency": "HUF",
    "maturityInDays_val": 121,
    "issueDate": "2023.06.20",
    "longName": "K240620"
}