{
    "askPrice": "68,43",
    "green": "1,00",
    "coupon": "4,50 %",
    "accruedInterest": "1,90",
    "settleDate": "2022.10.28",
    "askEhmYield": "9,69",
    "bidYield": "10,43",
    "rawName": "2032/G",
    "bidPrice": "65,07",
    "coupon_val": 4.5,
    "maturityInDays": "3499 nap",
    "securityType": "KTV",
    "maturityDate": "2032.05.27",
    "name": "2032/G",
    "bidEhmYield": "10,42",
    "askYield": "9,70",
    "currency": "HUF",
    "maturityInDays_val": 3499,
    "longName": "A320527G22"
}