{
    "askPrice": "75,35",
    "green": "1,00",
    "coupon": "4,50 %",
    "accruedInterest": "1,16",
    "settleDate": "2022.08.29",
    "askEhmYield": "8,28",
    "bidYield": "8,80",
    "rawName": "2032/G",
    "bidPrice": "72,56",
    "coupon_val": 4.5,
    "maturityInDays": "3559 nap",
    "securityType": "KTV",
    "maturityDate": "2032.05.27",
    "name": "2032/G",
    "bidEhmYield": "8,80",
    "askYield": "8,28",
    "currency": "HUF",
    "maturityInDays_val": 3559,
    "longName": "A320527G22"
}