{
    "askPrice": "72,39",
    "green": "1,00",
    "coupon": "4,50 %",
    "accruedInterest": "0,64",
    "settleDate": "2022.07.18",
    "askEhmYield": "8,80",
    "bidYield": "9,31",
    "rawName": "2032/G",
    "bidPrice": "69,78",
    "coupon_val": 4.5,
    "maturityInDays": "3601 nap",
    "securityType": "KTV",
    "maturityDate": "2032.05.27",
    "name": "2032/G",
    "bidEhmYield": "9,31",
    "askYield": "8,80",
    "currency": "HUF",
    "maturityInDays_val": 3601,
    "longName": "A320527G22"
}