{
    "askPrice": "74,58",
    "green": "1,00",
    "coupon": "4,50 %",
    "accruedInterest": "1,12",
    "settleDate": "2022.08.26",
    "askEhmYield": "8,42",
    "bidYield": "8,94",
    "rawName": "2032/G",
    "bidPrice": "71,83",
    "coupon_val": 4.5,
    "maturityInDays": "3562 nap",
    "securityType": "KTV",
    "maturityDate": "2032.05.27",
    "name": "2032/G",
    "bidEhmYield": "8,94",
    "askYield": "8,42",
    "currency": "HUF",
    "maturityInDays_val": 3562,
    "longName": "A320527G22"
}