{
    "askPrice": "66,87",
    "green": "1,00",
    "coupon": "4,50 %",
    "accruedInterest": "1,87",
    "settleDate": "2022.10.26",
    "askEhmYield": "10,02",
    "bidYield": "10,75",
    "rawName": "2032/G",
    "bidPrice": "63,66",
    "coupon_val": 4.5,
    "maturityInDays": "3501 nap",
    "securityType": "KTV",
    "maturityDate": "2032.05.27",
    "name": "2032/G",
    "bidEhmYield": "10,74",
    "askYield": "10,03",
    "currency": "HUF",
    "maturityInDays_val": 3501,
    "longName": "A320527G22"
}