{
    "askPrice": "69,59",
    "green": "1,00",
    "coupon": "4,50 %",
    "accruedInterest": "1,59",
    "settleDate": "2022.10.03",
    "askEhmYield": "9,43",
    "bidYield": "9,96",
    "rawName": "2032/G",
    "bidPrice": "67,05",
    "coupon_val": 4.5,
    "maturityInDays": "3524 nap",
    "securityType": "KTV",
    "maturityDate": "2032.05.27",
    "name": "2032/G",
    "bidEhmYield": "9,96",
    "askYield": "9,43",
    "currency": "HUF",
    "maturityInDays_val": 3524,
    "longName": "A320527G22"
}