{
    "askPrice": "78,0831",
    "green": "1,0000",
    "coupon": "4,50 %",
    "accruedInterest": "2,3671",
    "settleDate": "2022.12.05",
    "askEhmYield": "7,85",
    "bidYield": "8,73",
    "rawName": "2032/G",
    "bidPrice": "73,4251",
    "coupon_val": 4.5,
    "maturityInDays": "3461 nap",
    "securityType": "KTV",
    "maturityDate": "2032.05.27",
    "name": "2032/G",
    "bidEhmYield": "8,72",
    "askYield": "7,86",
    "currency": "HUF",
    "maturityInDays_val": 3461,
    "issueDate": "2022.01.26",
    "longName": "A320527G22"
}