{
    "askPrice": "65,00",
    "green": "1,00",
    "coupon": "4,50 %",
    "accruedInterest": "1,74",
    "settleDate": "2022.10.15",
    "askEhmYield": "10,43",
    "bidYield": "11,67",
    "rawName": "2032/G",
    "bidPrice": "59,77",
    "coupon_val": 4.5,
    "maturityInDays": "3512 nap",
    "securityType": "KTV",
    "maturityDate": "2032.05.27",
    "name": "2032/G",
    "bidEhmYield": "11,67",
    "askYield": "10,43",
    "currency": "HUF",
    "maturityInDays_val": 3512,
    "longName": "A320527G22"
}