{
    "askPrice": "76,75",
    "green": "1,00",
    "coupon": "4,50 %",
    "accruedInterest": "0,74",
    "settleDate": "2022.07.26",
    "askEhmYield": "8,00",
    "bidYield": "8,52",
    "rawName": "2032/G",
    "bidPrice": "73,93",
    "coupon_val": 4.5,
    "maturityInDays": "3593 nap",
    "securityType": "KTV",
    "maturityDate": "2032.05.27",
    "name": "2032/G",
    "bidEhmYield": "8,52",
    "askYield": "8,00",
    "currency": "HUF",
    "maturityInDays_val": 3593,
    "longName": "A320527G22"
}