{
    "askPrice": "75,09",
    "green": "1,00",
    "coupon": "4,50 %",
    "accruedInterest": "0,58",
    "settleDate": "2022.07.13",
    "askEhmYield": "8,29",
    "bidYield": "8,80",
    "rawName": "2032/G",
    "bidPrice": "72,36",
    "coupon_val": 4.5,
    "maturityInDays": "3606 nap",
    "securityType": "KTV",
    "maturityDate": "2032.05.27",
    "name": "2032/G",
    "bidEhmYield": "8,80",
    "askYield": "8,29",
    "currency": "HUF",
    "maturityInDays_val": 3606,
    "longName": "A320527G22"
}