{
    "askPrice": "75,41",
    "green": "1,00",
    "coupon": "4,50 %",
    "accruedInterest": "0,55",
    "settleDate": "2022.07.11",
    "askEhmYield": "8,23",
    "bidYield": "8,74",
    "rawName": "2032/G",
    "bidPrice": "72,66",
    "coupon_val": 4.5,
    "maturityInDays": "3608 nap",
    "securityType": "KTV",
    "maturityDate": "2032.05.27",
    "name": "2032/G",
    "bidEhmYield": "8,74",
    "askYield": "8,23",
    "currency": "HUF",
    "maturityInDays_val": 3608,
    "longName": "A320527G22"
}