{
    "askPrice": "78,4222",
    "green": "1,0000",
    "coupon": "4,50 %",
    "accruedInterest": "2,3795",
    "settleDate": "2022.12.06",
    "askEhmYield": "7,79",
    "bidYield": "8,65",
    "rawName": "2032/G",
    "bidPrice": "73,8434",
    "coupon_val": 4.5,
    "maturityInDays": "3460 nap",
    "securityType": "KTV",
    "maturityDate": "2032.05.27",
    "name": "2032/G",
    "bidEhmYield": "8,64",
    "askYield": "7,80",
    "currency": "HUF",
    "maturityInDays_val": 3460,
    "issueDate": "2022.01.26",
    "longName": "A320527G22"
}