{
    "askPrice": "73,40",
    "green": "1,00",
    "coupon": "4,50 %",
    "accruedInterest": "1,25",
    "settleDate": "2022.09.05",
    "askEhmYield": "8,65",
    "bidYield": "9,18",
    "rawName": "2032/G",
    "bidPrice": "70,70",
    "coupon_val": 4.5,
    "maturityInDays": "3552 nap",
    "securityType": "KTV",
    "maturityDate": "2032.05.27",
    "name": "2032/G",
    "bidEhmYield": "9,18",
    "askYield": "8,65",
    "currency": "HUF",
    "maturityInDays_val": 3552,
    "longName": "A320527G22"
}