{
    "askPrice": "77,44",
    "green": "1,00",
    "coupon": "4,50 %",
    "accruedInterest": "0,43",
    "settleDate": "2022.07.01",
    "askEhmYield": "7,86",
    "bidYield": "8,37",
    "rawName": "2032/G",
    "bidPrice": "74,61",
    "coupon_val": 4.5,
    "maturityInDays": "3618 nap",
    "securityType": "KTV",
    "maturityDate": "2032.05.27",
    "name": "2032/G",
    "bidEhmYield": "8,37",
    "askYield": "7,86",
    "currency": "HUF",
    "maturityInDays_val": 3618,
    "longName": "A320527G22"
}