{
    "askPrice": "71,33",
    "green": "1,00",
    "coupon": "4,50 %",
    "accruedInterest": "1,47",
    "settleDate": "2022.09.23",
    "askEhmYield": "9,07",
    "bidYield": "9,60",
    "rawName": "2032/G",
    "bidPrice": "68,71",
    "coupon_val": 4.5,
    "maturityInDays": "3534 nap",
    "securityType": "KTV",
    "maturityDate": "2032.05.27",
    "name": "2032/G",
    "bidEhmYield": "9,60",
    "askYield": "9,07",
    "currency": "HUF",
    "maturityInDays_val": 3534,
    "longName": "A320527G22"
}