{
    "askPrice": "76,42",
    "green": "1,00",
    "coupon": "4,50 %",
    "accruedInterest": "1,08",
    "settleDate": "2022.08.23",
    "askEhmYield": "8,08",
    "bidYield": "8,60",
    "rawName": "2032/G",
    "bidPrice": "73,59",
    "coupon_val": 4.5,
    "maturityInDays": "3565 nap",
    "securityType": "KTV",
    "maturityDate": "2032.05.27",
    "name": "2032/G",
    "bidEhmYield": "8,60",
    "askYield": "8,08",
    "currency": "HUF",
    "maturityInDays_val": 3565,
    "longName": "A320527G22"
}