{
    "askPrice": "77,3944",
    "green": "1,0000",
    "coupon": "4,50 %",
    "accruedInterest": "2,7493",
    "settleDate": "2023.01.05",
    "askEhmYield": "8,00",
    "bidYield": "8,90",
    "rawName": "2032/G",
    "bidPrice": "72,7188",
    "coupon_val": 4.5,
    "maturityInDays": "3430 nap",
    "securityType": "KTV",
    "maturityDate": "2032.05.27",
    "name": "2032/G",
    "bidEhmYield": "8,89",
    "askYield": "8,01",
    "currency": "HUF",
    "maturityInDays_val": 3430,
    "issueDate": "2022.01.26",
    "longName": "A320527G22"
}