{
    "askPrice": "82,2945",
    "green": "1,0000",
    "coupon": "4,50 %",
    "accruedInterest": "1,9180",
    "settleDate": "2023.10.30",
    "askEhmYield": "7,34",
    "bidYield": "8,08",
    "rawName": "2032/G",
    "bidPrice": "78,4091",
    "coupon_val": 4.5,
    "maturityInDays": "3132 nap",
    "securityType": "KTV",
    "maturityDate": "2032.05.27",
    "name": "2032/G",
    "bidEhmYield": "8,07",
    "askYield": "7,35",
    "currency": "HUF",
    "maturityInDays_val": 3132,
    "issueDate": "2022.01.26",
    "longName": "A320527G22"
}