{
    "askPrice": "83,3228",
    "green": "1,0000",
    "coupon": "4,50 %",
    "accruedInterest": "1,0943",
    "settleDate": "2023.08.24",
    "askEhmYield": "7,11",
    "bidYield": "7,88",
    "rawName": "2032/G",
    "bidPrice": "79,1520",
    "coupon_val": 4.5,
    "maturityInDays": "3199 nap",
    "securityType": "KTV",
    "maturityDate": "2032.05.27",
    "name": "2032/G",
    "bidEhmYield": "7,87",
    "askYield": "7,12",
    "currency": "HUF",
    "maturityInDays_val": 3199,
    "issueDate": "2022.01.26",
    "longName": "A320527G22"
}