{
    "askPrice": "89,4437",
    "green": "1,0000",
    "coupon": "4,50 %",
    "accruedInterest": "2,3975",
    "settleDate": "2023.12.08",
    "askEhmYield": "6,12",
    "bidYield": "6,84",
    "rawName": "2032/G",
    "bidPrice": "85,2897",
    "coupon_val": 4.5,
    "maturityInDays": "3093 nap",
    "securityType": "KTV",
    "maturityDate": "2032.05.27",
    "name": "2032/G",
    "bidEhmYield": "6,83",
    "askYield": "6,13",
    "currency": "HUF",
    "maturityInDays_val": 3093,
    "issueDate": "2022.01.26",
    "longName": "A320527G22"
}