{
    "askPrice": "",
    "green": "1,0000",
    "coupon": "4,50 %",
    "accruedInterest": "0,5410",
    "settleDate": "2023.07.10",
    "askEhmYield": "",
    "bidYield": "7,82",
    "rawName": "2032/G",
    "bidPrice": "79,2825",
    "coupon_val": 4.5,
    "maturityInDays": "3244 nap",
    "securityType": "KTV",
    "maturityDate": "2032.05.27",
    "name": "2032/G",
    "bidEhmYield": "7,81",
    "askYield": "",
    "currency": "HUF",
    "maturityInDays_val": 3244,
    "issueDate": "2022.01.26",
    "longName": "A320527G22"
}