{
    "askPrice": "82,6949",
    "green": "1,0000",
    "coupon": "4,50 %",
    "accruedInterest": "1,0697",
    "settleDate": "2023.08.22",
    "askEhmYield": "7,22",
    "bidYield": "7,99",
    "rawName": "2032/G",
    "bidPrice": "78,5614",
    "coupon_val": 4.5,
    "maturityInDays": "3201 nap",
    "securityType": "KTV",
    "maturityDate": "2032.05.27",
    "name": "2032/G",
    "bidEhmYield": "7,98",
    "askYield": "7,23",
    "currency": "HUF",
    "maturityInDays_val": 3201,
    "issueDate": "2022.01.26",
    "longName": "A320527G22"
}