{
    "askPrice": "81,3123",
    "green": "1,0000",
    "coupon": "4,50 %",
    "accruedInterest": "4,1918",
    "settleDate": "2023.05.02",
    "askEhmYield": "7,39",
    "bidYield": "8,30",
    "rawName": "2032/G",
    "bidPrice": "76,4219",
    "coupon_val": 4.5,
    "maturityInDays": "3313 nap",
    "securityType": "KTV",
    "maturityDate": "2032.05.27",
    "name": "2032/G",
    "bidEhmYield": "8,29",
    "askYield": "7,40",
    "currency": "HUF",
    "maturityInDays_val": 3313,
    "issueDate": "2022.01.26",
    "longName": "A320527G22"
}