{
    "askPrice": "85,0292",
    "green": "1,0000",
    "coupon": "4,50 %",
    "accruedInterest": "1,2541",
    "settleDate": "2023.09.06",
    "askEhmYield": "6,82",
    "bidYield": "7,53",
    "rawName": "2032/G",
    "bidPrice": "81,0916",
    "coupon_val": 4.5,
    "maturityInDays": "3186 nap",
    "securityType": "KTV",
    "maturityDate": "2032.05.27",
    "name": "2032/G",
    "bidEhmYield": "7,52",
    "askYield": "6,83",
    "currency": "HUF",
    "maturityInDays_val": 3186,
    "issueDate": "2022.01.26",
    "longName": "A320527G22"
}