{
    "askPrice": "80,9670",
    "green": "1,0000",
    "coupon": "4,50 %",
    "accruedInterest": "3,1932",
    "settleDate": "2023.02.10",
    "askEhmYield": "7,39",
    "bidYield": "8,28",
    "rawName": "2032/G",
    "bidPrice": "76,1126",
    "coupon_val": 4.5,
    "maturityInDays": "3394 nap",
    "securityType": "KTV",
    "maturityDate": "2032.05.27",
    "name": "2032/G",
    "bidEhmYield": "8,27",
    "askYield": "7,40",
    "currency": "HUF",
    "maturityInDays_val": 3394,
    "issueDate": "2022.01.26",
    "longName": "A320527G22"
}