{
    "askPrice": "76,0660",
    "green": "1,0000",
    "coupon": "4,50 %",
    "accruedInterest": "3,9699",
    "settleDate": "2023.04.14",
    "askEhmYield": "8,34",
    "bidYield": "9,23",
    "rawName": "2032/G",
    "bidPrice": "71,6453",
    "coupon_val": 4.5,
    "maturityInDays": "3331 nap",
    "securityType": "KTV",
    "maturityDate": "2032.05.27",
    "name": "2032/G",
    "bidEhmYield": "9,22",
    "askYield": "8,35",
    "currency": "HUF",
    "maturityInDays_val": 3331,
    "issueDate": "2022.01.26",
    "longName": "A320527G22"
}