{
    "askPrice": "",
    "green": "1,0000",
    "coupon": "4,50 %",
    "accruedInterest": "0,5656",
    "settleDate": "2023.07.12",
    "askEhmYield": "",
    "bidYield": "7,65",
    "rawName": "2032/G",
    "bidPrice": "80,2120",
    "coupon_val": 4.5,
    "maturityInDays": "3242 nap",
    "securityType": "KTV",
    "maturityDate": "2032.05.27",
    "name": "2032/G",
    "bidEhmYield": "7,64",
    "askYield": "",
    "currency": "HUF",
    "maturityInDays_val": 3242,
    "issueDate": "2022.01.26",
    "longName": "A320527G22"
}