{
    "askPrice": "83,6922",
    "green": "1,0000",
    "coupon": "4,50 %",
    "accruedInterest": "0,1475",
    "settleDate": "2023.06.08",
    "askEhmYield": "7,00",
    "bidYield": "7,89",
    "rawName": "2032/G",
    "bidPrice": "78,7746",
    "coupon_val": 4.5,
    "maturityInDays": "3276 nap",
    "securityType": "KTV",
    "maturityDate": "2032.05.27",
    "name": "2032/G",
    "bidEhmYield": "7,88",
    "askYield": "7,01",
    "currency": "HUF",
    "maturityInDays_val": 3276,
    "issueDate": "2022.01.26",
    "longName": "A320527G22"
}