{
    "askPrice": "84,1954",
    "green": "1,0000",
    "coupon": "4,50 %",
    "accruedInterest": "1,1557",
    "settleDate": "2023.08.29",
    "askEhmYield": "6,96",
    "bidYield": "7,74",
    "rawName": "2032/G",
    "bidPrice": "79,9213",
    "coupon_val": 4.5,
    "maturityInDays": "3194 nap",
    "securityType": "KTV",
    "maturityDate": "2032.05.27",
    "name": "2032/G",
    "bidEhmYield": "7,73",
    "askYield": "6,97",
    "currency": "HUF",
    "maturityInDays_val": 3194,
    "issueDate": "2022.01.26",
    "longName": "A320527G22"
}