{
    "askPrice": "80,2645",
    "green": "1,0000",
    "coupon": "4,50 %",
    "accruedInterest": "0,0369",
    "settleDate": "2023.05.30",
    "askEhmYield": "7,60",
    "bidYield": "8,48",
    "rawName": "2032/G",
    "bidPrice": "75,6397",
    "coupon_val": 4.5,
    "maturityInDays": "3285 nap",
    "securityType": "KTV",
    "maturityDate": "2032.05.27",
    "name": "2032/G",
    "bidEhmYield": "8,47",
    "askYield": "7,61",
    "currency": "HUF",
    "maturityInDays_val": 3285,
    "issueDate": "2022.01.26",
    "longName": "A320527G22"
}