{
    "askPrice": "80,4656",
    "green": "1,0000",
    "coupon": "4,50 %",
    "accruedInterest": "3,2301",
    "settleDate": "2023.02.13",
    "askEhmYield": "7,48",
    "bidYield": "8,39",
    "rawName": "2032/G",
    "bidPrice": "75,5472",
    "coupon_val": 4.5,
    "maturityInDays": "3391 nap",
    "securityType": "KTV",
    "maturityDate": "2032.05.27",
    "name": "2032/G",
    "bidEhmYield": "8,38",
    "askYield": "7,49",
    "currency": "HUF",
    "maturityInDays_val": 3391,
    "issueDate": "2022.01.26",
    "longName": "A320527G22"
}