{
    "askPrice": "84,7199",
    "green": "1,0000",
    "coupon": "4,50 %",
    "accruedInterest": "0,2828",
    "settleDate": "2023.06.19",
    "askEhmYield": "6,83",
    "bidYield": "7,68",
    "rawName": "2032/G",
    "bidPrice": "79,9573",
    "coupon_val": 4.5,
    "maturityInDays": "3265 nap",
    "securityType": "KTV",
    "maturityDate": "2032.05.27",
    "name": "2032/G",
    "bidEhmYield": "7,67",
    "askYield": "6,84",
    "currency": "HUF",
    "maturityInDays_val": 3265,
    "issueDate": "2022.01.26",
    "longName": "A320527G22"
}