{
    "askPrice": "93,5673",
    "green": "1,0000",
    "coupon": "4,50 %",
    "accruedInterest": "2,6434",
    "settleDate": "2023.12.28",
    "askEhmYield": "5,46",
    "bidYield": "6,19",
    "rawName": "2032/G",
    "bidPrice": "89,1378",
    "coupon_val": 4.5,
    "maturityInDays": "3073 nap",
    "securityType": "KTV",
    "maturityDate": "2032.05.27",
    "name": "2032/G",
    "bidEhmYield": "6,18",
    "askYield": "5,47",
    "currency": "HUF",
    "maturityInDays_val": 3073,
    "issueDate": "2022.01.26",
    "longName": "A320527G22"
}