{
    "askPrice": "81,8810",
    "green": "1,0000",
    "coupon": "4,50 %",
    "accruedInterest": "1,6598",
    "settleDate": "2023.10.09",
    "askEhmYield": "7,40",
    "bidYield": "8,13",
    "rawName": "2032/G",
    "bidPrice": "78,0514",
    "coupon_val": 4.5,
    "maturityInDays": "3153 nap",
    "securityType": "KTV",
    "maturityDate": "2032.05.27",
    "name": "2032/G",
    "bidEhmYield": "8,12",
    "askYield": "7,41",
    "currency": "HUF",
    "maturityInDays_val": 3153,
    "issueDate": "2022.01.26",
    "longName": "A320527G22"
}