{
    "askPrice": "85,9508",
    "green": "1,0000",
    "coupon": "4,50 %",
    "accruedInterest": "1,4385",
    "settleDate": "2023.09.21",
    "askEhmYield": "6,67",
    "bidYield": "7,42",
    "rawName": "2032/G",
    "bidPrice": "81,7542",
    "coupon_val": 4.5,
    "maturityInDays": "3171 nap",
    "securityType": "KTV",
    "maturityDate": "2032.05.27",
    "name": "2032/G",
    "bidEhmYield": "7,41",
    "askYield": "6,68",
    "currency": "HUF",
    "maturityInDays_val": 3171,
    "issueDate": "2022.01.26",
    "longName": "A320527G22"
}