{
    "askPrice": "82,2705",
    "green": "1,0000",
    "coupon": "4,50 %",
    "accruedInterest": "1,8443",
    "settleDate": "2023.10.24",
    "askEhmYield": "7,34",
    "bidYield": "8,09",
    "rawName": "2032/G",
    "bidPrice": "78,3289",
    "coupon_val": 4.5,
    "maturityInDays": "3138 nap",
    "securityType": "KTV",
    "maturityDate": "2032.05.27",
    "name": "2032/G",
    "bidEhmYield": "8,08",
    "askYield": "7,35",
    "currency": "HUF",
    "maturityInDays_val": 3138,
    "issueDate": "2022.01.26",
    "longName": "A320527G22"
}