{
    "askPrice": "83,3665",
    "green": "1,0000",
    "coupon": "4,50 %",
    "accruedInterest": "3,0082",
    "settleDate": "2023.01.26",
    "askEhmYield": "6,97",
    "bidYield": "7,87",
    "rawName": "2032/G",
    "bidPrice": "78,2587",
    "coupon_val": 4.5,
    "maturityInDays": "3409 nap",
    "securityType": "KTV",
    "maturityDate": "2032.05.27",
    "name": "2032/G",
    "bidEhmYield": "7,86",
    "askYield": "6,98",
    "currency": "HUF",
    "maturityInDays_val": 3409,
    "issueDate": "2022.01.26",
    "longName": "A320527G22"
}