{
    "askPrice": "81,5699",
    "green": "1,0000",
    "coupon": "4,50 %",
    "accruedInterest": "4,4384",
    "settleDate": "2023.05.22",
    "askEhmYield": "7,36",
    "bidYield": "8,23",
    "rawName": "2032/G",
    "bidPrice": "76,8938",
    "coupon_val": 4.5,
    "maturityInDays": "3293 nap",
    "securityType": "KTV",
    "maturityDate": "2032.05.27",
    "name": "2032/G",
    "bidEhmYield": "8,22",
    "askYield": "7,37",
    "currency": "HUF",
    "maturityInDays_val": 3293,
    "issueDate": "2022.01.26",
    "longName": "A320527G22"
}