{
    "askPrice": "84,9254",
    "green": "1,0000",
    "coupon": "4,50 %",
    "accruedInterest": "0,1598",
    "settleDate": "2023.06.09",
    "askEhmYield": "6,79",
    "bidYield": "7,68",
    "rawName": "2032/G",
    "bidPrice": "79,9182",
    "coupon_val": 4.5,
    "maturityInDays": "3275 nap",
    "securityType": "KTV",
    "maturityDate": "2032.05.27",
    "name": "2032/G",
    "bidEhmYield": "7,67",
    "askYield": "6,80",
    "currency": "HUF",
    "maturityInDays_val": 3275,
    "issueDate": "2022.01.26",
    "longName": "A320527G22"
}