{
    "askPrice": "85,0266",
    "green": "1,0000",
    "coupon": "4,50 %",
    "accruedInterest": "0,3320",
    "settleDate": "2023.06.23",
    "askEhmYield": "6,78",
    "bidYield": "7,65",
    "rawName": "2032/G",
    "bidPrice": "80,1371",
    "coupon_val": 4.5,
    "maturityInDays": "3261 nap",
    "securityType": "KTV",
    "maturityDate": "2032.05.27",
    "name": "2032/G",
    "bidEhmYield": "7,64",
    "askYield": "6,79",
    "currency": "HUF",
    "maturityInDays_val": 3261,
    "issueDate": "2022.01.26",
    "longName": "A320527G22"
}