{
    "askPrice": "73,9332",
    "green": "1,0000",
    "coupon": "4,50 %",
    "accruedInterest": "2,7247",
    "settleDate": "2023.01.03",
    "askEhmYield": "8,65",
    "bidYield": "9,55",
    "rawName": "2032/G",
    "bidPrice": "69,5177",
    "coupon_val": 4.5,
    "maturityInDays": "3432 nap",
    "securityType": "KTV",
    "maturityDate": "2032.05.27",
    "name": "2032/G",
    "bidEhmYield": "9,54",
    "askYield": "8,66",
    "currency": "HUF",
    "maturityInDays_val": 3432,
    "issueDate": "2022.01.26",
    "longName": "A320527G22"
}