{
    "askPrice": "",
    "green": "1,0000",
    "coupon": "4,50 %",
    "accruedInterest": "0,6639",
    "settleDate": "2023.07.20",
    "askEhmYield": "",
    "bidYield": "7,29",
    "rawName": "2032/G",
    "bidPrice": "82,2369",
    "coupon_val": 4.5,
    "maturityInDays": "3234 nap",
    "securityType": "KTV",
    "maturityDate": "2032.05.27",
    "name": "2032/G",
    "bidEhmYield": "7,28",
    "askYield": "",
    "currency": "HUF",
    "maturityInDays_val": 3234,
    "issueDate": "2022.01.26",
    "longName": "A320527G22"
}