{
    "askPrice": "81,5955",
    "green": "1,0000",
    "coupon": "4,50 %",
    "accruedInterest": "4,3521",
    "settleDate": "2023.05.15",
    "askEhmYield": "7,35",
    "bidYield": "8,23",
    "rawName": "2032/G",
    "bidPrice": "76,8568",
    "coupon_val": 4.5,
    "maturityInDays": "3300 nap",
    "securityType": "KTV",
    "maturityDate": "2032.05.27",
    "name": "2032/G",
    "bidEhmYield": "8,22",
    "askYield": "7,36",
    "currency": "HUF",
    "maturityInDays_val": 3300,
    "issueDate": "2022.01.26",
    "longName": "A320527G22"
}