{
    "askPrice": "81,2912",
    "green": "1,0000",
    "coupon": "4,50 %",
    "accruedInterest": "4,2904",
    "settleDate": "2023.05.10",
    "askEhmYield": "7,40",
    "bidYield": "8,30",
    "rawName": "2032/G",
    "bidPrice": "76,4643",
    "coupon_val": 4.5,
    "maturityInDays": "3305 nap",
    "securityType": "KTV",
    "maturityDate": "2032.05.27",
    "name": "2032/G",
    "bidEhmYield": "8,29",
    "askYield": "7,41",
    "currency": "HUF",
    "maturityInDays_val": 3305,
    "issueDate": "2022.01.26",
    "longName": "A320527G22"
}