{
    "askPrice": "",
    "green": "1,0000",
    "coupon": "4,50 %",
    "accruedInterest": "0,6270",
    "settleDate": "2023.07.17",
    "askEhmYield": "",
    "bidYield": "7,48",
    "rawName": "2032/G",
    "bidPrice": "81,1659",
    "coupon_val": 4.5,
    "maturityInDays": "3237 nap",
    "securityType": "KTV",
    "maturityDate": "2032.05.27",
    "name": "2032/G",
    "bidEhmYield": "7,47",
    "askYield": "",
    "currency": "HUF",
    "maturityInDays_val": 3237,
    "issueDate": "2022.01.26",
    "longName": "A320527G22"
}