{
    "askPrice": "91,8257",
    "green": "1,0000",
    "coupon": "4,50 %",
    "accruedInterest": "2,7172",
    "settleDate": "2024.01.03",
    "askEhmYield": "5,74",
    "bidYield": "6,47",
    "rawName": "2032/G",
    "bidPrice": "87,5049",
    "coupon_val": 4.5,
    "maturityInDays": "3067 nap",
    "securityType": "KTV",
    "maturityDate": "2032.05.27",
    "name": "2032/G",
    "bidEhmYield": "6,46",
    "askYield": "5,75",
    "currency": "HUF",
    "maturityInDays_val": 3067,
    "issueDate": "2022.01.26",
    "longName": "A320527G22"
}