{
    "askPrice": "91,4055",
    "green": "1,0000",
    "coupon": "4,50 %",
    "accruedInterest": "2,7787",
    "settleDate": "2024.01.08",
    "askEhmYield": "5,81",
    "bidYield": "6,56",
    "rawName": "2032/G",
    "bidPrice": "86,9992",
    "coupon_val": 4.5,
    "maturityInDays": "3062 nap",
    "securityType": "KTV",
    "maturityDate": "2032.05.27",
    "name": "2032/G",
    "bidEhmYield": "6,55",
    "askYield": "5,82",
    "currency": "HUF",
    "maturityInDays_val": 3062,
    "issueDate": "2022.01.26",
    "longName": "A320527G22"
}