{
    "askPrice": "91,3542",
    "green": "1,0000",
    "coupon": "4,50 %",
    "accruedInterest": "3,4672",
    "settleDate": "2024.03.04",
    "askEhmYield": "5,84",
    "bidYield": "6,58",
    "rawName": "2032/G",
    "bidPrice": "87,0738",
    "coupon_val": 4.5,
    "maturityInDays": "3006 nap",
    "securityType": "KTV",
    "maturityDate": "2032.05.27",
    "name": "2032/G",
    "bidEhmYield": "6,57",
    "askYield": "5,85",
    "currency": "HUF",
    "maturityInDays_val": 3006,
    "issueDate": "2022.01.26",
    "longName": "A320527G22"
}