{
    "askPrice": "92,5282",
    "green": "1,0000",
    "coupon": "4,50 %",
    "accruedInterest": "3,2090",
    "settleDate": "2024.02.12",
    "askEhmYield": "5,64",
    "bidYield": "6,37",
    "rawName": "2032/G",
    "bidPrice": "88,2128",
    "coupon_val": 4.5,
    "maturityInDays": "3027 nap",
    "securityType": "KTV",
    "maturityDate": "2032.05.27",
    "name": "2032/G",
    "bidEhmYield": "6,36",
    "askYield": "5,65",
    "currency": "HUF",
    "maturityInDays_val": 3027,
    "issueDate": "2022.01.26",
    "longName": "A320527G22"
}