{
    "askPrice": "87,2041",
    "green": "1,0000",
    "coupon": "4,50 %",
    "accruedInterest": "3,9221",
    "settleDate": "2024.04.10",
    "askEhmYield": "6,57",
    "bidYield": "7,31",
    "rawName": "2032/G",
    "bidPrice": "83,2053",
    "coupon_val": 4.5,
    "maturityInDays": "2969 nap",
    "securityType": "KTV",
    "maturityDate": "2032.05.27",
    "name": "2032/G",
    "bidEhmYield": "7,30",
    "askYield": "6,58",
    "currency": "HUF",
    "maturityInDays_val": 2969,
    "issueDate": "2022.01.26",
    "longName": "A320527G22"
}