{
    "askPrice": "93,9262",
    "green": "1,0000",
    "coupon": "4,50 %",
    "accruedInterest": "2,9508",
    "settleDate": "2024.01.22",
    "askEhmYield": "5,41",
    "bidYield": "6,14",
    "rawName": "2032/G",
    "bidPrice": "89,5051",
    "coupon_val": 4.5,
    "maturityInDays": "3048 nap",
    "securityType": "KTV",
    "maturityDate": "2032.05.27",
    "name": "2032/G",
    "bidEhmYield": "6,13",
    "askYield": "5,42",
    "currency": "HUF",
    "maturityInDays_val": 3048,
    "issueDate": "2022.01.26",
    "longName": "A320527G22"
}