{
    "askPrice": "92,3817",
    "green": "1,0000",
    "coupon": "4,50 %",
    "accruedInterest": "3,0738",
    "settleDate": "2024.02.01",
    "askEhmYield": "5,66",
    "bidYield": "6,40",
    "rawName": "2032/G",
    "bidPrice": "88,0037",
    "coupon_val": 4.5,
    "maturityInDays": "3038 nap",
    "securityType": "KTV",
    "maturityDate": "2032.05.27",
    "name": "2032/G",
    "bidEhmYield": "6,39",
    "askYield": "5,67",
    "currency": "HUF",
    "maturityInDays_val": 3038,
    "issueDate": "2022.01.26",
    "longName": "A320527G22"
}