{
    "askPrice": "91,3573",
    "green": "1,0000",
    "coupon": "4,50 %",
    "accruedInterest": "3,1721",
    "settleDate": "2024.02.09",
    "askEhmYield": "5,83",
    "bidYield": "6,54",
    "rawName": "2032/G",
    "bidPrice": "87,2206",
    "coupon_val": 4.5,
    "maturityInDays": "3030 nap",
    "securityType": "KTV",
    "maturityDate": "2032.05.27",
    "name": "2032/G",
    "bidEhmYield": "6,53",
    "askYield": "5,84",
    "currency": "HUF",
    "maturityInDays_val": 3030,
    "issueDate": "2022.01.26",
    "longName": "A320527G22"
}