{
    "askPrice": "88,2003",
    "green": "1,0000",
    "coupon": "4,50 %",
    "accruedInterest": "3,8238",
    "settleDate": "2024.04.02",
    "askEhmYield": "6,39",
    "bidYield": "7,15",
    "rawName": "2032/G",
    "bidPrice": "84,0274",
    "coupon_val": 4.5,
    "maturityInDays": "2977 nap",
    "securityType": "KTV",
    "maturityDate": "2032.05.27",
    "name": "2032/G",
    "bidEhmYield": "7,14",
    "askYield": "6,40",
    "currency": "HUF",
    "maturityInDays_val": 2977,
    "issueDate": "2022.01.26",
    "longName": "A320527G22"
}