{
    "askPrice": "92,0127",
    "green": "1,0000",
    "coupon": "4,50 %",
    "accruedInterest": "3,4180",
    "settleDate": "2024.02.29",
    "askEhmYield": "5,73",
    "bidYield": "6,48",
    "rawName": "2032/G",
    "bidPrice": "87,6318",
    "coupon_val": 4.5,
    "maturityInDays": "3010 nap",
    "securityType": "KTV",
    "maturityDate": "2032.05.27",
    "name": "2032/G",
    "bidEhmYield": "6,47",
    "askYield": "5,74",
    "currency": "HUF",
    "maturityInDays_val": 3010,
    "issueDate": "2022.01.26",
    "longName": "A320527G22"
}