{
    "askPrice": "87,7761",
    "green": "1,0000",
    "coupon": "4,50 %",
    "accruedInterest": "4,3402",
    "settleDate": "2024.05.14",
    "askEhmYield": "6,49",
    "bidYield": "7,22",
    "rawName": "2032/G",
    "bidPrice": "83,8369",
    "coupon_val": 4.5,
    "maturityInDays": "2935 nap",
    "securityType": "KTV",
    "maturityDate": "2032.05.27",
    "name": "2032/G",
    "bidEhmYield": "7,21",
    "askYield": "6,50",
    "currency": "HUF",
    "maturityInDays_val": 2935,
    "issueDate": "2022.01.26",
    "longName": "A320527G22"
}