{
    "askPrice": "95,3232",
    "green": "1,0000",
    "coupon": "4,50 %",
    "accruedInterest": "2,8770",
    "settleDate": "2024.01.16",
    "askEhmYield": "5,19",
    "bidYield": "5,94",
    "rawName": "2032/G",
    "bidPrice": "90,6919",
    "coupon_val": 4.5,
    "maturityInDays": "3054 nap",
    "securityType": "KTV",
    "maturityDate": "2032.05.27",
    "name": "2032/G",
    "bidEhmYield": "5,93",
    "askYield": "5,20",
    "currency": "HUF",
    "maturityInDays_val": 3054,
    "issueDate": "2022.01.26",
    "longName": "A320527G22"
}