{
    "askPrice": "93,1969",
    "green": "1,0000",
    "coupon": "4,50 %",
    "accruedInterest": "2,7049",
    "settleDate": "2024.01.02",
    "askEhmYield": "5,52",
    "bidYield": "6,22",
    "rawName": "2032/G",
    "bidPrice": "88,9731",
    "coupon_val": 4.5,
    "maturityInDays": "3068 nap",
    "securityType": "KTV",
    "maturityDate": "2032.05.27",
    "name": "2032/G",
    "bidEhmYield": "6,21",
    "askYield": "5,53",
    "currency": "HUF",
    "maturityInDays_val": 3068,
    "issueDate": "2022.01.26",
    "longName": "A320527G22"
}