{
    "askPrice": "91,0832",
    "green": "1,0000",
    "coupon": "4,50 %",
    "accruedInterest": "3,3197",
    "settleDate": "2024.02.21",
    "askEhmYield": "5,88",
    "bidYield": "6,63",
    "rawName": "2032/G",
    "bidPrice": "86,7477",
    "coupon_val": 4.5,
    "maturityInDays": "3018 nap",
    "securityType": "KTV",
    "maturityDate": "2032.05.27",
    "name": "2032/G",
    "bidEhmYield": "6,62",
    "askYield": "5,89",
    "currency": "HUF",
    "maturityInDays_val": 3018,
    "issueDate": "2022.01.26",
    "longName": "A320527G22"
}