{
    "askPrice": "",
    "green": 0,
    "coupon": "2,50 %",
    "accruedInterest": "1,89",
    "settleDate": "2022.08.19",
    "askEhmYield": "",
    "bidYield": "",
    "rawName": "K2022/46",
    "bidPrice": "99,50",
    "coupon_val": 2.5,
    "maturityInDays": "89 nap",
    "securityType": "1MÁP",
    "maturityDate": "2022.11.16",
    "name": "K2022/46",
    "bidEhmYield": "4,49",
    "askYield": "",
    "currency": "HUF",
    "maturityInDays_val": 89,
    "longName": "K221116"
}