{
    "askPrice": "",
    "green": 0,
    "coupon": "2,50 %",
    "accruedInterest": "2,32",
    "settleDate": "2022.10.21",
    "askEhmYield": "",
    "bidYield": "9,77",
    "rawName": "K2022/46",
    "bidPrice": "99,50",
    "coupon_val": 2.5,
    "maturityInDays": "26 nap",
    "securityType": "1MÁP",
    "maturityDate": "2022.11.16",
    "name": "K2022/46",
    "bidEhmYield": "9,35",
    "askYield": "",
    "currency": "HUF",
    "maturityInDays_val": 26,
    "longName": "K221116"
}