{
    "askPrice": "",
    "green": 0,
    "coupon": "2,50 %",
    "accruedInterest": "2,46",
    "settleDate": "2022.11.10",
    "askEhmYield": "",
    "bidYield": "8,74",
    "rawName": "K2022/46",
    "bidPrice": "99,90",
    "coupon_val": 2.5,
    "maturityInDays": "6 nap",
    "securityType": "1MÁP",
    "maturityDate": "2022.11.16",
    "name": "K2022/46",
    "bidEhmYield": "8,39",
    "askYield": "",
    "currency": "HUF",
    "maturityInDays_val": 6,
    "issueDate": "2021-11-16",
    "longName": "K221116"
}