{
    "askPrice": "",
    "green": 0,
    "coupon": "2,50 %",
    "accruedInterest": "1,51",
    "settleDate": "2022.06.24",
    "askEhmYield": "",
    "bidYield": "",
    "rawName": "K2022/46",
    "bidPrice": "99,50",
    "coupon_val": 2.5,
    "maturityInDays": "145 nap",
    "securityType": "1MÁP",
    "maturityDate": "2022.11.16",
    "name": "K2022/46",
    "bidEhmYield": "3,72",
    "askYield": "",
    "currency": "HUF",
    "maturityInDays_val": 145,
    "longName": "K221116"
}