{
    "askPrice": "",
    "green": 0,
    "coupon": "2,50 %",
    "accruedInterest": "2,16",
    "settleDate": "2022.09.28",
    "askEhmYield": "",
    "bidYield": "",
    "rawName": "K2022/46",
    "bidPrice": "99,50",
    "coupon_val": 2.5,
    "maturityInDays": "49 nap",
    "securityType": "1MÁP",
    "maturityDate": "2022.11.16",
    "name": "K2022/46",
    "bidEhmYield": "6,12",
    "askYield": "",
    "currency": "HUF",
    "maturityInDays_val": 49,
    "longName": "K221116"
}