{
    "askPrice": "75,41",
    "green": 0,
    "coupon": "4,75 %",
    "accruedInterest": "2,80",
    "settleDate": "2022.08.22",
    "askEhmYield": "8,42",
    "bidYield": "8,92",
    "rawName": "2032/A",
    "bidPrice": "72,69",
    "coupon_val": 4.75,
    "maturityInDays": "3747 nap",
    "securityType": "KTV",
    "maturityDate": "2032.11.24",
    "name": "2032/A",
    "bidEhmYield": "8,92",
    "askYield": "8,42",
    "currency": "HUF",
    "maturityInDays_val": 3747,
    "longName": "A321124A22"
}