{
    "askPrice": "79,65",
    "green": 0,
    "coupon": "4,75 %",
    "accruedInterest": "2,67",
    "settleDate": "2022.08.12",
    "askEhmYield": "7,68",
    "bidYield": "8,18",
    "rawName": "2032/A",
    "bidPrice": "76,72",
    "coupon_val": 4.75,
    "maturityInDays": "3757 nap",
    "securityType": "KTV",
    "maturityDate": "2032.11.24",
    "name": "2032/A",
    "bidEhmYield": "8,18",
    "askYield": "7,68",
    "currency": "HUF",
    "maturityInDays_val": 3757,
    "longName": "A321124A22"
}