{
    "askPrice": "73,26",
    "green": 0,
    "coupon": "4,75 %",
    "accruedInterest": "3,07",
    "settleDate": "2022.09.12",
    "askEhmYield": "8,83",
    "bidYield": "9,33",
    "rawName": "2032/A",
    "bidPrice": "70,65",
    "coupon_val": 4.75,
    "maturityInDays": "3726 nap",
    "securityType": "KTV",
    "maturityDate": "2032.11.24",
    "name": "2032/A",
    "bidEhmYield": "9,33",
    "askYield": "8,83",
    "currency": "HUF",
    "maturityInDays_val": 3726,
    "longName": "A321124A22"
}