{
    "askPrice": "72,91",
    "green": 0,
    "coupon": "4,75 %",
    "accruedInterest": "3,25",
    "settleDate": "2022.09.26",
    "askEhmYield": "8,91",
    "bidYield": "9,41",
    "rawName": "2032/A",
    "bidPrice": "70,32",
    "coupon_val": 4.75,
    "maturityInDays": "3712 nap",
    "securityType": "KTV",
    "maturityDate": "2032.11.24",
    "name": "2032/A",
    "bidEhmYield": "9,41",
    "askYield": "8,91",
    "currency": "HUF",
    "maturityInDays_val": 3712,
    "longName": "A321124A22"
}