{
    "askPrice": "75,66",
    "green": 0,
    "coupon": "4,75 %",
    "accruedInterest": "2,00",
    "settleDate": "2022.06.22",
    "askEhmYield": "8,33",
    "bidYield": "8,83",
    "rawName": "2032/A",
    "bidPrice": "72,89",
    "coupon_val": 4.75,
    "maturityInDays": "3808 nap",
    "securityType": "KTV",
    "maturityDate": "2032.11.24",
    "name": "2032/A",
    "bidEhmYield": "8,83",
    "askYield": "8,33",
    "currency": "HUF",
    "maturityInDays_val": 3808,
    "longName": "A321124A22"
}