{
    "askPrice": "78,7002",
    "green": 0,
    "coupon": "4,75 %",
    "accruedInterest": "0,1822",
    "settleDate": "2022.12.08",
    "askEhmYield": "7,91",
    "bidYield": "8,79",
    "rawName": "2032/A",
    "bidPrice": "73,8881",
    "coupon_val": 4.75,
    "maturityInDays": "3639 nap",
    "securityType": "KTV",
    "maturityDate": "2032.11.24",
    "name": "2032/A",
    "bidEhmYield": "8,78",
    "askYield": "7,92",
    "currency": "HUF",
    "maturityInDays_val": 3639,
    "issueDate": "2022.01.19",
    "longName": "A321124A22"
}