{
    "askPrice": "76,25",
    "green": 0,
    "coupon": "4,75 %",
    "accruedInterest": "2,43",
    "settleDate": "2022.07.25",
    "askEhmYield": "8,25",
    "bidYield": "8,75",
    "rawName": "2032/A",
    "bidPrice": "73,47",
    "coupon_val": 4.75,
    "maturityInDays": "3775 nap",
    "securityType": "KTV",
    "maturityDate": "2032.11.24",
    "name": "2032/A",
    "bidEhmYield": "8,75",
    "askYield": "8,25",
    "currency": "HUF",
    "maturityInDays_val": 3775,
    "longName": "A321124A22"
}