{
    "askPrice": "65,83",
    "green": 0,
    "coupon": "4,75 %",
    "accruedInterest": "3,62",
    "settleDate": "2022.10.24",
    "askEhmYield": "10,36",
    "bidYield": "11,04",
    "rawName": "2032/A",
    "bidPrice": "62,83",
    "coupon_val": 4.75,
    "maturityInDays": "3684 nap",
    "securityType": "KTV",
    "maturityDate": "2032.11.24",
    "name": "2032/A",
    "bidEhmYield": "11,03",
    "askYield": "10,37",
    "currency": "HUF",
    "maturityInDays_val": 3684,
    "longName": "A321124A22"
}