{
    "askPrice": "68,04",
    "green": 0,
    "coupon": "4,75 %",
    "accruedInterest": "3,83",
    "settleDate": "2022.11.09",
    "askEhmYield": "9,91",
    "bidYield": "10,58",
    "rawName": "2032/A",
    "bidPrice": "64,96",
    "coupon_val": 4.75,
    "maturityInDays": "3668 nap",
    "securityType": "KTV",
    "maturityDate": "2032.11.24",
    "name": "2032/A",
    "bidEhmYield": "10,57",
    "askYield": "9,92",
    "currency": "HUF",
    "maturityInDays_val": 3668,
    "issueDate": "2022-01-19",
    "longName": "A321124A22"
}