{
    "askPrice": "79,9855",
    "green": 0,
    "coupon": "4,75 %",
    "accruedInterest": "1,0932",
    "settleDate": "2023.02.16",
    "askEhmYield": "7,73",
    "bidYield": "8,60",
    "rawName": "2032/A",
    "bidPrice": "75,1926",
    "coupon_val": 4.75,
    "maturityInDays": "3569 nap",
    "securityType": "KTV",
    "maturityDate": "2032.11.24",
    "name": "2032/A",
    "bidEhmYield": "8,59",
    "askYield": "7,74",
    "currency": "HUF",
    "maturityInDays_val": 3569,
    "issueDate": "2022.01.19",
    "longName": "A321124A22"
}