{
    "askPrice": "85,9202",
    "green": 0,
    "coupon": "4,75 %",
    "accruedInterest": "2,7849",
    "settleDate": "2023.06.26",
    "askEhmYield": "6,81",
    "bidYield": "7,69",
    "rawName": "2032/A",
    "bidPrice": "80,7598",
    "coupon_val": 4.75,
    "maturityInDays": "3439 nap",
    "securityType": "KTV",
    "maturityDate": "2032.11.24",
    "name": "2032/A",
    "bidEhmYield": "7,68",
    "askYield": "6,82",
    "currency": "HUF",
    "maturityInDays_val": 3439,
    "issueDate": "2022.01.19",
    "longName": "A321124A22"
}