{
    "askPrice": "81,3821",
    "green": 0,
    "coupon": "4,75 %",
    "accruedInterest": "1,0541",
    "settleDate": "2023.02.13",
    "askEhmYield": "7,49",
    "bidYield": "8,40",
    "rawName": "2032/A",
    "bidPrice": "76,2615",
    "coupon_val": 4.75,
    "maturityInDays": "3572 nap",
    "securityType": "KTV",
    "maturityDate": "2032.11.24",
    "name": "2032/A",
    "bidEhmYield": "8,39",
    "askYield": "7,50",
    "currency": "HUF",
    "maturityInDays_val": 3572,
    "issueDate": "2022.01.19",
    "longName": "A321124A22"
}