{
    "askPrice": "78,2939",
    "green": 0,
    "coupon": "4,75 %",
    "accruedInterest": "1,9130",
    "settleDate": "2023.04.20",
    "askEhmYield": "8,07",
    "bidYield": "8,98",
    "rawName": "2032/A",
    "bidPrice": "73,4829",
    "coupon_val": 4.75,
    "maturityInDays": "3506 nap",
    "securityType": "KTV",
    "maturityDate": "2032.11.24",
    "name": "2032/A",
    "bidEhmYield": "8,97",
    "askYield": "8,08",
    "currency": "HUF",
    "maturityInDays_val": 3506,
    "issueDate": "2022.01.19",
    "longName": "A321124A22"
}