{
    "askPrice": "86,7091",
    "green": 0,
    "coupon": "4,75 %",
    "accruedInterest": "4,5158",
    "settleDate": "2023.11.06",
    "askEhmYield": "6,75",
    "bidYield": "7,48",
    "rawName": "2032/A",
    "bidPrice": "82,4952",
    "coupon_val": 4.75,
    "maturityInDays": "3306 nap",
    "securityType": "KTV",
    "maturityDate": "2032.11.24",
    "name": "2032/A",
    "bidEhmYield": "7,47",
    "askYield": "6,76",
    "currency": "HUF",
    "maturityInDays_val": 3306,
    "issueDate": "2022.01.19",
    "longName": "A321124A22"
}