{
    "askPrice": "86,3580",
    "green": 0,
    "coupon": "4,75 %",
    "accruedInterest": "4,5548",
    "settleDate": "2023.11.09",
    "askEhmYield": "6,81",
    "bidYield": "7,53",
    "rawName": "2032/A",
    "bidPrice": "82,2250",
    "coupon_val": 4.75,
    "maturityInDays": "3303 nap",
    "securityType": "KTV",
    "maturityDate": "2032.11.24",
    "name": "2032/A",
    "bidEhmYield": "7,52",
    "askYield": "6,82",
    "currency": "HUF",
    "maturityInDays_val": 3303,
    "issueDate": "2022.01.19",
    "longName": "A321124A22"
}