{
    "askPrice": "82,2741",
    "green": 0,
    "coupon": "4,75 %",
    "accruedInterest": "2,1993",
    "settleDate": "2023.05.12",
    "askEhmYield": "7,39",
    "bidYield": "8,26",
    "rawName": "2032/A",
    "bidPrice": "77,3938",
    "coupon_val": 4.75,
    "maturityInDays": "3484 nap",
    "securityType": "KTV",
    "maturityDate": "2032.11.24",
    "name": "2032/A",
    "bidEhmYield": "8,25",
    "askYield": "7,40",
    "currency": "HUF",
    "maturityInDays_val": 3484,
    "issueDate": "2022.01.19",
    "longName": "A321124A22"
}