{
    "askPrice": "85,7736",
    "green": 0,
    "coupon": "4,75 %",
    "accruedInterest": "3,2014",
    "settleDate": "2023.07.28",
    "askEhmYield": "6,85",
    "bidYield": "7,67",
    "rawName": "2032/A",
    "bidPrice": "81,0013",
    "coupon_val": 4.75,
    "maturityInDays": "3407 nap",
    "securityType": "KTV",
    "maturityDate": "2032.11.24",
    "name": "2032/A",
    "bidEhmYield": "7,66",
    "askYield": "6,86",
    "currency": "HUF",
    "maturityInDays_val": 3407,
    "issueDate": "2022.01.19",
    "longName": "A321124A22"
}