{
    "askPrice": "78,5210",
    "green": 0,
    "coupon": "4,75 %",
    "accruedInterest": "1,9260",
    "settleDate": "2023.04.21",
    "askEhmYield": "8,03",
    "bidYield": "8,90",
    "rawName": "2032/A",
    "bidPrice": "73,8996",
    "coupon_val": 4.75,
    "maturityInDays": "3505 nap",
    "securityType": "KTV",
    "maturityDate": "2032.11.24",
    "name": "2032/A",
    "bidEhmYield": "8,89",
    "askYield": "8,04",
    "currency": "HUF",
    "maturityInDays_val": 3505,
    "issueDate": "2022.01.19",
    "longName": "A321124A22"
}