{
    "askPrice": "82,5572",
    "green": 0,
    "coupon": "4,75 %",
    "accruedInterest": "0,9630",
    "settleDate": "2023.02.06",
    "askEhmYield": "7,29",
    "bidYield": "8,17",
    "rawName": "2032/A",
    "bidPrice": "77,5029",
    "coupon_val": 4.75,
    "maturityInDays": "3579 nap",
    "securityType": "KTV",
    "maturityDate": "2032.11.24",
    "name": "2032/A",
    "bidEhmYield": "8,16",
    "askYield": "7,30",
    "currency": "HUF",
    "maturityInDays_val": 3579,
    "issueDate": "2022.01.19",
    "longName": "A321124A22"
}