{
    "askPrice": "83,0736",
    "green": 0,
    "coupon": "4,75 %",
    "accruedInterest": "0,8329",
    "settleDate": "2023.01.27",
    "askEhmYield": "7,20",
    "bidYield": "8,06",
    "rawName": "2032/A",
    "bidPrice": "78,0821",
    "coupon_val": 4.75,
    "maturityInDays": "3589 nap",
    "securityType": "KTV",
    "maturityDate": "2032.11.24",
    "name": "2032/A",
    "bidEhmYield": "8,05",
    "askYield": "7,21",
    "currency": "HUF",
    "maturityInDays_val": 3589,
    "issueDate": "2022.01.19",
    "longName": "A321124A22"
}