{
    "askPrice": "78,7089",
    "green": 0,
    "coupon": "4,75 %",
    "accruedInterest": "1,8089",
    "settleDate": "2023.04.12",
    "askEhmYield": "7,99",
    "bidYield": "8,88",
    "rawName": "2032/A",
    "bidPrice": "73,9611",
    "coupon_val": 4.75,
    "maturityInDays": "3514 nap",
    "securityType": "KTV",
    "maturityDate": "2032.11.24",
    "name": "2032/A",
    "bidEhmYield": "8,87",
    "askYield": "8,00",
    "currency": "HUF",
    "maturityInDays_val": 3514,
    "issueDate": "2022.01.19",
    "longName": "A321124A22"
}