{
    "askPrice": "80,8372",
    "green": 0,
    "coupon": "4,75 %",
    "accruedInterest": "1,0021",
    "settleDate": "2023.02.09",
    "askEhmYield": "7,58",
    "bidYield": "8,47",
    "rawName": "2032/A",
    "bidPrice": "75,8642",
    "coupon_val": 4.75,
    "maturityInDays": "3576 nap",
    "securityType": "KTV",
    "maturityDate": "2032.11.24",
    "name": "2032/A",
    "bidEhmYield": "8,46",
    "askYield": "7,59",
    "currency": "HUF",
    "maturityInDays_val": 3576,
    "issueDate": "2022.01.19",
    "longName": "A321124A22"
}