{
    "askPrice": "86,4277",
    "green": 0,
    "coupon": "4,75 %",
    "accruedInterest": "3,1103",
    "settleDate": "2023.07.21",
    "askEhmYield": "6,74",
    "bidYield": "7,57",
    "rawName": "2032/A",
    "bidPrice": "81,5445",
    "coupon_val": 4.75,
    "maturityInDays": "3414 nap",
    "securityType": "KTV",
    "maturityDate": "2032.11.24",
    "name": "2032/A",
    "bidEhmYield": "7,56",
    "askYield": "6,75",
    "currency": "HUF",
    "maturityInDays_val": 3414,
    "issueDate": "2022.01.19",
    "longName": "A321124A22"
}