{
    "askPrice": "83,0320",
    "green": 0,
    "coupon": "4,75 %",
    "accruedInterest": "2,1473",
    "settleDate": "2023.05.08",
    "askEhmYield": "7,26",
    "bidYield": "8,15",
    "rawName": "2032/A",
    "bidPrice": "77,9803",
    "coupon_val": 4.75,
    "maturityInDays": "3488 nap",
    "securityType": "KTV",
    "maturityDate": "2032.11.24",
    "name": "2032/A",
    "bidEhmYield": "8,14",
    "askYield": "7,27",
    "currency": "HUF",
    "maturityInDays_val": 3488,
    "issueDate": "2022.01.19",
    "longName": "A321124A22"
}