{
    "askPrice": "84,6210",
    "green": 0,
    "coupon": "4,75 %",
    "accruedInterest": "3,4226",
    "settleDate": "2023.08.14",
    "askEhmYield": "7,05",
    "bidYield": "7,81",
    "rawName": "2032/A",
    "bidPrice": "80,2823",
    "coupon_val": 4.75,
    "maturityInDays": "3390 nap",
    "securityType": "KTV",
    "maturityDate": "2032.11.24",
    "name": "2032/A",
    "bidEhmYield": "7,80",
    "askYield": "7,06",
    "currency": "HUF",
    "maturityInDays_val": 3390,
    "issueDate": "2022.01.19",
    "longName": "A321124A22"
}