{
    "askPrice": "94,6888",
    "green": 0,
    "coupon": "4,75 %",
    "accruedInterest": "0,5061",
    "settleDate": "2024.01.02",
    "askEhmYield": "5,51",
    "bidYield": "6,20",
    "rawName": "2032/A",
    "bidPrice": "90,2969",
    "coupon_val": 4.75,
    "maturityInDays": "3249 nap",
    "securityType": "KTV",
    "maturityDate": "2032.11.24",
    "name": "2032/A",
    "bidEhmYield": "6,19",
    "askYield": "5,52",
    "currency": "HUF",
    "maturityInDays_val": 3249,
    "issueDate": "2022.01.19",
    "longName": "A321124A22"
}