{
    "askPrice": "88,0677",
    "green": 0,
    "coupon": "4,75 %",
    "accruedInterest": "0,1298",
    "settleDate": "2023.12.04",
    "askEhmYield": "6,54",
    "bidYield": "7,25",
    "rawName": "2032/A",
    "bidPrice": "83,9145",
    "coupon_val": 4.75,
    "maturityInDays": "3278 nap",
    "securityType": "KTV",
    "maturityDate": "2032.11.24",
    "name": "2032/A",
    "bidEhmYield": "7,24",
    "askYield": "6,55",
    "currency": "HUF",
    "maturityInDays_val": 3278,
    "issueDate": "2022.01.19",
    "longName": "A321124A22"
}