{
    "askPrice": "90,0679",
    "green": 0,
    "coupon": "4,75 %",
    "accruedInterest": "0,2336",
    "settleDate": "2023.12.12",
    "askEhmYield": "6,22",
    "bidYield": "6,94",
    "rawName": "2032/A",
    "bidPrice": "85,7448",
    "coupon_val": 4.75,
    "maturityInDays": "3270 nap",
    "securityType": "KTV",
    "maturityDate": "2032.11.24",
    "name": "2032/A",
    "bidEhmYield": "6,93",
    "askYield": "6,23",
    "currency": "HUF",
    "maturityInDays_val": 3270,
    "issueDate": "2022.01.19",
    "longName": "A321124A22"
}