{
    "askPrice": "83,8639",
    "green": 0,
    "coupon": "4,75 %",
    "accruedInterest": "0,7938",
    "settleDate": "2023.01.24",
    "askEhmYield": "7,07",
    "bidYield": "7,95",
    "rawName": "2032/A",
    "bidPrice": "78,6952",
    "coupon_val": 4.75,
    "maturityInDays": "3592 nap",
    "securityType": "KTV",
    "maturityDate": "2032.11.24",
    "name": "2032/A",
    "bidEhmYield": "7,94",
    "askYield": "7,08",
    "currency": "HUF",
    "maturityInDays_val": 3592,
    "issueDate": "2022.01.19",
    "longName": "A321124A22"
}