{
    "askPrice": "82,7204",
    "green": 0,
    "coupon": "4,75 %",
    "accruedInterest": "2,0952",
    "settleDate": "2023.05.04",
    "askEhmYield": "7,31",
    "bidYield": "8,18",
    "rawName": "2032/A",
    "bidPrice": "77,7983",
    "coupon_val": 4.75,
    "maturityInDays": "3492 nap",
    "securityType": "KTV",
    "maturityDate": "2032.11.24",
    "name": "2032/A",
    "bidEhmYield": "8,17",
    "askYield": "7,32",
    "currency": "HUF",
    "maturityInDays_val": 3492,
    "issueDate": "2022.01.19",
    "longName": "A321124A22"
}