{
    "askPrice": "85,9720",
    "green": 0,
    "coupon": "4,75 %",
    "accruedInterest": "3,0062",
    "settleDate": "2023.07.13",
    "askEhmYield": "6,81",
    "bidYield": "7,65",
    "rawName": "2032/A",
    "bidPrice": "81,0552",
    "coupon_val": 4.75,
    "maturityInDays": "3422 nap",
    "securityType": "KTV",
    "maturityDate": "2032.11.24",
    "name": "2032/A",
    "bidEhmYield": "7,64",
    "askYield": "6,82",
    "currency": "HUF",
    "maturityInDays_val": 3422,
    "issueDate": "2022.01.19",
    "longName": "A321124A22"
}