{
    "askPrice": "86,3152",
    "green": 0,
    "coupon": "4,75 %",
    "accruedInterest": "4,6199",
    "settleDate": "2023.11.14",
    "askEhmYield": "6,82",
    "bidYield": "7,54",
    "rawName": "2032/A",
    "bidPrice": "82,1899",
    "coupon_val": 4.75,
    "maturityInDays": "3298 nap",
    "securityType": "KTV",
    "maturityDate": "2032.11.24",
    "name": "2032/A",
    "bidEhmYield": "7,53",
    "askYield": "6,83",
    "currency": "HUF",
    "maturityInDays_val": 3298,
    "issueDate": "2022.01.19",
    "longName": "A321124A22"
}