{
    "askPrice": "82,5036",
    "green": 0,
    "coupon": "4,75 %",
    "accruedInterest": "2,1733",
    "settleDate": "2023.05.10",
    "askEhmYield": "7,35",
    "bidYield": "8,22",
    "rawName": "2032/A",
    "bidPrice": "77,6040",
    "coupon_val": 4.75,
    "maturityInDays": "3486 nap",
    "securityType": "KTV",
    "maturityDate": "2032.11.24",
    "name": "2032/A",
    "bidEhmYield": "8,21",
    "askYield": "7,36",
    "currency": "HUF",
    "maturityInDays_val": 3486,
    "issueDate": "2022.01.19",
    "longName": "A321124A22"
}