{
    "askPrice": "85,5697",
    "green": 0,
    "coupon": "4,75 %",
    "accruedInterest": "2,6027",
    "settleDate": "2023.06.12",
    "askEhmYield": "6,86",
    "bidYield": "7,72",
    "rawName": "2032/A",
    "bidPrice": "80,5337",
    "coupon_val": 4.75,
    "maturityInDays": "3453 nap",
    "securityType": "KTV",
    "maturityDate": "2032.11.24",
    "name": "2032/A",
    "bidEhmYield": "7,71",
    "askYield": "6,87",
    "currency": "HUF",
    "maturityInDays_val": 3453,
    "issueDate": "2022.01.19",
    "longName": "A321124A22"
}