{
    "askPrice": "83,3233",
    "green": 0,
    "coupon": "4,75 %",
    "accruedInterest": "4,4247",
    "settleDate": "2023.10.30",
    "askEhmYield": "7,32",
    "bidYield": "8,04",
    "rawName": "2032/A",
    "bidPrice": "79,3623",
    "coupon_val": 4.75,
    "maturityInDays": "3313 nap",
    "securityType": "KTV",
    "maturityDate": "2032.11.24",
    "name": "2032/A",
    "bidEhmYield": "8,03",
    "askYield": "7,33",
    "currency": "HUF",
    "maturityInDays_val": 3313,
    "issueDate": "2022.01.19",
    "longName": "A321124A22"
}