{
    "askPrice": "87,0395",
    "green": 0,
    "coupon": "4,75 %",
    "accruedInterest": "3,0712",
    "settleDate": "2023.07.18",
    "askEhmYield": "6,64",
    "bidYield": "7,45",
    "rawName": "2032/A",
    "bidPrice": "82,2256",
    "coupon_val": 4.75,
    "maturityInDays": "3417 nap",
    "securityType": "KTV",
    "maturityDate": "2032.11.24",
    "name": "2032/A",
    "bidEhmYield": "7,44",
    "askYield": "6,65",
    "currency": "HUF",
    "maturityInDays_val": 3417,
    "issueDate": "2022.01.19",
    "longName": "A321124A22"
}