{
    "askPrice": "79,7166",
    "green": 0,
    "coupon": "4,75 %",
    "accruedInterest": "1,9651",
    "settleDate": "2023.04.24",
    "askEhmYield": "7,82",
    "bidYield": "8,68",
    "rawName": "2032/A",
    "bidPrice": "75,0617",
    "coupon_val": 4.75,
    "maturityInDays": "3502 nap",
    "securityType": "KTV",
    "maturityDate": "2032.11.24",
    "name": "2032/A",
    "bidEhmYield": "8,67",
    "askYield": "7,83",
    "currency": "HUF",
    "maturityInDays_val": 3502,
    "issueDate": "2022.01.19",
    "longName": "A321124A22"
}