{
    "askPrice": "97,0603",
    "green": 0,
    "coupon": "4,75 %",
    "accruedInterest": "0,6878",
    "settleDate": "2024.01.16",
    "askEhmYield": "5,17",
    "bidYield": "5,90",
    "rawName": "2032/A",
    "bidPrice": "92,2241",
    "coupon_val": 4.75,
    "maturityInDays": "3235 nap",
    "securityType": "KTV",
    "maturityDate": "2032.11.24",
    "name": "2032/A",
    "bidEhmYield": "5,89",
    "askYield": "5,17",
    "currency": "HUF",
    "maturityInDays_val": 3235,
    "issueDate": "2022.01.19",
    "longName": "A321124A22"
}