{
    "askPrice": "93,3795",
    "green": 0,
    "coupon": "4,75 %",
    "accruedInterest": "1,2199",
    "settleDate": "2024.02.26",
    "askEhmYield": "5,72",
    "bidYield": "6,43",
    "rawName": "2032/A",
    "bidPrice": "88,9965",
    "coupon_val": 4.75,
    "maturityInDays": "3194 nap",
    "securityType": "KTV",
    "maturityDate": "2032.11.24",
    "name": "2032/A",
    "bidEhmYield": "6,42",
    "askYield": "5,73",
    "currency": "HUF",
    "maturityInDays_val": 3194,
    "issueDate": "2022.01.19",
    "longName": "A321124A22"
}