{
    "askPrice": "92,8258",
    "green": 0,
    "coupon": "4,75 %",
    "accruedInterest": "0,8825",
    "settleDate": "2024.01.31",
    "askEhmYield": "5,80",
    "bidYield": "6,53",
    "rawName": "2032/A",
    "bidPrice": "88,3272",
    "coupon_val": 4.75,
    "maturityInDays": "3220 nap",
    "securityType": "KTV",
    "maturityDate": "2032.11.24",
    "name": "2032/A",
    "bidEhmYield": "6,52",
    "askYield": "5,81",
    "currency": "HUF",
    "maturityInDays_val": 3220,
    "issueDate": "2022.01.19",
    "longName": "A321124A22"
}