{
    "askPrice": "92,6629",
    "green": 0,
    "coupon": "4,75 %",
    "accruedInterest": "0,5840",
    "settleDate": "2024.01.08",
    "askEhmYield": "5,82",
    "bidYield": "6,55",
    "rawName": "2032/A",
    "bidPrice": "88,1502",
    "coupon_val": 4.75,
    "maturityInDays": "3243 nap",
    "securityType": "KTV",
    "maturityDate": "2032.11.24",
    "name": "2032/A",
    "bidEhmYield": "6,54",
    "askYield": "5,83",
    "currency": "HUF",
    "maturityInDays_val": 3243,
    "issueDate": "2022.01.19",
    "longName": "A321124A22"
}