{
    "askPrice": "89,6777",
    "green": 0,
    "coupon": "4,75 %",
    "accruedInterest": "1,6223",
    "settleDate": "2024.03.28",
    "askEhmYield": "6,32",
    "bidYield": "7,02",
    "rawName": "2032/A",
    "bidPrice": "85,5985",
    "coupon_val": 4.75,
    "maturityInDays": "3163 nap",
    "securityType": "KTV",
    "maturityDate": "2032.11.24",
    "name": "2032/A",
    "bidEhmYield": "7,01",
    "askYield": "6,33",
    "currency": "HUF",
    "maturityInDays_val": 3163,
    "issueDate": "2022.01.19",
    "longName": "A321124A22"
}