{
    "askPrice": "93,9370",
    "green": 0,
    "coupon": "4,75 %",
    "accruedInterest": "0,9604",
    "settleDate": "2024.02.06",
    "askEhmYield": "5,63",
    "bidYield": "6,35",
    "rawName": "2032/A",
    "bidPrice": "89,4391",
    "coupon_val": 4.75,
    "maturityInDays": "3214 nap",
    "securityType": "KTV",
    "maturityDate": "2032.11.24",
    "name": "2032/A",
    "bidEhmYield": "6,34",
    "askYield": "5,64",
    "currency": "HUF",
    "maturityInDays_val": 3214,
    "issueDate": "2022.01.19",
    "longName": "A321124A22"
}