{
    "askPrice": "86,9325",
    "green": 0,
    "coupon": "4,75 %",
    "accruedInterest": "1,8818",
    "settleDate": "2024.04.17",
    "askEhmYield": "6,79",
    "bidYield": "7,52",
    "rawName": "2032/A",
    "bidPrice": "82,8632",
    "coupon_val": 4.75,
    "maturityInDays": "3143 nap",
    "securityType": "KTV",
    "maturityDate": "2032.11.24",
    "name": "2032/A",
    "bidEhmYield": "7,51",
    "askYield": "6,80",
    "currency": "HUF",
    "maturityInDays_val": 3143,
    "issueDate": "2022.01.19",
    "longName": "A321124A22"
}