{
    "askPrice": "95,2539",
    "green": 0,
    "coupon": "4,75 %",
    "accruedInterest": "0,9474",
    "settleDate": "2024.02.05",
    "askEhmYield": "5,43",
    "bidYield": "6,17",
    "rawName": "2032/A",
    "bidPrice": "90,5514",
    "coupon_val": 4.75,
    "maturityInDays": "3215 nap",
    "securityType": "KTV",
    "maturityDate": "2032.11.24",
    "name": "2032/A",
    "bidEhmYield": "6,16",
    "askYield": "5,44",
    "currency": "HUF",
    "maturityInDays_val": 3215,
    "issueDate": "2022.01.19",
    "longName": "A321124A22"
}