{
    "askPrice": "93,6394",
    "green": 0,
    "coupon": "4,75 %",
    "accruedInterest": "1,2329",
    "settleDate": "2024.02.27",
    "askEhmYield": "5,68",
    "bidYield": "6,42",
    "rawName": "2032/A",
    "bidPrice": "89,0596",
    "coupon_val": 4.75,
    "maturityInDays": "3193 nap",
    "securityType": "KTV",
    "maturityDate": "2032.11.24",
    "name": "2032/A",
    "bidEhmYield": "6,41",
    "askYield": "5,69",
    "currency": "HUF",
    "maturityInDays_val": 3193,
    "issueDate": "2022.01.19",
    "longName": "A321124A22"
}