{
    "askPrice": "92,8790",
    "green": 0,
    "coupon": "4,75 %",
    "accruedInterest": "1,3367",
    "settleDate": "2024.03.06",
    "askEhmYield": "5,80",
    "bidYield": "6,51",
    "rawName": "2032/A",
    "bidPrice": "88,5346",
    "coupon_val": 4.75,
    "maturityInDays": "3185 nap",
    "securityType": "KTV",
    "maturityDate": "2032.11.24",
    "name": "2032/A",
    "bidEhmYield": "6,50",
    "askYield": "5,81",
    "currency": "HUF",
    "maturityInDays_val": 3185,
    "issueDate": "2022.01.19",
    "longName": "A321124A22"
}