{
    "askPrice": "",
    "green": 0,
    "coupon": null,
    "accruedInterest": "2,67",
    "settleDate": "2022.10.18",
    "askEhmYield": "",
    "bidYield": "1,90",
    "rawName": "2025/J",
    "bidPrice": "99,00",
    "maturityInDays": "946 nap",
    "securityType": "PMÁP",
    "maturityDate": "2025.05.21",
    "name": "2025/J",
    "bidEhmYield": "",
    "askYield": "",
    "currency": "HUF",
    "maturityInDays_val": 946,
    "longName": "A250521J20"
}