{
    "askPrice": "",
    "green": 0,
    "coupon": null,
    "accruedInterest": "0,80",
    "settleDate": "2022.07.05",
    "askEhmYield": "",
    "bidYield": "",
    "rawName": "2025/J",
    "bidPrice": "99,00",
    "maturityInDays": "1051 nap",
    "securityType": "PMÁP",
    "maturityDate": "2025.05.21",
    "name": "2025/J",
    "bidEhmYield": "",
    "askYield": "",
    "currency": "HUF",
    "maturityInDays_val": 1051,
    "longName": "A250521J20"
}