{
    "askPrice": "",
    "green": 0,
    "coupon": null,
    "accruedInterest": "3,03",
    "settleDate": "2022.11.07",
    "askEhmYield": "",
    "bidYield": "",
    "rawName": "2025/J",
    "bidPrice": "99,00",
    "maturityInDays": "926 nap",
    "securityType": "PMÁP",
    "maturityDate": "2025.05.21",
    "name": "2025/J",
    "bidEhmYield": "",
    "askYield": "",
    "currency": "HUF",
    "maturityInDays_val": 926,
    "issueDate": "2020-04-21",
    "longName": "A250521J20"
}