{
    "askPrice": "",
    "green": 0,
    "coupon": null,
    "accruedInterest": "1,28",
    "settleDate": "2022.08.01",
    "askEhmYield": "",
    "bidYield": "",
    "rawName": "2025/J",
    "bidPrice": "99,00",
    "maturityInDays": "1024 nap",
    "securityType": "PMÁP",
    "maturityDate": "2025.05.21",
    "name": "2025/J",
    "bidEhmYield": "",
    "askYield": "",
    "currency": "HUF",
    "maturityInDays_val": 1024,
    "longName": "A250521J20"
}