{
    "askPrice": "",
    "green": 0,
    "coupon": null,
    "accruedInterest": "1,82",
    "settleDate": "2022.08.31",
    "askEhmYield": "",
    "bidYield": "",
    "rawName": "2025/J",
    "bidPrice": "99,00",
    "maturityInDays": "994 nap",
    "securityType": "PMÁP",
    "maturityDate": "2025.05.21",
    "name": "2025/J",
    "bidEhmYield": "",
    "askYield": "",
    "currency": "HUF",
    "maturityInDays_val": 994,
    "longName": "A250521J20"
}