{
    "askPrice": "",
    "green": 0,
    "coupon": null,
    "accruedInterest": "7,9500",
    "settleDate": "2023.11.20",
    "askEhmYield": "",
    "bidYield": "",
    "rawName": "2025/J",
    "bidPrice": "99,0000",
    "maturityInDays": "548 nap",
    "securityType": "PMÁP",
    "maturityDate": "2025.05.21",
    "name": "2025/J",
    "bidEhmYield": "",
    "askYield": "",
    "currency": "HUF",
    "maturityInDays_val": 548,
    "issueDate": "2020.04.21",
    "longName": "A250521J20"
}