{
    "askPrice": "",
    "green": 0,
    "coupon": null,
    "accruedInterest": "11,5992",
    "settleDate": "2024.02.12",
    "askEhmYield": "",
    "bidYield": "",
    "rawName": "2025/J",
    "bidPrice": "99,0000",
    "maturityInDays": "464 nap",
    "securityType": "PMÁP",
    "maturityDate": "2025.05.21",
    "name": "2025/J",
    "bidEhmYield": "",
    "askYield": "",
    "currency": "HUF",
    "maturityInDays_val": 464,
    "issueDate": "2020.04.21",
    "longName": "A250521J20"
}