{
    "askPrice": "",
    "green": 0,
    "coupon": "3,50 %",
    "accruedInterest": "0,7808",
    "settleDate": "2022.12.08",
    "askEhmYield": "",
    "bidYield": "5,70",
    "rawName": "N2025/41",
    "bidPrice": "99,5000",
    "coupon_val": 3.5,
    "maturityInDays": "1039 nap",
    "securityType": "MÁP Plusz",
    "maturityDate": "2025.10.12",
    "name": "N2025/41",
    "bidEhmYield": "",
    "askYield": "",
    "currency": "HUF",
    "maturityInDays_val": 1039,
    "issueDate": "2020.10.12",
    "longName": "N251012"
}