{
    "askPrice": "",
    "green": 0,
    "coupon": "3,50 %",
    "accruedInterest": "0,16",
    "settleDate": "2022.10.24",
    "askEhmYield": "",
    "bidYield": "5,67",
    "rawName": "N2025/41",
    "bidPrice": "99,50",
    "coupon_val": 3.5,
    "maturityInDays": "1084 nap",
    "securityType": "MÁP Plusz",
    "maturityDate": "2025.10.12",
    "name": "N2025/41",
    "bidEhmYield": "",
    "askYield": "",
    "currency": "HUF",
    "maturityInDays_val": 1084,
    "longName": "N251012"
}