{
    "askPrice": "",
    "green": 0,
    "coupon": "3,50 %",
    "accruedInterest": "0,08",
    "settleDate": "2022.10.18",
    "askEhmYield": "",
    "bidYield": "5,48",
    "rawName": "N2025/41",
    "bidPrice": "100,00",
    "coupon_val": 3.5,
    "maturityInDays": "1090 nap",
    "securityType": "MÁP Plusz",
    "maturityDate": "2025.10.12",
    "name": "N2025/41",
    "bidEhmYield": "",
    "askYield": "",
    "currency": "HUF",
    "maturityInDays_val": 1090,
    "longName": "N251012"
}