{
    "askPrice": "",
    "green": 0,
    "coupon": "3,50 %",
    "accruedInterest": "0,37",
    "settleDate": "2022.11.08",
    "askEhmYield": "",
    "bidYield": "5,68",
    "rawName": "N2025/41",
    "bidPrice": "99,50",
    "coupon_val": 3.5,
    "maturityInDays": "1069 nap",
    "securityType": "MÁP Plusz",
    "maturityDate": "2025.10.12",
    "name": "N2025/41",
    "bidEhmYield": "",
    "askYield": "",
    "currency": "HUF",
    "maturityInDays_val": 1069,
    "issueDate": "2020-10-12",
    "longName": "N251012"
}