{
    "askPrice": "",
    "green": 0,
    "coupon": "3,50 %",
    "accruedInterest": "4,04",
    "settleDate": "2022.09.05",
    "askEhmYield": "",
    "bidYield": "",
    "rawName": "N2025/41",
    "bidPrice": "99,50",
    "coupon_val": 3.5,
    "maturityInDays": "1133 nap",
    "securityType": "MÁP Plusz",
    "maturityDate": "2025.10.12",
    "name": "N2025/41",
    "bidEhmYield": "",
    "askYield": "",
    "currency": "HUF",
    "maturityInDays_val": 1133,
    "longName": "N251012"
}