{
    "askPrice": "",
    "green": 0,
    "coupon": "3,50 %",
    "accruedInterest": "3,1507",
    "settleDate": "2023.05.30",
    "askEhmYield": "",
    "bidYield": "5,84",
    "rawName": "N2025/41",
    "bidPrice": "99,5000",
    "coupon_val": 3.5,
    "maturityInDays": "866 nap",
    "securityType": "MÁP Plusz",
    "maturityDate": "2025.10.12",
    "name": "N2025/41",
    "bidEhmYield": "",
    "askYield": "",
    "currency": "HUF",
    "maturityInDays_val": 866,
    "issueDate": "2020.10.12",
    "longName": "N251012"
}