{
    "askPrice": "",
    "green": 0,
    "coupon": "3,50 %",
    "accruedInterest": "1,3425",
    "settleDate": "2023.01.18",
    "askEhmYield": "",
    "bidYield": "5,73",
    "rawName": "N2025/41",
    "bidPrice": "99,5000",
    "coupon_val": 3.5,
    "maturityInDays": "998 nap",
    "securityType": "MÁP Plusz",
    "maturityDate": "2025.10.12",
    "name": "N2025/41",
    "bidEhmYield": "",
    "askYield": "",
    "currency": "HUF",
    "maturityInDays_val": 998,
    "issueDate": "2020.10.12",
    "longName": "N251012"
}