{
    "askPrice": "",
    "green": 0,
    "coupon": "3,50 %",
    "accruedInterest": "2,8082",
    "settleDate": "2023.05.05",
    "askEhmYield": "",
    "bidYield": "5,81",
    "rawName": "N2025/41",
    "bidPrice": "99,5000",
    "coupon_val": 3.5,
    "maturityInDays": "891 nap",
    "securityType": "MÁP Plusz",
    "maturityDate": "2025.10.12",
    "name": "N2025/41",
    "bidEhmYield": "",
    "askYield": "",
    "currency": "HUF",
    "maturityInDays_val": 891,
    "issueDate": "2020.10.12",
    "longName": "N251012"
}