{
    "askPrice": "",
    "green": 0,
    "coupon": "3,50 %",
    "accruedInterest": "1,2322",
    "settleDate": "2024.01.02",
    "askEhmYield": "",
    "bidYield": "6,06",
    "rawName": "N2025/41",
    "bidPrice": "99,5000",
    "coupon_val": 3.5,
    "maturityInDays": "649 nap",
    "securityType": "MÁP Plusz",
    "maturityDate": "2025.10.12",
    "name": "N2025/41",
    "bidEhmYield": "",
    "askYield": "",
    "currency": "HUF",
    "maturityInDays_val": 649,
    "issueDate": "2020.10.12",
    "longName": "N251012"
}