{
    "askPrice": "",
    "green": 0,
    "coupon": "3,50 %",
    "accruedInterest": "1,3750",
    "settleDate": "2024.01.25",
    "askEhmYield": "",
    "bidYield": "5,16",
    "rawName": "N2028/36",
    "bidPrice": "99,5000",
    "coupon_val": 3.5,
    "maturityInDays": "1684 nap",
    "securityType": "MÁP Plusz",
    "maturityDate": "2028.09.04",
    "name": "N2028/36",
    "bidEhmYield": "",
    "askYield": "",
    "currency": "HUF",
    "maturityInDays_val": 1684,
    "issueDate": "2023.09.04",
    "longName": "N280904"
}