{
    "askPrice": "",
    "green": 0,
    "coupon": "3,50 %",
    "accruedInterest": "0,6848",
    "settleDate": "2024.05.06",
    "askEhmYield": "",
    "bidYield": "5,25",
    "rawName": "N2028/36",
    "bidPrice": "99,5000",
    "coupon_val": 3.5,
    "maturityInDays": "1582 nap",
    "securityType": "MÁP Plusz",
    "maturityDate": "2028.09.04",
    "name": "N2028/36",
    "bidEhmYield": "",
    "askYield": "",
    "currency": "HUF",
    "maturityInDays_val": 1582,
    "issueDate": "2023.09.04",
    "longName": "N280904"
}