{
    "askPrice": "98,7134",
    "green": 0,
    "coupon": 0,
    "accruedInterest": 0,
    "settleDate": "2023.02.02",
    "askEhmYield": "13,99",
    "bidYield": "14,69",
    "rawName": "D230308",
    "bidPrice": "98,6316",
    "maturityInDays": "34 nap",
    "securityType": "DKJ",
    "maturityDate": "2023.03.08",
    "name": "D230308",
    "bidEhmYield": "14,89",
    "askYield": "13,80",
    "currency": "HUF",
    "maturityInDays_val": 34,
    "issueDate": "2022.12.07",
    "longName": "D230308"
}