{
    "askPrice": "",
    "green": 0,
    "coupon": 0,
    "accruedInterest": 0,
    "settleDate": "2023.02.27",
    "askEhmYield": "",
    "bidYield": "15,00",
    "rawName": "D230308",
    "bidPrice": "99,6264",
    "maturityInDays": "9 nap",
    "securityType": "DKJ",
    "maturityDate": "2023.03.08",
    "name": "D230308",
    "bidEhmYield": "15,21",
    "askYield": "",
    "currency": "HUF",
    "maturityInDays_val": 9,
    "issueDate": "2022.12.07",
    "longName": "D230308"
}