{
    "askPrice": "98,8590",
    "green": 0,
    "coupon": 0,
    "accruedInterest": 0,
    "settleDate": "2023.02.06",
    "askEhmYield": "14,04",
    "bidYield": "14,65",
    "rawName": "D230308",
    "bidPrice": "98,7939",
    "maturityInDays": "30 nap",
    "securityType": "DKJ",
    "maturityDate": "2023.03.08",
    "name": "D230308",
    "bidEhmYield": "14,85",
    "askYield": "13,85",
    "currency": "HUF",
    "maturityInDays_val": 30,
    "issueDate": "2022.12.07",
    "longName": "D230308"
}