{
    "askPrice": "100,00",
    "green": 0,
    "coupon": null,
    "accruedInterest": "0,16",
    "settleDate": "2022.10.05",
    "askEhmYield": "",
    "bidYield": "",
    "rawName": "2025/N",
    "bidPrice": "99,00",
    "maturityInDays": "1091 nap",
    "securityType": "BMÁP",
    "maturityDate": "2025.09.30",
    "name": "2025/N",
    "bidEhmYield": "",
    "askYield": "",
    "currency": "HUF",
    "maturityInDays_val": 1091,
    "longName": "A250930N22"
}