{
    "askPrice": "100,00",
    "green": 0,
    "coupon": null,
    "accruedInterest": "1,42",
    "settleDate": "2022.11.14",
    "askEhmYield": "",
    "bidYield": "",
    "rawName": "2025/N",
    "bidPrice": "99,00",
    "maturityInDays": "1051 nap",
    "securityType": "BMÁP",
    "maturityDate": "2025.09.30",
    "name": "2025/N",
    "bidEhmYield": "",
    "askYield": "",
    "currency": "HUF",
    "maturityInDays_val": 1051,
    "issueDate": "2022-09-30",
    "longName": "A250930N22"
}