{
    "askPrice": "100,0000",
    "green": 0,
    "coupon": null,
    "accruedInterest": "2,3900",
    "settleDate": "2022.12.15",
    "askEhmYield": "",
    "bidYield": "",
    "rawName": "2025/N",
    "bidPrice": "99,0000",
    "maturityInDays": "1020 nap",
    "securityType": "BMÁP",
    "maturityDate": "2025.09.30",
    "name": "2025/N",
    "bidEhmYield": "",
    "askYield": "",
    "currency": "HUF",
    "maturityInDays_val": 1020,
    "issueDate": "2022.09.30",
    "longName": "A250930N22"
}