{
    "askPrice": "",
    "green": 0,
    "coupon": null,
    "accruedInterest": "2,4102",
    "settleDate": "2023.12.27",
    "askEhmYield": "",
    "bidYield": "",
    "rawName": "2025/N",
    "bidPrice": "99,0000",
    "maturityInDays": "643 nap",
    "securityType": "BMÁP",
    "maturityDate": "2025.09.30",
    "name": "2025/N",
    "bidEhmYield": "",
    "askYield": "",
    "currency": "HUF",
    "maturityInDays_val": 643,
    "issueDate": "2022.09.30",
    "longName": "A250930N22"
}