{
    "askPrice": "100,0000",
    "green": 0,
    "coupon": null,
    "accruedInterest": "1,3000",
    "settleDate": "2023.01.31",
    "askEhmYield": "",
    "bidYield": "",
    "rawName": "2025/N",
    "bidPrice": "99,0000",
    "maturityInDays": "973 nap",
    "securityType": "BMÁP",
    "maturityDate": "2025.09.30",
    "name": "2025/N",
    "bidEhmYield": "",
    "askYield": "",
    "currency": "HUF",
    "maturityInDays_val": 973,
    "issueDate": "2022.09.30",
    "longName": "A250930N22"
}