{
    "askPrice": "99,1230",
    "green": 0,
    "coupon": 0,
    "accruedInterest": 0,
    "settleDate": "2023.10.18",
    "askEhmYield": "6,59",
    "bidYield": "7,77",
    "rawName": "D231206",
    "bidPrice": "98,9535",
    "maturityInDays": "49 nap",
    "securityType": "DKJ",
    "maturityDate": "2023.12.06",
    "name": "D231206",
    "bidEhmYield": "7,88",
    "askYield": "6,50",
    "currency": "HUF",
    "maturityInDays_val": 49,
    "issueDate": "2023.09.06",
    "longName": "D231206"
}