{
    "askPrice": "99,1699",
    "green": 0,
    "coupon": 0,
    "accruedInterest": 0,
    "settleDate": "2023.10.26",
    "askEhmYield": "7,45",
    "bidYield": "8,75",
    "rawName": "D231206",
    "bidPrice": "99,0133",
    "maturityInDays": "41 nap",
    "securityType": "DKJ",
    "maturityDate": "2023.12.06",
    "name": "D231206",
    "bidEhmYield": "8,87",
    "askYield": "7,35",
    "currency": "HUF",
    "maturityInDays_val": 41,
    "issueDate": "2023.09.06",
    "longName": "D231206"
}