{
    "askPrice": "98,5939",
    "green": 0,
    "coupon": 0,
    "accruedInterest": 0,
    "settleDate": "2023.09.29",
    "askEhmYield": "7,66",
    "bidYield": "8,90",
    "rawName": "D231206",
    "bidPrice": "98,3467",
    "maturityInDays": "68 nap",
    "securityType": "DKJ",
    "maturityDate": "2023.12.06",
    "name": "D231206",
    "bidEhmYield": "9,02",
    "askYield": "7,55",
    "currency": "HUF",
    "maturityInDays_val": 68,
    "issueDate": "2023.09.06",
    "longName": "D231206"
}