{
    "askPrice": "99,2414",
    "green": 0,
    "coupon": 0,
    "accruedInterest": 0,
    "settleDate": "2023.10.24",
    "askEhmYield": "6,49",
    "bidYield": "7,75",
    "rawName": "D231206",
    "bidPrice": "99,0828",
    "maturityInDays": "43 nap",
    "securityType": "DKJ",
    "maturityDate": "2023.12.06",
    "name": "D231206",
    "bidEhmYield": "7,86",
    "askYield": "6,40",
    "currency": "HUF",
    "maturityInDays_val": 43,
    "issueDate": "2023.09.06",
    "longName": "D231206"
}