{
    "askPrice": "",
    "green": 0,
    "coupon": 0,
    "accruedInterest": 0,
    "settleDate": "2023.11.27",
    "askEhmYield": "",
    "bidYield": "8,75",
    "rawName": "D231206",
    "bidPrice": "99,7817",
    "maturityInDays": "9 nap",
    "securityType": "DKJ",
    "maturityDate": "2023.12.06",
    "name": "D231206",
    "bidEhmYield": "8,87",
    "askYield": "",
    "currency": "HUF",
    "maturityInDays_val": 9,
    "issueDate": "2023.09.06",
    "longName": "D231206"
}