{
    "askPrice": "",
    "green": 0,
    "coupon": "3,50 %",
    "accruedInterest": "1,9438",
    "settleDate": "2023.01.02",
    "askEhmYield": "",
    "bidYield": "6,10",
    "rawName": "N2024/12",
    "bidPrice": "99,5000",
    "coupon_val": 3.5,
    "maturityInDays": "602 nap",
    "securityType": "MÁP Plusz",
    "maturityDate": "2024.08.26",
    "name": "N2024/12",
    "bidEhmYield": "",
    "askYield": "",
    "currency": "HUF",
    "maturityInDays_val": 602,
    "issueDate": "2019.08.26",
    "longName": "N240826"
}