{
    "askPrice": "",
    "green": 0,
    "coupon": "3,50 %",
    "accruedInterest": "1,21",
    "settleDate": "2022.11.14",
    "askEhmYield": "",
    "bidYield": "6,06",
    "rawName": "N2024/12",
    "bidPrice": "99,50",
    "coupon_val": 3.5,
    "maturityInDays": "651 nap",
    "securityType": "MÁP Plusz",
    "maturityDate": "2024.08.26",
    "name": "N2024/12",
    "bidEhmYield": "",
    "askYield": "",
    "currency": "HUF",
    "maturityInDays_val": 651,
    "issueDate": "2019-08-26",
    "longName": "N240826"
}