{
    "askPrice": "",
    "green": 0,
    "coupon": "3,50 %",
    "accruedInterest": "1,22",
    "settleDate": "2022.11.15",
    "askEhmYield": "",
    "bidYield": "6,06",
    "rawName": "N2024/12",
    "bidPrice": "99,50",
    "coupon_val": 3.5,
    "maturityInDays": "650 nap",
    "securityType": "MÁP Plusz",
    "maturityDate": "2024.08.26",
    "name": "N2024/12",
    "bidEhmYield": "",
    "askYield": "",
    "currency": "HUF",
    "maturityInDays_val": 650,
    "issueDate": "2019-08-26",
    "longName": "N240826"
}