{
    "askPrice": "",
    "green": 0,
    "coupon": "3,50 %",
    "accruedInterest": "0,27",
    "settleDate": "2022.09.13",
    "askEhmYield": "",
    "bidYield": "",
    "rawName": "N2024/12",
    "bidPrice": "99,50",
    "coupon_val": 3.5,
    "maturityInDays": "713 nap",
    "securityType": "MÁP Plusz",
    "maturityDate": "2024.08.26",
    "name": "N2024/12",
    "bidEhmYield": "",
    "askYield": "",
    "currency": "HUF",
    "maturityInDays_val": 713,
    "longName": "N240826"
}