{
    "askPrice": "",
    "green": 0,
    "coupon": "3,50 %",
    "accruedInterest": "4,5205",
    "settleDate": "2023.06.22",
    "askEhmYield": "",
    "bidYield": "6,35",
    "rawName": "N2024/12",
    "bidPrice": "99,5000",
    "coupon_val": 3.5,
    "maturityInDays": "431 nap",
    "securityType": "MÁP Plusz",
    "maturityDate": "2024.08.26",
    "name": "N2024/12",
    "bidEhmYield": "",
    "askYield": "",
    "currency": "HUF",
    "maturityInDays_val": 431,
    "issueDate": "2019.08.26",
    "longName": "N240826"
}