{
    "askPrice": "",
    "green": 0,
    "coupon": "3,50 %",
    "accruedInterest": "2,7877",
    "settleDate": "2023.02.27",
    "askEhmYield": "",
    "bidYield": "6,16",
    "rawName": "N2024/12",
    "bidPrice": "99,5000",
    "coupon_val": 3.5,
    "maturityInDays": "546 nap",
    "securityType": "MÁP Plusz",
    "maturityDate": "2024.08.26",
    "name": "N2024/12",
    "bidEhmYield": "",
    "askYield": "",
    "currency": "HUF",
    "maturityInDays_val": 546,
    "issueDate": "2019.08.26",
    "longName": "N240826"
}