{
    "askPrice": "",
    "green": 0,
    "coupon": "3,50 %",
    "accruedInterest": "1,68",
    "settleDate": "2022.07.15",
    "askEhmYield": "",
    "bidYield": "",
    "rawName": "N2026/09",
    "bidPrice": "99,50",
    "coupon_val": 3.5,
    "maturityInDays": "1325 nap",
    "securityType": "MÁP Plusz",
    "maturityDate": "2026.03.01",
    "name": "N2026/09",
    "bidEhmYield": "",
    "askYield": "",
    "currency": "HUF",
    "maturityInDays_val": 1325,
    "longName": "N260301"
}