{
    "askPrice": "",
    "green": 0,
    "coupon": "3,50 %",
    "accruedInterest": "1,1202",
    "settleDate": "2023.05.22",
    "askEhmYield": "",
    "bidYield": "5,71",
    "rawName": "N2026/09",
    "bidPrice": "99,5000",
    "coupon_val": 3.5,
    "maturityInDays": "1014 nap",
    "securityType": "MÁP Plusz",
    "maturityDate": "2026.03.01",
    "name": "N2026/09",
    "bidEhmYield": "",
    "askYield": "",
    "currency": "HUF",
    "maturityInDays_val": 1014,
    "issueDate": "2021.03.01",
    "longName": "N260301"
}