{
    "askPrice": "",
    "green": 0,
    "coupon": "3,50 %",
    "accruedInterest": "3,0738",
    "settleDate": "2023.10.12",
    "askEhmYield": "",
    "bidYield": "5,83",
    "rawName": "N2026/09",
    "bidPrice": "99,5000",
    "coupon_val": 3.5,
    "maturityInDays": "871 nap",
    "securityType": "MÁP Plusz",
    "maturityDate": "2026.03.01",
    "name": "N2026/09",
    "bidEhmYield": "",
    "askYield": "",
    "currency": "HUF",
    "maturityInDays_val": 871,
    "issueDate": "2021.03.01",
    "longName": "N260301"
}