{
    "askPrice": "",
    "green": 0,
    "coupon": "3,50 %",
    "accruedInterest": "0,1507",
    "settleDate": "2024.03.11",
    "askEhmYield": "",
    "bidYield": "6,02",
    "rawName": "N2026/09",
    "bidPrice": "99,5000",
    "coupon_val": 3.5,
    "maturityInDays": "720 nap",
    "securityType": "MÁP Plusz",
    "maturityDate": "2026.03.01",
    "name": "N2026/09",
    "bidEhmYield": "",
    "askYield": "",
    "currency": "HUF",
    "maturityInDays_val": 720,
    "issueDate": "2021.03.01",
    "longName": "N260301"
}