{
    "askPrice": "",
    "green": 0,
    "coupon": "3,50 %",
    "accruedInterest": "4,5628",
    "settleDate": "2024.01.29",
    "askEhmYield": "",
    "bidYield": "5,97",
    "rawName": "N2026/09",
    "bidPrice": "99,5000",
    "coupon_val": 3.5,
    "maturityInDays": "762 nap",
    "securityType": "MÁP Plusz",
    "maturityDate": "2026.03.01",
    "name": "N2026/09",
    "bidEhmYield": "",
    "askYield": "",
    "currency": "HUF",
    "maturityInDays_val": 762,
    "issueDate": "2021.03.01",
    "longName": "N260301"
}