{
    "askPrice": "",
    "green": 0,
    "coupon": "3,50 %",
    "accruedInterest": "1,0096",
    "settleDate": "2024.05.07",
    "askEhmYield": "",
    "bidYield": "6,05",
    "rawName": "N2026/09",
    "bidPrice": "99,5000",
    "coupon_val": 3.5,
    "maturityInDays": "663 nap",
    "securityType": "MÁP Plusz",
    "maturityDate": "2026.03.01",
    "name": "N2026/09",
    "bidEhmYield": "",
    "askYield": "",
    "currency": "HUF",
    "maturityInDays_val": 663,
    "issueDate": "2021.03.01",
    "longName": "N260301"
}