{
    "askPrice": "",
    "green": 0,
    "coupon": "3,50 %",
    "accruedInterest": "4,2740",
    "settleDate": "2022.12.19",
    "askEhmYield": "",
    "bidYield": "5,94",
    "rawName": "N2025/06",
    "bidPrice": "99,5000",
    "coupon_val": 3.5,
    "maturityInDays": "784 nap",
    "securityType": "MÁP Plusz",
    "maturityDate": "2025.02.10",
    "name": "N2025/06",
    "bidEhmYield": "",
    "askYield": "",
    "currency": "HUF",
    "maturityInDays_val": 784,
    "issueDate": "2020.02.10",
    "longName": "N250210"
}