{
    "askPrice": "",
    "green": 0,
    "coupon": "3,50 %",
    "accruedInterest": "3,45",
    "settleDate": "2022.10.20",
    "askEhmYield": "",
    "bidYield": "5,86",
    "rawName": "N2025/06",
    "bidPrice": "99,50",
    "coupon_val": 3.5,
    "maturityInDays": "844 nap",
    "securityType": "MÁP Plusz",
    "maturityDate": "2025.02.10",
    "name": "N2025/06",
    "bidEhmYield": "",
    "askYield": "",
    "currency": "HUF",
    "maturityInDays_val": 844,
    "longName": "N250210"
}