{
    "askPrice": "",
    "green": 0,
    "coupon": "3,50 %",
    "accruedInterest": "3,75",
    "settleDate": "2022.11.11",
    "askEhmYield": "",
    "bidYield": "5,89",
    "rawName": "N2025/06",
    "bidPrice": "99,50",
    "coupon_val": 3.5,
    "maturityInDays": "822 nap",
    "securityType": "MÁP Plusz",
    "maturityDate": "2025.02.10",
    "name": "N2025/06",
    "bidEhmYield": "",
    "askYield": "",
    "currency": "HUF",
    "maturityInDays_val": 822,
    "issueDate": "2020-02-10",
    "longName": "N250210"
}