{
    "askPrice": "",
    "green": 0,
    "coupon": "3,50 %",
    "accruedInterest": "2,37",
    "settleDate": "2022.08.02",
    "askEhmYield": "",
    "bidYield": "",
    "rawName": "N2025/06",
    "bidPrice": "99,50",
    "coupon_val": 3.5,
    "maturityInDays": "923 nap",
    "securityType": "MÁP Plusz",
    "maturityDate": "2025.02.10",
    "name": "N2025/06",
    "bidEhmYield": "",
    "askYield": "",
    "currency": "HUF",
    "maturityInDays_val": 923,
    "longName": "N250210"
}