{
    "askPrice": "",
    "green": 0,
    "coupon": "3,50 %",
    "accruedInterest": "4,4658",
    "settleDate": "2023.01.02",
    "askEhmYield": "",
    "bidYield": "5,96",
    "rawName": "N2025/06",
    "bidPrice": "99,5000",
    "coupon_val": 3.5,
    "maturityInDays": "770 nap",
    "securityType": "MÁP Plusz",
    "maturityDate": "2025.02.10",
    "name": "N2025/06",
    "bidEhmYield": "",
    "askYield": "",
    "currency": "HUF",
    "maturityInDays_val": 770,
    "issueDate": "2020.02.10",
    "longName": "N250210"
}