{
    "askPrice": "",
    "green": 0,
    "coupon": "3,50 %",
    "accruedInterest": "3,3151",
    "settleDate": "2023.09.18",
    "askEhmYield": "",
    "bidYield": "6,21",
    "rawName": "N2025/06",
    "bidPrice": "99,5000",
    "coupon_val": 3.5,
    "maturityInDays": "511 nap",
    "securityType": "MÁP Plusz",
    "maturityDate": "2025.02.10",
    "name": "N2025/06",
    "bidEhmYield": "",
    "askYield": "",
    "currency": "HUF",
    "maturityInDays_val": 511,
    "issueDate": "2020.02.10",
    "longName": "N250210"
}