{
    "askPrice": "",
    "green": 0,
    "coupon": "3,50 %",
    "accruedInterest": "2,1849",
    "settleDate": "2023.07.05",
    "askEhmYield": "",
    "bidYield": "6,12",
    "rawName": "N2025/06",
    "bidPrice": "99,5000",
    "coupon_val": 3.5,
    "maturityInDays": "586 nap",
    "securityType": "MÁP Plusz",
    "maturityDate": "2025.02.10",
    "name": "N2025/06",
    "bidEhmYield": "",
    "askYield": "",
    "currency": "HUF",
    "maturityInDays_val": 586,
    "issueDate": "2020.02.10",
    "longName": "N250210"
}