{
    "askPrice": "",
    "green": 0,
    "coupon": "3,50 %",
    "accruedInterest": "0,8852",
    "settleDate": "2024.04.04",
    "askEhmYield": "",
    "bidYield": "6,59",
    "rawName": "N2025/06",
    "bidPrice": "99,5000",
    "coupon_val": 3.5,
    "maturityInDays": "312 nap",
    "securityType": "MÁP Plusz",
    "maturityDate": "2025.02.10",
    "name": "N2025/06",
    "bidEhmYield": "",
    "askYield": "",
    "currency": "HUF",
    "maturityInDays_val": 312,
    "issueDate": "2020.02.10",
    "longName": "N250210"
}