{
    "askPrice": "",
    "green": 0,
    "coupon": "3,50 %",
    "accruedInterest": 0,
    "settleDate": "2024.02.09",
    "askEhmYield": "",
    "bidYield": "",
    "rawName": "N2025/06",
    "bidPrice": "",
    "coupon_val": 3.5,
    "maturityInDays": "367 nap",
    "securityType": "MÁP Plusz",
    "maturityDate": "2025.02.10",
    "name": "N2025/06",
    "bidEhmYield": "",
    "askYield": "",
    "currency": "HUF",
    "maturityInDays_val": 367,
    "issueDate": "2020.02.10",
    "longName": "N250210"
}