{
    "askPrice": "57,10",
    "green": 0,
    "coupon": "3,00 %",
    "accruedInterest": "0,18",
    "settleDate": "2022.11.18",
    "askEhmYield": "7,78",
    "bidYield": "8,45",
    "rawName": "2038/A",
    "bidPrice": "53,20",
    "coupon_val": 3,
    "maturityInDays": "5822 nap",
    "securityType": "KTV",
    "maturityDate": "2038.10.27",
    "name": "2038/A",
    "bidEhmYield": "8,44",
    "askYield": "7,79",
    "currency": "HUF",
    "maturityInDays_val": 5822,
    "issueDate": "2018-02-07",
    "longName": "A381027A18"
}