{
    "askPrice": "58,74",
    "green": 0,
    "coupon": "3,00 %",
    "accruedInterest": "2,34",
    "settleDate": "2022.08.08",
    "askEhmYield": "7,47",
    "bidYield": "7,97",
    "rawName": "2038/A",
    "bidPrice": "55,60",
    "coupon_val": 3,
    "maturityInDays": "5924 nap",
    "securityType": "KTV",
    "maturityDate": "2038.10.27",
    "name": "2038/A",
    "bidEhmYield": "7,97",
    "askYield": "7,47",
    "currency": "HUF",
    "maturityInDays_val": 5924,
    "longName": "A381027A18"
}