{
    "askPrice": "53,28",
    "green": 0,
    "coupon": "3,00 %",
    "accruedInterest": "2,53",
    "settleDate": "2022.08.31",
    "askEhmYield": "8,38",
    "bidYield": "8,88",
    "rawName": "2038/A",
    "bidPrice": "50,52",
    "coupon_val": 3,
    "maturityInDays": "5901 nap",
    "securityType": "KTV",
    "maturityDate": "2038.10.27",
    "name": "2038/A",
    "bidEhmYield": "8,88",
    "askYield": "8,38",
    "currency": "HUF",
    "maturityInDays_val": 5901,
    "longName": "A381027A18"
}