{
    "askPrice": "57,17",
    "green": 0,
    "coupon": "3,00 %",
    "accruedInterest": "2,01",
    "settleDate": "2022.06.28",
    "askEhmYield": "7,69",
    "bidYield": "8,19",
    "rawName": "2038/A",
    "bidPrice": "54,12",
    "coupon_val": 3,
    "maturityInDays": "5965 nap",
    "securityType": "KTV",
    "maturityDate": "2038.10.27",
    "name": "2038/A",
    "bidEhmYield": "8,19",
    "askYield": "7,69",
    "currency": "HUF",
    "maturityInDays_val": 5965,
    "longName": "A381027A18"
}