{
    "askPrice": "57,01",
    "green": 0,
    "coupon": "3,00 %",
    "accruedInterest": "2,05",
    "settleDate": "2022.07.04",
    "askEhmYield": "7,72",
    "bidYield": "8,22",
    "rawName": "2038/A",
    "bidPrice": "53,97",
    "coupon_val": 3,
    "maturityInDays": "5959 nap",
    "securityType": "KTV",
    "maturityDate": "2038.10.27",
    "name": "2038/A",
    "bidEhmYield": "8,22",
    "askYield": "7,72",
    "currency": "HUF",
    "maturityInDays_val": 5959,
    "longName": "A381027A18"
}