{
    "askPrice": "52,62",
    "green": 0,
    "coupon": "3,00 %",
    "accruedInterest": "2,70",
    "settleDate": "2022.09.20",
    "askEhmYield": "8,51",
    "bidYield": "9,01",
    "rawName": "2038/A",
    "bidPrice": "49,91",
    "coupon_val": 3,
    "maturityInDays": "5881 nap",
    "securityType": "KTV",
    "maturityDate": "2038.10.27",
    "name": "2038/A",
    "bidEhmYield": "9,01",
    "askYield": "8,51",
    "currency": "HUF",
    "maturityInDays_val": 5881,
    "longName": "A381027A18"
}