{
    "askPrice": "53,42",
    "green": 0,
    "coupon": "3,00 %",
    "accruedInterest": "2,47",
    "settleDate": "2022.08.24",
    "askEhmYield": "8,35",
    "bidYield": "8,85",
    "rawName": "2038/A",
    "bidPrice": "50,65",
    "coupon_val": 3,
    "maturityInDays": "5908 nap",
    "securityType": "KTV",
    "maturityDate": "2038.10.27",
    "name": "2038/A",
    "bidEhmYield": "8,85",
    "askYield": "8,35",
    "currency": "HUF",
    "maturityInDays_val": 5908,
    "longName": "A381027A18"
}