{
    "askPrice": "55,75",
    "green": 0,
    "coupon": "3,00 %",
    "accruedInterest": "0,16",
    "settleDate": "2022.11.16",
    "askEhmYield": "8,00",
    "bidYield": "8,62",
    "rawName": "2038/A",
    "bidPrice": "52,24",
    "coupon_val": 3,
    "maturityInDays": "5824 nap",
    "securityType": "KTV",
    "maturityDate": "2038.10.27",
    "name": "2038/A",
    "bidEhmYield": "8,61",
    "askYield": "8,01",
    "currency": "HUF",
    "maturityInDays_val": 5824,
    "issueDate": "2018-02-07",
    "longName": "A381027A18"
}