{
    "askPrice": "58,6318",
    "green": 0,
    "coupon": "3,00 %",
    "accruedInterest": "0,2137",
    "settleDate": "2022.11.22",
    "askEhmYield": "7,54",
    "bidYield": "8,23",
    "rawName": "2038/A",
    "bidPrice": "54,4738",
    "coupon_val": 3,
    "maturityInDays": "5818 nap",
    "securityType": "KTV",
    "maturityDate": "2038.10.27",
    "name": "2038/A",
    "bidEhmYield": "8,22",
    "askYield": "7,55",
    "currency": "HUF",
    "maturityInDays_val": 5818,
    "issueDate": "2018.02.07",
    "longName": "A381027A18"
}