{
    "askPrice": "56,97",
    "green": 0,
    "coupon": "3,00 %",
    "accruedInterest": "2,24",
    "settleDate": "2022.07.26",
    "askEhmYield": "7,74",
    "bidYield": "8,24",
    "rawName": "2038/A",
    "bidPrice": "53,94",
    "coupon_val": 3,
    "maturityInDays": "5937 nap",
    "securityType": "KTV",
    "maturityDate": "2038.10.27",
    "name": "2038/A",
    "bidEhmYield": "8,24",
    "askYield": "7,74",
    "currency": "HUF",
    "maturityInDays_val": 5937,
    "longName": "A381027A18"
}