{
    "askPrice": "49,64",
    "green": 0,
    "coupon": "3,00 %",
    "accruedInterest": "2,77",
    "settleDate": "2022.09.29",
    "askEhmYield": "9,07",
    "bidYield": "9,57",
    "rawName": "2038/A",
    "bidPrice": "47,13",
    "coupon_val": 3,
    "maturityInDays": "5872 nap",
    "securityType": "KTV",
    "maturityDate": "2038.10.27",
    "name": "2038/A",
    "bidEhmYield": "9,57",
    "askYield": "9,07",
    "currency": "HUF",
    "maturityInDays_val": 5872,
    "longName": "A381027A18"
}