{
    "askPrice": "47,44",
    "green": 0,
    "coupon": "3,00 %",
    "accruedInterest": "2,98",
    "settleDate": "2022.10.24",
    "askEhmYield": "9,52",
    "bidYield": "10,16",
    "rawName": "2038/A",
    "bidPrice": "44,50",
    "coupon_val": 3,
    "maturityInDays": "5847 nap",
    "securityType": "KTV",
    "maturityDate": "2038.10.27",
    "name": "2038/A",
    "bidEhmYield": "10,15",
    "askYield": "9,53",
    "currency": "HUF",
    "maturityInDays_val": 5847,
    "longName": "A381027A18"
}