{
    "askPrice": "50,11",
    "green": 0,
    "coupon": "3,00 %",
    "accruedInterest": "2,76",
    "settleDate": "2022.09.28",
    "askEhmYield": "8,98",
    "bidYield": "9,48",
    "rawName": "2038/A",
    "bidPrice": "47,57",
    "coupon_val": 3,
    "maturityInDays": "5873 nap",
    "securityType": "KTV",
    "maturityDate": "2038.10.27",
    "name": "2038/A",
    "bidEhmYield": "9,48",
    "askYield": "8,98",
    "currency": "HUF",
    "maturityInDays_val": 5873,
    "longName": "A381027A18"
}