{
    "askPrice": "64,8657",
    "green": 0,
    "coupon": "3,00 %",
    "accruedInterest": "2,2356",
    "settleDate": "2023.07.26",
    "askEhmYield": "6,75",
    "bidYield": "7,53",
    "rawName": "2038/A",
    "bidPrice": "59,6957",
    "coupon_val": 3,
    "maturityInDays": "5572 nap",
    "securityType": "KTV",
    "maturityDate": "2038.10.27",
    "name": "2038/A",
    "bidEhmYield": "7,52",
    "askYield": "6,76",
    "currency": "HUF",
    "maturityInDays_val": 5572,
    "issueDate": "2018.02.07",
    "longName": "A381027A18"
}