{
    "askPrice": "56,6497",
    "green": 0,
    "coupon": "3,00 %",
    "accruedInterest": "1,0767",
    "settleDate": "2023.03.07",
    "askEhmYield": "7,92",
    "bidYield": "8,75",
    "rawName": "2038/A",
    "bidPrice": "51,9525",
    "coupon_val": 3,
    "maturityInDays": "5713 nap",
    "securityType": "KTV",
    "maturityDate": "2038.10.27",
    "name": "2038/A",
    "bidEhmYield": "8,74",
    "askYield": "7,93",
    "currency": "HUF",
    "maturityInDays_val": 5713,
    "issueDate": "2018.02.07",
    "longName": "A381027A18"
}