{
    "askPrice": "69,0163",
    "green": 0,
    "coupon": "3,00 %",
    "accruedInterest": "0,3689",
    "settleDate": "2023.12.11",
    "askEhmYield": "6,26",
    "bidYield": "6,92",
    "rawName": "2038/A",
    "bidPrice": "64,2767",
    "coupon_val": 3,
    "maturityInDays": "5434 nap",
    "securityType": "KTV",
    "maturityDate": "2038.10.27",
    "name": "2038/A",
    "bidEhmYield": "6,91",
    "askYield": "6,26",
    "currency": "HUF",
    "maturityInDays_val": 5434,
    "issueDate": "2018.02.07",
    "longName": "A381027A18"
}