{
    "askPrice": "67,2465",
    "green": 0,
    "coupon": "3,00 %",
    "accruedInterest": "2,0466",
    "settleDate": "2023.07.03",
    "askEhmYield": "6,42",
    "bidYield": "7,20",
    "rawName": "2038/A",
    "bidPrice": "61,7534",
    "coupon_val": 3,
    "maturityInDays": "5595 nap",
    "securityType": "KTV",
    "maturityDate": "2038.10.27",
    "name": "2038/A",
    "bidEhmYield": "7,19",
    "askYield": "6,42",
    "currency": "HUF",
    "maturityInDays_val": 5595,
    "issueDate": "2018.02.07",
    "longName": "A381027A18"
}