{
    "askPrice": "66,4171",
    "green": 0,
    "coupon": "3,00 %",
    "accruedInterest": "2,1699",
    "settleDate": "2023.07.18",
    "askEhmYield": "6,54",
    "bidYield": "7,31",
    "rawName": "2038/A",
    "bidPrice": "61,0852",
    "coupon_val": 3,
    "maturityInDays": "5580 nap",
    "securityType": "KTV",
    "maturityDate": "2038.10.27",
    "name": "2038/A",
    "bidEhmYield": "7,30",
    "askYield": "6,54",
    "currency": "HUF",
    "maturityInDays_val": 5580,
    "issueDate": "2018.02.07",
    "longName": "A381027A18"
}