{
    "askPrice": "64,3961",
    "green": 0,
    "coupon": "3,00 %",
    "accruedInterest": "2,5808",
    "settleDate": "2023.09.06",
    "askEhmYield": "6,84",
    "bidYield": "7,49",
    "rawName": "2038/A",
    "bidPrice": "60,1248",
    "coupon_val": 3,
    "maturityInDays": "5530 nap",
    "securityType": "KTV",
    "maturityDate": "2038.10.27",
    "name": "2038/A",
    "bidEhmYield": "7,48",
    "askYield": "6,85",
    "currency": "HUF",
    "maturityInDays_val": 5530,
    "issueDate": "2018.02.07",
    "longName": "A381027A18"
}