{
    "askPrice": "63,7572",
    "green": 0,
    "coupon": "3,00 %",
    "accruedInterest": "2,1123",
    "settleDate": "2023.07.11",
    "askEhmYield": "6,90",
    "bidYield": "7,66",
    "rawName": "2038/A",
    "bidPrice": "58,8137",
    "coupon_val": 3,
    "maturityInDays": "5587 nap",
    "securityType": "KTV",
    "maturityDate": "2038.10.27",
    "name": "2038/A",
    "bidEhmYield": "7,65",
    "askYield": "6,91",
    "currency": "HUF",
    "maturityInDays_val": 5587,
    "issueDate": "2018.02.07",
    "longName": "A381027A18"
}