{
    "askPrice": "63,0144",
    "green": 0,
    "coupon": "3,00 %",
    "accruedInterest": "1,7014",
    "settleDate": "2023.05.22",
    "askEhmYield": "6,98",
    "bidYield": "7,80",
    "rawName": "2038/A",
    "bidPrice": "57,7422",
    "coupon_val": 3,
    "maturityInDays": "5637 nap",
    "securityType": "KTV",
    "maturityDate": "2038.10.27",
    "name": "2038/A",
    "bidEhmYield": "7,79",
    "askYield": "6,99",
    "currency": "HUF",
    "maturityInDays_val": 5637,
    "issueDate": "2018.02.07",
    "longName": "A381027A18"
}