{
    "askPrice": "61,8798",
    "green": 0,
    "coupon": "3,00 %",
    "accruedInterest": "1,6027",
    "settleDate": "2023.05.10",
    "askEhmYield": "7,14",
    "bidYield": "7,97",
    "rawName": "2038/A",
    "bidPrice": "56,6601",
    "coupon_val": 3,
    "maturityInDays": "5649 nap",
    "securityType": "KTV",
    "maturityDate": "2038.10.27",
    "name": "2038/A",
    "bidEhmYield": "7,96",
    "askYield": "7,15",
    "currency": "HUF",
    "maturityInDays_val": 5649,
    "issueDate": "2018.02.07",
    "longName": "A381027A18"
}