{
    "askPrice": "69,1568",
    "green": 0,
    "coupon": "3,00 %",
    "accruedInterest": "0,3443",
    "settleDate": "2023.12.08",
    "askEhmYield": "6,24",
    "bidYield": "6,90",
    "rawName": "2038/A",
    "bidPrice": "64,4033",
    "coupon_val": 3,
    "maturityInDays": "5437 nap",
    "securityType": "KTV",
    "maturityDate": "2038.10.27",
    "name": "2038/A",
    "bidEhmYield": "6,89",
    "askYield": "6,24",
    "currency": "HUF",
    "maturityInDays_val": 5437,
    "issueDate": "2018.02.07",
    "longName": "A381027A18"
}