{
    "askPrice": "56,2902",
    "green": 0,
    "coupon": "3,00 %",
    "accruedInterest": "0,9534",
    "settleDate": "2023.02.20",
    "askEhmYield": "7,97",
    "bidYield": "8,74",
    "rawName": "2038/A",
    "bidPrice": "51,9475",
    "coupon_val": 3,
    "maturityInDays": "5728 nap",
    "securityType": "KTV",
    "maturityDate": "2038.10.27",
    "name": "2038/A",
    "bidEhmYield": "8,73",
    "askYield": "7,98",
    "currency": "HUF",
    "maturityInDays_val": 5728,
    "issueDate": "2018.02.07",
    "longName": "A381027A18"
}