{
    "askPrice": "62,6317",
    "green": 0,
    "coupon": "3,00 %",
    "accruedInterest": "0,8384",
    "settleDate": "2023.02.06",
    "askEhmYield": "6,98",
    "bidYield": "7,82",
    "rawName": "2038/A",
    "bidPrice": "57,2113",
    "coupon_val": 3,
    "maturityInDays": "5742 nap",
    "securityType": "KTV",
    "maturityDate": "2038.10.27",
    "name": "2038/A",
    "bidEhmYield": "7,81",
    "askYield": "6,99",
    "currency": "HUF",
    "maturityInDays_val": 5742,
    "issueDate": "2018.02.07",
    "longName": "A381027A18"
}