{
    "askPrice": "60,2997",
    "green": 0,
    "coupon": "3,00 %",
    "accruedInterest": "0,6082",
    "settleDate": "2023.01.09",
    "askEhmYield": "7,31",
    "bidYield": "8,10",
    "rawName": "2038/A",
    "bidPrice": "55,4147",
    "coupon_val": 3,
    "maturityInDays": "5770 nap",
    "securityType": "KTV",
    "maturityDate": "2038.10.27",
    "name": "2038/A",
    "bidEhmYield": "8,09",
    "askYield": "7,32",
    "currency": "HUF",
    "maturityInDays_val": 5770,
    "issueDate": "2018.02.07",
    "longName": "A381027A18"
}