{
    "askPrice": "63,1087",
    "green": 0,
    "coupon": "3,00 %",
    "accruedInterest": "2,4822",
    "settleDate": "2023.08.25",
    "askEhmYield": "7,02",
    "bidYield": "7,75",
    "rawName": "2038/A",
    "bidPrice": "58,4422",
    "coupon_val": 3,
    "maturityInDays": "5542 nap",
    "securityType": "KTV",
    "maturityDate": "2038.10.27",
    "name": "2038/A",
    "bidEhmYield": "7,74",
    "askYield": "7,03",
    "currency": "HUF",
    "maturityInDays_val": 5542,
    "issueDate": "2018.02.07",
    "longName": "A381027A18"
}