{
    "askPrice": "57,8953",
    "green": 0,
    "coupon": "3,00 %",
    "accruedInterest": "0,9781",
    "settleDate": "2023.02.23",
    "askEhmYield": "7,71",
    "bidYield": "8,53",
    "rawName": "2038/A",
    "bidPrice": "53,1140",
    "coupon_val": 3,
    "maturityInDays": "5725 nap",
    "securityType": "KTV",
    "maturityDate": "2038.10.27",
    "name": "2038/A",
    "bidEhmYield": "8,52",
    "askYield": "7,72",
    "currency": "HUF",
    "maturityInDays_val": 5725,
    "issueDate": "2018.02.07",
    "longName": "A381027A18"
}