{
    "askPrice": "67,6844",
    "green": 0,
    "coupon": "3,00 %",
    "accruedInterest": "1,8493",
    "settleDate": "2023.06.09",
    "askEhmYield": "6,35",
    "bidYield": "7,15",
    "rawName": "2038/A",
    "bidPrice": "61,9946",
    "coupon_val": 3,
    "maturityInDays": "5619 nap",
    "securityType": "KTV",
    "maturityDate": "2038.10.27",
    "name": "2038/A",
    "bidEhmYield": "7,14",
    "askYield": "6,35",
    "currency": "HUF",
    "maturityInDays_val": 5619,
    "issueDate": "2018.02.07",
    "longName": "A381027A18"
}