{
    "askPrice": "63,8649",
    "green": 0,
    "coupon": "3,00 %",
    "accruedInterest": "2,9096",
    "settleDate": "2023.10.16",
    "askEhmYield": "6,94",
    "bidYield": "7,60",
    "rawName": "2038/A",
    "bidPrice": "59,5985",
    "coupon_val": 3,
    "maturityInDays": "5490 nap",
    "securityType": "KTV",
    "maturityDate": "2038.10.27",
    "name": "2038/A",
    "bidEhmYield": "7,59",
    "askYield": "6,95",
    "currency": "HUF",
    "maturityInDays_val": 5490,
    "issueDate": "2018.02.07",
    "longName": "A381027A18"
}