{
    "askPrice": "62,2039",
    "green": 0,
    "coupon": "3,00 %",
    "accruedInterest": "2,8274",
    "settleDate": "2023.10.06",
    "askEhmYield": "7,18",
    "bidYield": "7,87",
    "rawName": "2038/A",
    "bidPrice": "57,8898",
    "coupon_val": 3,
    "maturityInDays": "5500 nap",
    "securityType": "KTV",
    "maturityDate": "2038.10.27",
    "name": "2038/A",
    "bidEhmYield": "7,86",
    "askYield": "7,19",
    "currency": "HUF",
    "maturityInDays_val": 5500,
    "issueDate": "2018.02.07",
    "longName": "A381027A18"
}