{
    "askPrice": "64,6253",
    "green": 0,
    "coupon": "3,00 %",
    "accruedInterest": "2,6219",
    "settleDate": "2023.09.11",
    "askEhmYield": "6,81",
    "bidYield": "7,45",
    "rawName": "2038/A",
    "bidPrice": "60,4018",
    "coupon_val": 3,
    "maturityInDays": "5525 nap",
    "securityType": "KTV",
    "maturityDate": "2038.10.27",
    "name": "2038/A",
    "bidEhmYield": "7,44",
    "askYield": "6,82",
    "currency": "HUF",
    "maturityInDays_val": 5525,
    "issueDate": "2018.02.07",
    "longName": "A381027A18"
}