{
    "askPrice": "65,8637",
    "green": 0,
    "coupon": "3,00 %",
    "accruedInterest": "0,1639",
    "settleDate": "2023.11.16",
    "askEhmYield": "6,67",
    "bidYield": "7,34",
    "rawName": "2038/A",
    "bidPrice": "61,3805",
    "coupon_val": 3,
    "maturityInDays": "5459 nap",
    "securityType": "KTV",
    "maturityDate": "2038.10.27",
    "name": "2038/A",
    "bidEhmYield": "7,33",
    "askYield": "6,68",
    "currency": "HUF",
    "maturityInDays_val": 5459,
    "issueDate": "2018.02.07",
    "longName": "A381027A18"
}