{
    "askPrice": "58,1027",
    "green": 0,
    "coupon": "3,00 %",
    "accruedInterest": "1,4219",
    "settleDate": "2023.04.18",
    "askEhmYield": "7,71",
    "bidYield": "8,50",
    "rawName": "2038/A",
    "bidPrice": "53,4967",
    "coupon_val": 3,
    "maturityInDays": "5671 nap",
    "securityType": "KTV",
    "maturityDate": "2038.10.27",
    "name": "2038/A",
    "bidEhmYield": "8,49",
    "askYield": "7,72",
    "currency": "HUF",
    "maturityInDays_val": 5671,
    "issueDate": "2018.02.07",
    "longName": "A381027A18"
}