{
    "askPrice": "59,6714",
    "green": 0,
    "coupon": "3,00 %",
    "accruedInterest": "1,2493",
    "settleDate": "2023.03.28",
    "askEhmYield": "7,45",
    "bidYield": "8,29",
    "rawName": "2038/A",
    "bidPrice": "54,6048",
    "coupon_val": 3,
    "maturityInDays": "5692 nap",
    "securityType": "KTV",
    "maturityDate": "2038.10.27",
    "name": "2038/A",
    "bidEhmYield": "8,28",
    "askYield": "7,46",
    "currency": "HUF",
    "maturityInDays_val": 5692,
    "issueDate": "2018.02.07",
    "longName": "A381027A18"
}