{
    "askPrice": "65,6011",
    "green": 0,
    "coupon": "3,00 %",
    "accruedInterest": "1,4590",
    "settleDate": "2024.04.22",
    "askEhmYield": "6,79",
    "bidYield": "7,47",
    "rawName": "2038/A",
    "bidPrice": "61,1663",
    "coupon_val": 3,
    "maturityInDays": "5301 nap",
    "securityType": "KTV",
    "maturityDate": "2038.10.27",
    "name": "2038/A",
    "bidEhmYield": "7,46",
    "askYield": "6,80",
    "currency": "HUF",
    "maturityInDays_val": 5301,
    "issueDate": "2018.02.07",
    "longName": "A381027A18"
}