{
    "askPrice": "70,2521",
    "green": 0,
    "coupon": "3,00 %",
    "accruedInterest": "1,1721",
    "settleDate": "2024.03.18",
    "askEhmYield": "6,14",
    "bidYield": "6,80",
    "rawName": "2038/A",
    "bidPrice": "65,4674",
    "coupon_val": 3,
    "maturityInDays": "5336 nap",
    "securityType": "KTV",
    "maturityDate": "2038.10.27",
    "name": "2038/A",
    "bidEhmYield": "6,79",
    "askYield": "6,14",
    "currency": "HUF",
    "maturityInDays_val": 5336,
    "issueDate": "2018.02.07",
    "longName": "A381027A18"
}