{
    "askPrice": "73,9706",
    "green": 0,
    "coupon": "3,00 %",
    "accruedInterest": "0,6311",
    "settleDate": "2024.01.12",
    "askEhmYield": "5,64",
    "bidYield": "6,32",
    "rawName": "2038/A",
    "bidPrice": "68,6756",
    "coupon_val": 3,
    "maturityInDays": "5402 nap",
    "securityType": "KTV",
    "maturityDate": "2038.10.27",
    "name": "2038/A",
    "bidEhmYield": "6,32",
    "askYield": "5,64",
    "currency": "HUF",
    "maturityInDays_val": 5402,
    "issueDate": "2018.02.07",
    "longName": "A381027A18"
}