{
    "askPrice": "69,0142",
    "green": 0,
    "coupon": "3,00 %",
    "accruedInterest": "1,2541",
    "settleDate": "2024.03.28",
    "askEhmYield": "6,31",
    "bidYield": "6,97",
    "rawName": "2038/A",
    "bidPrice": "64,3407",
    "coupon_val": 3,
    "maturityInDays": "5326 nap",
    "securityType": "KTV",
    "maturityDate": "2038.10.27",
    "name": "2038/A",
    "bidEhmYield": "6,96",
    "askYield": "6,31",
    "currency": "HUF",
    "maturityInDays_val": 5326,
    "issueDate": "2018.02.07",
    "longName": "A381027A18"
}