{
    "askPrice": "71,0804",
    "green": 0,
    "coupon": "3,00 %",
    "accruedInterest": "0,5656",
    "settleDate": "2024.01.04",
    "askEhmYield": "6,00",
    "bidYield": "6,67",
    "rawName": "2038/A",
    "bidPrice": "66,1071",
    "coupon_val": 3,
    "maturityInDays": "5410 nap",
    "securityType": "KTV",
    "maturityDate": "2038.10.27",
    "name": "2038/A",
    "bidEhmYield": "6,66",
    "askYield": "6,00",
    "currency": "HUF",
    "maturityInDays_val": 5410,
    "issueDate": "2018.02.07",
    "longName": "A381027A18"
}