{
    "askPrice": "65,3824",
    "green": 0,
    "coupon": "3,00 %",
    "accruedInterest": "1,4344",
    "settleDate": "2024.04.19",
    "askEhmYield": "6,82",
    "bidYield": "7,49",
    "rawName": "2038/A",
    "bidPrice": "61,0275",
    "coupon_val": 3,
    "maturityInDays": "5304 nap",
    "securityType": "KTV",
    "maturityDate": "2038.10.27",
    "name": "2038/A",
    "bidEhmYield": "7,48",
    "askYield": "6,83",
    "currency": "HUF",
    "maturityInDays_val": 5304,
    "issueDate": "2018.02.07",
    "longName": "A381027A18"
}