{
    "askPrice": "68,6169",
    "green": 0,
    "coupon": "3,00 %",
    "accruedInterest": "1,1885",
    "settleDate": "2024.03.20",
    "askEhmYield": "6,36",
    "bidYield": "7,02",
    "rawName": "2038/A",
    "bidPrice": "63,9720",
    "coupon_val": 3,
    "maturityInDays": "5334 nap",
    "securityType": "KTV",
    "maturityDate": "2038.10.27",
    "name": "2038/A",
    "bidEhmYield": "7,01",
    "askYield": "6,36",
    "currency": "HUF",
    "maturityInDays_val": 5334,
    "issueDate": "2018.02.07",
    "longName": "A381027A18"
}