{
    "askPrice": "70,6511",
    "green": 0,
    "coupon": "3,00 %",
    "accruedInterest": "1,0328",
    "settleDate": "2024.03.01",
    "askEhmYield": "6,08",
    "bidYield": "6,75",
    "rawName": "2038/A",
    "bidPrice": "65,7516",
    "coupon_val": 3,
    "maturityInDays": "5353 nap",
    "securityType": "KTV",
    "maturityDate": "2038.10.27",
    "name": "2038/A",
    "bidEhmYield": "6,74",
    "askYield": "6,08",
    "currency": "HUF",
    "maturityInDays_val": 5353,
    "issueDate": "2018.02.07",
    "longName": "A381027A18"
}