{
    "askPrice": "66,4703",
    "green": 0,
    "coupon": "3,00 %",
    "accruedInterest": "1,3770",
    "settleDate": "2024.04.12",
    "askEhmYield": "6,66",
    "bidYield": "7,34",
    "rawName": "2038/A",
    "bidPrice": "61,9557",
    "coupon_val": 3,
    "maturityInDays": "5311 nap",
    "securityType": "KTV",
    "maturityDate": "2038.10.27",
    "name": "2038/A",
    "bidEhmYield": "7,33",
    "askYield": "6,67",
    "currency": "HUF",
    "maturityInDays_val": 5311,
    "issueDate": "2018.02.07",
    "longName": "A381027A18"
}