{
    "askPrice": "71,8427",
    "green": 0,
    "coupon": "3,00 %",
    "accruedInterest": "0,9180",
    "settleDate": "2024.02.16",
    "askEhmYield": "5,92",
    "bidYield": "6,59",
    "rawName": "2038/A",
    "bidPrice": "66,8310",
    "coupon_val": 3,
    "maturityInDays": "5367 nap",
    "securityType": "KTV",
    "maturityDate": "2038.10.27",
    "name": "2038/A",
    "bidEhmYield": "6,58",
    "askYield": "5,92",
    "currency": "HUF",
    "maturityInDays_val": 5367,
    "issueDate": "2018.02.07",
    "longName": "A381027A18"
}