{
    "askPrice": "71,3206",
    "green": 0,
    "coupon": "3,00 %",
    "accruedInterest": "0,9754",
    "settleDate": "2024.02.23",
    "askEhmYield": "5,99",
    "bidYield": "6,65",
    "rawName": "2038/A",
    "bidPrice": "66,4295",
    "coupon_val": 3,
    "maturityInDays": "5360 nap",
    "securityType": "KTV",
    "maturityDate": "2038.10.27",
    "name": "2038/A",
    "bidEhmYield": "6,64",
    "askYield": "5,99",
    "currency": "HUF",
    "maturityInDays_val": 5360,
    "issueDate": "2018.02.07",
    "longName": "A381027A18"
}