{
    "askPrice": "71,6280",
    "green": 0,
    "coupon": "3,00 %",
    "accruedInterest": "0,9672",
    "settleDate": "2024.02.22",
    "askEhmYield": "5,95",
    "bidYield": "6,62",
    "rawName": "2038/A",
    "bidPrice": "66,6388",
    "coupon_val": 3,
    "maturityInDays": "5361 nap",
    "securityType": "KTV",
    "maturityDate": "2038.10.27",
    "name": "2038/A",
    "bidEhmYield": "6,61",
    "askYield": "5,95",
    "currency": "HUF",
    "maturityInDays_val": 5361,
    "issueDate": "2018.02.07",
    "longName": "A381027A18"
}