{
    "askPrice": "75,2985",
    "green": 0,
    "coupon": "3,00 %",
    "accruedInterest": "0,6557",
    "settleDate": "2024.01.15",
    "askEhmYield": "5,48",
    "bidYield": "6,10",
    "rawName": "2038/A",
    "bidPrice": "70,3450",
    "coupon_val": 3,
    "maturityInDays": "5399 nap",
    "securityType": "KTV",
    "maturityDate": "2038.10.27",
    "name": "2038/A",
    "bidEhmYield": "6,10",
    "askYield": "5,48",
    "currency": "HUF",
    "maturityInDays_val": 5399,
    "issueDate": "2018.02.07",
    "longName": "A381027A18"
}