{
    "askPrice": "94,9102",
    "green": 0,
    "coupon": 0,
    "accruedInterest": 0,
    "settleDate": "2023.07.12",
    "askEhmYield": "9,99",
    "bidYield": "10,60",
    "rawName": "D240124",
    "bidPrice": "94,5438",
    "maturityInDays": "196 nap",
    "securityType": "DKJ",
    "maturityDate": "2024.01.24",
    "name": "D240124",
    "bidEhmYield": "10,75",
    "askYield": "9,85",
    "currency": "HUF",
    "maturityInDays_val": 196,
    "issueDate": "2023.06.21",
    "longName": "D240124"
}