{
    "askPrice": "98,4209",
    "green": 0,
    "coupon": 0,
    "accruedInterest": 0,
    "settleDate": "2023.11.09",
    "askEhmYield": "7,71",
    "bidYield": "8,95",
    "rawName": "D240124",
    "bidPrice": "98,1456",
    "maturityInDays": "76 nap",
    "securityType": "DKJ",
    "maturityDate": "2024.01.24",
    "name": "D240124",
    "bidEhmYield": "9,07",
    "askYield": "7,60",
    "currency": "HUF",
    "maturityInDays_val": 76,
    "issueDate": "2023.06.21",
    "longName": "D240124"
}