{
    "askPrice": "95,5825",
    "green": 0,
    "coupon": 0,
    "accruedInterest": 0,
    "settleDate": "2023.07.31",
    "askEhmYield": "9,53",
    "bidYield": "10,17",
    "rawName": "D240124",
    "bidPrice": "95,2379",
    "maturityInDays": "177 nap",
    "securityType": "DKJ",
    "maturityDate": "2024.01.24",
    "name": "D240124",
    "bidEhmYield": "10,31",
    "askYield": "9,40",
    "currency": "HUF",
    "maturityInDays_val": 177,
    "issueDate": "2023.06.21",
    "longName": "D240124"
}