{
    "askPrice": "93,2314",
    "green": 0,
    "coupon": 0,
    "accruedInterest": 0,
    "settleDate": "2023.06.22",
    "askEhmYield": "12,27",
    "bidYield": "12,75",
    "rawName": "D240124",
    "bidPrice": "92,8936",
    "maturityInDays": "216 nap",
    "securityType": "DKJ",
    "maturityDate": "2024.01.24",
    "name": "D240124",
    "bidEhmYield": "12,93",
    "askYield": "12,10",
    "currency": "HUF",
    "maturityInDays_val": 216,
    "issueDate": "2023.06.21",
    "longName": "D240124"
}