{
    "askPrice": "98,4834",
    "green": 0,
    "coupon": 0,
    "accruedInterest": 0,
    "settleDate": "2023.11.13",
    "askEhmYield": "7,81",
    "bidYield": "8,83",
    "rawName": "D240124",
    "bidPrice": "98,2646",
    "maturityInDays": "72 nap",
    "securityType": "DKJ",
    "maturityDate": "2024.01.24",
    "name": "D240124",
    "bidEhmYield": "8,95",
    "askYield": "7,70",
    "currency": "HUF",
    "maturityInDays_val": 72,
    "issueDate": "2023.06.21",
    "longName": "D240124"
}