{
    "askPrice": "99,0250",
    "green": 0,
    "coupon": 0,
    "accruedInterest": 0,
    "settleDate": "2023.12.04",
    "askEhmYield": "7,05",
    "bidYield": "8,34",
    "rawName": "D240124",
    "bidPrice": "98,8323",
    "maturityInDays": "51 nap",
    "securityType": "DKJ",
    "maturityDate": "2024.01.24",
    "name": "D240124",
    "bidEhmYield": "8,46",
    "askYield": "6,95",
    "currency": "HUF",
    "maturityInDays_val": 51,
    "issueDate": "2023.06.21",
    "longName": "D240124"
}