{
    "askPrice": "95,7249",
    "green": 0,
    "coupon": 0,
    "accruedInterest": 0,
    "settleDate": "2023.08.09",
    "askEhmYield": "9,70",
    "bidYield": "10,28",
    "rawName": "D240124",
    "bidPrice": "95,4223",
    "maturityInDays": "168 nap",
    "securityType": "DKJ",
    "maturityDate": "2024.01.24",
    "name": "D240124",
    "bidEhmYield": "10,42",
    "askYield": "9,57",
    "currency": "HUF",
    "maturityInDays_val": 168,
    "issueDate": "2023.06.21",
    "longName": "D240124"
}