{
    "askPrice": "96,7071",
    "green": 0,
    "coupon": 0,
    "accruedInterest": 0,
    "settleDate": "2023.09.11",
    "askEhmYield": "9,21",
    "bidYield": "9,85",
    "rawName": "D240124",
    "bidPrice": "96,4378",
    "maturityInDays": "135 nap",
    "securityType": "DKJ",
    "maturityDate": "2024.01.24",
    "name": "D240124",
    "bidEhmYield": "9,99",
    "askYield": "9,08",
    "currency": "HUF",
    "maturityInDays_val": 135,
    "issueDate": "2023.06.21",
    "longName": "D240124"
}