{
    "askPrice": "98,6551",
    "green": 0,
    "coupon": 0,
    "accruedInterest": 0,
    "settleDate": "2023.11.20",
    "askEhmYield": "7,66",
    "bidYield": "8,80",
    "rawName": "D240124",
    "bidPrice": "98,4360",
    "maturityInDays": "65 nap",
    "securityType": "DKJ",
    "maturityDate": "2024.01.24",
    "name": "D240124",
    "bidEhmYield": "8,92",
    "askYield": "7,55",
    "currency": "HUF",
    "maturityInDays_val": 65,
    "issueDate": "2023.06.21",
    "longName": "D240124"
}