{
    "askPrice": "98,3908",
    "green": 0,
    "coupon": 0,
    "accruedInterest": 0,
    "settleDate": "2023.10.24",
    "askEhmYield": "6,49",
    "bidYield": "7,75",
    "rawName": "D240124",
    "bidPrice": "98,0579",
    "maturityInDays": "92 nap",
    "securityType": "DKJ",
    "maturityDate": "2024.01.24",
    "name": "D240124",
    "bidEhmYield": "7,86",
    "askYield": "6,40",
    "currency": "HUF",
    "maturityInDays_val": 92,
    "issueDate": "2023.06.21",
    "longName": "D240124"
}