{
    "askPrice": "98,7216",
    "green": 0,
    "coupon": 0,
    "accruedInterest": 0,
    "settleDate": "2023.01.17",
    "askEhmYield": "13,13",
    "bidYield": "13,80",
    "rawName": "D230222",
    "bidPrice": "98,6388",
    "maturityInDays": "36 nap",
    "securityType": "DKJ",
    "maturityDate": "2023.02.22",
    "name": "D230222",
    "bidEhmYield": "13,99",
    "askYield": "12,95",
    "currency": "HUF",
    "maturityInDays_val": 36,
    "issueDate": "2022.02.23",
    "longName": "D230222"
}