{
    "askPrice": "",
    "green": 0,
    "coupon": 0,
    "accruedInterest": 0,
    "settleDate": "2023.02.09",
    "askEhmYield": "",
    "bidYield": "14,70",
    "rawName": "D230222",
    "bidPrice": "99,4720",
    "maturityInDays": "13 nap",
    "securityType": "DKJ",
    "maturityDate": "2023.02.22",
    "name": "D230222",
    "bidEhmYield": "14,90",
    "askYield": "",
    "currency": "HUF",
    "maturityInDays_val": 13,
    "issueDate": "2022.02.23",
    "longName": "D230222"
}