{
    "askPrice": "98,7557",
    "green": 0,
    "coupon": 0,
    "accruedInterest": 0,
    "settleDate": "2023.01.18",
    "askEhmYield": "13,14",
    "bidYield": "13,85",
    "rawName": "D230222",
    "bidPrice": "98,6714",
    "maturityInDays": "35 nap",
    "securityType": "DKJ",
    "maturityDate": "2023.02.22",
    "name": "D230222",
    "bidEhmYield": "14,04",
    "askYield": "12,96",
    "currency": "HUF",
    "maturityInDays_val": 35,
    "issueDate": "2022.02.23",
    "longName": "D230222"
}