{
    "askPrice": "",
    "green": 0,
    "coupon": "3,50 %",
    "accruedInterest": "3,99",
    "settleDate": "2022.07.25",
    "askEhmYield": "",
    "bidYield": "",
    "rawName": "N2024/18",
    "bidPrice": "99,50",
    "coupon_val": 3.5,
    "maturityInDays": "805 nap",
    "securityType": "MÁP Plusz",
    "maturityDate": "2024.10.07",
    "name": "N2024/18",
    "bidEhmYield": "",
    "askYield": "",
    "currency": "HUF",
    "maturityInDays_val": 805,
    "longName": "N241007"
}