{
    "askPrice": "",
    "green": 0,
    "coupon": "3,50 %",
    "accruedInterest": "0,32",
    "settleDate": "2022.10.28",
    "askEhmYield": "",
    "bidYield": "6,03",
    "rawName": "N2024/18",
    "bidPrice": "99,50",
    "coupon_val": 3.5,
    "maturityInDays": "710 nap",
    "securityType": "MÁP Plusz",
    "maturityDate": "2024.10.07",
    "name": "N2024/18",
    "bidEhmYield": "",
    "askYield": "",
    "currency": "HUF",
    "maturityInDays_val": 710,
    "longName": "N241007"
}