{
    "askPrice": "",
    "green": 0,
    "coupon": "3,50 %",
    "accruedInterest": "0,7082",
    "settleDate": "2022.11.23",
    "askEhmYield": "",
    "bidYield": "6,04",
    "rawName": "N2024/18",
    "bidPrice": "99,5000",
    "coupon_val": 3.5,
    "maturityInDays": "684 nap",
    "securityType": "MÁP Plusz",
    "maturityDate": "2024.10.07",
    "name": "N2024/18",
    "bidEhmYield": "",
    "askYield": "",
    "currency": "HUF",
    "maturityInDays_val": 684,
    "issueDate": "2019.10.07",
    "longName": "N241007"
}