{
    "askPrice": "",
    "green": 0,
    "coupon": "3,50 %",
    "accruedInterest": "0,47",
    "settleDate": "2022.11.07",
    "askEhmYield": "",
    "bidYield": "6,03",
    "rawName": "N2024/18",
    "bidPrice": "99,50",
    "coupon_val": 3.5,
    "maturityInDays": "700 nap",
    "securityType": "MÁP Plusz",
    "maturityDate": "2024.10.07",
    "name": "N2024/18",
    "bidEhmYield": "",
    "askYield": "",
    "currency": "HUF",
    "maturityInDays_val": 700,
    "issueDate": "2019-10-07",
    "longName": "N241007"
}