{
    "askPrice": "",
    "green": 0,
    "coupon": "3,50 %",
    "accruedInterest": "2,8027",
    "settleDate": "2023.04.11",
    "askEhmYield": "",
    "bidYield": "6,16",
    "rawName": "N2024/18",
    "bidPrice": "99,5000",
    "coupon_val": 3.5,
    "maturityInDays": "545 nap",
    "securityType": "MÁP Plusz",
    "maturityDate": "2024.10.07",
    "name": "N2024/18",
    "bidEhmYield": "",
    "askYield": "",
    "currency": "HUF",
    "maturityInDays_val": 545,
    "issueDate": "2019.10.07",
    "longName": "N241007"
}