{
    "askPrice": "",
    "green": 0,
    "coupon": "3,50 %",
    "accruedInterest": "3,2459",
    "settleDate": "2024.04.22",
    "askEhmYield": "",
    "bidYield": "7,03",
    "rawName": "N2024/18",
    "bidPrice": "99,5000",
    "coupon_val": 3.5,
    "maturityInDays": "168 nap",
    "securityType": "MÁP Plusz",
    "maturityDate": "2024.10.07",
    "name": "N2024/18",
    "bidEhmYield": "",
    "askYield": "",
    "currency": "HUF",
    "maturityInDays_val": 168,
    "issueDate": "2019.10.07",
    "longName": "N241007"
}