{
    "askPrice": "",
    "green": 0,
    "coupon": "3,50 %",
    "accruedInterest": "1,6827",
    "settleDate": "2024.05.13",
    "askEhmYield": "",
    "bidYield": "5,19",
    "rawName": "N2028/47",
    "bidPrice": "99,5000",
    "coupon_val": 3.5,
    "maturityInDays": "1652 nap",
    "securityType": "MÁP Plusz",
    "maturityDate": "2028.11.20",
    "name": "N2028/47",
    "bidEhmYield": "",
    "askYield": "",
    "currency": "HUF",
    "maturityInDays_val": 1652,
    "issueDate": "2023.11.20",
    "longName": "N281120"
}