{
    "askPrice": "",
    "green": 0,
    "coupon": "3,50 %",
    "accruedInterest": "0,4808",
    "settleDate": "2024.01.09",
    "askEhmYield": "",
    "bidYield": "5,06",
    "rawName": "N2028/47",
    "bidPrice": "99,5000",
    "coupon_val": 3.5,
    "maturityInDays": "1777 nap",
    "securityType": "MÁP Plusz",
    "maturityDate": "2028.11.20",
    "name": "N2028/47",
    "bidEhmYield": "",
    "askYield": "",
    "currency": "HUF",
    "maturityInDays_val": 1777,
    "issueDate": "2023.11.20",
    "longName": "N281120"
}