{
    "askPrice": "",
    "green": 0,
    "coupon": "3,50 %",
    "accruedInterest": "0,8750",
    "settleDate": "2024.05.13",
    "askEhmYield": "",
    "bidYield": "5,10",
    "rawName": "N2029/07",
    "bidPrice": "99,5000",
    "coupon_val": 3.5,
    "maturityInDays": "1736 nap",
    "securityType": "MÁP Plusz",
    "maturityDate": "2029.02.12",
    "name": "N2029/07",
    "bidEhmYield": "",
    "askYield": "",
    "currency": "HUF",
    "maturityInDays_val": 1736,
    "issueDate": "2024.02.12",
    "longName": "N290212"
}