{
    "askPrice": "",
    "green": 0,
    "coupon": "3,50 %",
    "accruedInterest": "0,3060",
    "settleDate": "2023.12.01",
    "askEhmYield": "",
    "bidYield": "5,05",
    "rawName": "N2028/44",
    "bidPrice": "99,5000",
    "coupon_val": 3.5,
    "maturityInDays": "1795 nap",
    "securityType": "MÁP Plusz",
    "maturityDate": "2028.10.30",
    "name": "N2028/44",
    "bidEhmYield": "",
    "askYield": "",
    "currency": "HUF",
    "maturityInDays_val": 1795,
    "issueDate": "2023.10.30",
    "longName": "N281030"
}