{
    "askPrice": "",
    "green": 0,
    "coupon": "3,50 %",
    "accruedInterest": "1,6735",
    "settleDate": "2024.04.22",
    "askEhmYield": "",
    "bidYield": "5,19",
    "rawName": "N2028/44",
    "bidPrice": "99,5000",
    "coupon_val": 3.5,
    "maturityInDays": "1652 nap",
    "securityType": "MÁP Plusz",
    "maturityDate": "2028.10.30",
    "name": "N2028/44",
    "bidEhmYield": "",
    "askYield": "",
    "currency": "HUF",
    "maturityInDays_val": 1652,
    "issueDate": "2023.10.30",
    "longName": "N281030"
}