{
    "askPrice": "",
    "green": 0,
    "coupon": "3,50 %",
    "accruedInterest": "0,0765",
    "settleDate": "2024.05.07",
    "askEhmYield": "",
    "bidYield": "5,08",
    "rawName": "N2028/44",
    "bidPrice": "100,0000",
    "coupon_val": 3.5,
    "maturityInDays": "1637 nap",
    "securityType": "MÁP Plusz",
    "maturityDate": "2028.10.30",
    "name": "N2028/44",
    "bidEhmYield": "",
    "askYield": "",
    "currency": "HUF",
    "maturityInDays_val": 1637,
    "issueDate": "2023.10.30",
    "longName": "N281030"
}