{
    "askPrice": "",
    "green": 0,
    "coupon": "3,50 %",
    "accruedInterest": "1,0710",
    "settleDate": "2024.02.19",
    "askEhmYield": "",
    "bidYield": "5,12",
    "rawName": "N2028/44",
    "bidPrice": "99,5000",
    "coupon_val": 3.5,
    "maturityInDays": "1715 nap",
    "securityType": "MÁP Plusz",
    "maturityDate": "2028.10.30",
    "name": "N2028/44",
    "bidEhmYield": "",
    "askYield": "",
    "currency": "HUF",
    "maturityInDays_val": 1715,
    "issueDate": "2023.10.30",
    "longName": "N281030"
}