{
    "askPrice": "",
    "green": 0,
    "coupon": "3,50 %",
    "accruedInterest": "2,79",
    "settleDate": "2022.10.20",
    "askEhmYield": "",
    "bidYield": "5,81",
    "rawName": "N2025/13",
    "bidPrice": "99,50",
    "coupon_val": 3.5,
    "maturityInDays": "892 nap",
    "securityType": "MÁP Plusz",
    "maturityDate": "2025.03.30",
    "name": "N2025/13",
    "bidEhmYield": "",
    "askYield": "",
    "currency": "HUF",
    "maturityInDays_val": 892,
    "longName": "N250330"
}