{
    "askPrice": "",
    "green": 0,
    "coupon": "3,50 %",
    "accruedInterest": "3,14",
    "settleDate": "2022.11.14",
    "askEhmYield": "",
    "bidYield": "5,84",
    "rawName": "N2025/13",
    "bidPrice": "99,50",
    "coupon_val": 3.5,
    "maturityInDays": "867 nap",
    "securityType": "MÁP Plusz",
    "maturityDate": "2025.03.30",
    "name": "N2025/13",
    "bidEhmYield": "",
    "askYield": "",
    "currency": "HUF",
    "maturityInDays_val": 867,
    "issueDate": "2020-03-30",
    "longName": "N250330"
}