{
    "askPrice": "",
    "green": 0,
    "coupon": "3,50 %",
    "accruedInterest": "2,56",
    "settleDate": "2022.10.03",
    "askEhmYield": "",
    "bidYield": "",
    "rawName": "N2025/13",
    "bidPrice": "99,50",
    "coupon_val": 3.5,
    "maturityInDays": "909 nap",
    "securityType": "MÁP Plusz",
    "maturityDate": "2025.03.30",
    "name": "N2025/13",
    "bidEhmYield": "",
    "askYield": "",
    "currency": "HUF",
    "maturityInDays_val": 909,
    "longName": "N250330"
}