{
    "askPrice": "",
    "green": 0,
    "coupon": "3,50 %",
    "accruedInterest": "4,0959",
    "settleDate": "2023.01.23",
    "askEhmYield": "",
    "bidYield": "5,92",
    "rawName": "N2025/13",
    "bidPrice": "99,5000",
    "coupon_val": 3.5,
    "maturityInDays": "797 nap",
    "securityType": "MÁP Plusz",
    "maturityDate": "2025.03.30",
    "name": "N2025/13",
    "bidEhmYield": "",
    "askYield": "",
    "currency": "HUF",
    "maturityInDays_val": 797,
    "issueDate": "2020.03.30",
    "longName": "N250330"
}