{
    "askPrice": "",
    "green": 0,
    "coupon": "3,50 %",
    "accruedInterest": "4,6986",
    "settleDate": "2023.03.08",
    "askEhmYield": "",
    "bidYield": "5,98",
    "rawName": "N2025/13",
    "bidPrice": "99,5000",
    "coupon_val": 3.5,
    "maturityInDays": "753 nap",
    "securityType": "MÁP Plusz",
    "maturityDate": "2025.03.30",
    "name": "N2025/13",
    "bidEhmYield": "",
    "askYield": "",
    "currency": "HUF",
    "maturityInDays_val": 753,
    "issueDate": "2020.03.30",
    "longName": "N250330"
}