{
    "askPrice": "",
    "green": 0,
    "coupon": "3,50 %",
    "accruedInterest": "0,0601",
    "settleDate": "2023.04.03",
    "askEhmYield": "",
    "bidYield": "5,74",
    "rawName": "N2025/13",
    "bidPrice": "100,0000",
    "coupon_val": 3.5,
    "maturityInDays": "727 nap",
    "securityType": "MÁP Plusz",
    "maturityDate": "2025.03.30",
    "name": "N2025/13",
    "bidEhmYield": "",
    "askYield": "",
    "currency": "HUF",
    "maturityInDays_val": 727,
    "issueDate": "2020.03.30",
    "longName": "N250330"
}