{
    "askPrice": "",
    "green": 0,
    "coupon": "3,50 %",
    "accruedInterest": "3,5915",
    "settleDate": "2023.11.24",
    "askEhmYield": "",
    "bidYield": "6,24",
    "rawName": "N2025/13",
    "bidPrice": "99,5000",
    "coupon_val": 3.5,
    "maturityInDays": "492 nap",
    "securityType": "MÁP Plusz",
    "maturityDate": "2025.03.30",
    "name": "N2025/13",
    "bidEhmYield": "",
    "askYield": "",
    "currency": "HUF",
    "maturityInDays_val": 492,
    "issueDate": "2020.03.30",
    "longName": "N250330"
}