{
    "askPrice": "",
    "green": 0,
    "coupon": "3,50 %",
    "accruedInterest": "4,6284",
    "settleDate": "2024.02.01",
    "askEhmYield": "",
    "bidYield": "6,37",
    "rawName": "N2025/13",
    "bidPrice": "99,5000",
    "coupon_val": 3.5,
    "maturityInDays": "423 nap",
    "securityType": "MÁP Plusz",
    "maturityDate": "2025.03.30",
    "name": "N2025/13",
    "bidEhmYield": "",
    "askYield": "",
    "currency": "HUF",
    "maturityInDays_val": 423,
    "issueDate": "2020.03.30",
    "longName": "N250330"
}