{
    "askPrice": "",
    "green": 0,
    "coupon": "3,50 %",
    "accruedInterest": "0,3781",
    "settleDate": "2024.04.22",
    "askEhmYield": "",
    "bidYield": "6,55",
    "rawName": "N2025/13",
    "bidPrice": "99,5000",
    "coupon_val": 3.5,
    "maturityInDays": "342 nap",
    "securityType": "MÁP Plusz",
    "maturityDate": "2025.03.30",
    "name": "N2025/13",
    "bidEhmYield": "",
    "askYield": "",
    "currency": "HUF",
    "maturityInDays_val": 342,
    "issueDate": "2020.03.30",
    "longName": "N250330"
}