{
    "askPrice": "",
    "green": 0,
    "coupon": "3,50 %",
    "accruedInterest": "0,30",
    "settleDate": "2022.11.07",
    "askEhmYield": "",
    "bidYield": "5,22",
    "rawName": "N2027/15",
    "bidPrice": "99,50",
    "coupon_val": 3.5,
    "maturityInDays": "1616 nap",
    "securityType": "MÁP Plusz",
    "maturityDate": "2027.04.11",
    "name": "N2027/15",
    "bidEhmYield": "",
    "askYield": "",
    "currency": "HUF",
    "maturityInDays_val": 1616,
    "issueDate": "2022-04-11",
    "longName": "N270411"
}