{
    "askPrice": "",
    "green": 0,
    "coupon": "3,50 %",
    "accruedInterest": "0,14",
    "settleDate": "2022.10.24",
    "askEhmYield": "",
    "bidYield": "5,21",
    "rawName": "N2027/15",
    "bidPrice": "99,50",
    "coupon_val": 3.5,
    "maturityInDays": "1630 nap",
    "securityType": "MÁP Plusz",
    "maturityDate": "2027.04.11",
    "name": "N2027/15",
    "bidEhmYield": "",
    "askYield": "",
    "currency": "HUF",
    "maturityInDays_val": 1630,
    "longName": "N270411"
}