{
    "askPrice": "",
    "green": 0,
    "coupon": "3,50 %",
    "accruedInterest": "0,9121",
    "settleDate": "2023.01.02",
    "askEhmYield": "",
    "bidYield": "5,27",
    "rawName": "N2027/15",
    "bidPrice": "99,5000",
    "coupon_val": 3.5,
    "maturityInDays": "1560 nap",
    "securityType": "MÁP Plusz",
    "maturityDate": "2027.04.11",
    "name": "N2027/15",
    "bidEhmYield": "",
    "askYield": "",
    "currency": "HUF",
    "maturityInDays_val": 1560,
    "issueDate": "2022.04.11",
    "longName": "N270411"
}