{
    "askPrice": "",
    "green": 0,
    "coupon": "3,50 %",
    "accruedInterest": "1,4877",
    "settleDate": "2023.08.10",
    "askEhmYield": "",
    "bidYield": "5,43",
    "rawName": "N2027/15",
    "bidPrice": "99,5000",
    "coupon_val": 3.5,
    "maturityInDays": "1340 nap",
    "securityType": "MÁP Plusz",
    "maturityDate": "2027.04.11",
    "name": "N2027/15",
    "bidEhmYield": "",
    "askYield": "",
    "currency": "HUF",
    "maturityInDays_val": 1340,
    "issueDate": "2022.04.11",
    "longName": "N270411"
}