{
    "askPrice": "",
    "green": 0,
    "coupon": "3,50 %",
    "accruedInterest": "0,2019",
    "settleDate": "2024.02.19",
    "askEhmYield": "",
    "bidYield": "5,04",
    "rawName": "N2029/05",
    "bidPrice": "99,5000",
    "coupon_val": 3.5,
    "maturityInDays": "1806 nap",
    "securityType": "MÁP Plusz",
    "maturityDate": "2029.01.29",
    "name": "N2029/05",
    "bidEhmYield": "",
    "askYield": "",
    "currency": "HUF",
    "maturityInDays_val": 1806,
    "issueDate": "2024.01.29",
    "longName": "N290129"
}