{
    "askPrice": "",
    "green": 0,
    "coupon": "3,50 %",
    "accruedInterest": "0,1530",
    "settleDate": "2023.12.27",
    "askEhmYield": "",
    "bidYield": "5,03",
    "rawName": "N2028/50",
    "bidPrice": "99,5000",
    "coupon_val": 3.5,
    "maturityInDays": "1811 nap",
    "securityType": "MÁP Plusz",
    "maturityDate": "2028.12.11",
    "name": "N2028/50",
    "bidEhmYield": "",
    "askYield": "",
    "currency": "HUF",
    "maturityInDays_val": 1811,
    "issueDate": "2023.12.11",
    "longName": "N281211"
}