{
    "askPrice": "",
    "green": 0,
    "coupon": "3,00 %",
    "accruedInterest": "2,56",
    "settleDate": "2022.11.04",
    "askEhmYield": "",
    "bidYield": "6,42",
    "rawName": "K2022/52",
    "bidPrice": "99,50",
    "coupon_val": 3,
    "maturityInDays": "54 nap",
    "securityType": "1MÁP",
    "maturityDate": "2022.12.28",
    "name": "K2022/52",
    "bidEhmYield": "6,25",
    "askYield": "",
    "currency": "HUF",
    "maturityInDays_val": 54,
    "issueDate": "2021-12-28",
    "longName": "K221228"
}