{
    "askPrice": "",
    "green": 0,
    "coupon": "3,00 %",
    "accruedInterest": "1,69",
    "settleDate": "2022.07.22",
    "askEhmYield": "",
    "bidYield": "",
    "rawName": "K2022/52",
    "bidPrice": "99,50",
    "coupon_val": 3,
    "maturityInDays": "159 nap",
    "securityType": "1MÁP",
    "maturityDate": "2022.12.28",
    "name": "K2022/52",
    "bidEhmYield": "4,10",
    "askYield": "",
    "currency": "HUF",
    "maturityInDays_val": 159,
    "longName": "K221228"
}