{
    "askPrice": "",
    "green": 0,
    "coupon": "3,00 %",
    "accruedInterest": "2,64",
    "settleDate": "2022.11.14",
    "askEhmYield": "",
    "bidYield": "7,22",
    "rawName": "K2022/52",
    "bidPrice": "99,50",
    "coupon_val": 3,
    "maturityInDays": "44 nap",
    "securityType": "1MÁP",
    "maturityDate": "2022.12.28",
    "name": "K2022/52",
    "bidEhmYield": "7,00",
    "askYield": "",
    "currency": "HUF",
    "maturityInDays_val": 44,
    "issueDate": "2021-12-28",
    "longName": "K221228"
}