{
    "askPrice": "",
    "green": 0,
    "coupon": "3,00 %",
    "accruedInterest": "1,44",
    "settleDate": "2022.06.21",
    "askEhmYield": "",
    "bidYield": "",
    "rawName": "K2022/52",
    "bidPrice": "99,50",
    "coupon_val": 3,
    "maturityInDays": "190 nap",
    "securityType": "1MÁP",
    "maturityDate": "2022.12.28",
    "name": "K2022/52",
    "bidEhmYield": "3,92",
    "askYield": "",
    "currency": "HUF",
    "maturityInDays_val": 190,
    "longName": "K221228"
}