{
    "askPrice": "",
    "green": 0,
    "coupon": "3,00 %",
    "accruedInterest": "2,7781",
    "settleDate": "2022.12.01",
    "askEhmYield": "",
    "bidYield": "9,98",
    "rawName": "K2022/52",
    "bidPrice": "99,5000",
    "coupon_val": 3,
    "maturityInDays": "27 nap",
    "securityType": "1MÁP",
    "maturityDate": "2022.12.28",
    "name": "K2022/52",
    "bidEhmYield": "9,54",
    "askYield": "",
    "currency": "HUF",
    "maturityInDays_val": 27,
    "issueDate": "2021.12.28",
    "longName": "K221228"
}