{
    "askPrice": "",
    "green": 0,
    "coupon": "3,00 %",
    "accruedInterest": "2,50",
    "settleDate": "2022.10.28",
    "askEhmYield": "",
    "bidYield": "6,02",
    "rawName": "K2022/52",
    "bidPrice": "99,50",
    "coupon_val": 3,
    "maturityInDays": "61 nap",
    "securityType": "1MÁP",
    "maturityDate": "2022.12.28",
    "name": "K2022/52",
    "bidEhmYield": "5,87",
    "askYield": "",
    "currency": "HUF",
    "maturityInDays_val": 61,
    "longName": "K221228"
}