{
    "askPrice": "",
    "green": 0,
    "coupon": "3,00 %",
    "accruedInterest": "2,8274",
    "settleDate": "2022.12.07",
    "askEhmYield": "",
    "bidYield": "17,93",
    "rawName": "K2022/52",
    "bidPrice": "99,2000",
    "coupon_val": 3,
    "maturityInDays": "21 nap",
    "securityType": "1MÁP",
    "maturityDate": "2022.12.28",
    "name": "K2022/52",
    "bidEhmYield": "16,57",
    "askYield": "",
    "currency": "HUF",
    "maturityInDays_val": 21,
    "issueDate": "2021.12.28",
    "longName": "K221228"
}