{
    "askPrice": "",
    "green": 0,
    "coupon": "3,00 %",
    "accruedInterest": "2,8932",
    "settleDate": "2022.12.15",
    "askEhmYield": "",
    "bidYield": "24,71",
    "rawName": "K2022/52",
    "bidPrice": "99,3000",
    "coupon_val": 3,
    "maturityInDays": "13 nap",
    "securityType": "1MÁP",
    "maturityDate": "2022.12.28",
    "name": "K2022/52",
    "bidEhmYield": "22,17",
    "askYield": "",
    "currency": "HUF",
    "maturityInDays_val": 13,
    "issueDate": "2021.12.28",
    "longName": "K221228"
}