{
    "askPrice": "",
    "green": 0,
    "coupon": "4,75 %",
    "accruedInterest": "0,68",
    "settleDate": "2022.11.11",
    "askEhmYield": "",
    "bidYield": "5,34",
    "rawName": "K2023/38",
    "bidPrice": "99,50",
    "coupon_val": 4.75,
    "maturityInDays": "313 nap",
    "securityType": "1MÁP",
    "maturityDate": "2023.09.20",
    "name": "K2023/38",
    "bidEhmYield": "5,32",
    "askYield": "",
    "currency": "HUF",
    "maturityInDays_val": 313,
    "issueDate": "2022-09-20",
    "longName": "K230920"
}