{
    "askPrice": "",
    "green": 0,
    "coupon": "4,75 %",
    "accruedInterest": "0,01",
    "settleDate": "2022.09.21",
    "askEhmYield": "",
    "bidYield": "",
    "rawName": "K2023/38",
    "bidPrice": "99,50",
    "coupon_val": 4.75,
    "maturityInDays": "364 nap",
    "securityType": "1MÁP",
    "maturityDate": "2023.09.20",
    "name": "K2023/38",
    "bidEhmYield": "5,28",
    "askYield": "",
    "currency": "HUF",
    "maturityInDays_val": 364,
    "longName": "K230920"
}