{
    "askPrice": "",
    "green": 0,
    "coupon": "4,75 %",
    "accruedInterest": "2,5377",
    "settleDate": "2023.04.03",
    "askEhmYield": "",
    "bidYield": "6,92",
    "rawName": "K2023/38",
    "bidPrice": "99,0000",
    "coupon_val": 4.75,
    "maturityInDays": "170 nap",
    "securityType": "1MÁP",
    "maturityDate": "2023.09.20",
    "name": "K2023/38",
    "bidEhmYield": "6,79",
    "askYield": "",
    "currency": "HUF",
    "maturityInDays_val": 170,
    "issueDate": "2022.09.20",
    "longName": "K230920"
}