{
    "askPrice": "",
    "green": 0,
    "coupon": "4,75 %",
    "accruedInterest": "1,9911",
    "settleDate": "2023.02.20",
    "askEhmYield": "",
    "bidYield": "6,49",
    "rawName": "K2023/38",
    "bidPrice": "99,0000",
    "coupon_val": 4.75,
    "maturityInDays": "212 nap",
    "securityType": "1MÁP",
    "maturityDate": "2023.09.20",
    "name": "K2023/38",
    "bidEhmYield": "6,41",
    "askYield": "",
    "currency": "HUF",
    "maturityInDays_val": 212,
    "issueDate": "2022.09.20",
    "longName": "K230920"
}