{
    "askPrice": "",
    "green": 0,
    "coupon": "4,75 %",
    "accruedInterest": "4,4637",
    "settleDate": "2023.08.29",
    "askEhmYield": "",
    "bidYield": "18,88",
    "rawName": "K2023/38",
    "bidPrice": "99,2000",
    "coupon_val": 4.75,
    "maturityInDays": "22 nap",
    "securityType": "1MÁP",
    "maturityDate": "2023.09.20",
    "name": "K2023/38",
    "bidEhmYield": "17,39",
    "askYield": "",
    "currency": "HUF",
    "maturityInDays_val": 22,
    "issueDate": "2022.09.20",
    "longName": "K230920"
}