{
    "askPrice": "",
    "green": 0,
    "coupon": "4,75 %",
    "accruedInterest": "2,6418",
    "settleDate": "2023.04.11",
    "askEhmYield": "",
    "bidYield": "7,02",
    "rawName": "K2023/38",
    "bidPrice": "99,0000",
    "coupon_val": 4.75,
    "maturityInDays": "162 nap",
    "securityType": "1MÁP",
    "maturityDate": "2023.09.20",
    "name": "K2023/38",
    "bidEhmYield": "6,89",
    "askYield": "",
    "currency": "HUF",
    "maturityInDays_val": 162,
    "issueDate": "2022.09.20",
    "longName": "K230920"
}