{
    "askPrice": "",
    "green": 0,
    "coupon": "4,75 %",
    "accruedInterest": "2,1212",
    "settleDate": "2023.03.02",
    "askEhmYield": "",
    "bidYield": "6,58",
    "rawName": "K2023/38",
    "bidPrice": "99,0000",
    "coupon_val": 4.75,
    "maturityInDays": "202 nap",
    "securityType": "1MÁP",
    "maturityDate": "2023.09.20",
    "name": "K2023/38",
    "bidEhmYield": "6,48",
    "askYield": "",
    "currency": "HUF",
    "maturityInDays_val": 202,
    "issueDate": "2022.09.20",
    "longName": "K230920"
}