{
    "askPrice": "",
    "green": 0,
    "coupon": "4,75 %",
    "accruedInterest": "1,7308",
    "settleDate": "2023.01.31",
    "askEhmYield": "",
    "bidYield": "6,35",
    "rawName": "K2023/38",
    "bidPrice": "99,0000",
    "coupon_val": 4.75,
    "maturityInDays": "232 nap",
    "securityType": "1MÁP",
    "maturityDate": "2023.09.20",
    "name": "K2023/38",
    "bidEhmYield": "6,28",
    "askYield": "",
    "currency": "HUF",
    "maturityInDays_val": 232,
    "issueDate": "2022.09.20",
    "longName": "K230920"
}