{
    "askPrice": "",
    "green": 0,
    "coupon": "3,50 %",
    "accruedInterest": "0,3014",
    "settleDate": "2022.12.15",
    "askEhmYield": "",
    "bidYield": "5,68",
    "rawName": "N2025/47",
    "bidPrice": "99,5000",
    "coupon_val": 3.5,
    "maturityInDays": "1074 nap",
    "securityType": "MÁP Plusz",
    "maturityDate": "2025.11.23",
    "name": "N2025/47",
    "bidEhmYield": "",
    "askYield": "",
    "currency": "HUF",
    "maturityInDays_val": 1074,
    "issueDate": "2020.11.23",
    "longName": "N251123"
}