{
    "askPrice": "",
    "green": 0,
    "coupon": "3,50 %",
    "accruedInterest": "4,33",
    "settleDate": "2022.11.09",
    "askEhmYield": "",
    "bidYield": "5,65",
    "rawName": "N2025/47",
    "bidPrice": "99,50",
    "coupon_val": 3.5,
    "maturityInDays": "1110 nap",
    "securityType": "MÁP Plusz",
    "maturityDate": "2025.11.23",
    "name": "N2025/47",
    "bidEhmYield": "",
    "askYield": "",
    "currency": "HUF",
    "maturityInDays_val": 1110,
    "issueDate": "2020-11-23",
    "longName": "N251123"
}