{
    "askPrice": "",
    "green": 0,
    "coupon": "3,50 %",
    "accruedInterest": "1,7945",
    "settleDate": "2023.04.03",
    "askEhmYield": "",
    "bidYield": "5,75",
    "rawName": "N2025/47",
    "bidPrice": "99,5000",
    "coupon_val": 3.5,
    "maturityInDays": "965 nap",
    "securityType": "MÁP Plusz",
    "maturityDate": "2025.11.23",
    "name": "N2025/47",
    "bidEhmYield": "",
    "askYield": "",
    "currency": "HUF",
    "maturityInDays_val": 965,
    "issueDate": "2020.11.23",
    "longName": "N251123"
}