{
    "askPrice": "",
    "green": 0,
    "coupon": "3,50 %",
    "accruedInterest": "1,2740",
    "settleDate": "2023.02.24",
    "askEhmYield": "",
    "bidYield": "5,72",
    "rawName": "N2025/47",
    "bidPrice": "99,5000",
    "coupon_val": 3.5,
    "maturityInDays": "1003 nap",
    "securityType": "MÁP Plusz",
    "maturityDate": "2025.11.23",
    "name": "N2025/47",
    "bidEhmYield": "",
    "askYield": "",
    "currency": "HUF",
    "maturityInDays_val": 1003,
    "issueDate": "2020.11.23",
    "longName": "N251123"
}