{
    "askPrice": "",
    "green": 0,
    "coupon": "3,50 %",
    "accruedInterest": "1,5628",
    "settleDate": "2024.03.06",
    "askEhmYield": "",
    "bidYield": "6,08",
    "rawName": "N2025/47",
    "bidPrice": "99,5000",
    "coupon_val": 3.5,
    "maturityInDays": "627 nap",
    "securityType": "MÁP Plusz",
    "maturityDate": "2025.11.23",
    "name": "N2025/47",
    "bidEhmYield": "",
    "askYield": "",
    "currency": "HUF",
    "maturityInDays_val": 627,
    "issueDate": "2020.11.23",
    "longName": "N251123"
}