{
    "askPrice": "",
    "green": 0,
    "coupon": "9,00 %",
    "accruedInterest": "7,7918",
    "settleDate": "2023.12.27",
    "askEhmYield": "",
    "bidYield": "16,47",
    "rawName": "K2024/07",
    "bidPrice": "99,0000",
    "coupon_val": 9,
    "maturityInDays": "49 nap",
    "securityType": "1MÁP",
    "maturityDate": "2024.02.14",
    "name": "K2024/07",
    "bidEhmYield": "15,40",
    "askYield": "",
    "currency": "HUF",
    "maturityInDays_val": 49,
    "issueDate": "2023.02.14",
    "longName": "K240214"
}