{
    "askPrice": "",
    "green": 0,
    "coupon": "9,00 %",
    "accruedInterest": "6,7562",
    "settleDate": "2023.11.15",
    "askEhmYield": "",
    "bidYield": "12,88",
    "rawName": "K2024/07",
    "bidPrice": "99,0000",
    "coupon_val": 9,
    "maturityInDays": "91 nap",
    "securityType": "1MÁP",
    "maturityDate": "2024.02.14",
    "name": "K2024/07",
    "bidEhmYield": "12,30",
    "askYield": "",
    "currency": "HUF",
    "maturityInDays_val": 91,
    "issueDate": "2023.02.14",
    "longName": "K240214"
}