{
    "askPrice": "",
    "green": 0,
    "coupon": "9,00 %",
    "accruedInterest": "4,9808",
    "settleDate": "2023.09.04",
    "askEhmYield": "",
    "bidYield": "11,13",
    "rawName": "K2024/07",
    "bidPrice": "99,0000",
    "coupon_val": 9,
    "maturityInDays": "163 nap",
    "securityType": "1MÁP",
    "maturityDate": "2024.02.14",
    "name": "K2024/07",
    "bidEhmYield": "10,81",
    "askYield": "",
    "currency": "HUF",
    "maturityInDays_val": 163,
    "issueDate": "2023.02.14",
    "longName": "K240214"
}