{
    "askPrice": "",
    "green": 0,
    "coupon": "9,00 %",
    "accruedInterest": "4,6356",
    "settleDate": "2023.08.21",
    "askEhmYield": "",
    "bidYield": "10,97",
    "rawName": "K2024/07",
    "bidPrice": "99,0000",
    "coupon_val": 9,
    "maturityInDays": "177 nap",
    "securityType": "1MÁP",
    "maturityDate": "2024.02.14",
    "name": "K2024/07",
    "bidEhmYield": "10,67",
    "askYield": "",
    "currency": "HUF",
    "maturityInDays_val": 177,
    "issueDate": "2023.02.14",
    "longName": "K240214"
}