{
    "askPrice": "",
    "green": 0,
    "coupon": "9,00 %",
    "accruedInterest": "6,2137",
    "settleDate": "2023.10.24",
    "askEhmYield": "",
    "bidYield": "12,10",
    "rawName": "K2024/07",
    "bidPrice": "99,0000",
    "coupon_val": 9,
    "maturityInDays": "113 nap",
    "securityType": "1MÁP",
    "maturityDate": "2024.02.14",
    "name": "K2024/07",
    "bidEhmYield": "11,62",
    "askYield": "",
    "currency": "HUF",
    "maturityInDays_val": 113,
    "issueDate": "2023.02.14",
    "longName": "K240214"
}