{
    "askPrice": "",
    "green": 0,
    "coupon": "9,00 %",
    "accruedInterest": "3,3534",
    "settleDate": "2023.06.30",
    "askEhmYield": "",
    "bidYield": "10,55",
    "rawName": "K2024/07",
    "bidPrice": "99,0000",
    "coupon_val": 9,
    "maturityInDays": "229 nap",
    "securityType": "1MÁP",
    "maturityDate": "2024.02.14",
    "name": "K2024/07",
    "bidEhmYield": "10,35",
    "askYield": "",
    "currency": "HUF",
    "maturityInDays_val": 229,
    "issueDate": "2023.02.14",
    "longName": "K240214"
}