{
    "askPrice": "",
    "green": 0,
    "coupon": "9,00 %",
    "accruedInterest": "7,5699",
    "settleDate": "2023.12.18",
    "askEhmYield": "",
    "bidYield": "15,25",
    "rawName": "K2024/07",
    "bidPrice": "99,0000",
    "coupon_val": 9,
    "maturityInDays": "58 nap",
    "securityType": "1MÁP",
    "maturityDate": "2024.02.14",
    "name": "K2024/07",
    "bidEhmYield": "14,35",
    "askYield": "",
    "currency": "HUF",
    "maturityInDays_val": 58,
    "issueDate": "2023.02.14",
    "longName": "K240214"
}