{
    "askPrice": "",
    "green": 0,
    "coupon": "9,00 %",
    "accruedInterest": "7,9397",
    "settleDate": "2024.01.02",
    "askEhmYield": "",
    "bidYield": "17,58",
    "rawName": "K2024/07",
    "bidPrice": "99,0000",
    "coupon_val": 9,
    "maturityInDays": "43 nap",
    "securityType": "1MÁP",
    "maturityDate": "2024.02.14",
    "name": "K2024/07",
    "bidEhmYield": "16,35",
    "askYield": "",
    "currency": "HUF",
    "maturityInDays_val": 43,
    "issueDate": "2023.02.14",
    "longName": "K240214"
}