{
    "askPrice": "",
    "green": 0,
    "coupon": "9,00 %",
    "accruedInterest": "6,3616",
    "settleDate": "2023.10.30",
    "askEhmYield": "",
    "bidYield": "12,28",
    "rawName": "K2024/07",
    "bidPrice": "99,0000",
    "coupon_val": 9,
    "maturityInDays": "107 nap",
    "securityType": "1MÁP",
    "maturityDate": "2024.02.14",
    "name": "K2024/07",
    "bidEhmYield": "11,78",
    "askYield": "",
    "currency": "HUF",
    "maturityInDays_val": 107,
    "issueDate": "2023.02.14",
    "longName": "K240214"
}