{
    "askPrice": "",
    "green": 0,
    "coupon": "9,00 %",
    "accruedInterest": "1,4548",
    "settleDate": "2023.04.14",
    "askEhmYield": "",
    "bidYield": "10,23",
    "rawName": "K2024/07",
    "bidPrice": "99,0000",
    "coupon_val": 9,
    "maturityInDays": "306 nap",
    "securityType": "1MÁP",
    "maturityDate": "2024.02.14",
    "name": "K2024/07",
    "bidEhmYield": "10,15",
    "askYield": "",
    "currency": "HUF",
    "maturityInDays_val": 306,
    "issueDate": "2023.02.14",
    "longName": "K240214"
}