{
    "askPrice": "",
    "green": 0,
    "coupon": "9,00 %",
    "accruedInterest": "8,4822",
    "settleDate": "2024.01.24",
    "askEhmYield": "",
    "bidYield": "23,54",
    "rawName": "K2024/07",
    "bidPrice": "99,2000",
    "coupon_val": 9,
    "maturityInDays": "21 nap",
    "securityType": "1MÁP",
    "maturityDate": "2024.02.14",
    "name": "K2024/07",
    "bidEhmYield": "21,27",
    "askYield": "",
    "currency": "HUF",
    "maturityInDays_val": 21,
    "issueDate": "2023.02.14",
    "longName": "K240214"
}