{
    "askPrice": "",
    "green": 0,
    "coupon": "9,00 %",
    "accruedInterest": "8,0877",
    "settleDate": "2024.01.08",
    "askEhmYield": "",
    "bidYield": "19,08",
    "rawName": "K2024/07",
    "bidPrice": "99,0000",
    "coupon_val": 9,
    "maturityInDays": "37 nap",
    "securityType": "1MÁP",
    "maturityDate": "2024.02.14",
    "name": "K2024/07",
    "bidEhmYield": "17,62",
    "askYield": "",
    "currency": "HUF",
    "maturityInDays_val": 37,
    "issueDate": "2023.02.14",
    "longName": "K240214"
}