{
    "askPrice": "",
    "green": 0,
    "coupon": "2,50 %",
    "accruedInterest": "2,32",
    "settleDate": "2022.09.16",
    "askEhmYield": "",
    "bidYield": "",
    "rawName": "K2022/41",
    "bidPrice": "99,50",
    "coupon_val": 2.5,
    "maturityInDays": "26 nap",
    "securityType": "1MÁP",
    "maturityDate": "2022.10.12",
    "name": "K2022/41",
    "bidEhmYield": "9,35",
    "askYield": "",
    "currency": "HUF",
    "maturityInDays_val": 26,
    "longName": "K221012"
}