{
    "askPrice": "",
    "green": 0,
    "coupon": "8,00 %",
    "accruedInterest": "3,1123",
    "settleDate": "2024.04.19",
    "askEhmYield": "",
    "bidYield": "9,61",
    "rawName": "K2024/48",
    "bidPrice": "99,0000",
    "coupon_val": 8,
    "maturityInDays": "223 nap",
    "securityType": "1MÁP",
    "maturityDate": "2024.11.28",
    "name": "K2024/48",
    "bidEhmYield": "9,40",
    "askYield": "",
    "currency": "HUF",
    "maturityInDays_val": 223,
    "issueDate": "2023.11.28",
    "longName": "K241128"
}