{
    "askPrice": "",
    "green": 0,
    "coupon": "8,00 %",
    "accruedInterest": "0,7890",
    "settleDate": "2024.01.03",
    "askEhmYield": "",
    "bidYield": "9,14",
    "rawName": "K2024/48",
    "bidPrice": "99,0000",
    "coupon_val": 8,
    "maturityInDays": "330 nap",
    "securityType": "1MÁP",
    "maturityDate": "2024.11.28",
    "name": "K2024/48",
    "bidEhmYield": "9,10",
    "askYield": "",
    "currency": "HUF",
    "maturityInDays_val": 330,
    "issueDate": "2023.11.28",
    "longName": "K241128"
}