{
    "askPrice": "",
    "green": 0,
    "coupon": "8,00 %",
    "accruedInterest": "2,7616",
    "settleDate": "2024.04.03",
    "askEhmYield": "",
    "bidYield": "9,51",
    "rawName": "K2024/48",
    "bidPrice": "99,0000",
    "coupon_val": 8,
    "maturityInDays": "239 nap",
    "securityType": "1MÁP",
    "maturityDate": "2024.11.28",
    "name": "K2024/48",
    "bidEhmYield": "9,33",
    "askYield": "",
    "currency": "HUF",
    "maturityInDays_val": 239,
    "issueDate": "2023.11.28",
    "longName": "K241128"
}