{
    "askPrice": "",
    "green": 0,
    "coupon": "8,00 %",
    "accruedInterest": "1,7534",
    "settleDate": "2024.02.16",
    "askEhmYield": "",
    "bidYield": "9,27",
    "rawName": "K2024/48",
    "bidPrice": "99,0000",
    "coupon_val": 8,
    "maturityInDays": "286 nap",
    "securityType": "1MÁP",
    "maturityDate": "2024.11.28",
    "name": "K2024/48",
    "bidEhmYield": "9,18",
    "askYield": "",
    "currency": "HUF",
    "maturityInDays_val": 286,
    "issueDate": "2023.11.28",
    "longName": "K241128"
}