{
    "askPrice": "",
    "green": 0,
    "coupon": "8,00 %",
    "accruedInterest": "3,6603",
    "settleDate": "2024.05.14",
    "askEhmYield": "",
    "bidYield": "9,80",
    "rawName": "K2024/48",
    "bidPrice": "99,0000",
    "coupon_val": 8,
    "maturityInDays": "198 nap",
    "securityType": "1MÁP",
    "maturityDate": "2024.11.28",
    "name": "K2024/48",
    "bidEhmYield": "9,55",
    "askYield": "",
    "currency": "HUF",
    "maturityInDays_val": 198,
    "issueDate": "2023.11.28",
    "longName": "K241128"
}