{
    "askPrice": "",
    "green": 0,
    "coupon": null,
    "accruedInterest": "3,65",
    "settleDate": "2022.09.06",
    "askEhmYield": "",
    "bidYield": "",
    "rawName": "2025/K",
    "bidPrice": "99,00",
    "maturityInDays": "933 nap",
    "securityType": "PMÁP",
    "maturityDate": "2025.03.27",
    "name": "2025/K",
    "bidEhmYield": "",
    "askYield": "",
    "currency": "HUF",
    "maturityInDays_val": 933,
    "longName": "A250327K22"
}