{
    "askPrice": "",
    "green": 0,
    "coupon": null,
    "accruedInterest": "4,76",
    "settleDate": "2022.11.14",
    "askEhmYield": "",
    "bidYield": "",
    "rawName": "2025/K",
    "bidPrice": "99,00",
    "maturityInDays": "864 nap",
    "securityType": "PMÁP",
    "maturityDate": "2025.03.27",
    "name": "2025/K",
    "bidEhmYield": "",
    "askYield": "",
    "currency": "HUF",
    "maturityInDays_val": 864,
    "issueDate": "2022-01-21",
    "longName": "A250327K22"
}