{
    "askPrice": "",
    "green": 0,
    "coupon": null,
    "accruedInterest": "3,77",
    "settleDate": "2022.09.13",
    "askEhmYield": "",
    "bidYield": "",
    "rawName": "2025/K",
    "bidPrice": "99,00",
    "maturityInDays": "926 nap",
    "securityType": "PMÁP",
    "maturityDate": "2025.03.27",
    "name": "2025/K",
    "bidEhmYield": "",
    "askYield": "",
    "currency": "HUF",
    "maturityInDays_val": 926,
    "longName": "A250327K22"
}