{
    "askPrice": "",
    "green": 0,
    "coupon": null,
    "accruedInterest": "4,34",
    "settleDate": "2022.10.19",
    "askEhmYield": "",
    "bidYield": "1,47",
    "rawName": "2025/K",
    "bidPrice": "99,00",
    "maturityInDays": "890 nap",
    "securityType": "PMÁP",
    "maturityDate": "2025.03.27",
    "name": "2025/K",
    "bidEhmYield": "",
    "askYield": "",
    "currency": "HUF",
    "maturityInDays_val": 890,
    "longName": "A250327K22"
}