{
    "askPrice": "",
    "green": 0,
    "coupon": null,
    "accruedInterest": "1,0417",
    "settleDate": "2023.04.21",
    "askEhmYield": "",
    "bidYield": "",
    "rawName": "2025/K",
    "bidPrice": "99,0000",
    "maturityInDays": "706 nap",
    "securityType": "PMÁP",
    "maturityDate": "2025.03.27",
    "name": "2025/K",
    "bidEhmYield": "",
    "askYield": "",
    "currency": "HUF",
    "maturityInDays_val": 706,
    "issueDate": "2022.01.21",
    "longName": "A250327K22"
}