{
    "askPrice": "",
    "green": 0,
    "coupon": "3,50 %",
    "accruedInterest": "1,41",
    "settleDate": "2022.09.29",
    "askEhmYield": "",
    "bidYield": "",
    "rawName": "N2026/23",
    "bidPrice": "99,50",
    "coupon_val": 3.5,
    "maturityInDays": "1347 nap",
    "securityType": "MÁP Plusz",
    "maturityDate": "2026.06.07",
    "name": "N2026/23",
    "bidEhmYield": "",
    "askYield": "",
    "currency": "HUF",
    "maturityInDays_val": 1347,
    "longName": "N260607"
}