{
    "askPrice": "",
    "green": 0,
    "coupon": "3,50 %",
    "accruedInterest": "2,02",
    "settleDate": "2022.11.18",
    "askEhmYield": "",
    "bidYield": "5,47",
    "rawName": "N2026/23",
    "bidPrice": "99,50",
    "coupon_val": 3.5,
    "maturityInDays": "1297 nap",
    "securityType": "MÁP Plusz",
    "maturityDate": "2026.06.07",
    "name": "N2026/23",
    "bidEhmYield": "",
    "askYield": "",
    "currency": "HUF",
    "maturityInDays_val": 1297,
    "issueDate": "2021-06-07",
    "longName": "N260607"
}