{
    "askPrice": "",
    "green": 0,
    "coupon": "3,50 %",
    "accruedInterest": "0,0956",
    "settleDate": "2023.06.14",
    "askEhmYield": "",
    "bidYield": "5,49",
    "rawName": "N2026/23",
    "bidPrice": "100,0000",
    "coupon_val": 3.5,
    "maturityInDays": "1089 nap",
    "securityType": "MÁP Plusz",
    "maturityDate": "2026.06.07",
    "name": "N2026/23",
    "bidEhmYield": "",
    "askYield": "",
    "currency": "HUF",
    "maturityInDays_val": 1089,
    "issueDate": "2021.06.07",
    "longName": "N260607"
}