{
    "askPrice": "",
    "green": 0,
    "coupon": "3,50 %",
    "accruedInterest": "1,3388",
    "settleDate": "2023.09.13",
    "askEhmYield": "",
    "bidYield": "5,72",
    "rawName": "N2026/23",
    "bidPrice": "99,5000",
    "coupon_val": 3.5,
    "maturityInDays": "998 nap",
    "securityType": "MÁP Plusz",
    "maturityDate": "2026.06.07",
    "name": "N2026/23",
    "bidEhmYield": "",
    "askYield": "",
    "currency": "HUF",
    "maturityInDays_val": 998,
    "issueDate": "2021.06.07",
    "longName": "N260607"
}