{
    "askPrice": "",
    "green": 0,
    "coupon": "3,50 %",
    "accruedInterest": "0,8743",
    "settleDate": "2023.08.10",
    "askEhmYield": "",
    "bidYield": "5,70",
    "rawName": "N2026/23",
    "bidPrice": "99,5000",
    "coupon_val": 3.5,
    "maturityInDays": "1032 nap",
    "securityType": "MÁP Plusz",
    "maturityDate": "2026.06.07",
    "name": "N2026/23",
    "bidEhmYield": "",
    "askYield": "",
    "currency": "HUF",
    "maturityInDays_val": 1032,
    "issueDate": "2021.06.07",
    "longName": "N260607"
}