{
    "askPrice": "",
    "green": 0,
    "coupon": "3,50 %",
    "accruedInterest": "3,3197",
    "settleDate": "2024.02.05",
    "askEhmYield": "",
    "bidYield": "5,85",
    "rawName": "N2026/23",
    "bidPrice": "99,5000",
    "coupon_val": 3.5,
    "maturityInDays": "853 nap",
    "securityType": "MÁP Plusz",
    "maturityDate": "2026.06.07",
    "name": "N2026/23",
    "bidEhmYield": "",
    "askYield": "",
    "currency": "HUF",
    "maturityInDays_val": 853,
    "issueDate": "2021.06.07",
    "longName": "N260607"
}