{
    "askPrice": "98,94",
    "green": 0,
    "coupon": null,
    "accruedInterest": "1,07",
    "settleDate": "2022.09.23",
    "askEhmYield": "",
    "bidYield": "",
    "rawName": "2029/B",
    "bidPrice": "97,55",
    "maturityInDays": "2525 nap",
    "securityType": "KTV",
    "maturityDate": "2029.08.22",
    "name": "2029/B",
    "bidEhmYield": "",
    "askYield": "",
    "currency": "HUF",
    "maturityInDays_val": 2525,
    "longName": "A290822B21"
}