{
    "askPrice": "98,90",
    "green": 0,
    "coupon": null,
    "accruedInterest": "0,93",
    "settleDate": "2022.09.19",
    "askEhmYield": "",
    "bidYield": "",
    "rawName": "2029/B",
    "bidPrice": "97,75",
    "maturityInDays": "2529 nap",
    "securityType": "KTV",
    "maturityDate": "2029.08.22",
    "name": "2029/B",
    "bidEhmYield": "",
    "askYield": "",
    "currency": "HUF",
    "maturityInDays_val": 2529,
    "longName": "A290822B21"
}