{
    "askPrice": "99,8500",
    "green": 0,
    "coupon": null,
    "accruedInterest": "0,5641",
    "settleDate": "2022.12.05",
    "askEhmYield": "",
    "bidYield": "",
    "rawName": "2029/B",
    "bidPrice": "97,1790",
    "maturityInDays": "2452 nap",
    "securityType": "KTV",
    "maturityDate": "2029.08.22",
    "name": "2029/B",
    "bidEhmYield": "",
    "askYield": "",
    "currency": "HUF",
    "maturityInDays_val": 2452,
    "issueDate": "2021.02.03",
    "longName": "A290822B21"
}