{
    "askPrice": "97,85",
    "green": 0,
    "coupon": null,
    "accruedInterest": "0,70",
    "settleDate": "2022.06.28",
    "askEhmYield": "",
    "bidYield": "",
    "rawName": "2029/B",
    "bidPrice": "96,50",
    "maturityInDays": "2612 nap",
    "securityType": "KTV",
    "maturityDate": "2029.08.22",
    "name": "2029/B",
    "bidEhmYield": "",
    "askYield": "",
    "currency": "HUF",
    "maturityInDays_val": 2612,
    "longName": "A290822B21"
}