{
    "askPrice": "99,00",
    "green": 0,
    "coupon": null,
    "accruedInterest": "0,97",
    "settleDate": "2022.09.20",
    "askEhmYield": "",
    "bidYield": "",
    "rawName": "2029/B",
    "bidPrice": "97,60",
    "maturityInDays": "2528 nap",
    "securityType": "KTV",
    "maturityDate": "2029.08.22",
    "name": "2029/B",
    "bidEhmYield": "",
    "askYield": "",
    "currency": "HUF",
    "maturityInDays_val": 2528,
    "longName": "A290822B21"
}