{
    "askPrice": "98,60",
    "green": 0,
    "coupon": null,
    "accruedInterest": "2,47",
    "settleDate": "2022.11.04",
    "askEhmYield": "",
    "bidYield": "",
    "rawName": "2029/B",
    "bidPrice": "96,36",
    "maturityInDays": "2483 nap",
    "securityType": "KTV",
    "maturityDate": "2029.08.22",
    "name": "2029/B",
    "bidEhmYield": "",
    "askYield": "",
    "currency": "HUF",
    "maturityInDays_val": 2483,
    "issueDate": "2021-02-03",
    "longName": "A290822B21"
}