{
    "askPrice": "97,89",
    "green": 0,
    "coupon": null,
    "accruedInterest": "0,98",
    "settleDate": "2022.07.13",
    "askEhmYield": "",
    "bidYield": "",
    "rawName": "2029/B",
    "bidPrice": "96,61",
    "maturityInDays": "2597 nap",
    "securityType": "KTV",
    "maturityDate": "2029.08.22",
    "name": "2029/B",
    "bidEhmYield": "",
    "askYield": "",
    "currency": "HUF",
    "maturityInDays_val": 2597,
    "longName": "A290822B21"
}