{
    "askPrice": "98,90",
    "green": 0,
    "coupon": null,
    "accruedInterest": "1,44",
    "settleDate": "2022.10.04",
    "askEhmYield": "",
    "bidYield": "",
    "rawName": "2029/B",
    "bidPrice": "97,50",
    "maturityInDays": "2514 nap",
    "securityType": "KTV",
    "maturityDate": "2029.08.22",
    "name": "2029/B",
    "bidEhmYield": "",
    "askYield": "",
    "currency": "HUF",
    "maturityInDays_val": 2514,
    "longName": "A290822B21"
}