{
    "askPrice": "102,0000",
    "green": 0,
    "coupon": null,
    "accruedInterest": "1,1388",
    "settleDate": "2023.12.29",
    "askEhmYield": "",
    "bidYield": "",
    "rawName": "2029/B",
    "bidPrice": "99,1000",
    "maturityInDays": "2063 nap",
    "securityType": "KTV",
    "maturityDate": "2029.08.22",
    "name": "2029/B",
    "bidEhmYield": "",
    "askYield": "",
    "currency": "HUF",
    "maturityInDays_val": 2063,
    "issueDate": "2021.02.03",
    "longName": "A290822B21"
}