{
    "askPrice": "101,5400",
    "green": 0,
    "coupon": null,
    "accruedInterest": "2,8245",
    "settleDate": "2023.07.24",
    "askEhmYield": "",
    "bidYield": "",
    "rawName": "2029/B",
    "bidPrice": "98,7700",
    "maturityInDays": "2221 nap",
    "securityType": "KTV",
    "maturityDate": "2029.08.22",
    "name": "2029/B",
    "bidEhmYield": "",
    "askYield": "",
    "currency": "HUF",
    "maturityInDays_val": 2221,
    "issueDate": "2021.02.03",
    "longName": "A290822B21"
}