{
    "askPrice": "101,5400",
    "green": 0,
    "coupon": null,
    "accruedInterest": "1,9278",
    "settleDate": "2023.07.04",
    "askEhmYield": "",
    "bidYield": "",
    "rawName": "2029/B",
    "bidPrice": "98,7000",
    "maturityInDays": "2241 nap",
    "securityType": "KTV",
    "maturityDate": "2029.08.22",
    "name": "2029/B",
    "bidEhmYield": "",
    "askYield": "",
    "currency": "HUF",
    "maturityInDays_val": 2241,
    "issueDate": "2021.02.03",
    "longName": "A290822B21"
}