{
    "askPrice": "101,6200",
    "green": 0,
    "coupon": null,
    "accruedInterest": "1,6140",
    "settleDate": "2023.06.27",
    "askEhmYield": "",
    "bidYield": "",
    "rawName": "2029/B",
    "bidPrice": "98,7500",
    "maturityInDays": "2248 nap",
    "securityType": "KTV",
    "maturityDate": "2029.08.22",
    "name": "2029/B",
    "bidEhmYield": "",
    "askYield": "",
    "currency": "HUF",
    "maturityInDays_val": 2248,
    "issueDate": "2021.02.03",
    "longName": "A290822B21"
}