{
    "askPrice": "101,5900",
    "green": 0,
    "coupon": null,
    "accruedInterest": "2,4500",
    "settleDate": "2023.10.24",
    "askEhmYield": "",
    "bidYield": "",
    "rawName": "2029/B",
    "bidPrice": "98,6500",
    "maturityInDays": "2129 nap",
    "securityType": "KTV",
    "maturityDate": "2029.08.22",
    "name": "2029/B",
    "bidEhmYield": "",
    "askYield": "",
    "currency": "HUF",
    "maturityInDays_val": 2129,
    "issueDate": "2021.02.03",
    "longName": "A290822B21"
}