{
    "askPrice": "101,4000",
    "green": 0,
    "coupon": null,
    "accruedInterest": "0,3693",
    "settleDate": "2023.12.04",
    "askEhmYield": "",
    "bidYield": "",
    "rawName": "2029/B",
    "bidPrice": "98,5500",
    "maturityInDays": "2088 nap",
    "securityType": "KTV",
    "maturityDate": "2029.08.22",
    "name": "2029/B",
    "bidEhmYield": "",
    "askYield": "",
    "currency": "HUF",
    "maturityInDays_val": 2088,
    "issueDate": "2021.02.03",
    "longName": "A290822B21"
}