{
    "askPrice": "100,2500",
    "green": 0,
    "coupon": null,
    "accruedInterest": "2,3864",
    "settleDate": "2023.01.16",
    "askEhmYield": "",
    "bidYield": "",
    "rawName": "2029/B",
    "bidPrice": "97,5500",
    "maturityInDays": "2410 nap",
    "securityType": "KTV",
    "maturityDate": "2029.08.22",
    "name": "2029/B",
    "bidEhmYield": "",
    "askYield": "",
    "currency": "HUF",
    "maturityInDays_val": 2410,
    "issueDate": "2021.02.03",
    "longName": "A290822B21"
}