{
    "askPrice": "101,4500",
    "green": 0,
    "coupon": null,
    "accruedInterest": "3,2278",
    "settleDate": "2023.11.13",
    "askEhmYield": "",
    "bidYield": "",
    "rawName": "2029/B",
    "bidPrice": "98,6000",
    "maturityInDays": "2109 nap",
    "securityType": "KTV",
    "maturityDate": "2029.08.22",
    "name": "2029/B",
    "bidEhmYield": "",
    "askYield": "",
    "currency": "HUF",
    "maturityInDays_val": 2109,
    "issueDate": "2021.02.03",
    "longName": "A290822B21"
}