{
    "askPrice": "100,4500",
    "green": 0,
    "coupon": null,
    "accruedInterest": "3,7748",
    "settleDate": "2023.02.17",
    "askEhmYield": "",
    "bidYield": "",
    "rawName": "2029/B",
    "bidPrice": "97,7000",
    "maturityInDays": "2378 nap",
    "securityType": "KTV",
    "maturityDate": "2029.08.22",
    "name": "2029/B",
    "bidEhmYield": "",
    "askYield": "",
    "currency": "HUF",
    "maturityInDays_val": 2378,
    "issueDate": "2021.02.03",
    "longName": "A290822B21"
}