{
    "askPrice": "99,2500",
    "green": 0,
    "coupon": null,
    "accruedInterest": "1,7978",
    "settleDate": "2023.04.03",
    "askEhmYield": "",
    "bidYield": "",
    "rawName": "2029/B",
    "bidPrice": "96,4500",
    "maturityInDays": "2333 nap",
    "securityType": "KTV",
    "maturityDate": "2029.08.22",
    "name": "2029/B",
    "bidEhmYield": "",
    "askYield": "",
    "currency": "HUF",
    "maturityInDays_val": 2333,
    "issueDate": "2021.02.03",
    "longName": "A290822B21"
}