{
    "askPrice": "101,5000",
    "green": 0,
    "coupon": null,
    "accruedInterest": "0,8002",
    "settleDate": "2023.12.18",
    "askEhmYield": "",
    "bidYield": "",
    "rawName": "2029/B",
    "bidPrice": "98,5600",
    "maturityInDays": "2074 nap",
    "securityType": "KTV",
    "maturityDate": "2029.08.22",
    "name": "2029/B",
    "bidEhmYield": "",
    "askYield": "",
    "currency": "HUF",
    "maturityInDays_val": 2074,
    "issueDate": "2021.02.03",
    "longName": "A290822B21"
}