{
    "askPrice": "98,5000",
    "green": 0,
    "coupon": null,
    "accruedInterest": "0,3587",
    "settleDate": "2023.05.30",
    "askEhmYield": "",
    "bidYield": "",
    "rawName": "2029/B",
    "bidPrice": "95,8700",
    "maturityInDays": "2276 nap",
    "securityType": "KTV",
    "maturityDate": "2029.08.22",
    "name": "2029/B",
    "bidEhmYield": "",
    "askYield": "",
    "currency": "HUF",
    "maturityInDays_val": 2276,
    "issueDate": "2021.02.03",
    "longName": "A290822B21"
}