{
    "askPrice": "100,1300",
    "green": 0,
    "coupon": null,
    "accruedInterest": "0,6742",
    "settleDate": "2023.03.09",
    "askEhmYield": "",
    "bidYield": "",
    "rawName": "2029/B",
    "bidPrice": "97,4000",
    "maturityInDays": "2358 nap",
    "securityType": "KTV",
    "maturityDate": "2029.08.22",
    "name": "2029/B",
    "bidEhmYield": "",
    "askYield": "",
    "currency": "HUF",
    "maturityInDays_val": 2358,
    "issueDate": "2021.02.03",
    "longName": "A290822B21"
}