{
    "askPrice": "101,3500",
    "green": 0,
    "coupon": null,
    "accruedInterest": "0,1539",
    "settleDate": "2023.11.27",
    "askEhmYield": "",
    "bidYield": "",
    "rawName": "2029/B",
    "bidPrice": "98,5000",
    "maturityInDays": "2095 nap",
    "securityType": "KTV",
    "maturityDate": "2029.08.22",
    "name": "2029/B",
    "bidEhmYield": "",
    "askYield": "",
    "currency": "HUF",
    "maturityInDays_val": 2095,
    "issueDate": "2021.02.03",
    "longName": "A290822B21"
}