{
    "askPrice": "100,8500",
    "green": 0,
    "coupon": null,
    "accruedInterest": "0,6277",
    "settleDate": "2023.06.05",
    "askEhmYield": "",
    "bidYield": "",
    "rawName": "2029/B",
    "bidPrice": "98,3399",
    "maturityInDays": "2270 nap",
    "securityType": "KTV",
    "maturityDate": "2029.08.22",
    "name": "2029/B",
    "bidEhmYield": "",
    "askYield": "",
    "currency": "HUF",
    "maturityInDays_val": 2270,
    "issueDate": "2021.02.03",
    "longName": "A290822B21"
}