{
    "askPrice": "",
    "green": 0,
    "coupon": null,
    "accruedInterest": 0,
    "settleDate": "2023.08.21",
    "askEhmYield": "",
    "bidYield": "",
    "rawName": "2029/B",
    "bidPrice": "",
    "maturityInDays": "2193 nap",
    "securityType": "KTV",
    "maturityDate": "2029.08.22",
    "name": "2029/B",
    "bidEhmYield": "",
    "askYield": "",
    "currency": "HUF",
    "maturityInDays_val": 2193,
    "issueDate": "2021.02.03",
    "longName": "A290822B21"
}