{
    "askPrice": "101,5900",
    "green": 0,
    "coupon": null,
    "accruedInterest": "3,0333",
    "settleDate": "2023.11.08",
    "askEhmYield": "",
    "bidYield": "",
    "rawName": "2029/B",
    "bidPrice": "98,7200",
    "maturityInDays": "2114 nap",
    "securityType": "KTV",
    "maturityDate": "2029.08.22",
    "name": "2029/B",
    "bidEhmYield": "",
    "askYield": "",
    "currency": "HUF",
    "maturityInDays_val": 2114,
    "issueDate": "2021.02.03",
    "longName": "A290822B21"
}