{
    "askPrice": "100,5117",
    "green": 0,
    "coupon": null,
    "accruedInterest": "3,6881",
    "settleDate": "2023.02.15",
    "askEhmYield": "",
    "bidYield": "",
    "rawName": "2029/B",
    "bidPrice": "97,7500",
    "maturityInDays": "2380 nap",
    "securityType": "KTV",
    "maturityDate": "2029.08.22",
    "name": "2029/B",
    "bidEhmYield": "",
    "askYield": "",
    "currency": "HUF",
    "maturityInDays_val": 2380,
    "issueDate": "2021.02.03",
    "longName": "A290822B21"
}