{
    "askPrice": "101,6000",
    "green": 0,
    "coupon": null,
    "accruedInterest": "3,7660",
    "settleDate": "2023.08.14",
    "askEhmYield": "",
    "bidYield": "",
    "rawName": "2029/B",
    "bidPrice": "98,8500",
    "maturityInDays": "2200 nap",
    "securityType": "KTV",
    "maturityDate": "2029.08.22",
    "name": "2029/B",
    "bidEhmYield": "",
    "askYield": "",
    "currency": "HUF",
    "maturityInDays_val": 2200,
    "issueDate": "2021.02.03",
    "longName": "A290822B21"
}