{
    "askPrice": "101,1500",
    "green": 0,
    "coupon": null,
    "accruedInterest": "1,9283",
    "settleDate": "2024.05.10",
    "askEhmYield": "",
    "bidYield": "",
    "rawName": "2029/B",
    "bidPrice": "98,1358",
    "maturityInDays": "1930 nap",
    "securityType": "KTV",
    "maturityDate": "2029.08.22",
    "name": "2029/B",
    "bidEhmYield": "",
    "askYield": "",
    "currency": "HUF",
    "maturityInDays_val": 1930,
    "issueDate": "2021.02.03",
    "longName": "A290822B21"
}