{
    "askPrice": "101,4500",
    "green": 0,
    "coupon": null,
    "accruedInterest": "1,4833",
    "settleDate": "2024.04.22",
    "askEhmYield": "",
    "bidYield": "",
    "rawName": "2029/B",
    "bidPrice": "98,4500",
    "maturityInDays": "1948 nap",
    "securityType": "KTV",
    "maturityDate": "2029.08.22",
    "name": "2029/B",
    "bidEhmYield": "",
    "askYield": "",
    "currency": "HUF",
    "maturityInDays_val": 1948,
    "issueDate": "2021.02.03",
    "longName": "A290822B21"
}