{
    "askPrice": "101,5500",
    "green": 0,
    "coupon": null,
    "accruedInterest": "2,0929",
    "settleDate": "2024.01.29",
    "askEhmYield": "",
    "bidYield": "",
    "rawName": "2029/B",
    "bidPrice": "98,6735",
    "maturityInDays": "2032 nap",
    "securityType": "KTV",
    "maturityDate": "2029.08.22",
    "name": "2029/B",
    "bidEhmYield": "",
    "askYield": "",
    "currency": "HUF",
    "maturityInDays_val": 2032,
    "issueDate": "2021.02.03",
    "longName": "A290822B21"
}