{
    "askPrice": "101,6500",
    "green": 0,
    "coupon": null,
    "accruedInterest": "1,8774",
    "settleDate": "2024.01.22",
    "askEhmYield": "",
    "bidYield": "",
    "rawName": "2029/B",
    "bidPrice": "98,8397",
    "maturityInDays": "2039 nap",
    "securityType": "KTV",
    "maturityDate": "2029.08.22",
    "name": "2029/B",
    "bidEhmYield": "",
    "askYield": "",
    "currency": "HUF",
    "maturityInDays_val": 2039,
    "issueDate": "2021.02.03",
    "longName": "A290822B21"
}