{
    "askPrice": "101,6500",
    "green": 0,
    "coupon": null,
    "accruedInterest": "0,4450",
    "settleDate": "2024.03.11",
    "askEhmYield": "",
    "bidYield": "",
    "rawName": "2029/B",
    "bidPrice": "98,6000",
    "maturityInDays": "1990 nap",
    "securityType": "KTV",
    "maturityDate": "2029.08.22",
    "name": "2029/B",
    "bidEhmYield": "",
    "askYield": "",
    "currency": "HUF",
    "maturityInDays_val": 1990,
    "issueDate": "2021.02.03",
    "longName": "A290822B21"
}