{
    "askPrice": "",
    "green": 0,
    "coupon": "3,50 %",
    "accruedInterest": "1,85",
    "settleDate": "2022.11.15",
    "askEhmYield": "",
    "bidYield": "5,35",
    "rawName": "N2026/48",
    "bidPrice": "99,50",
    "coupon_val": 3.5,
    "maturityInDays": "1475 nap",
    "securityType": "MÁP Plusz",
    "maturityDate": "2026.11.29",
    "name": "N2026/48",
    "bidEhmYield": "",
    "askYield": "",
    "currency": "HUF",
    "maturityInDays_val": 1475,
    "issueDate": "2021-11-29",
    "longName": "N261129"
}