{
    "askPrice": "",
    "green": 0,
    "coupon": "3,50 %",
    "accruedInterest": "1,32",
    "settleDate": "2022.09.27",
    "askEhmYield": "",
    "bidYield": "",
    "rawName": "N2026/48",
    "bidPrice": "99,50",
    "coupon_val": 3.5,
    "maturityInDays": "1524 nap",
    "securityType": "MÁP Plusz",
    "maturityDate": "2026.11.29",
    "name": "N2026/48",
    "bidEhmYield": "",
    "askYield": "",
    "currency": "HUF",
    "maturityInDays_val": 1524,
    "longName": "N261129"
}