{
    "askPrice": "",
    "green": 0,
    "coupon": "3,50 %",
    "accruedInterest": "3,2671",
    "settleDate": "2023.08.21",
    "askEhmYield": "",
    "bidYield": "5,56",
    "rawName": "N2026/48",
    "bidPrice": "99,5000",
    "coupon_val": 3.5,
    "maturityInDays": "1196 nap",
    "securityType": "MÁP Plusz",
    "maturityDate": "2026.11.29",
    "name": "N2026/48",
    "bidEhmYield": "",
    "askYield": "",
    "currency": "HUF",
    "maturityInDays_val": 1196,
    "issueDate": "2021.11.29",
    "longName": "N261129"
}