{
    "askPrice": "",
    "green": 0,
    "coupon": "3,50 %",
    "accruedInterest": "2,6137",
    "settleDate": "2023.06.29",
    "askEhmYield": "",
    "bidYield": "5,51",
    "rawName": "N2026/48",
    "bidPrice": "99,5000",
    "coupon_val": 3.5,
    "maturityInDays": "1249 nap",
    "securityType": "MÁP Plusz",
    "maturityDate": "2026.11.29",
    "name": "N2026/48",
    "bidEhmYield": "",
    "askYield": "",
    "currency": "HUF",
    "maturityInDays_val": 1249,
    "issueDate": "2021.11.29",
    "longName": "N261129"
}