{
    "askPrice": "",
    "green": 0,
    "coupon": "3,50 %",
    "accruedInterest": "0,7650",
    "settleDate": "2024.01.24",
    "askEhmYield": "",
    "bidYield": "5,70",
    "rawName": "N2026/48",
    "bidPrice": "99,5000",
    "coupon_val": 3.5,
    "maturityInDays": "1040 nap",
    "securityType": "MÁP Plusz",
    "maturityDate": "2026.11.29",
    "name": "N2026/48",
    "bidEhmYield": "",
    "askYield": "",
    "currency": "HUF",
    "maturityInDays_val": 1040,
    "issueDate": "2021.11.29",
    "longName": "N261129"
}