{
    "askPrice": "",
    "green": 0,
    "coupon": "7,00 %",
    "accruedInterest": "0,6521",
    "settleDate": "2022.11.28",
    "askEhmYield": "",
    "bidYield": "7,57",
    "rawName": "K2023/43",
    "bidPrice": "99,5000",
    "coupon_val": 7,
    "maturityInDays": "331 nap",
    "securityType": "1MÁP",
    "maturityDate": "2023.10.25",
    "name": "K2023/43",
    "bidEhmYield": "7,54",
    "askYield": "",
    "currency": "HUF",
    "maturityInDays_val": 331,
    "issueDate": "2022.10.25",
    "longName": "K231025"
}