{
    "askPrice": "",
    "green": 0,
    "coupon": "7,00 %",
    "accruedInterest": "1,3233",
    "settleDate": "2023.01.02",
    "askEhmYield": "",
    "bidYield": "8,27",
    "rawName": "K2023/43",
    "bidPrice": "99,0000",
    "coupon_val": 7,
    "maturityInDays": "296 nap",
    "securityType": "1MÁP",
    "maturityDate": "2023.10.25",
    "name": "K2023/43",
    "bidEhmYield": "8,21",
    "askYield": "",
    "currency": "HUF",
    "maturityInDays_val": 296,
    "issueDate": "2022.10.25",
    "longName": "K231025"
}