{
    "askPrice": "",
    "green": 0,
    "coupon": "7,00 %",
    "accruedInterest": "0,38",
    "settleDate": "2022.11.14",
    "askEhmYield": "",
    "bidYield": "7,55",
    "rawName": "K2023/43",
    "bidPrice": "99,50",
    "coupon_val": 7,
    "maturityInDays": "345 nap",
    "securityType": "1MÁP",
    "maturityDate": "2023.10.25",
    "name": "K2023/43",
    "bidEhmYield": "7,54",
    "askYield": "",
    "currency": "HUF",
    "maturityInDays_val": 345,
    "issueDate": "2022-10-25",
    "longName": "K231025"
}