{
    "askPrice": "",
    "green": 0,
    "coupon": "7,00 %",
    "accruedInterest": "2,1479",
    "settleDate": "2023.02.14",
    "askEhmYield": "",
    "bidYield": "8,45",
    "rawName": "K2023/43",
    "bidPrice": "99,0000",
    "coupon_val": 7,
    "maturityInDays": "253 nap",
    "securityType": "1MÁP",
    "maturityDate": "2023.10.25",
    "name": "K2023/43",
    "bidEhmYield": "8,35",
    "askYield": "",
    "currency": "HUF",
    "maturityInDays_val": 253,
    "issueDate": "2022.10.25",
    "longName": "K231025"
}