{
    "askPrice": "",
    "green": 0,
    "coupon": "7,00 %",
    "accruedInterest": "5,4274",
    "settleDate": "2023.08.04",
    "askEhmYield": "",
    "bidYield": "11,44",
    "rawName": "K2023/43",
    "bidPrice": "99,0000",
    "coupon_val": 7,
    "maturityInDays": "82 nap",
    "securityType": "1MÁP",
    "maturityDate": "2023.10.25",
    "name": "K2023/43",
    "bidEhmYield": "10,97",
    "askYield": "",
    "currency": "HUF",
    "maturityInDays_val": 82,
    "issueDate": "2022.10.25",
    "longName": "K231025"
}