{
    "askPrice": "",
    "green": 0,
    "coupon": "7,00 %",
    "accruedInterest": "5,2740",
    "settleDate": "2023.07.27",
    "askEhmYield": "",
    "bidYield": "11,03",
    "rawName": "K2023/43",
    "bidPrice": "99,0000",
    "coupon_val": 7,
    "maturityInDays": "90 nap",
    "securityType": "1MÁP",
    "maturityDate": "2023.10.25",
    "name": "K2023/43",
    "bidEhmYield": "10,60",
    "askYield": "",
    "currency": "HUF",
    "maturityInDays_val": 90,
    "issueDate": "2022.10.25",
    "longName": "K231025"
}