{
    "askPrice": "",
    "green": 0,
    "coupon": "3,50 %",
    "accruedInterest": "0,0109",
    "settleDate": "2023.06.06",
    "askEhmYield": "",
    "bidYield": "5,08",
    "rawName": "N2027/49",
    "bidPrice": "100,0000",
    "coupon_val": 3.5,
    "maturityInDays": "1643 nap",
    "securityType": "MÁP Plusz",
    "maturityDate": "2027.12.05",
    "name": "N2027/49",
    "bidEhmYield": "",
    "askYield": "",
    "currency": "HUF",
    "maturityInDays_val": 1643,
    "issueDate": "2022.12.05",
    "longName": "N271205"
}