{
    "askPrice": "",
    "green": 0,
    "coupon": "3,50 %",
    "accruedInterest": "1,2212",
    "settleDate": "2023.04.11",
    "askEhmYield": "",
    "bidYield": "5,14",
    "rawName": "N2027/49",
    "bidPrice": "99,5000",
    "coupon_val": 3.5,
    "maturityInDays": "1699 nap",
    "securityType": "MÁP Plusz",
    "maturityDate": "2027.12.05",
    "name": "N2027/49",
    "bidEhmYield": "",
    "askYield": "",
    "currency": "HUF",
    "maturityInDays_val": 1699,
    "issueDate": "2022.12.05",
    "longName": "N271205"
}