{
    "askPrice": "",
    "green": 0,
    "coupon": "3,50 %",
    "accruedInterest": "0,4549",
    "settleDate": "2024.01.11",
    "askEhmYield": "",
    "bidYield": "5,38",
    "rawName": "N2027/49",
    "bidPrice": "99,5000",
    "coupon_val": 3.5,
    "maturityInDays": "1424 nap",
    "securityType": "MÁP Plusz",
    "maturityDate": "2027.12.05",
    "name": "N2027/49",
    "bidEhmYield": "",
    "askYield": "",
    "currency": "HUF",
    "maturityInDays_val": 1424,
    "issueDate": "2022.12.05",
    "longName": "N271205"
}