{
    "askPrice": "",
    "green": 0,
    "coupon": "3,50 %",
    "accruedInterest": "3,12",
    "settleDate": "2022.08.01",
    "askEhmYield": "",
    "bidYield": "",
    "rawName": "N2024/28",
    "bidPrice": "99,50",
    "coupon_val": 3.5,
    "maturityInDays": "868 nap",
    "securityType": "MÁP Plusz",
    "maturityDate": "2024.12.16",
    "name": "N2024/28",
    "bidEhmYield": "",
    "askYield": "",
    "currency": "HUF",
    "maturityInDays_val": 868,
    "longName": "N241216"
}