{
    "askPrice": "",
    "green": 0,
    "coupon": "3,50 %",
    "accruedInterest": "0,0452",
    "settleDate": "2022.12.19",
    "askEhmYield": "",
    "bidYield": "5,74",
    "rawName": "N2024/28",
    "bidPrice": "100,0000",
    "coupon_val": 3.5,
    "maturityInDays": "728 nap",
    "securityType": "MÁP Plusz",
    "maturityDate": "2024.12.16",
    "name": "N2024/28",
    "bidEhmYield": "",
    "askYield": "",
    "currency": "HUF",
    "maturityInDays_val": 728,
    "issueDate": "2019.12.16",
    "longName": "N241216"
}