{
    "askPrice": "",
    "green": 0,
    "coupon": "3,50 %",
    "accruedInterest": "2,6370",
    "settleDate": "2023.06.09",
    "askEhmYield": "",
    "bidYield": "6,15",
    "rawName": "N2024/28",
    "bidPrice": "99,5000",
    "coupon_val": 3.5,
    "maturityInDays": "556 nap",
    "securityType": "MÁP Plusz",
    "maturityDate": "2024.12.16",
    "name": "N2024/28",
    "bidEhmYield": "",
    "askYield": "",
    "currency": "HUF",
    "maturityInDays_val": 556,
    "issueDate": "2019.12.16",
    "longName": "N241216"
}