{
    "askPrice": "",
    "green": 0,
    "coupon": "6,50 %",
    "accruedInterest": "1,4603",
    "settleDate": "2024.04.15",
    "askEhmYield": "",
    "bidYield": "7,82",
    "rawName": "K2025/04",
    "bidPrice": "99,0000",
    "coupon_val": 6.5,
    "maturityInDays": "283 nap",
    "securityType": "1MÁP",
    "maturityDate": "2025.01.23",
    "name": "K2025/04",
    "bidEhmYield": "7,73",
    "askYield": "",
    "currency": "HUF",
    "maturityInDays_val": 283,
    "issueDate": "2024.01.23",
    "longName": "K250123"
}