{
    "askPrice": "",
    "green": 0,
    "coupon": "6,50 %",
    "accruedInterest": "0,2315",
    "settleDate": "2024.02.05",
    "askEhmYield": "",
    "bidYield": "7,58",
    "rawName": "K2025/04",
    "bidPrice": "99,0000",
    "coupon_val": 6.5,
    "maturityInDays": "353 nap",
    "securityType": "1MÁP",
    "maturityDate": "2025.01.23",
    "name": "K2025/04",
    "bidEhmYield": "7,57",
    "askYield": "",
    "currency": "HUF",
    "maturityInDays_val": 353,
    "issueDate": "2024.01.23",
    "longName": "K250123"
}