{
    "askPrice": "",
    "green": 0,
    "coupon": "6,50 %",
    "accruedInterest": "1,1397",
    "settleDate": "2024.03.28",
    "askEhmYield": "",
    "bidYield": "7,75",
    "rawName": "K2025/04",
    "bidPrice": "99,0000",
    "coupon_val": 6.5,
    "maturityInDays": "301 nap",
    "securityType": "1MÁP",
    "maturityDate": "2025.01.23",
    "name": "K2025/04",
    "bidEhmYield": "7,68",
    "askYield": "",
    "currency": "HUF",
    "maturityInDays_val": 301,
    "issueDate": "2024.01.23",
    "longName": "K250123"
}