{
    "askPrice": "",
    "green": 0,
    "coupon": "3,50 %",
    "accruedInterest": "1,2079",
    "settleDate": "2023.11.07",
    "askEhmYield": "",
    "bidYield": "5,14",
    "rawName": "N2028/27",
    "bidPrice": "99,5000",
    "coupon_val": 3.5,
    "maturityInDays": "1700 nap",
    "securityType": "MÁP Plusz",
    "maturityDate": "2028.07.03",
    "name": "N2028/27",
    "bidEhmYield": "",
    "askYield": "",
    "currency": "HUF",
    "maturityInDays_val": 1700,
    "issueDate": "2023.07.03",
    "longName": "N280703"
}