{
    "askPrice": "",
    "green": 0,
    "coupon": "3,50 %",
    "accruedInterest": "0,4835",
    "settleDate": "2024.02.16",
    "askEhmYield": "",
    "bidYield": "5,24",
    "rawName": "N2028/27",
    "bidPrice": "99,5000",
    "coupon_val": 3.5,
    "maturityInDays": "1599 nap",
    "securityType": "MÁP Plusz",
    "maturityDate": "2028.07.03",
    "name": "N2028/27",
    "bidEhmYield": "",
    "askYield": "",
    "currency": "HUF",
    "maturityInDays_val": 1599,
    "issueDate": "2023.07.03",
    "longName": "N280703"
}