{
    "askPrice": "",
    "green": 0,
    "coupon": "3,50 %",
    "accruedInterest": "1,85",
    "settleDate": "2022.07.15",
    "askEhmYield": "",
    "bidYield": "",
    "rawName": "N2026/07",
    "bidPrice": "99,50",
    "coupon_val": 3.5,
    "maturityInDays": "1311 nap",
    "securityType": "MÁP Plusz",
    "maturityDate": "2026.02.15",
    "name": "N2026/07",
    "bidEhmYield": "",
    "askYield": "",
    "currency": "HUF",
    "maturityInDays_val": 1311,
    "longName": "N260215"
}