{
    "askPrice": "",
    "green": 0,
    "coupon": "3,50 %",
    "accruedInterest": "3,40",
    "settleDate": "2022.11.18",
    "askEhmYield": "",
    "bidYield": "5,57",
    "rawName": "N2026/07",
    "bidPrice": "99,50",
    "coupon_val": 3.5,
    "maturityInDays": "1185 nap",
    "securityType": "MÁP Plusz",
    "maturityDate": "2026.02.15",
    "name": "N2026/07",
    "bidEhmYield": "",
    "askYield": "",
    "currency": "HUF",
    "maturityInDays_val": 1185,
    "issueDate": "2021-02-15",
    "longName": "N260215"
}