{
    "askPrice": "",
    "green": 0,
    "coupon": "3,50 %",
    "accruedInterest": "0,0685",
    "settleDate": "2023.02.20",
    "askEhmYield": "",
    "bidYield": "5,48",
    "rawName": "N2026/07",
    "bidPrice": "100,0000",
    "coupon_val": 3.5,
    "maturityInDays": "1091 nap",
    "securityType": "MÁP Plusz",
    "maturityDate": "2026.02.15",
    "name": "N2026/07",
    "bidEhmYield": "",
    "askYield": "",
    "currency": "HUF",
    "maturityInDays_val": 1091,
    "issueDate": "2021.02.15",
    "longName": "N260215"
}