{
    "askPrice": "",
    "green": 0,
    "coupon": "3,50 %",
    "accruedInterest": "1,1233",
    "settleDate": "2023.05.08",
    "askEhmYield": "",
    "bidYield": "5,71",
    "rawName": "N2026/07",
    "bidPrice": "99,5000",
    "coupon_val": 3.5,
    "maturityInDays": "1014 nap",
    "securityType": "MÁP Plusz",
    "maturityDate": "2026.02.15",
    "name": "N2026/07",
    "bidEhmYield": "",
    "askYield": "",
    "currency": "HUF",
    "maturityInDays_val": 1014,
    "issueDate": "2021.02.15",
    "longName": "N260215"
}