{
    "askPrice": "",
    "green": 0,
    "coupon": "3,50 %",
    "accruedInterest": "3,9452",
    "settleDate": "2023.11.30",
    "askEhmYield": "",
    "bidYield": "5,90",
    "rawName": "N2026/07",
    "bidPrice": "99,5000",
    "coupon_val": 3.5,
    "maturityInDays": "808 nap",
    "securityType": "MÁP Plusz",
    "maturityDate": "2026.02.15",
    "name": "N2026/07",
    "bidEhmYield": "",
    "askYield": "",
    "currency": "HUF",
    "maturityInDays_val": 808,
    "issueDate": "2021.02.15",
    "longName": "N260215"
}