{
    "askPrice": "",
    "green": 0,
    "coupon": "3,50 %",
    "accruedInterest": "1,2322",
    "settleDate": "2024.05.07",
    "askEhmYield": "",
    "bidYield": "6,06",
    "rawName": "N2026/07",
    "bidPrice": "99,5000",
    "coupon_val": 3.5,
    "maturityInDays": "649 nap",
    "securityType": "MÁP Plusz",
    "maturityDate": "2026.02.15",
    "name": "N2026/07",
    "bidEhmYield": "",
    "askYield": "",
    "currency": "HUF",
    "maturityInDays_val": 649,
    "issueDate": "2021.02.15",
    "longName": "N260215"
}