{
    "askPrice": "",
    "green": 0,
    "coupon": "3,50 %",
    "accruedInterest": "4,4384",
    "settleDate": "2024.01.05",
    "askEhmYield": "",
    "bidYield": "5,95",
    "rawName": "N2026/07",
    "bidPrice": "99,5000",
    "coupon_val": 3.5,
    "maturityInDays": "772 nap",
    "securityType": "MÁP Plusz",
    "maturityDate": "2026.02.15",
    "name": "N2026/07",
    "bidEhmYield": "",
    "askYield": "",
    "currency": "HUF",
    "maturityInDays_val": 772,
    "issueDate": "2021.02.15",
    "longName": "N260215"
}