{
    "askPrice": "",
    "green": 0,
    "coupon": "3,50 %",
    "accruedInterest": "0,2254",
    "settleDate": "2024.03.01",
    "askEhmYield": "",
    "bidYield": "6,02",
    "rawName": "N2026/07",
    "bidPrice": "99,5000",
    "coupon_val": 3.5,
    "maturityInDays": "716 nap",
    "securityType": "MÁP Plusz",
    "maturityDate": "2026.02.15",
    "name": "N2026/07",
    "bidEhmYield": "",
    "askYield": "",
    "currency": "HUF",
    "maturityInDays_val": 716,
    "issueDate": "2021.02.15",
    "longName": "N260215"
}