{
    "askPrice": "",
    "green": 0,
    "coupon": "3,50 %",
    "accruedInterest": "0,1603",
    "settleDate": "2022.12.19",
    "askEhmYield": "",
    "bidYield": "5,37",
    "rawName": "N2026/49",
    "bidPrice": "99,5000",
    "coupon_val": 3.5,
    "maturityInDays": "1448 nap",
    "securityType": "MÁP Plusz",
    "maturityDate": "2026.12.06",
    "name": "N2026/49",
    "bidEhmYield": "",
    "askYield": "",
    "currency": "HUF",
    "maturityInDays_val": 1448,
    "issueDate": "2021.12.06",
    "longName": "N261206"
}