{
    "askPrice": "",
    "green": 0,
    "coupon": "3,50 %",
    "accruedInterest": "1,16",
    "settleDate": "2022.09.20",
    "askEhmYield": "",
    "bidYield": "",
    "rawName": "N2026/49",
    "bidPrice": "99,50",
    "coupon_val": 3.5,
    "maturityInDays": "1538 nap",
    "securityType": "MÁP Plusz",
    "maturityDate": "2026.12.06",
    "name": "N2026/49",
    "bidEhmYield": "",
    "askYield": "",
    "currency": "HUF",
    "maturityInDays_val": 1538,
    "longName": "N261206"
}