{
    "askPrice": "",
    "green": 0,
    "coupon": "3,50 %",
    "accruedInterest": "0,3142",
    "settleDate": "2023.12.29",
    "askEhmYield": "",
    "bidYield": "5,68",
    "rawName": "N2026/49",
    "bidPrice": "99,5000",
    "coupon_val": 3.5,
    "maturityInDays": "1073 nap",
    "securityType": "MÁP Plusz",
    "maturityDate": "2026.12.06",
    "name": "N2026/49",
    "bidEhmYield": "",
    "askYield": "",
    "currency": "HUF",
    "maturityInDays_val": 1073,
    "issueDate": "2021.12.06",
    "longName": "N261206"
}