{
    "askPrice": "",
    "green": 0,
    "coupon": "3,50 %",
    "accruedInterest": "0,09",
    "settleDate": "2022.09.22",
    "askEhmYield": "",
    "bidYield": "",
    "rawName": "N2024/15",
    "bidPrice": "100,00",
    "coupon_val": 3.5,
    "maturityInDays": "725 nap",
    "securityType": "MÁP Plusz",
    "maturityDate": "2024.09.16",
    "name": "N2024/15",
    "bidEhmYield": "",
    "askYield": "",
    "currency": "HUF",
    "maturityInDays_val": 725,
    "longName": "N240916"
}