{
    "askPrice": "",
    "green": 0,
    "coupon": "3,50 %",
    "accruedInterest": "0,39",
    "settleDate": "2022.10.12",
    "askEhmYield": "",
    "bidYield": "",
    "rawName": "N2024/15",
    "bidPrice": "99,50",
    "coupon_val": 3.5,
    "maturityInDays": "705 nap",
    "securityType": "MÁP Plusz",
    "maturityDate": "2024.09.16",
    "name": "N2024/15",
    "bidEhmYield": "",
    "askYield": "",
    "currency": "HUF",
    "maturityInDays_val": 705,
    "longName": "N240916"
}