{
    "askPrice": "",
    "green": 0,
    "coupon": "3,50 %",
    "accruedInterest": "4,12",
    "settleDate": "2022.07.14",
    "askEhmYield": "",
    "bidYield": "",
    "rawName": "N2024/15",
    "bidPrice": "99,50",
    "coupon_val": 3.5,
    "maturityInDays": "795 nap",
    "securityType": "MÁP Plusz",
    "maturityDate": "2024.09.16",
    "name": "N2024/15",
    "bidEhmYield": "",
    "askYield": "",
    "currency": "HUF",
    "maturityInDays_val": 795,
    "longName": "N240916"
}