{
    "askPrice": "",
    "green": 0,
    "coupon": "3,50 %",
    "accruedInterest": "2,4260",
    "settleDate": "2023.02.24",
    "askEhmYield": "",
    "bidYield": "6,13",
    "rawName": "N2024/15",
    "bidPrice": "99,5000",
    "coupon_val": 3.5,
    "maturityInDays": "570 nap",
    "securityType": "MÁP Plusz",
    "maturityDate": "2024.09.16",
    "name": "N2024/15",
    "bidEhmYield": "",
    "askYield": "",
    "currency": "HUF",
    "maturityInDays_val": 570,
    "issueDate": "2019.09.16",
    "longName": "N240916"
}