{
    "askPrice": "",
    "green": 0,
    "coupon": "3,50 %",
    "accruedInterest": "4,9274",
    "settleDate": "2023.08.09",
    "askEhmYield": "",
    "bidYield": "6,42",
    "rawName": "N2024/15",
    "bidPrice": "99,5000",
    "coupon_val": 3.5,
    "maturityInDays": "404 nap",
    "securityType": "MÁP Plusz",
    "maturityDate": "2024.09.16",
    "name": "N2024/15",
    "bidEhmYield": "",
    "askYield": "",
    "currency": "HUF",
    "maturityInDays_val": 404,
    "issueDate": "2019.09.16",
    "longName": "N240916"
}