{
    "askPrice": "",
    "green": 0,
    "coupon": "3,50 %",
    "accruedInterest": "3,8525",
    "settleDate": "2024.05.08",
    "askEhmYield": "",
    "bidYield": "7,32",
    "rawName": "N2024/15",
    "bidPrice": "99,5000",
    "coupon_val": 3.5,
    "maturityInDays": "131 nap",
    "securityType": "MÁP Plusz",
    "maturityDate": "2024.09.16",
    "name": "N2024/15",
    "bidEhmYield": "",
    "askYield": "",
    "currency": "HUF",
    "maturityInDays_val": 131,
    "issueDate": "2019.09.16",
    "longName": "N240916"
}