{
    "askPrice": "",
    "green": 0,
    "coupon": "3,50 %",
    "accruedInterest": "2,7377",
    "settleDate": "2024.03.01",
    "askEhmYield": "",
    "bidYield": "6,87",
    "rawName": "N2024/15",
    "bidPrice": "99,5000",
    "coupon_val": 3.5,
    "maturityInDays": "199 nap",
    "securityType": "MÁP Plusz",
    "maturityDate": "2024.09.16",
    "name": "N2024/15",
    "bidEhmYield": "",
    "askYield": "",
    "currency": "HUF",
    "maturityInDays_val": 199,
    "issueDate": "2019.09.16",
    "longName": "N240916"
}