{
    "askPrice": "",
    "green": 0,
    "coupon": 0,
    "accruedInterest": 0,
    "settleDate": "2023.10.11",
    "askEhmYield": "",
    "bidYield": "8,98",
    "rawName": "D231018",
    "bidPrice": "99,8257",
    "maturityInDays": "7 nap",
    "securityType": "DKJ",
    "maturityDate": "2023.10.18",
    "name": "D231018",
    "bidEhmYield": "9,10",
    "askYield": "",
    "currency": "HUF",
    "maturityInDays_val": 7,
    "issueDate": "2022.10.19",
    "longName": "D231018"
}