{
    "askPrice": "93,2733",
    "green": 0,
    "coupon": 0,
    "accruedInterest": 0,
    "settleDate": "2023.04.17",
    "askEhmYield": "14,31",
    "bidYield": "14,90",
    "rawName": "D231018",
    "bidPrice": "92,9234",
    "maturityInDays": "184 nap",
    "securityType": "DKJ",
    "maturityDate": "2023.10.18",
    "name": "D231018",
    "bidEhmYield": "15,11",
    "askYield": "14,11",
    "currency": "HUF",
    "maturityInDays_val": 184,
    "issueDate": "2022.10.19",
    "longName": "D231018"
}