{
    "askPrice": "99,2597",
    "green": 0,
    "coupon": 0,
    "accruedInterest": 0,
    "settleDate": "2023.09.18",
    "askEhmYield": "9,07",
    "bidYield": "10,25",
    "rawName": "D231018",
    "bidPrice": "99,1531",
    "maturityInDays": "30 nap",
    "securityType": "DKJ",
    "maturityDate": "2023.10.18",
    "name": "D231018",
    "bidEhmYield": "10,39",
    "askYield": "8,95",
    "currency": "HUF",
    "maturityInDays_val": 30,
    "issueDate": "2022.10.19",
    "longName": "D231018"
}