{
    "askPrice": "",
    "green": 0,
    "coupon": 0,
    "accruedInterest": 0,
    "settleDate": "2023.10.09",
    "askEhmYield": "",
    "bidYield": "9,00",
    "rawName": "D231018",
    "bidPrice": "99,7755",
    "maturityInDays": "9 nap",
    "securityType": "DKJ",
    "maturityDate": "2023.10.18",
    "name": "D231018",
    "bidEhmYield": "9,13",
    "askYield": "",
    "currency": "HUF",
    "maturityInDays_val": 9,
    "issueDate": "2022.10.19",
    "longName": "D231018"
}