{
    "askPrice": "98,0773",
    "green": 0,
    "coupon": 0,
    "accruedInterest": 0,
    "settleDate": "2023.08.04",
    "askEhmYield": "9,54",
    "bidYield": "10,73",
    "rawName": "D231018",
    "bidPrice": "97,8135",
    "maturityInDays": "75 nap",
    "securityType": "DKJ",
    "maturityDate": "2023.10.18",
    "name": "D231018",
    "bidEhmYield": "10,88",
    "askYield": "9,41",
    "currency": "HUF",
    "maturityInDays_val": 75,
    "issueDate": "2022.10.19",
    "longName": "D231018"
}