{
    "askPrice": "98,7535",
    "green": 0,
    "coupon": 0,
    "accruedInterest": 0,
    "settleDate": "2023.08.28",
    "askEhmYield": "9,03",
    "bidYield": "10,19",
    "rawName": "D231018",
    "bidPrice": "98,5770",
    "maturityInDays": "51 nap",
    "securityType": "DKJ",
    "maturityDate": "2023.10.18",
    "name": "D231018",
    "bidEhmYield": "10,33",
    "askYield": "8,91",
    "currency": "HUF",
    "maturityInDays_val": 51,
    "issueDate": "2022.10.19",
    "longName": "D231018"
}