{
    "askPrice": "90,9020",
    "green": 0,
    "coupon": 0,
    "accruedInterest": 0,
    "settleDate": "2023.01.17",
    "askEhmYield": "13,33",
    "bidYield": "13,95",
    "rawName": "D231018",
    "bidPrice": "90,4016",
    "maturityInDays": "274 nap",
    "securityType": "DKJ",
    "maturityDate": "2023.10.18",
    "name": "D231018",
    "bidEhmYield": "14,14",
    "askYield": "13,15",
    "currency": "HUF",
    "maturityInDays_val": 274,
    "issueDate": "2022.10.19",
    "longName": "D231018"
}