{
    "askPrice": "98,5848",
    "green": 0,
    "coupon": 0,
    "accruedInterest": 0,
    "settleDate": "2023.08.21",
    "askEhmYield": "9,03",
    "bidYield": "10,20",
    "rawName": "D231018",
    "bidPrice": "98,3832",
    "maturityInDays": "58 nap",
    "securityType": "DKJ",
    "maturityDate": "2023.10.18",
    "name": "D231018",
    "bidEhmYield": "10,34",
    "askYield": "8,91",
    "currency": "HUF",
    "maturityInDays_val": 58,
    "issueDate": "2022.10.19",
    "longName": "D231018"
}