{
    "askPrice": "92,5720",
    "green": 0,
    "coupon": 0,
    "accruedInterest": 0,
    "settleDate": "2023.03.28",
    "askEhmYield": "14,36",
    "bidYield": "14,87",
    "rawName": "D231018",
    "bidPrice": "92,2285",
    "maturityInDays": "204 nap",
    "securityType": "DKJ",
    "maturityDate": "2023.10.18",
    "name": "D231018",
    "bidEhmYield": "15,08",
    "askYield": "14,16",
    "currency": "HUF",
    "maturityInDays_val": 204,
    "issueDate": "2022.10.19",
    "longName": "D231018"
}