{
    "askPrice": "92,0776",
    "green": 0,
    "coupon": 0,
    "accruedInterest": 0,
    "settleDate": "2023.03.09",
    "askEhmYield": "14,08",
    "bidYield": "14,65",
    "rawName": "D231018",
    "bidPrice": "91,6802",
    "maturityInDays": "223 nap",
    "securityType": "DKJ",
    "maturityDate": "2023.10.18",
    "name": "D231018",
    "bidEhmYield": "14,85",
    "askYield": "13,89",
    "currency": "HUF",
    "maturityInDays_val": 223,
    "issueDate": "2022.10.19",
    "longName": "D231018"
}