{
    "askPrice": "91,6373",
    "green": 0,
    "coupon": 0,
    "accruedInterest": 0,
    "settleDate": "2023.02.27",
    "askEhmYield": "14,30",
    "bidYield": "14,90",
    "rawName": "D231018",
    "bidPrice": "91,2046",
    "maturityInDays": "233 nap",
    "securityType": "DKJ",
    "maturityDate": "2023.10.18",
    "name": "D231018",
    "bidEhmYield": "15,11",
    "askYield": "14,10",
    "currency": "HUF",
    "maturityInDays_val": 233,
    "issueDate": "2022.10.19",
    "longName": "D231018"
}