{
    "askPrice": "96,5757",
    "green": 0,
    "coupon": 0,
    "accruedInterest": 0,
    "settleDate": "2023.06.23",
    "askEhmYield": "11,06",
    "bidYield": "11,70",
    "rawName": "D231018",
    "bidPrice": "96,3368",
    "maturityInDays": "117 nap",
    "securityType": "DKJ",
    "maturityDate": "2023.10.18",
    "name": "D231018",
    "bidEhmYield": "11,86",
    "askYield": "10,91",
    "currency": "HUF",
    "maturityInDays_val": 117,
    "issueDate": "2022.10.19",
    "longName": "D231018"
}