{
    "askPrice": "92,5335",
    "green": 0,
    "coupon": 0,
    "accruedInterest": 0,
    "settleDate": "2023.03.27",
    "askEhmYield": "14,37",
    "bidYield": "14,95",
    "rawName": "D231018",
    "bidPrice": "92,1547",
    "maturityInDays": "205 nap",
    "securityType": "DKJ",
    "maturityDate": "2023.10.18",
    "name": "D231018",
    "bidEhmYield": "15,16",
    "askYield": "14,17",
    "currency": "HUF",
    "maturityInDays_val": 205,
    "issueDate": "2022.10.19",
    "longName": "D231018"
}