{
    "askPrice": "91,5794",
    "green": 0,
    "coupon": 0,
    "accruedInterest": 0,
    "settleDate": "2023.02.21",
    "askEhmYield": "14,04",
    "bidYield": "14,56",
    "rawName": "D231018",
    "bidPrice": "91,1858",
    "maturityInDays": "239 nap",
    "securityType": "DKJ",
    "maturityDate": "2023.10.18",
    "name": "D231018",
    "bidEhmYield": "14,76",
    "askYield": "13,85",
    "currency": "HUF",
    "maturityInDays_val": 239,
    "issueDate": "2022.10.19",
    "longName": "D231018"
}