{
    "askPrice": "99,6589",
    "green": 0,
    "coupon": 0,
    "accruedInterest": 0,
    "settleDate": "2023.10.02",
    "askEhmYield": "7,81",
    "bidYield": "8,90",
    "rawName": "D231018",
    "bidPrice": "99,6060",
    "maturityInDays": "16 nap",
    "securityType": "DKJ",
    "maturityDate": "2023.10.18",
    "name": "D231018",
    "bidEhmYield": "9,02",
    "askYield": "7,70",
    "currency": "HUF",
    "maturityInDays_val": 16,
    "issueDate": "2022.10.19",
    "longName": "D231018"
}