{
    "askPrice": "93,6030",
    "green": 0,
    "coupon": 0,
    "accruedInterest": 0,
    "settleDate": "2023.04.24",
    "askEhmYield": "14,09",
    "bidYield": "14,70",
    "rawName": "D231018",
    "bidPrice": "93,2597",
    "maturityInDays": "177 nap",
    "securityType": "DKJ",
    "maturityDate": "2023.10.18",
    "name": "D231018",
    "bidEhmYield": "14,90",
    "askYield": "13,90",
    "currency": "HUF",
    "maturityInDays_val": 177,
    "issueDate": "2022.10.19",
    "longName": "D231018"
}