{
    "askPrice": "91,1020",
    "green": 0,
    "coupon": 0,
    "accruedInterest": 0,
    "settleDate": "2023.01.23",
    "askEhmYield": "13,30",
    "bidYield": "13,87",
    "rawName": "D231018",
    "bidPrice": "90,6409",
    "maturityInDays": "268 nap",
    "securityType": "DKJ",
    "maturityDate": "2023.10.18",
    "name": "D231018",
    "bidEhmYield": "14,06",
    "askYield": "13,12",
    "currency": "HUF",
    "maturityInDays_val": 268,
    "issueDate": "2022.10.19",
    "longName": "D231018"
}