{
    "askPrice": "99,5643",
    "green": 0,
    "coupon": 0,
    "accruedInterest": 0,
    "settleDate": "2023.09.25",
    "askEhmYield": "6,94",
    "bidYield": "8,25",
    "rawName": "D231018",
    "bidPrice": "99,4757",
    "maturityInDays": "23 nap",
    "securityType": "DKJ",
    "maturityDate": "2023.10.18",
    "name": "D231018",
    "bidEhmYield": "8,36",
    "askYield": "6,85",
    "currency": "HUF",
    "maturityInDays_val": 23,
    "issueDate": "2022.10.19",
    "longName": "D231018"
}