{
    "askPrice": "98,6405",
    "green": 0,
    "coupon": 0,
    "accruedInterest": 0,
    "settleDate": "2023.08.23",
    "askEhmYield": "8,98",
    "bidYield": "10,17",
    "rawName": "D231018",
    "bidPrice": "98,4426",
    "maturityInDays": "56 nap",
    "securityType": "DKJ",
    "maturityDate": "2023.10.18",
    "name": "D231018",
    "bidEhmYield": "10,31",
    "askYield": "8,86",
    "currency": "HUF",
    "maturityInDays_val": 56,
    "issueDate": "2022.10.19",
    "longName": "D231018"
}