{
    "askPrice": "97,9915",
    "green": 0,
    "coupon": 0,
    "accruedInterest": 0,
    "settleDate": "2023.08.01",
    "askEhmYield": "9,59",
    "bidYield": "10,74",
    "rawName": "D231018",
    "bidPrice": "97,7259",
    "maturityInDays": "78 nap",
    "securityType": "DKJ",
    "maturityDate": "2023.10.18",
    "name": "D231018",
    "bidEhmYield": "10,89",
    "askYield": "9,46",
    "currency": "HUF",
    "maturityInDays_val": 78,
    "issueDate": "2022.10.19",
    "longName": "D231018"
}