{
    "askPrice": "98,2032",
    "green": 0,
    "coupon": 0,
    "accruedInterest": 0,
    "settleDate": "2023.08.09",
    "askEhmYield": "9,54",
    "bidYield": "10,74",
    "rawName": "D231018",
    "bidPrice": "97,9544",
    "maturityInDays": "70 nap",
    "securityType": "DKJ",
    "maturityDate": "2023.10.18",
    "name": "D231018",
    "bidEhmYield": "10,89",
    "askYield": "9,41",
    "currency": "HUF",
    "maturityInDays_val": 70,
    "issueDate": "2022.10.19",
    "longName": "D231018"
}