{
    "askPrice": "",
    "green": 0,
    "coupon": 0,
    "accruedInterest": 0,
    "settleDate": "2023.10.12",
    "askEhmYield": "",
    "bidYield": "8,93",
    "rawName": "D231018",
    "bidPrice": "99,8514",
    "maturityInDays": "6 nap",
    "securityType": "DKJ",
    "maturityDate": "2023.10.18",
    "name": "D231018",
    "bidEhmYield": "9,05",
    "askYield": "",
    "currency": "HUF",
    "maturityInDays_val": 6,
    "issueDate": "2022.10.19",
    "longName": "D231018"
}