{
    "askPrice": "97,0384",
    "green": 0,
    "coupon": 0,
    "accruedInterest": 0,
    "settleDate": "2023.06.28",
    "askEhmYield": "9,95",
    "bidYield": "10,51",
    "rawName": "D231018",
    "bidPrice": "96,8338",
    "maturityInDays": "112 nap",
    "securityType": "DKJ",
    "maturityDate": "2023.10.18",
    "name": "D231018",
    "bidEhmYield": "10,66",
    "askYield": "9,81",
    "currency": "HUF",
    "maturityInDays_val": 112,
    "issueDate": "2022.10.19",
    "longName": "D231018"
}