{
    "askPrice": "97,1949",
    "green": 0,
    "coupon": 0,
    "accruedInterest": 0,
    "settleDate": "2023.07.03",
    "askEhmYield": "9,84",
    "bidYield": "10,54",
    "rawName": "D231018",
    "bidPrice": "96,9624",
    "maturityInDays": "107 nap",
    "securityType": "DKJ",
    "maturityDate": "2023.10.18",
    "name": "D231018",
    "bidEhmYield": "10,69",
    "askYield": "9,71",
    "currency": "HUF",
    "maturityInDays_val": 107,
    "issueDate": "2022.10.19",
    "longName": "D231018"
}