{
    "askPrice": "92,6057",
    "green": 0,
    "coupon": 0,
    "accruedInterest": 0,
    "settleDate": "2023.03.29",
    "askEhmYield": "14,36",
    "bidYield": "14,88",
    "rawName": "D231018",
    "bidPrice": "92,2589",
    "maturityInDays": "203 nap",
    "securityType": "DKJ",
    "maturityDate": "2023.10.18",
    "name": "D231018",
    "bidEhmYield": "15,09",
    "askYield": "14,16",
    "currency": "HUF",
    "maturityInDays_val": 203,
    "issueDate": "2022.10.19",
    "longName": "D231018"
}