{
    "askPrice": "",
    "green": 0,
    "coupon": "9,00 %",
    "accruedInterest": "0,1479",
    "settleDate": "2023.09.04",
    "askEhmYield": "",
    "bidYield": "10,08",
    "rawName": "K2024/35",
    "bidPrice": "99,0000",
    "coupon_val": 9,
    "maturityInDays": "360 nap",
    "securityType": "1MÁP",
    "maturityDate": "2024.08.29",
    "name": "K2024/35",
    "bidEhmYield": "10,07",
    "askYield": "",
    "currency": "HUF",
    "maturityInDays_val": 360,
    "issueDate": "2023.08.29",
    "longName": "K240829"
}