{
    "askPrice": "",
    "green": 0,
    "coupon": "9,00 %",
    "accruedInterest": "1,6027",
    "settleDate": "2023.11.02",
    "askEhmYield": "",
    "bidYield": "10,21",
    "rawName": "K2024/35",
    "bidPrice": "99,0000",
    "coupon_val": 9,
    "maturityInDays": "301 nap",
    "securityType": "1MÁP",
    "maturityDate": "2024.08.29",
    "name": "K2024/35",
    "bidEhmYield": "10,12",
    "askYield": "",
    "currency": "HUF",
    "maturityInDays_val": 301,
    "issueDate": "2023.08.29",
    "longName": "K240829"
}