{
    "askPrice": "",
    "green": 0,
    "coupon": "9,00 %",
    "accruedInterest": "2,7370",
    "settleDate": "2023.12.18",
    "askEhmYield": "",
    "bidYield": "10,37",
    "rawName": "K2024/35",
    "bidPrice": "99,0000",
    "coupon_val": 9,
    "maturityInDays": "255 nap",
    "securityType": "1MÁP",
    "maturityDate": "2024.08.29",
    "name": "K2024/35",
    "bidEhmYield": "10,22",
    "askYield": "",
    "currency": "HUF",
    "maturityInDays_val": 255,
    "issueDate": "2023.08.29",
    "longName": "K240829"
}