{
    "askPrice": "",
    "green": 0,
    "coupon": "9,00 %",
    "accruedInterest": "6,3370",
    "settleDate": "2024.05.13",
    "askEhmYield": "",
    "bidYield": "12,25",
    "rawName": "K2024/35",
    "bidPrice": "99,0000",
    "coupon_val": 9,
    "maturityInDays": "108 nap",
    "securityType": "1MÁP",
    "maturityDate": "2024.08.29",
    "name": "K2024/35",
    "bidEhmYield": "11,67",
    "askYield": "",
    "currency": "HUF",
    "maturityInDays_val": 108,
    "issueDate": "2023.08.29",
    "longName": "K240829"
}