{
    "askPrice": "",
    "green": 0,
    "coupon": "9,00 %",
    "accruedInterest": "4,2164",
    "settleDate": "2024.02.16",
    "askEhmYield": "",
    "bidYield": "10,74",
    "rawName": "K2024/35",
    "bidPrice": "99,0000",
    "coupon_val": 9,
    "maturityInDays": "195 nap",
    "securityType": "1MÁP",
    "maturityDate": "2024.08.29",
    "name": "K2024/35",
    "bidEhmYield": "10,49",
    "askYield": "",
    "currency": "HUF",
    "maturityInDays_val": 195,
    "issueDate": "2023.08.29",
    "longName": "K240829"
}