{
    "askPrice": "",
    "green": 0,
    "coupon": "9,00 %",
    "accruedInterest": "5,0548",
    "settleDate": "2024.03.22",
    "askEhmYield": "",
    "bidYield": "11,17",
    "rawName": "K2024/35",
    "bidPrice": "99,0000",
    "coupon_val": 9,
    "maturityInDays": "160 nap",
    "securityType": "1MÁP",
    "maturityDate": "2024.08.29",
    "name": "K2024/35",
    "bidEhmYield": "10,79",
    "askYield": "",
    "currency": "HUF",
    "maturityInDays_val": 160,
    "issueDate": "2023.08.29",
    "longName": "K240829"
}