{
    "askPrice": "",
    "green": 0,
    "coupon": "3,50 %",
    "accruedInterest": "1,0652",
    "settleDate": "2023.11.06",
    "askEhmYield": "",
    "bidYield": "5,13",
    "rawName": "N2028/29",
    "bidPrice": "99,5000",
    "coupon_val": 3.5,
    "maturityInDays": "1715 nap",
    "securityType": "MÁP Plusz",
    "maturityDate": "2028.07.17",
    "name": "N2028/29",
    "bidEhmYield": "",
    "askYield": "",
    "currency": "HUF",
    "maturityInDays_val": 1715,
    "issueDate": "2023.07.17",
    "longName": "N280717"
}