{
    "askPrice": "",
    "green": 0,
    "coupon": "3,50 %",
    "accruedInterest": "0,0666",
    "settleDate": "2023.07.24",
    "askEhmYield": "",
    "bidYield": "5,03",
    "rawName": "N2028/29",
    "bidPrice": "99,5000",
    "coupon_val": 3.5,
    "maturityInDays": "1820 nap",
    "securityType": "MÁP Plusz",
    "maturityDate": "2028.07.17",
    "name": "N2028/29",
    "bidEhmYield": "",
    "askYield": "",
    "currency": "HUF",
    "maturityInDays_val": 1820,
    "issueDate": "2023.07.17",
    "longName": "N280717"
}