{
    "askPrice": "",
    "green": 0,
    "coupon": "3,50 %",
    "accruedInterest": "0,3626",
    "settleDate": "2024.02.19",
    "askEhmYield": "",
    "bidYield": "5,23",
    "rawName": "N2028/29",
    "bidPrice": "99,5000",
    "coupon_val": 3.5,
    "maturityInDays": "1610 nap",
    "securityType": "MÁP Plusz",
    "maturityDate": "2028.07.17",
    "name": "N2028/29",
    "bidEhmYield": "",
    "askYield": "",
    "currency": "HUF",
    "maturityInDays_val": 1610,
    "issueDate": "2023.07.17",
    "longName": "N280717"
}