{
    "askPrice": "",
    "green": 0,
    "coupon": "3,50 %",
    "accruedInterest": "1,7310",
    "settleDate": "2024.01.15",
    "askEhmYield": "",
    "bidYield": "",
    "rawName": "N2028/29",
    "bidPrice": "",
    "coupon_val": 3.5,
    "maturityInDays": "1645 nap",
    "securityType": "MÁP Plusz",
    "maturityDate": "2028.07.17",
    "name": "N2028/29",
    "bidEhmYield": "",
    "askYield": "",
    "currency": "HUF",
    "maturityInDays_val": 1645,
    "issueDate": "2023.07.17",
    "longName": "N280717"
}