{
    "askPrice": "",
    "green": 0,
    "coupon": "3,50 %",
    "accruedInterest": "1,3675",
    "settleDate": "2023.10.26",
    "askEhmYield": "",
    "bidYield": "5,16",
    "rawName": "N2028/23",
    "bidPrice": "99,5000",
    "coupon_val": 3.5,
    "maturityInDays": "1684 nap",
    "securityType": "MÁP Plusz",
    "maturityDate": "2028.06.05",
    "name": "N2028/23",
    "bidEhmYield": "",
    "askYield": "",
    "currency": "HUF",
    "maturityInDays_val": 1684,
    "issueDate": "2023.06.05",
    "longName": "N280605"
}