{
    "askPrice": "",
    "green": 0,
    "coupon": "3,50 %",
    "accruedInterest": "0,9290",
    "settleDate": "2024.02.28",
    "askEhmYield": "",
    "bidYield": "5,27",
    "rawName": "N2028/23",
    "bidPrice": "99,5000",
    "coupon_val": 3.5,
    "maturityInDays": "1559 nap",
    "securityType": "MÁP Plusz",
    "maturityDate": "2028.06.05",
    "name": "N2028/23",
    "bidEhmYield": "",
    "askYield": "",
    "currency": "HUF",
    "maturityInDays_val": 1559,
    "issueDate": "2023.06.05",
    "longName": "N280605"
}