{
    "askPrice": "",
    "green": 0,
    "coupon": null,
    "accruedInterest": "1,76",
    "settleDate": "2022.10.11",
    "askEhmYield": "",
    "bidYield": "",
    "rawName": "2026/J",
    "bidPrice": "99,00",
    "maturityInDays": "1228 nap",
    "securityType": "PMÁP",
    "maturityDate": "2026.02.20",
    "name": "2026/J",
    "bidEhmYield": "",
    "askYield": "",
    "currency": "HUF",
    "maturityInDays_val": 1228,
    "longName": "A260220J22"
}