{
    "askPrice": "100,00",
    "green": 0,
    "coupon": null,
    "accruedInterest": "1,57",
    "settleDate": "2022.09.29",
    "askEhmYield": "",
    "bidYield": "",
    "rawName": "2026/J",
    "bidPrice": "99,00",
    "maturityInDays": "1240 nap",
    "securityType": "PMÁP",
    "maturityDate": "2026.02.20",
    "name": "2026/J",
    "bidEhmYield": "",
    "askYield": "",
    "currency": "HUF",
    "maturityInDays_val": 1240,
    "longName": "A260220J22"
}