{
    "askPrice": "100,00",
    "green": 0,
    "coupon": null,
    "accruedInterest": "0,35",
    "settleDate": "2022.07.15",
    "askEhmYield": "",
    "bidYield": "",
    "rawName": "2026/J",
    "bidPrice": "99,00",
    "maturityInDays": "1316 nap",
    "securityType": "PMÁP",
    "maturityDate": "2026.02.20",
    "name": "2026/J",
    "bidEhmYield": "",
    "askYield": "",
    "currency": "HUF",
    "maturityInDays_val": 1316,
    "longName": "A260220J22"
}