{
    "askPrice": "",
    "green": 0,
    "coupon": null,
    "accruedInterest": "2,21",
    "settleDate": "2022.11.08",
    "askEhmYield": "",
    "bidYield": "",
    "rawName": "2026/J",
    "bidPrice": "99,00",
    "maturityInDays": "1200 nap",
    "securityType": "PMÁP",
    "maturityDate": "2026.02.20",
    "name": "2026/J",
    "bidEhmYield": "",
    "askYield": "",
    "currency": "HUF",
    "maturityInDays_val": 1200,
    "issueDate": "2022-06-23",
    "longName": "A260220J22"
}