{
    "askPrice": "",
    "green": 0,
    "coupon": null,
    "accruedInterest": "7,7295",
    "settleDate": "2023.08.24",
    "askEhmYield": "",
    "bidYield": "",
    "rawName": "2026/J",
    "bidPrice": "99,0000",
    "maturityInDays": "911 nap",
    "securityType": "PMÁP",
    "maturityDate": "2026.02.20",
    "name": "2026/J",
    "bidEhmYield": "",
    "askYield": "",
    "currency": "HUF",
    "maturityInDays_val": 911,
    "issueDate": "2022.06.23",
    "longName": "A260220J22"
}