{
    "askPrice": "",
    "green": 0,
    "coupon": null,
    "accruedInterest": "12,9521",
    "settleDate": "2023.12.27",
    "askEhmYield": "",
    "bidYield": "",
    "rawName": "2026/J",
    "bidPrice": "99,0000",
    "maturityInDays": "786 nap",
    "securityType": "PMÁP",
    "maturityDate": "2026.02.20",
    "name": "2026/J",
    "bidEhmYield": "",
    "askYield": "",
    "currency": "HUF",
    "maturityInDays_val": 786,
    "issueDate": "2022.06.23",
    "longName": "A260220J22"
}