{
    "askPrice": "",
    "green": 0,
    "coupon": null,
    "accruedInterest": "13,2445",
    "settleDate": "2024.01.03",
    "askEhmYield": "",
    "bidYield": "",
    "rawName": "2026/J",
    "bidPrice": "99,0000",
    "maturityInDays": "779 nap",
    "securityType": "PMÁP",
    "maturityDate": "2026.02.20",
    "name": "2026/J",
    "bidEhmYield": "",
    "askYield": "",
    "currency": "HUF",
    "maturityInDays_val": 779,
    "issueDate": "2022.06.23",
    "longName": "A260220J22"
}