{
    "askPrice": "98,3770",
    "green": 0,
    "coupon": "7,00 %",
    "accruedInterest": "0,9202",
    "settleDate": "2023.10.31",
    "askEhmYield": "7,19",
    "bidYield": "7,88",
    "rawName": "2035/A",
    "bidPrice": "93,2755",
    "coupon_val": 7,
    "maturityInDays": "4376 nap",
    "securityType": "KTV",
    "maturityDate": "2035.10.24",
    "name": "2035/A",
    "bidEhmYield": "7,87",
    "askYield": "7,20",
    "currency": "HUF",
    "maturityInDays_val": 4376,
    "issueDate": "2023.09.13",
    "longName": "A351024A23"
}