{
    "askPrice": "108,6657",
    "green": 0,
    "coupon": "7,00 %",
    "accruedInterest": "2,1251",
    "settleDate": "2024.01.02",
    "askEhmYield": "5,95",
    "bidYield": "6,61",
    "rawName": "2035/A",
    "bidPrice": "103,0588",
    "coupon_val": 7,
    "maturityInDays": "4313 nap",
    "securityType": "KTV",
    "maturityDate": "2035.10.24",
    "name": "2035/A",
    "bidEhmYield": "6,60",
    "askYield": "5,95",
    "currency": "HUF",
    "maturityInDays_val": 4313,
    "issueDate": "2023.09.13",
    "longName": "A351024A23"
}