{
    "askPrice": "108,7753",
    "green": 0,
    "coupon": "7,00 %",
    "accruedInterest": "1,8765",
    "settleDate": "2023.12.20",
    "askEhmYield": "5,94",
    "bidYield": "6,60",
    "rawName": "2035/A",
    "bidPrice": "103,1508",
    "coupon_val": 7,
    "maturityInDays": "4326 nap",
    "securityType": "KTV",
    "maturityDate": "2035.10.24",
    "name": "2035/A",
    "bidEhmYield": "6,59",
    "askYield": "5,94",
    "currency": "HUF",
    "maturityInDays_val": 4326,
    "issueDate": "2023.09.13",
    "longName": "A351024A23"
}