{
    "askPrice": "104,5053",
    "green": 0,
    "coupon": "7,00 %",
    "accruedInterest": 0,
    "settleDate": "2023.09.13",
    "askEhmYield": "6,45",
    "bidYield": "7,09",
    "rawName": "2035/A",
    "bidPrice": "99,2596",
    "coupon_val": 7,
    "maturityInDays": "4424 nap",
    "securityType": "KTV",
    "maturityDate": "2035.10.24",
    "name": "2035/A",
    "bidEhmYield": "7,08",
    "askYield": "6,45",
    "currency": "HUF",
    "maturityInDays_val": 4424,
    "issueDate": "2023.09.13",
    "longName": "A351024A23"
}