{
    "askPrice": "103,0014",
    "green": 0,
    "coupon": "7,00 %",
    "accruedInterest": "1,5131",
    "settleDate": "2023.12.01",
    "askEhmYield": "6,61",
    "bidYield": "7,30",
    "rawName": "2035/A",
    "bidPrice": "97,6004",
    "coupon_val": 7,
    "maturityInDays": "4345 nap",
    "securityType": "KTV",
    "maturityDate": "2035.10.24",
    "name": "2035/A",
    "bidEhmYield": "7,29",
    "askYield": "6,62",
    "currency": "HUF",
    "maturityInDays_val": 4345,
    "issueDate": "2023.09.13",
    "longName": "A351024A23"
}