{
    "askPrice": "104,4862",
    "green": 0,
    "coupon": "7,00 %",
    "accruedInterest": "1,7235",
    "settleDate": "2023.12.12",
    "askEhmYield": "6,43",
    "bidYield": "7,11",
    "rawName": "2035/A",
    "bidPrice": "99,0681",
    "coupon_val": 7,
    "maturityInDays": "4334 nap",
    "securityType": "KTV",
    "maturityDate": "2035.10.24",
    "name": "2035/A",
    "bidEhmYield": "7,10",
    "askYield": "6,44",
    "currency": "HUF",
    "maturityInDays_val": 4334,
    "issueDate": "2023.09.13",
    "longName": "A351024A23"
}