{
    "askPrice": "99,2493",
    "green": 0,
    "coupon": "7,00 %",
    "accruedInterest": "0,3836",
    "settleDate": "2023.10.03",
    "askEhmYield": "7,08",
    "bidYield": "7,77",
    "rawName": "2035/A",
    "bidPrice": "94,0694",
    "coupon_val": 7,
    "maturityInDays": "4404 nap",
    "securityType": "KTV",
    "maturityDate": "2035.10.24",
    "name": "2035/A",
    "bidEhmYield": "7,76",
    "askYield": "7,09",
    "currency": "HUF",
    "maturityInDays_val": 4404,
    "issueDate": "2023.09.13",
    "longName": "A351024A23"
}