{
    "askPrice": "104,3921",
    "green": 0,
    "coupon": "7,00 %",
    "accruedInterest": "3,8655",
    "settleDate": "2024.04.02",
    "askEhmYield": "6,43",
    "bidYield": "7,11",
    "rawName": "2035/A",
    "bidPrice": "99,0670",
    "coupon_val": 7,
    "maturityInDays": "4222 nap",
    "securityType": "KTV",
    "maturityDate": "2035.10.24",
    "name": "2035/A",
    "bidEhmYield": "7,10",
    "askYield": "6,44",
    "currency": "HUF",
    "maturityInDays_val": 4222,
    "issueDate": "2023.09.13",
    "longName": "A351024A23"
}