{
    "askPrice": "103,5725",
    "green": 0,
    "coupon": "7,00 %",
    "accruedInterest": "3,9038",
    "settleDate": "2024.04.04",
    "askEhmYield": "6,53",
    "bidYield": "7,18",
    "rawName": "2035/A",
    "bidPrice": "98,5322",
    "coupon_val": 7,
    "maturityInDays": "4220 nap",
    "securityType": "KTV",
    "maturityDate": "2035.10.24",
    "name": "2035/A",
    "bidEhmYield": "7,17",
    "askYield": "6,54",
    "currency": "HUF",
    "maturityInDays_val": 4220,
    "issueDate": "2023.09.13",
    "longName": "A351024A23"
}