{
    "askPrice": "102,2749",
    "green": 0,
    "coupon": "7,00 %",
    "accruedInterest": "4,3246",
    "settleDate": "2024.04.26",
    "askEhmYield": "6,69",
    "bidYield": "7,38",
    "rawName": "2035/A",
    "bidPrice": "97,0363",
    "coupon_val": 7,
    "maturityInDays": "4198 nap",
    "securityType": "KTV",
    "maturityDate": "2035.10.24",
    "name": "2035/A",
    "bidEhmYield": "7,37",
    "askYield": "6,70",
    "currency": "HUF",
    "maturityInDays_val": 4198,
    "issueDate": "2023.09.13",
    "longName": "A351024A23"
}