{
    "askPrice": "101,5608",
    "green": 0,
    "coupon": "7,00 %",
    "accruedInterest": "4,2481",
    "settleDate": "2024.04.22",
    "askEhmYield": "6,78",
    "bidYield": "7,47",
    "rawName": "2035/A",
    "bidPrice": "96,3672",
    "coupon_val": 7,
    "maturityInDays": "4202 nap",
    "securityType": "KTV",
    "maturityDate": "2035.10.24",
    "name": "2035/A",
    "bidEhmYield": "7,46",
    "askYield": "6,79",
    "currency": "HUF",
    "maturityInDays_val": 4202,
    "issueDate": "2023.09.13",
    "longName": "A351024A23"
}