{
    "askPrice": "101,4809",
    "green": 0,
    "coupon": "7,00 %",
    "accruedInterest": "4,4011",
    "settleDate": "2024.04.30",
    "askEhmYield": "6,79",
    "bidYield": "7,48",
    "rawName": "2035/A",
    "bidPrice": "96,2992",
    "coupon_val": 7,
    "maturityInDays": "4194 nap",
    "securityType": "KTV",
    "maturityDate": "2035.10.24",
    "name": "2035/A",
    "bidEhmYield": "7,47",
    "askYield": "6,80",
    "currency": "HUF",
    "maturityInDays_val": 4194,
    "issueDate": "2023.09.13",
    "longName": "A351024A23"
}