{
    "askPrice": "102,2733",
    "green": 0,
    "coupon": "7,00 %",
    "accruedInterest": "4,4584",
    "settleDate": "2024.05.03",
    "askEhmYield": "6,69",
    "bidYield": "7,35",
    "rawName": "2035/A",
    "bidPrice": "97,2638",
    "coupon_val": 7,
    "maturityInDays": "4191 nap",
    "securityType": "KTV",
    "maturityDate": "2035.10.24",
    "name": "2035/A",
    "bidEhmYield": "7,34",
    "askYield": "6,70",
    "currency": "HUF",
    "maturityInDays_val": 4191,
    "issueDate": "2023.09.13",
    "longName": "A351024A23"
}