{
    "askPrice": "109,1239",
    "green": 0,
    "coupon": "7,00 %",
    "accruedInterest": "2,9475",
    "settleDate": "2024.02.14",
    "askEhmYield": "5,89",
    "bidYield": "6,56",
    "rawName": "2035/A",
    "bidPrice": "103,4387",
    "coupon_val": 7,
    "maturityInDays": "4270 nap",
    "securityType": "KTV",
    "maturityDate": "2035.10.24",
    "name": "2035/A",
    "bidEhmYield": "6,55",
    "askYield": "5,89",
    "currency": "HUF",
    "maturityInDays_val": 4270,
    "issueDate": "2023.09.13",
    "longName": "A351024A23"
}