{
    "askPrice": "107,0083",
    "green": 0,
    "coupon": "7,00 %",
    "accruedInterest": "2,1634",
    "settleDate": "2024.01.04",
    "askEhmYield": "6,14",
    "bidYield": "6,83",
    "rawName": "2035/A",
    "bidPrice": "101,2744",
    "coupon_val": 7,
    "maturityInDays": "4311 nap",
    "securityType": "KTV",
    "maturityDate": "2035.10.24",
    "name": "2035/A",
    "bidEhmYield": "6,82",
    "askYield": "6,14",
    "currency": "HUF",
    "maturityInDays_val": 4311,
    "issueDate": "2023.09.13",
    "longName": "A351024A23"
}