{
    "askPrice": "108,8528",
    "green": 0,
    "coupon": "7,00 %",
    "accruedInterest": "3,0431",
    "settleDate": "2024.02.19",
    "askEhmYield": "5,92",
    "bidYield": "6,59",
    "rawName": "2035/A",
    "bidPrice": "103,1904",
    "coupon_val": 7,
    "maturityInDays": "4265 nap",
    "securityType": "KTV",
    "maturityDate": "2035.10.24",
    "name": "2035/A",
    "bidEhmYield": "6,58",
    "askYield": "5,92",
    "currency": "HUF",
    "maturityInDays_val": 4265,
    "issueDate": "2023.09.13",
    "longName": "A351024A23"
}