{
    "askPrice": "108,0960",
    "green": 0,
    "coupon": "7,00 %",
    "accruedInterest": "2,6797",
    "settleDate": "2024.01.31",
    "askEhmYield": "6,01",
    "bidYield": "6,65",
    "rawName": "2035/A",
    "bidPrice": "102,7131",
    "coupon_val": 7,
    "maturityInDays": "4284 nap",
    "securityType": "KTV",
    "maturityDate": "2035.10.24",
    "name": "2035/A",
    "bidEhmYield": "6,64",
    "askYield": "6,01",
    "currency": "HUF",
    "maturityInDays_val": 4284,
    "issueDate": "2023.09.13",
    "longName": "A351024A23"
}