{
    "askPrice": "110,0999",
    "green": 0,
    "coupon": "7,00 %",
    "accruedInterest": "2,9093",
    "settleDate": "2024.02.12",
    "askEhmYield": "5,78",
    "bidYield": "6,44",
    "rawName": "2035/A",
    "bidPrice": "104,4293",
    "coupon_val": 7,
    "maturityInDays": "4272 nap",
    "securityType": "KTV",
    "maturityDate": "2035.10.24",
    "name": "2035/A",
    "bidEhmYield": "6,43",
    "askYield": "5,78",
    "currency": "HUF",
    "maturityInDays_val": 4272,
    "issueDate": "2023.09.13",
    "longName": "A351024A23"
}