{
    "askPrice": "109,6546",
    "green": 0,
    "coupon": "7,00 %",
    "accruedInterest": "2,9284",
    "settleDate": "2024.02.13",
    "askEhmYield": "5,83",
    "bidYield": "6,50",
    "rawName": "2035/A",
    "bidPrice": "103,9324",
    "coupon_val": 7,
    "maturityInDays": "4271 nap",
    "securityType": "KTV",
    "maturityDate": "2035.10.24",
    "name": "2035/A",
    "bidEhmYield": "6,49",
    "askYield": "5,83",
    "currency": "HUF",
    "maturityInDays_val": 4271,
    "issueDate": "2023.09.13",
    "longName": "A351024A23"
}