{
    "askPrice": "106,8375",
    "green": 0,
    "coupon": "7,00 %",
    "accruedInterest": "2,1442",
    "settleDate": "2024.01.03",
    "askEhmYield": "6,16",
    "bidYield": "6,84",
    "rawName": "2035/A",
    "bidPrice": "101,1948",
    "coupon_val": 7,
    "maturityInDays": "4312 nap",
    "securityType": "KTV",
    "maturityDate": "2035.10.24",
    "name": "2035/A",
    "bidEhmYield": "6,83",
    "askYield": "6,16",
    "currency": "HUF",
    "maturityInDays_val": 4312,
    "issueDate": "2023.09.13",
    "longName": "A351024A23"
}