{
    "askPrice": "106,5754",
    "green": 0,
    "coupon": "7,00 %",
    "accruedInterest": "3,5978",
    "settleDate": "2024.03.19",
    "askEhmYield": "6,17",
    "bidYield": "6,87",
    "rawName": "2035/A",
    "bidPrice": "100,9338",
    "coupon_val": 7,
    "maturityInDays": "4236 nap",
    "securityType": "KTV",
    "maturityDate": "2035.10.24",
    "name": "2035/A",
    "bidEhmYield": "6,86",
    "askYield": "6,18",
    "currency": "HUF",
    "maturityInDays_val": 4236,
    "issueDate": "2023.09.13",
    "longName": "A351024A23"
}