{
    "askPrice": "109,1548",
    "green": 0,
    "coupon": "7,00 %",
    "accruedInterest": "2,5841",
    "settleDate": "2024.01.26",
    "askEhmYield": "5,89",
    "bidYield": "6,55",
    "rawName": "2035/A",
    "bidPrice": "103,5340",
    "coupon_val": 7,
    "maturityInDays": "4289 nap",
    "securityType": "KTV",
    "maturityDate": "2035.10.24",
    "name": "2035/A",
    "bidEhmYield": "6,54",
    "askYield": "5,89",
    "currency": "HUF",
    "maturityInDays_val": 4289,
    "issueDate": "2023.09.13",
    "longName": "A351024A23"
}