{
    "askPrice": "103,0023",
    "green": 0,
    "coupon": "7,00 %",
    "accruedInterest": "4,0185",
    "settleDate": "2024.04.10",
    "askEhmYield": "6,60",
    "bidYield": "7,28",
    "rawName": "2035/A",
    "bidPrice": "97,7768",
    "coupon_val": 7,
    "maturityInDays": "4214 nap",
    "securityType": "KTV",
    "maturityDate": "2035.10.24",
    "name": "2035/A",
    "bidEhmYield": "7,27",
    "askYield": "6,61",
    "currency": "HUF",
    "maturityInDays_val": 4214,
    "issueDate": "2023.09.13",
    "longName": "A351024A23"
}