{
    "askPrice": "103,9633",
    "green": 0,
    "coupon": "7,00 %",
    "accruedInterest": "4,5158",
    "settleDate": "2024.05.06",
    "askEhmYield": "6,48",
    "bidYield": "7,16",
    "rawName": "2035/A",
    "bidPrice": "98,6948",
    "coupon_val": 7,
    "maturityInDays": "4188 nap",
    "securityType": "KTV",
    "maturityDate": "2035.10.24",
    "name": "2035/A",
    "bidEhmYield": "7,15",
    "askYield": "6,49",
    "currency": "HUF",
    "maturityInDays_val": 4188,
    "issueDate": "2023.09.13",
    "longName": "A351024A23"
}