{
    "askPrice": "",
    "green": 0,
    "coupon": "3,50 %",
    "accruedInterest": "0,8767",
    "settleDate": "2022.11.24",
    "askEhmYield": "",
    "bidYield": "5,70",
    "rawName": "N2025/38",
    "bidPrice": "99,5000",
    "coupon_val": 3.5,
    "maturityInDays": "1032 nap",
    "securityType": "MÁP Plusz",
    "maturityDate": "2025.09.21",
    "name": "N2025/38",
    "bidEhmYield": "",
    "askYield": "",
    "currency": "HUF",
    "maturityInDays_val": 1032,
    "issueDate": "2020.09.21",
    "longName": "N250921"
}