{
    "askPrice": "",
    "green": 0,
    "coupon": "3,50 %",
    "accruedInterest": "3,87",
    "settleDate": "2022.08.01",
    "askEhmYield": "",
    "bidYield": "",
    "rawName": "N2025/38",
    "bidPrice": "99,50",
    "coupon_val": 3.5,
    "maturityInDays": "1147 nap",
    "securityType": "MÁP Plusz",
    "maturityDate": "2025.09.21",
    "name": "N2025/38",
    "bidEhmYield": "",
    "askYield": "",
    "currency": "HUF",
    "maturityInDays_val": 1147,
    "longName": "N250921"
}