{
    "askPrice": "",
    "green": 0,
    "coupon": "3,50 %",
    "accruedInterest": "0,4959",
    "settleDate": "2023.10.24",
    "askEhmYield": "",
    "bidYield": "6,03",
    "rawName": "N2025/38",
    "bidPrice": "99,5000",
    "coupon_val": 3.5,
    "maturityInDays": "698 nap",
    "securityType": "MÁP Plusz",
    "maturityDate": "2025.09.21",
    "name": "N2025/38",
    "bidEhmYield": "",
    "askYield": "",
    "currency": "HUF",
    "maturityInDays_val": 698,
    "issueDate": "2020.09.21",
    "longName": "N250921"
}