{
    "askPrice": "",
    "green": 0,
    "coupon": "3,50 %",
    "accruedInterest": "3,2329",
    "settleDate": "2023.05.15",
    "askEhmYield": "",
    "bidYield": "5,84",
    "rawName": "N2025/38",
    "bidPrice": "99,5000",
    "coupon_val": 3.5,
    "maturityInDays": "860 nap",
    "securityType": "MÁP Plusz",
    "maturityDate": "2025.09.21",
    "name": "N2025/38",
    "bidEhmYield": "",
    "askYield": "",
    "currency": "HUF",
    "maturityInDays_val": 860,
    "issueDate": "2020.09.21",
    "longName": "N250921"
}