{
    "askPrice": "",
    "green": 0,
    "coupon": "3,50 %",
    "accruedInterest": "1,7582",
    "settleDate": "2024.01.16",
    "askEhmYield": "",
    "bidYield": "6,09",
    "rawName": "N2025/38",
    "bidPrice": "99,5000",
    "coupon_val": 3.5,
    "maturityInDays": "614 nap",
    "securityType": "MÁP Plusz",
    "maturityDate": "2025.09.21",
    "name": "N2025/38",
    "bidEhmYield": "",
    "askYield": "",
    "currency": "HUF",
    "maturityInDays_val": 614,
    "issueDate": "2020.09.21",
    "longName": "N250921"
}