{
    "askPrice": "",
    "green": 0,
    "coupon": "2,50 %",
    "accruedInterest": "1,82",
    "settleDate": "2022.08.23",
    "askEhmYield": "",
    "bidYield": "",
    "rawName": "K2022/48",
    "bidPrice": "99,50",
    "coupon_val": 2.5,
    "maturityInDays": "99 nap",
    "securityType": "1MÁP",
    "maturityDate": "2022.11.30",
    "name": "K2022/48",
    "bidEhmYield": "4,29",
    "askYield": "",
    "currency": "HUF",
    "maturityInDays_val": 99,
    "longName": "K221130"
}