{
    "askPrice": "",
    "green": 0,
    "coupon": "2,50 %",
    "accruedInterest": "2,26",
    "settleDate": "2022.10.26",
    "askEhmYield": "",
    "bidYield": "7,85",
    "rawName": "K2022/48",
    "bidPrice": "99,50",
    "coupon_val": 2.5,
    "maturityInDays": "35 nap",
    "securityType": "1MÁP",
    "maturityDate": "2022.11.30",
    "name": "K2022/48",
    "bidEhmYield": "7,58",
    "askYield": "",
    "currency": "HUF",
    "maturityInDays_val": 35,
    "longName": "K221130"
}