{
    "askPrice": "",
    "green": 0,
    "coupon": "2,50 %",
    "accruedInterest": "2,08",
    "settleDate": "2022.09.30",
    "askEhmYield": "",
    "bidYield": "",
    "rawName": "K2022/48",
    "bidPrice": "99,50",
    "coupon_val": 2.5,
    "maturityInDays": "61 nap",
    "securityType": "1MÁP",
    "maturityDate": "2022.11.30",
    "name": "K2022/48",
    "bidEhmYield": "5,41",
    "askYield": "",
    "currency": "HUF",
    "maturityInDays_val": 61,
    "longName": "K221130"
}