{
    "askPrice": "",
    "green": 0,
    "coupon": "2,50 %",
    "accruedInterest": "2,31",
    "settleDate": "2022.11.02",
    "askEhmYield": "",
    "bidYield": "9,23",
    "rawName": "K2022/48",
    "bidPrice": "99,50",
    "coupon_val": 2.5,
    "maturityInDays": "28 nap",
    "securityType": "1MÁP",
    "maturityDate": "2022.11.30",
    "name": "K2022/48",
    "bidEhmYield": "8,86",
    "askYield": "",
    "currency": "HUF",
    "maturityInDays_val": 28,
    "issueDate": "2021-11-30",
    "longName": "K221130"
}