{
    "askPrice": "",
    "green": 0,
    "coupon": "2,50 %",
    "accruedInterest": "1,78",
    "settleDate": "2022.08.17",
    "askEhmYield": "",
    "bidYield": "",
    "rawName": "K2022/48",
    "bidPrice": "99,50",
    "coupon_val": 2.5,
    "maturityInDays": "105 nap",
    "securityType": "1MÁP",
    "maturityDate": "2022.11.30",
    "name": "K2022/48",
    "bidEhmYield": "4,18",
    "askYield": "",
    "currency": "HUF",
    "maturityInDays_val": 105,
    "longName": "K221130"
}