{
    "askPrice": "",
    "green": 0,
    "coupon": "2,50 %",
    "accruedInterest": "2,4384",
    "settleDate": "2022.11.21",
    "askEhmYield": "",
    "bidYield": "6,61",
    "rawName": "K2022/48",
    "bidPrice": "99,9000",
    "coupon_val": 2.5,
    "maturityInDays": "9 nap",
    "securityType": "1MÁP",
    "maturityDate": "2022.11.30",
    "name": "K2022/48",
    "bidEhmYield": "6,41",
    "askYield": "",
    "currency": "HUF",
    "maturityInDays_val": 9,
    "issueDate": "2021.11.30",
    "longName": "K221130"
}