{
    "askPrice": "",
    "green": 0,
    "coupon": "3,50 %",
    "accruedInterest": "1,34",
    "settleDate": "2022.11.18",
    "askEhmYield": "",
    "bidYield": "6,07",
    "rawName": "N2024/11",
    "bidPrice": "99,50",
    "coupon_val": 3.5,
    "maturityInDays": "642 nap",
    "securityType": "MÁP Plusz",
    "maturityDate": "2024.08.21",
    "name": "N2024/11",
    "bidEhmYield": "",
    "askYield": "",
    "currency": "HUF",
    "maturityInDays_val": 642,
    "issueDate": "2019-08-21",
    "longName": "N240821"
}