{
    "askPrice": "",
    "green": 0,
    "coupon": "3,50 %",
    "accruedInterest": "2,7726",
    "settleDate": "2023.02.21",
    "askEhmYield": "",
    "bidYield": "6,16",
    "rawName": "N2024/11",
    "bidPrice": "99,5000",
    "coupon_val": 3.5,
    "maturityInDays": "547 nap",
    "securityType": "MÁP Plusz",
    "maturityDate": "2024.08.21",
    "name": "N2024/11",
    "bidEhmYield": "",
    "askYield": "",
    "currency": "HUF",
    "maturityInDays_val": 547,
    "issueDate": "2019.08.21",
    "longName": "N240821"
}