{
    "askPrice": "",
    "green": 0,
    "coupon": "3,50 %",
    "accruedInterest": "1,4426",
    "settleDate": "2023.11.17",
    "askEhmYield": "",
    "bidYield": "6,65",
    "rawName": "N2024/11",
    "bidPrice": "99,5000",
    "coupon_val": 3.5,
    "maturityInDays": "278 nap",
    "securityType": "MÁP Plusz",
    "maturityDate": "2024.08.21",
    "name": "N2024/11",
    "bidEhmYield": "",
    "askYield": "",
    "currency": "HUF",
    "maturityInDays_val": 278,
    "issueDate": "2019.08.21",
    "longName": "N240821"
}