{
    "askPrice": "",
    "green": 0,
    "coupon": "3,50 %",
    "accruedInterest": "3,3279",
    "settleDate": "2024.03.11",
    "askEhmYield": "",
    "bidYield": "7,06",
    "rawName": "N2024/11",
    "bidPrice": "99,5000",
    "coupon_val": 3.5,
    "maturityInDays": "163 nap",
    "securityType": "MÁP Plusz",
    "maturityDate": "2024.08.21",
    "name": "N2024/11",
    "bidEhmYield": "",
    "askYield": "",
    "currency": "HUF",
    "maturityInDays_val": 163,
    "issueDate": "2019.08.21",
    "longName": "N240821"
}