{
    "askPrice": "",
    "green": 0,
    "coupon": null,
    "accruedInterest": "1,35",
    "settleDate": "2022.07.26",
    "askEhmYield": "",
    "bidYield": "",
    "rawName": "2028/X_EUR",
    "bidPrice": "99,00",
    "maturityInDays": "2038 nap",
    "securityType": "PEMÁP",
    "maturityDate": "2028.02.23",
    "name": "2028/X_EUR",
    "bidEhmYield": "",
    "askYield": "",
    "currency": "EUR",
    "maturityInDays_val": 2038,
    "longName": "C280223X22"
}