{
    "askPrice": "",
    "green": 0,
    "coupon": null,
    "accruedInterest": "1,89",
    "settleDate": "2022.09.27",
    "askEhmYield": "",
    "bidYield": "",
    "rawName": "2028/X_EUR",
    "bidPrice": "99,00",
    "maturityInDays": "1975 nap",
    "securityType": "PEMÁP",
    "maturityDate": "2028.02.23",
    "name": "2028/X_EUR",
    "bidEhmYield": "",
    "askYield": "",
    "currency": "EUR",
    "maturityInDays_val": 1975,
    "longName": "C280223X22"
}