{
    "askPrice": "",
    "green": 0,
    "coupon": "3,50 %",
    "accruedInterest": "4,18",
    "settleDate": "2022.08.15",
    "askEhmYield": "",
    "bidYield": "",
    "rawName": "N2024/19",
    "bidPrice": "99,50",
    "coupon_val": 3.5,
    "maturityInDays": "791 nap",
    "securityType": "MÁP Plusz",
    "maturityDate": "2024.10.14",
    "name": "N2024/19",
    "bidEhmYield": "",
    "askYield": "",
    "currency": "HUF",
    "maturityInDays_val": 791,
    "longName": "N241014"
}