{
    "askPrice": "",
    "green": 0,
    "coupon": "3,50 %",
    "accruedInterest": "0,06",
    "settleDate": "2022.10.18",
    "askEhmYield": "",
    "bidYield": "5,74",
    "rawName": "N2024/19",
    "bidPrice": "100,00",
    "coupon_val": 3.5,
    "maturityInDays": "727 nap",
    "securityType": "MÁP Plusz",
    "maturityDate": "2024.10.14",
    "name": "N2024/19",
    "bidEhmYield": "",
    "askYield": "",
    "currency": "HUF",
    "maturityInDays_val": 727,
    "longName": "N241014"
}