{
    "askPrice": "",
    "green": 0,
    "coupon": "3,50 %",
    "accruedInterest": "5,2438",
    "settleDate": "2023.09.27",
    "askEhmYield": "",
    "bidYield": "6,48",
    "rawName": "N2024/19",
    "bidPrice": "99,5000",
    "coupon_val": 3.5,
    "maturityInDays": "383 nap",
    "securityType": "MÁP Plusz",
    "maturityDate": "2024.10.14",
    "name": "N2024/19",
    "bidEhmYield": "",
    "askYield": "",
    "currency": "HUF",
    "maturityInDays_val": 383,
    "issueDate": "2019.10.14",
    "longName": "N241014"
}