{
    "askPrice": "",
    "green": 0,
    "coupon": "3,50 %",
    "accruedInterest": "1,3411",
    "settleDate": "2023.01.11",
    "askEhmYield": "",
    "bidYield": "6,07",
    "rawName": "N2024/19",
    "bidPrice": "99,5000",
    "coupon_val": 3.5,
    "maturityInDays": "642 nap",
    "securityType": "MÁP Plusz",
    "maturityDate": "2024.10.14",
    "name": "N2024/19",
    "bidEhmYield": "",
    "askYield": "",
    "currency": "HUF",
    "maturityInDays_val": 642,
    "issueDate": "2019.10.14",
    "longName": "N241014"
}