{
    "askPrice": "",
    "green": 0,
    "coupon": "3,50 %",
    "accruedInterest": "0,1639",
    "settleDate": "2023.10.24",
    "askEhmYield": "",
    "bidYield": "5,99",
    "rawName": "N2024/19",
    "bidPrice": "100,0000",
    "coupon_val": 3.5,
    "maturityInDays": "356 nap",
    "securityType": "MÁP Plusz",
    "maturityDate": "2024.10.14",
    "name": "N2024/19",
    "bidEhmYield": "",
    "askYield": "",
    "currency": "HUF",
    "maturityInDays_val": 356,
    "issueDate": "2019.10.14",
    "longName": "N241014"
}