{
    "askPrice": "",
    "green": 0,
    "coupon": "3,50 %",
    "accruedInterest": "5,4699",
    "settleDate": "2023.10.12",
    "askEhmYield": "",
    "bidYield": "",
    "rawName": "N2024/19",
    "bidPrice": "",
    "coupon_val": 3.5,
    "maturityInDays": "368 nap",
    "securityType": "MÁP Plusz",
    "maturityDate": "2024.10.14",
    "name": "N2024/19",
    "bidEhmYield": "",
    "askYield": "",
    "currency": "HUF",
    "maturityInDays_val": 368,
    "issueDate": "2019.10.14",
    "longName": "N241014"
}