{
    "askPrice": "",
    "green": 0,
    "coupon": "6,00 %",
    "accruedInterest": "0,1151",
    "settleDate": "2024.05.14",
    "askEhmYield": "",
    "bidYield": "7,09",
    "rawName": "K2025/19",
    "bidPrice": "99,0000",
    "coupon_val": 6,
    "maturityInDays": "358 nap",
    "securityType": "1MÁP",
    "maturityDate": "2025.05.07",
    "name": "K2025/19",
    "bidEhmYield": "7,08",
    "askYield": "",
    "currency": "HUF",
    "maturityInDays_val": 358,
    "issueDate": "2024.05.07",
    "longName": "K250507"
}