{
    "askPrice": "",
    "green": 0,
    "coupon": "3,50 %",
    "accruedInterest": "3,27",
    "settleDate": "2022.08.05",
    "askEhmYield": "",
    "bidYield": "",
    "rawName": "N2024/27",
    "bidPrice": "99,50",
    "coupon_val": 3.5,
    "maturityInDays": "857 nap",
    "securityType": "MÁP Plusz",
    "maturityDate": "2024.12.09",
    "name": "N2024/27",
    "bidEhmYield": "",
    "askYield": "",
    "currency": "HUF",
    "maturityInDays_val": 857,
    "longName": "N241209"
}