{
    "askPrice": "",
    "green": 0,
    "coupon": "3,50 %",
    "accruedInterest": 0,
    "settleDate": "2022.12.08",
    "askEhmYield": "",
    "bidYield": "",
    "rawName": "N2024/27",
    "bidPrice": "",
    "coupon_val": 3.5,
    "maturityInDays": "732 nap",
    "securityType": "MÁP Plusz",
    "maturityDate": "2024.12.09",
    "name": "N2024/27",
    "bidEhmYield": "",
    "askYield": "",
    "currency": "HUF",
    "maturityInDays_val": 732,
    "issueDate": "2019.12.09",
    "longName": "N241209"
}