{
    "askPrice": "",
    "green": 0,
    "coupon": "3,50 %",
    "accruedInterest": "4,2795",
    "settleDate": "2023.09.19",
    "askEhmYield": "",
    "bidYield": "6,32",
    "rawName": "N2024/27",
    "bidPrice": "99,5000",
    "coupon_val": 3.5,
    "maturityInDays": "447 nap",
    "securityType": "MÁP Plusz",
    "maturityDate": "2024.12.09",
    "name": "N2024/27",
    "bidEhmYield": "",
    "askYield": "",
    "currency": "HUF",
    "maturityInDays_val": 447,
    "issueDate": "2019.12.09",
    "longName": "N241209"
}