{
    "askPrice": "",
    "green": 0,
    "coupon": "3,50 %",
    "accruedInterest": "5,0329",
    "settleDate": "2023.11.08",
    "askEhmYield": "",
    "bidYield": "6,44",
    "rawName": "N2024/27",
    "bidPrice": "99,5000",
    "coupon_val": 3.5,
    "maturityInDays": "397 nap",
    "securityType": "MÁP Plusz",
    "maturityDate": "2024.12.09",
    "name": "N2024/27",
    "bidEhmYield": "",
    "askYield": "",
    "currency": "HUF",
    "maturityInDays_val": 397,
    "issueDate": "2019.12.09",
    "longName": "N241209"
}