{
    "askPrice": "",
    "green": 0,
    "coupon": "3,50 %",
    "accruedInterest": "0,7705",
    "settleDate": "2024.01.25",
    "askEhmYield": "",
    "bidYield": "6,58",
    "rawName": "N2024/27",
    "bidPrice": "99,5000",
    "coupon_val": 3.5,
    "maturityInDays": "319 nap",
    "securityType": "MÁP Plusz",
    "maturityDate": "2024.12.09",
    "name": "N2024/27",
    "bidEhmYield": "",
    "askYield": "",
    "currency": "HUF",
    "maturityInDays_val": 319,
    "issueDate": "2019.12.09",
    "longName": "N241209"
}