{
    "askPrice": "",
    "green": 0,
    "coupon": null,
    "accruedInterest": "4,32",
    "settleDate": "2022.11.16",
    "askEhmYield": "",
    "bidYield": "",
    "rawName": "2023/I",
    "bidPrice": "99,00",
    "maturityInDays": "126 nap",
    "securityType": "PMÁP",
    "maturityDate": "2023.03.22",
    "name": "2023/I",
    "bidEhmYield": "",
    "askYield": "",
    "currency": "HUF",
    "maturityInDays_val": 126,
    "issueDate": "2017-10-03",
    "longName": "A230322I17"
}