{
    "askPrice": "",
    "green": 0,
    "coupon": null,
    "accruedInterest": "3,78",
    "settleDate": "2022.10.17",
    "askEhmYield": "",
    "bidYield": "",
    "rawName": "2023/I",
    "bidPrice": "99,00",
    "maturityInDays": "156 nap",
    "securityType": "PMÁP",
    "maturityDate": "2023.03.22",
    "name": "2023/I",
    "bidEhmYield": "",
    "askYield": "",
    "currency": "HUF",
    "maturityInDays_val": 156,
    "longName": "A230322I17"
}