{
    "askPrice": "",
    "green": 0,
    "coupon": null,
    "accruedInterest": "6,3107",
    "settleDate": "2023.03.06",
    "askEhmYield": "",
    "bidYield": "",
    "rawName": "2023/I",
    "bidPrice": "99,0000",
    "maturityInDays": "16 nap",
    "securityType": "PMÁP",
    "maturityDate": "2023.03.22",
    "name": "2023/I",
    "bidEhmYield": "",
    "askYield": "",
    "currency": "HUF",
    "maturityInDays_val": 16,
    "issueDate": "2017.10.03",
    "longName": "A230322I17"
}