{
    "askPrice": "",
    "green": 0,
    "coupon": null,
    "accruedInterest": "3,8730",
    "settleDate": "2022.12.09",
    "askEhmYield": "",
    "bidYield": "",
    "rawName": "2025/Y_EUR",
    "bidPrice": "99,0000",
    "maturityInDays": "1104 nap",
    "securityType": "PEMÁP",
    "maturityDate": "2025.12.17",
    "name": "2025/Y_EUR",
    "bidEhmYield": "",
    "askYield": "",
    "currency": "EUR",
    "maturityInDays_val": 1104,
    "issueDate": "2021.12.14",
    "longName": "C251217Y21"
}