{
    "askPrice": "",
    "green": 0,
    "coupon": null,
    "accruedInterest": "3,34",
    "settleDate": "2022.11.15",
    "askEhmYield": "",
    "bidYield": "",
    "rawName": "2025/Y_EUR",
    "bidPrice": "99,00",
    "maturityInDays": "1128 nap",
    "securityType": "PEMÁP",
    "maturityDate": "2025.12.17",
    "name": "2025/Y_EUR",
    "bidEhmYield": "",
    "askYield": "",
    "currency": "EUR",
    "maturityInDays_val": 1128,
    "issueDate": "2021-12-14",
    "longName": "C251217Y21"
}