{
    "askPrice": "",
    "green": 0,
    "coupon": null,
    "accruedInterest": 0,
    "settleDate": "2022.12.16",
    "askEhmYield": "",
    "bidYield": "",
    "rawName": "2025/Y_EUR",
    "bidPrice": "",
    "maturityInDays": "1097 nap",
    "securityType": "PEMÁP",
    "maturityDate": "2025.12.17",
    "name": "2025/Y_EUR",
    "bidEhmYield": "",
    "askYield": "",
    "currency": "EUR",
    "maturityInDays_val": 1097,
    "issueDate": "2021.12.14",
    "longName": "C251217Y21"
}