{
    "askPrice": "",
    "green": 0,
    "coupon": null,
    "accruedInterest": "1,79",
    "settleDate": "2022.09.06",
    "askEhmYield": "",
    "bidYield": "",
    "rawName": "2025/Y_EUR",
    "bidPrice": "99,00",
    "maturityInDays": "1198 nap",
    "securityType": "PEMÁP",
    "maturityDate": "2025.12.17",
    "name": "2025/Y_EUR",
    "bidEhmYield": "",
    "askYield": "",
    "currency": "EUR",
    "maturityInDays_val": 1198,
    "longName": "C251217Y21"
}