{
    "askPrice": "",
    "green": 0,
    "coupon": "3,50 %",
    "accruedInterest": "0,6923",
    "settleDate": "2022.12.06",
    "askEhmYield": "",
    "bidYield": "5,25",
    "rawName": "N2027/14",
    "bidPrice": "99,5000",
    "coupon_val": 3.5,
    "maturityInDays": "1580 nap",
    "securityType": "MÁP Plusz",
    "maturityDate": "2027.04.04",
    "name": "N2027/14",
    "bidEhmYield": "",
    "askYield": "",
    "currency": "HUF",
    "maturityInDays_val": 1580,
    "issueDate": "2022.04.04",
    "longName": "N270404"
}