{
    "askPrice": "",
    "green": 0,
    "coupon": "3,50 %",
    "accruedInterest": "1,37",
    "settleDate": "2022.08.25",
    "askEhmYield": "",
    "bidYield": "",
    "rawName": "N2027/14",
    "bidPrice": "99,50",
    "coupon_val": 3.5,
    "maturityInDays": "1683 nap",
    "securityType": "MÁP Plusz",
    "maturityDate": "2027.04.04",
    "name": "N2027/14",
    "bidEhmYield": "",
    "askYield": "",
    "currency": "HUF",
    "maturityInDays_val": 1683,
    "longName": "N270404"
}