{
    "askPrice": "",
    "green": 0,
    "coupon": "3,50 %",
    "accruedInterest": 0,
    "settleDate": "2022.10.04",
    "askEhmYield": "",
    "bidYield": "",
    "rawName": "N2027/14",
    "bidPrice": "99,50",
    "coupon_val": 3.5,
    "maturityInDays": "1643 nap",
    "securityType": "MÁP Plusz",
    "maturityDate": "2027.04.04",
    "name": "N2027/14",
    "bidEhmYield": "",
    "askYield": "",
    "currency": "HUF",
    "maturityInDays_val": 1643,
    "longName": "N270404"
}