{
    "askPrice": "",
    "green": 0,
    "coupon": "3,50 %",
    "accruedInterest": "1,1066",
    "settleDate": "2023.07.03",
    "askEhmYield": "",
    "bidYield": "5,41",
    "rawName": "N2027/14",
    "bidPrice": "99,5000",
    "coupon_val": 3.5,
    "maturityInDays": "1371 nap",
    "securityType": "MÁP Plusz",
    "maturityDate": "2027.04.04",
    "name": "N2027/14",
    "bidEhmYield": "",
    "askYield": "",
    "currency": "HUF",
    "maturityInDays_val": 1371,
    "issueDate": "2022.04.04",
    "longName": "N270404"
}