{
    "askPrice": "",
    "green": 0,
    "coupon": "3,50 %",
    "accruedInterest": "0,0959",
    "settleDate": "2024.04.11",
    "askEhmYield": "",
    "bidYield": "5,49",
    "rawName": "N2027/14",
    "bidPrice": "100,0000",
    "coupon_val": 3.5,
    "maturityInDays": "1088 nap",
    "securityType": "MÁP Plusz",
    "maturityDate": "2027.04.04",
    "name": "N2027/14",
    "bidEhmYield": "",
    "askYield": "",
    "currency": "HUF",
    "maturityInDays_val": 1088,
    "issueDate": "2022.04.04",
    "longName": "N270404"
}