{
    "askPrice": "",
    "green": 0,
    "coupon": "3,50 %",
    "accruedInterest": 0,
    "settleDate": "2024.04.03",
    "askEhmYield": "",
    "bidYield": "",
    "rawName": "N2027/14",
    "bidPrice": "",
    "coupon_val": 3.5,
    "maturityInDays": "1096 nap",
    "securityType": "MÁP Plusz",
    "maturityDate": "2027.04.04",
    "name": "N2027/14",
    "bidEhmYield": "",
    "askYield": "",
    "currency": "HUF",
    "maturityInDays_val": 1096,
    "issueDate": "2022.04.04",
    "longName": "N270404"
}