{
    "askPrice": "",
    "green": 0,
    "coupon": "3,50 %",
    "accruedInterest": "3,37",
    "settleDate": "2022.09.27",
    "askEhmYield": "",
    "bidYield": "",
    "rawName": "N2025/52",
    "bidPrice": "99,50",
    "coupon_val": 3.5,
    "maturityInDays": "1188 nap",
    "securityType": "MÁP Plusz",
    "maturityDate": "2025.12.28",
    "name": "N2025/52",
    "bidEhmYield": "",
    "askYield": "",
    "currency": "HUF",
    "maturityInDays_val": 1188,
    "longName": "N251228"
}