{
    "askPrice": "",
    "green": 0,
    "coupon": "3,50 %",
    "accruedInterest": "4,0438",
    "settleDate": "2022.11.21",
    "askEhmYield": "",
    "bidYield": "5,62",
    "rawName": "N2025/52",
    "bidPrice": "99,5000",
    "coupon_val": 3.5,
    "maturityInDays": "1133 nap",
    "securityType": "MÁP Plusz",
    "maturityDate": "2025.12.28",
    "name": "N2025/52",
    "bidEhmYield": "",
    "askYield": "",
    "currency": "HUF",
    "maturityInDays_val": 1133,
    "issueDate": "2020.12.28",
    "longName": "N251228"
}