{
    "askPrice": "",
    "green": 0,
    "coupon": "3,50 %",
    "accruedInterest": "3,81",
    "settleDate": "2022.11.02",
    "askEhmYield": "",
    "bidYield": "5,60",
    "rawName": "N2025/52",
    "bidPrice": "99,50",
    "coupon_val": 3.5,
    "maturityInDays": "1152 nap",
    "securityType": "MÁP Plusz",
    "maturityDate": "2025.12.28",
    "name": "N2025/52",
    "bidEhmYield": "",
    "askYield": "",
    "currency": "HUF",
    "maturityInDays_val": 1152,
    "issueDate": "2020-12-28",
    "longName": "N251228"
}