{
    "askPrice": "",
    "green": 0,
    "coupon": "3,50 %",
    "accruedInterest": "4,3274",
    "settleDate": "2022.12.14",
    "askEhmYield": "",
    "bidYield": "5,65",
    "rawName": "N2025/52",
    "bidPrice": "99,5000",
    "coupon_val": 3.5,
    "maturityInDays": "1110 nap",
    "securityType": "MÁP Plusz",
    "maturityDate": "2025.12.28",
    "name": "N2025/52",
    "bidEhmYield": "",
    "askYield": "",
    "currency": "HUF",
    "maturityInDays_val": 1110,
    "issueDate": "2020.12.28",
    "longName": "N251228"
}