{
    "askPrice": "",
    "green": 0,
    "coupon": "3,50 %",
    "accruedInterest": "2,2192",
    "settleDate": "2023.06.08",
    "askEhmYield": "",
    "bidYield": "5,77",
    "rawName": "N2025/52",
    "bidPrice": "99,5000",
    "coupon_val": 3.5,
    "maturityInDays": "934 nap",
    "securityType": "MÁP Plusz",
    "maturityDate": "2025.12.28",
    "name": "N2025/52",
    "bidEhmYield": "",
    "askYield": "",
    "currency": "HUF",
    "maturityInDays_val": 934,
    "issueDate": "2020.12.28",
    "longName": "N251228"
}