{
    "askPrice": "",
    "green": 0,
    "coupon": "3,50 %",
    "accruedInterest": "0,5861",
    "settleDate": "2024.02.05",
    "askEhmYield": "",
    "bidYield": "6,04",
    "rawName": "N2025/52",
    "bidPrice": "99,5000",
    "coupon_val": 3.5,
    "maturityInDays": "692 nap",
    "securityType": "MÁP Plusz",
    "maturityDate": "2025.12.28",
    "name": "N2025/52",
    "bidEhmYield": "",
    "askYield": "",
    "currency": "HUF",
    "maturityInDays_val": 692,
    "issueDate": "2020.12.28",
    "longName": "N251228"
}