{
    "askPrice": "",
    "green": 0,
    "coupon": "3,50 %",
    "accruedInterest": "0,8352",
    "settleDate": "2024.05.14",
    "askEhmYield": "",
    "bidYield": "5,26",
    "rawName": "N2028/35",
    "bidPrice": "99,5000",
    "coupon_val": 3.5,
    "maturityInDays": "1567 nap",
    "securityType": "MÁP Plusz",
    "maturityDate": "2028.08.28",
    "name": "N2028/35",
    "bidEhmYield": "",
    "askYield": "",
    "currency": "HUF",
    "maturityInDays_val": 1567,
    "issueDate": "2023.08.28",
    "longName": "N280828"
}