{
    "askPrice": "",
    "green": 0,
    "coupon": "3,50 %",
    "accruedInterest": "1,92",
    "settleDate": "2022.11.16",
    "askEhmYield": "",
    "bidYield": "5,76",
    "rawName": "N2025/26",
    "bidPrice": "99,50",
    "coupon_val": 3.5,
    "maturityInDays": "956 nap",
    "securityType": "MÁP Plusz",
    "maturityDate": "2025.06.29",
    "name": "N2025/26",
    "bidEhmYield": "",
    "askYield": "",
    "currency": "HUF",
    "maturityInDays_val": 956,
    "issueDate": "2020-06-29",
    "longName": "N250629"
}