{
    "askPrice": "",
    "green": 0,
    "coupon": "3,50 %",
    "accruedInterest": "4,5342",
    "settleDate": "2023.05.26",
    "askEhmYield": "",
    "bidYield": "5,96",
    "rawName": "N2025/26",
    "bidPrice": "99,5000",
    "coupon_val": 3.5,
    "maturityInDays": "765 nap",
    "securityType": "MÁP Plusz",
    "maturityDate": "2025.06.29",
    "name": "N2025/26",
    "bidEhmYield": "",
    "askYield": "",
    "currency": "HUF",
    "maturityInDays_val": 765,
    "issueDate": "2020.06.29",
    "longName": "N250629"
}