{
    "askPrice": "",
    "green": 0,
    "coupon": "3,50 %",
    "accruedInterest": "0,1202",
    "settleDate": "2023.07.07",
    "askEhmYield": "",
    "bidYield": "6,02",
    "rawName": "N2025/26",
    "bidPrice": "99,5000",
    "coupon_val": 3.5,
    "maturityInDays": "723 nap",
    "securityType": "MÁP Plusz",
    "maturityDate": "2025.06.29",
    "name": "N2025/26",
    "bidEhmYield": "",
    "askYield": "",
    "currency": "HUF",
    "maturityInDays_val": 723,
    "issueDate": "2020.06.29",
    "longName": "N250629"
}