{
    "askPrice": "",
    "green": 0,
    "coupon": "3,50 %",
    "accruedInterest": "1,1571",
    "settleDate": "2023.09.14",
    "askEhmYield": "",
    "bidYield": "6,06",
    "rawName": "N2025/26",
    "bidPrice": "99,5000",
    "coupon_val": 3.5,
    "maturityInDays": "654 nap",
    "securityType": "MÁP Plusz",
    "maturityDate": "2025.06.29",
    "name": "N2025/26",
    "bidEhmYield": "",
    "askYield": "",
    "currency": "HUF",
    "maturityInDays_val": 654,
    "issueDate": "2020.06.29",
    "longName": "N250629"
}