{
    "askPrice": "",
    "green": 0,
    "coupon": "3,50 %",
    "accruedInterest": 0,
    "settleDate": "2023.06.28",
    "askEhmYield": "",
    "bidYield": "",
    "rawName": "N2025/26",
    "bidPrice": "",
    "coupon_val": 3.5,
    "maturityInDays": "732 nap",
    "securityType": "MÁP Plusz",
    "maturityDate": "2025.06.29",
    "name": "N2025/26",
    "bidEhmYield": "",
    "askYield": "",
    "currency": "HUF",
    "maturityInDays_val": 732,
    "issueDate": "2020.06.29",
    "longName": "N250629"
}