{
    "askPrice": "",
    "green": 0,
    "coupon": "3,50 %",
    "accruedInterest": "3,2158",
    "settleDate": "2024.01.29",
    "askEhmYield": "",
    "bidYield": "6,20",
    "rawName": "N2025/26",
    "bidPrice": "99,5000",
    "coupon_val": 3.5,
    "maturityInDays": "517 nap",
    "securityType": "MÁP Plusz",
    "maturityDate": "2025.06.29",
    "name": "N2025/26",
    "bidEhmYield": "",
    "askYield": "",
    "currency": "HUF",
    "maturityInDays_val": 517,
    "issueDate": "2020.06.29",
    "longName": "N250629"
}