{
    "askPrice": "",
    "green": 0,
    "coupon": "6,50 %",
    "accruedInterest": "1,6384",
    "settleDate": "2024.04.18",
    "askEhmYield": "",
    "bidYield": "7,86",
    "rawName": "K2025/03",
    "bidPrice": "99,0000",
    "coupon_val": 6.5,
    "maturityInDays": "273 nap",
    "securityType": "1MÁP",
    "maturityDate": "2025.01.16",
    "name": "K2025/03",
    "bidEhmYield": "7,76",
    "askYield": "",
    "currency": "HUF",
    "maturityInDays_val": 273,
    "issueDate": "2024.01.16",
    "longName": "K250116"
}