{
    "askPrice": "",
    "green": 0,
    "coupon": "6,50 %",
    "accruedInterest": "0,5521",
    "settleDate": "2024.02.16",
    "askEhmYield": "",
    "bidYield": "7,63",
    "rawName": "K2025/03",
    "bidPrice": "99,0000",
    "coupon_val": 6.5,
    "maturityInDays": "335 nap",
    "securityType": "1MÁP",
    "maturityDate": "2025.01.16",
    "name": "K2025/03",
    "bidEhmYield": "7,60",
    "askYield": "",
    "currency": "HUF",
    "maturityInDays_val": 335,
    "issueDate": "2024.01.16",
    "longName": "K250116"
}