{
    "askPrice": "",
    "green": 0,
    "coupon": "6,50 %",
    "accruedInterest": "1,2110",
    "settleDate": "2024.03.25",
    "askEhmYield": "",
    "bidYield": "7,77",
    "rawName": "K2025/03",
    "bidPrice": "99,0000",
    "coupon_val": 6.5,
    "maturityInDays": "297 nap",
    "securityType": "1MÁP",
    "maturityDate": "2025.01.16",
    "name": "K2025/03",
    "bidEhmYield": "7,69",
    "askYield": "",
    "currency": "HUF",
    "maturityInDays_val": 297,
    "issueDate": "2024.01.16",
    "longName": "K250116"
}