{
    "askPrice": "",
    "green": 0,
    "coupon": "3,50 %",
    "accruedInterest": "3,45",
    "settleDate": "2022.09.27",
    "askEhmYield": "",
    "bidYield": "",
    "rawName": "N2025/51",
    "bidPrice": "99,50",
    "coupon_val": 3.5,
    "maturityInDays": "1181 nap",
    "securityType": "MÁP Plusz",
    "maturityDate": "2025.12.21",
    "name": "N2025/51",
    "bidEhmYield": "",
    "askYield": "",
    "currency": "HUF",
    "maturityInDays_val": 1181,
    "longName": "N251221"
}