{
    "askPrice": "",
    "green": 0,
    "coupon": "3,50 %",
    "accruedInterest": "0,3973",
    "settleDate": "2023.01.19",
    "askEhmYield": "",
    "bidYield": "5,68",
    "rawName": "N2025/51",
    "bidPrice": "99,5000",
    "coupon_val": 3.5,
    "maturityInDays": "1067 nap",
    "securityType": "MÁP Plusz",
    "maturityDate": "2025.12.21",
    "name": "N2025/51",
    "bidEhmYield": "",
    "askYield": "",
    "currency": "HUF",
    "maturityInDays_val": 1067,
    "issueDate": "2020.12.21",
    "longName": "N251221"
}