{
    "askPrice": "",
    "green": 0,
    "coupon": "3,50 %",
    "accruedInterest": "0,1803",
    "settleDate": "2024.01.02",
    "askEhmYield": "",
    "bidYield": "5,75",
    "rawName": "N2025/51",
    "bidPrice": "100,0000",
    "coupon_val": 3.5,
    "maturityInDays": "719 nap",
    "securityType": "MÁP Plusz",
    "maturityDate": "2025.12.21",
    "name": "N2025/51",
    "bidEhmYield": "",
    "askYield": "",
    "currency": "HUF",
    "maturityInDays_val": 719,
    "issueDate": "2020.12.21",
    "longName": "N251221"
}