{
    "askPrice": "",
    "green": 0,
    "coupon": "3,50 %",
    "accruedInterest": "0,9016",
    "settleDate": "2024.02.19",
    "askEhmYield": "",
    "bidYield": "6,05",
    "rawName": "N2025/51",
    "bidPrice": "99,5000",
    "coupon_val": 3.5,
    "maturityInDays": "671 nap",
    "securityType": "MÁP Plusz",
    "maturityDate": "2025.12.21",
    "name": "N2025/51",
    "bidEhmYield": "",
    "askYield": "",
    "currency": "HUF",
    "maturityInDays_val": 671,
    "issueDate": "2020.12.21",
    "longName": "N251221"
}