{
    "askPrice": "",
    "green": 0,
    "coupon": "9,00 %",
    "accruedInterest": "3,2301",
    "settleDate": "2023.08.21",
    "askEhmYield": "",
    "bidYield": "10,47",
    "rawName": "K2024/15",
    "bidPrice": "99,0000",
    "coupon_val": 9,
    "maturityInDays": "235 nap",
    "securityType": "1MÁP",
    "maturityDate": "2024.04.12",
    "name": "K2024/15",
    "bidEhmYield": "10,29",
    "askYield": "",
    "currency": "HUF",
    "maturityInDays_val": 235,
    "issueDate": "2023.04.12",
    "longName": "K240412"
}