{
    "askPrice": "",
    "green": 0,
    "coupon": "9,00 %",
    "accruedInterest": "5,3753",
    "settleDate": "2023.11.16",
    "askEhmYield": "",
    "bidYield": "11,28",
    "rawName": "K2024/15",
    "bidPrice": "99,0000",
    "coupon_val": 9,
    "maturityInDays": "148 nap",
    "securityType": "1MÁP",
    "maturityDate": "2024.04.12",
    "name": "K2024/15",
    "bidEhmYield": "10,93",
    "askYield": "",
    "currency": "HUF",
    "maturityInDays_val": 148,
    "issueDate": "2023.04.12",
    "longName": "K240412"
}