{
    "askPrice": "",
    "green": 0,
    "coupon": "9,00 %",
    "accruedInterest": "4,9562",
    "settleDate": "2023.10.30",
    "askEhmYield": "",
    "bidYield": "11,05",
    "rawName": "K2024/15",
    "bidPrice": "99,0000",
    "coupon_val": 9,
    "maturityInDays": "165 nap",
    "securityType": "1MÁP",
    "maturityDate": "2024.04.12",
    "name": "K2024/15",
    "bidEhmYield": "10,73",
    "askYield": "",
    "currency": "HUF",
    "maturityInDays_val": 165,
    "issueDate": "2023.04.12",
    "longName": "K240412"
}