{
    "askPrice": "",
    "green": 0,
    "coupon": "9,00 %",
    "accruedInterest": "5,9918",
    "settleDate": "2023.12.11",
    "askEhmYield": "",
    "bidYield": "11,76",
    "rawName": "K2024/15",
    "bidPrice": "99,0000",
    "coupon_val": 9,
    "maturityInDays": "123 nap",
    "securityType": "1MÁP",
    "maturityDate": "2024.04.12",
    "name": "K2024/15",
    "bidEhmYield": "11,33",
    "askYield": "",
    "currency": "HUF",
    "maturityInDays_val": 123,
    "issueDate": "2023.04.12",
    "longName": "K240412"
}