{
    "askPrice": "",
    "green": 0,
    "coupon": "9,00 %",
    "accruedInterest": "2,5397",
    "settleDate": "2023.07.24",
    "askEhmYield": "",
    "bidYield": "10,34",
    "rawName": "K2024/15",
    "bidPrice": "99,0000",
    "coupon_val": 9,
    "maturityInDays": "263 nap",
    "securityType": "1MÁP",
    "maturityDate": "2024.04.12",
    "name": "K2024/15",
    "bidEhmYield": "10,20",
    "askYield": "",
    "currency": "HUF",
    "maturityInDays_val": 263,
    "issueDate": "2023.04.12",
    "longName": "K240412"
}