{
    "askPrice": "",
    "green": 0,
    "coupon": "9,00 %",
    "accruedInterest": "3,7973",
    "settleDate": "2023.09.13",
    "askEhmYield": "",
    "bidYield": "10,61",
    "rawName": "K2024/15",
    "bidPrice": "99,0000",
    "coupon_val": 9,
    "maturityInDays": "212 nap",
    "securityType": "1MÁP",
    "maturityDate": "2024.04.12",
    "name": "K2024/15",
    "bidEhmYield": "10,39",
    "askYield": "",
    "currency": "HUF",
    "maturityInDays_val": 212,
    "issueDate": "2023.04.12",
    "longName": "K240412"
}