{
    "askPrice": "",
    "green": 0,
    "coupon": "9,00 %",
    "accruedInterest": "6,3863",
    "settleDate": "2023.12.27",
    "askEhmYield": "",
    "bidYield": "12,19",
    "rawName": "K2024/15",
    "bidPrice": "99,0000",
    "coupon_val": 9,
    "maturityInDays": "107 nap",
    "securityType": "1MÁP",
    "maturityDate": "2024.04.12",
    "name": "K2024/15",
    "bidEhmYield": "11,70",
    "askYield": "",
    "currency": "HUF",
    "maturityInDays_val": 107,
    "issueDate": "2023.04.12",
    "longName": "K240412"
}