{
    "askPrice": "",
    "green": 0,
    "coupon": "9,00 %",
    "accruedInterest": "0,7397",
    "settleDate": "2023.05.12",
    "askEhmYield": "",
    "bidYield": "10,13",
    "rawName": "K2024/15",
    "bidPrice": "99,0000",
    "coupon_val": 9,
    "maturityInDays": "336 nap",
    "securityType": "1MÁP",
    "maturityDate": "2024.04.12",
    "name": "K2024/15",
    "bidEhmYield": "10,09",
    "askYield": "",
    "currency": "HUF",
    "maturityInDays_val": 336,
    "issueDate": "2023.04.12",
    "longName": "K240412"
}