{
    "askPrice": "",
    "green": 0,
    "coupon": "9,00 %",
    "accruedInterest": "8,2603",
    "settleDate": "2024.03.12",
    "askEhmYield": "",
    "bidYield": "20,86",
    "rawName": "K2024/15",
    "bidPrice": "99,0000",
    "coupon_val": 9,
    "maturityInDays": "31 nap",
    "securityType": "1MÁP",
    "maturityDate": "2024.04.12",
    "name": "K2024/15",
    "bidEhmYield": "19,10",
    "askYield": "",
    "currency": "HUF",
    "maturityInDays_val": 31,
    "issueDate": "2023.04.12",
    "longName": "K240412"
}