{
    "askPrice": "",
    "green": 0,
    "coupon": "9,00 %",
    "accruedInterest": "8,9014",
    "settleDate": "2024.04.08",
    "askEhmYield": "",
    "bidYield": "79,81",
    "rawName": "K2024/15",
    "bidPrice": "99,4000",
    "coupon_val": 9,
    "maturityInDays": "4 nap",
    "securityType": "1MÁP",
    "maturityDate": "2024.04.12",
    "name": "K2024/15",
    "bidEhmYield": "56,77",
    "askYield": "",
    "currency": "HUF",
    "maturityInDays_val": 4,
    "issueDate": "2023.04.12",
    "longName": "K240412"
}