{
    "askPrice": "",
    "green": 0,
    "coupon": "9,00 %",
    "accruedInterest": "8,4082",
    "settleDate": "2024.03.18",
    "askEhmYield": "",
    "bidYield": "23,96",
    "rawName": "K2024/15",
    "bidPrice": "99,0000",
    "coupon_val": 9,
    "maturityInDays": "25 nap",
    "securityType": "1MÁP",
    "maturityDate": "2024.04.12",
    "name": "K2024/15",
    "bidEhmYield": "21,64",
    "askYield": "",
    "currency": "HUF",
    "maturityInDays_val": 25,
    "issueDate": "2023.04.12",
    "longName": "K240412"
}