{
    "askPrice": "",
    "green": 0,
    "coupon": "9,00 %",
    "accruedInterest": "8,6301",
    "settleDate": "2024.03.28",
    "askEhmYield": "",
    "bidYield": "27,13",
    "rawName": "K2024/15",
    "bidPrice": "99,3000",
    "coupon_val": 9,
    "maturityInDays": "15 nap",
    "securityType": "1MÁP",
    "maturityDate": "2024.04.12",
    "name": "K2024/15",
    "bidEhmYield": "23,56",
    "askYield": "",
    "currency": "HUF",
    "maturityInDays_val": 15,
    "issueDate": "2023.04.12",
    "longName": "K240412"
}