{
    "askPrice": "",
    "green": 0,
    "coupon": "9,00 %",
    "accruedInterest": "8,8027",
    "settleDate": "2024.04.04",
    "askEhmYield": "",
    "bidYield": "39,79",
    "rawName": "K2024/15",
    "bidPrice": "99,4000",
    "coupon_val": 9,
    "maturityInDays": "8 nap",
    "securityType": "1MÁP",
    "maturityDate": "2024.04.12",
    "name": "K2024/15",
    "bidEhmYield": "32,57",
    "askYield": "",
    "currency": "HUF",
    "maturityInDays_val": 8,
    "issueDate": "2023.04.12",
    "longName": "K240412"
}