{
    "askPrice": "",
    "green": 0,
    "coupon": "7,00 %",
    "accruedInterest": "1,1507",
    "settleDate": "2023.01.02",
    "askEhmYield": "",
    "bidYield": "8,24",
    "rawName": "K2023/44",
    "bidPrice": "99,0000",
    "coupon_val": 7,
    "maturityInDays": "305 nap",
    "securityType": "1MÁP",
    "maturityDate": "2023.11.03",
    "name": "K2023/44",
    "bidEhmYield": "8,18",
    "askYield": "",
    "currency": "HUF",
    "maturityInDays_val": 305,
    "issueDate": "2022.11.03",
    "longName": "K231103"
}