{
    "askPrice": "",
    "green": 0,
    "coupon": "7,00 %",
    "accruedInterest": "0,3452",
    "settleDate": "2022.11.21",
    "askEhmYield": "",
    "bidYield": "7,55",
    "rawName": "K2023/44",
    "bidPrice": "99,5000",
    "coupon_val": 7,
    "maturityInDays": "347 nap",
    "securityType": "1MÁP",
    "maturityDate": "2023.11.03",
    "name": "K2023/44",
    "bidEhmYield": "7,54",
    "askYield": "",
    "currency": "HUF",
    "maturityInDays_val": 347,
    "issueDate": "2022.11.03",
    "longName": "K231103"
}