{
    "askPrice": "",
    "green": 0,
    "coupon": "7,00 %",
    "accruedInterest": "0,7671",
    "settleDate": "2022.12.13",
    "askEhmYield": "",
    "bidYield": "8,18",
    "rawName": "K2023/44",
    "bidPrice": "99,0000",
    "coupon_val": 7,
    "maturityInDays": "325 nap",
    "securityType": "1MÁP",
    "maturityDate": "2023.11.03",
    "name": "K2023/44",
    "bidEhmYield": "8,14",
    "askYield": "",
    "currency": "HUF",
    "maturityInDays_val": 325,
    "issueDate": "2022.11.03",
    "longName": "K231103"
}