{
    "askPrice": "",
    "green": 0,
    "coupon": "7,00 %",
    "accruedInterest": "3,7014",
    "settleDate": "2023.05.15",
    "askEhmYield": "",
    "bidYield": "9,09",
    "rawName": "K2023/44",
    "bidPrice": "99,0000",
    "coupon_val": 7,
    "maturityInDays": "172 nap",
    "securityType": "1MÁP",
    "maturityDate": "2023.11.03",
    "name": "K2023/44",
    "bidEhmYield": "8,88",
    "askYield": "",
    "currency": "HUF",
    "maturityInDays_val": 172,
    "issueDate": "2022.11.03",
    "longName": "K231103"
}