{
    "askPrice": "",
    "green": 0,
    "coupon": "7,00 %",
    "accruedInterest": "3,2219",
    "settleDate": "2023.04.20",
    "askEhmYield": "",
    "bidYield": "8,83",
    "rawName": "K2023/44",
    "bidPrice": "99,0000",
    "coupon_val": 7,
    "maturityInDays": "197 nap",
    "securityType": "1MÁP",
    "maturityDate": "2023.11.03",
    "name": "K2023/44",
    "bidEhmYield": "8,66",
    "askYield": "",
    "currency": "HUF",
    "maturityInDays_val": 197,
    "issueDate": "2022.11.03",
    "longName": "K231103"
}