{
    "askPrice": "",
    "green": 0,
    "coupon": "7,00 %",
    "accruedInterest": "5,4849",
    "settleDate": "2023.08.16",
    "askEhmYield": "",
    "bidYield": "11,62",
    "rawName": "K2023/44",
    "bidPrice": "99,0000",
    "coupon_val": 7,
    "maturityInDays": "79 nap",
    "securityType": "1MÁP",
    "maturityDate": "2023.11.03",
    "name": "K2023/44",
    "bidEhmYield": "11,12",
    "askYield": "",
    "currency": "HUF",
    "maturityInDays_val": 79,
    "issueDate": "2022.11.03",
    "longName": "K231103"
}