{
    "askPrice": "",
    "green": 0,
    "coupon": "7,00 %",
    "accruedInterest": "4,9288",
    "settleDate": "2023.07.18",
    "askEhmYield": "",
    "bidYield": "10,34",
    "rawName": "K2023/44",
    "bidPrice": "99,0000",
    "coupon_val": 7,
    "maturityInDays": "108 nap",
    "securityType": "1MÁP",
    "maturityDate": "2023.11.03",
    "name": "K2023/44",
    "bidEhmYield": "9,99",
    "askYield": "",
    "currency": "HUF",
    "maturityInDays_val": 108,
    "issueDate": "2022.11.03",
    "longName": "K231103"
}