{
    "askPrice": "",
    "green": 0,
    "coupon": "7,00 %",
    "accruedInterest": "1,8411",
    "settleDate": "2023.02.07",
    "askEhmYield": "",
    "bidYield": "8,38",
    "rawName": "K2023/44",
    "bidPrice": "99,0000",
    "coupon_val": 7,
    "maturityInDays": "269 nap",
    "securityType": "1MÁP",
    "maturityDate": "2023.11.03",
    "name": "K2023/44",
    "bidEhmYield": "8,29",
    "askYield": "",
    "currency": "HUF",
    "maturityInDays_val": 269,
    "issueDate": "2022.11.03",
    "longName": "K231103"
}