{
    "askPrice": "",
    "green": 0,
    "coupon": "7,00 %",
    "accruedInterest": "5,7151",
    "settleDate": "2023.08.28",
    "askEhmYield": "",
    "bidYield": "12,48",
    "rawName": "K2023/44",
    "bidPrice": "99,0000",
    "coupon_val": 7,
    "maturityInDays": "67 nap",
    "securityType": "1MÁP",
    "maturityDate": "2023.11.03",
    "name": "K2023/44",
    "bidEhmYield": "11,89",
    "askYield": "",
    "currency": "HUF",
    "maturityInDays_val": 67,
    "issueDate": "2022.11.03",
    "longName": "K231103"
}