{
    "askPrice": "",
    "green": 0,
    "coupon": "7,00 %",
    "accruedInterest": "4,2384",
    "settleDate": "2023.06.12",
    "askEhmYield": "",
    "bidYield": "9,50",
    "rawName": "K2023/44",
    "bidPrice": "99,0000",
    "coupon_val": 7,
    "maturityInDays": "144 nap",
    "securityType": "1MÁP",
    "maturityDate": "2023.11.03",
    "name": "K2023/44",
    "bidEhmYield": "9,24",
    "askYield": "",
    "currency": "HUF",
    "maturityInDays_val": 144,
    "issueDate": "2022.11.03",
    "longName": "K231103"
}