{
    "askPrice": "",
    "green": 0,
    "coupon": "7,00 %",
    "accruedInterest": "2,6466",
    "settleDate": "2023.03.21",
    "askEhmYield": "",
    "bidYield": "8,60",
    "rawName": "K2023/44",
    "bidPrice": "99,0000",
    "coupon_val": 7,
    "maturityInDays": "227 nap",
    "securityType": "1MÁP",
    "maturityDate": "2023.11.03",
    "name": "K2023/44",
    "bidEhmYield": "8,47",
    "askYield": "",
    "currency": "HUF",
    "maturityInDays_val": 227,
    "issueDate": "2022.11.03",
    "longName": "K231103"
}