{
    "askPrice": "",
    "green": 0,
    "coupon": "7,00 %",
    "accruedInterest": "3,8356",
    "settleDate": "2023.05.22",
    "askEhmYield": "",
    "bidYield": "9,18",
    "rawName": "K2023/44",
    "bidPrice": "99,0000",
    "coupon_val": 7,
    "maturityInDays": "165 nap",
    "securityType": "1MÁP",
    "maturityDate": "2023.11.03",
    "name": "K2023/44",
    "bidEhmYield": "8,96",
    "askYield": "",
    "currency": "HUF",
    "maturityInDays_val": 165,
    "issueDate": "2022.11.03",
    "longName": "K231103"
}