{
    "askPrice": "",
    "green": 0,
    "coupon": "3,50 %",
    "accruedInterest": "1,6813",
    "settleDate": "2024.04.23",
    "askEhmYield": "",
    "bidYield": "5,33",
    "rawName": "N2028/21",
    "bidPrice": "99,5000",
    "coupon_val": 3.5,
    "maturityInDays": "1490 nap",
    "securityType": "MÁP Plusz",
    "maturityDate": "2028.05.22",
    "name": "N2028/21",
    "bidEhmYield": "",
    "askYield": "",
    "currency": "HUF",
    "maturityInDays_val": 1490,
    "issueDate": "2023.05.22",
    "longName": "N280522"
}