{
    "askPrice": "",
    "green": 0,
    "coupon": "3,50 %",
    "accruedInterest": "0,9451",
    "settleDate": "2024.02.16",
    "askEhmYield": "",
    "bidYield": "5,27",
    "rawName": "N2028/21",
    "bidPrice": "99,5000",
    "coupon_val": 3.5,
    "maturityInDays": "1557 nap",
    "securityType": "MÁP Plusz",
    "maturityDate": "2028.05.22",
    "name": "N2028/21",
    "bidEhmYield": "",
    "askYield": "",
    "currency": "HUF",
    "maturityInDays_val": 1557,
    "issueDate": "2023.05.22",
    "longName": "N280522"
}