{
    "askPrice": "",
    "green": 0,
    "coupon": "4,25 %",
    "accruedInterest": "0,85",
    "settleDate": "2022.09.30",
    "askEhmYield": "",
    "bidYield": "",
    "rawName": "K2023/29",
    "bidPrice": "99,50",
    "coupon_val": 4.25,
    "maturityInDays": "292 nap",
    "securityType": "1MÁP",
    "maturityDate": "2023.07.19",
    "name": "K2023/29",
    "bidEhmYield": "4,86",
    "askYield": "",
    "currency": "HUF",
    "maturityInDays_val": 292,
    "longName": "K230719"
}