{
    "askPrice": "",
    "green": 0,
    "coupon": "4,25 %",
    "accruedInterest": "1,41",
    "settleDate": "2022.11.17",
    "askEhmYield": "",
    "bidYield": "4,99",
    "rawName": "K2023/29",
    "bidPrice": "99,50",
    "coupon_val": 4.25,
    "maturityInDays": "244 nap",
    "securityType": "1MÁP",
    "maturityDate": "2023.07.19",
    "name": "K2023/29",
    "bidEhmYield": "4,95",
    "askYield": "",
    "currency": "HUF",
    "maturityInDays_val": 244,
    "issueDate": "2022-07-19",
    "longName": "K230719"
}