{
    "askPrice": "",
    "green": 0,
    "coupon": "4,25 %",
    "accruedInterest": "1,8747",
    "settleDate": "2022.12.27",
    "askEhmYield": "",
    "bidYield": "6,07",
    "rawName": "K2023/29",
    "bidPrice": "99,0000",
    "coupon_val": 4.25,
    "maturityInDays": "204 nap",
    "securityType": "1MÁP",
    "maturityDate": "2023.07.19",
    "name": "K2023/29",
    "bidEhmYield": "5,99",
    "askYield": "",
    "currency": "HUF",
    "maturityInDays_val": 204,
    "issueDate": "2022.07.19",
    "longName": "K230719"
}