{
    "askPrice": "",
    "green": 0,
    "coupon": "4,25 %",
    "accruedInterest": "1,6185",
    "settleDate": "2022.12.05",
    "askEhmYield": "",
    "bidYield": "5,05",
    "rawName": "K2023/29",
    "bidPrice": "99,5000",
    "coupon_val": 4.25,
    "maturityInDays": "226 nap",
    "securityType": "1MÁP",
    "maturityDate": "2023.07.19",
    "name": "K2023/29",
    "bidEhmYield": "5,00",
    "askYield": "",
    "currency": "HUF",
    "maturityInDays_val": 226,
    "issueDate": "2022.07.19",
    "longName": "K230719"
}