{
    "askPrice": "",
    "green": 0,
    "coupon": "4,25 %",
    "accruedInterest": "0,07",
    "settleDate": "2022.07.25",
    "askEhmYield": "",
    "bidYield": "",
    "rawName": "K2023/29",
    "bidPrice": "99,50",
    "coupon_val": 4.25,
    "maturityInDays": "359 nap",
    "securityType": "1MÁP",
    "maturityDate": "2023.07.19",
    "name": "K2023/29",
    "bidEhmYield": "4,78",
    "askYield": "",
    "currency": "HUF",
    "maturityInDays_val": 359,
    "longName": "K230719"
}