{
    "askPrice": "",
    "green": 0,
    "coupon": "4,25 %",
    "accruedInterest": "4,0637",
    "settleDate": "2023.07.03",
    "askEhmYield": "",
    "bidYield": "21,50",
    "rawName": "K2023/29",
    "bidPrice": "99,3000",
    "coupon_val": 4.25,
    "maturityInDays": "16 nap",
    "securityType": "1MÁP",
    "maturityDate": "2023.07.19",
    "name": "K2023/29",
    "bidEhmYield": "19,56",
    "askYield": "",
    "currency": "HUF",
    "maturityInDays_val": 16,
    "issueDate": "2022.07.19",
    "longName": "K230719"
}