{
    "askPrice": "",
    "green": 0,
    "coupon": "4,25 %",
    "accruedInterest": "3,9240",
    "settleDate": "2023.06.21",
    "askEhmYield": "",
    "bidYield": "18,16",
    "rawName": "K2023/29",
    "bidPrice": "99,0000",
    "coupon_val": 4.25,
    "maturityInDays": "28 nap",
    "securityType": "1MÁP",
    "maturityDate": "2023.07.19",
    "name": "K2023/29",
    "bidEhmYield": "16,79",
    "askYield": "",
    "currency": "HUF",
    "maturityInDays_val": 28,
    "issueDate": "2022.07.19",
    "longName": "K230719"
}