{
    "askPrice": "",
    "green": 0,
    "coupon": "4,25 %",
    "accruedInterest": "2,2356",
    "settleDate": "2023.01.27",
    "askEhmYield": "",
    "bidYield": "6,39",
    "rawName": "K2023/29",
    "bidPrice": "99,0000",
    "coupon_val": 4.25,
    "maturityInDays": "173 nap",
    "securityType": "1MÁP",
    "maturityDate": "2023.07.19",
    "name": "K2023/29",
    "bidEhmYield": "6,28",
    "askYield": "",
    "currency": "HUF",
    "maturityInDays_val": 173,
    "issueDate": "2022.07.19",
    "longName": "K230719"
}