{
    "askPrice": "",
    "green": 0,
    "coupon": "4,25 %",
    "accruedInterest": "3,5863",
    "settleDate": "2023.05.23",
    "askEhmYield": "",
    "bidYield": "10,85",
    "rawName": "K2023/29",
    "bidPrice": "99,0000",
    "coupon_val": 4.25,
    "maturityInDays": "57 nap",
    "securityType": "1MÁP",
    "maturityDate": "2023.07.19",
    "name": "K2023/29",
    "bidEhmYield": "10,38",
    "askYield": "",
    "currency": "HUF",
    "maturityInDays_val": 57,
    "issueDate": "2022.07.19",
    "longName": "K230719"
}