{
    "askPrice": "",
    "green": 0,
    "coupon": "9,00 %",
    "accruedInterest": "1,9479",
    "settleDate": "2023.10.12",
    "askEhmYield": "",
    "bidYield": "10,25",
    "rawName": "K2024/30",
    "bidPrice": "99,0000",
    "coupon_val": 9,
    "maturityInDays": "287 nap",
    "securityType": "1MÁP",
    "maturityDate": "2024.07.25",
    "name": "K2024/30",
    "bidEhmYield": "10,14",
    "askYield": "",
    "currency": "HUF",
    "maturityInDays_val": 287,
    "issueDate": "2023.07.25",
    "longName": "K240725"
}