{
    "askPrice": "",
    "green": 0,
    "coupon": "9,00 %",
    "accruedInterest": "2,2685",
    "settleDate": "2023.10.25",
    "askEhmYield": "",
    "bidYield": "10,30",
    "rawName": "K2024/30",
    "bidPrice": "99,0000",
    "coupon_val": 9,
    "maturityInDays": "274 nap",
    "securityType": "1MÁP",
    "maturityDate": "2024.07.25",
    "name": "K2024/30",
    "bidEhmYield": "10,17",
    "askYield": "",
    "currency": "HUF",
    "maturityInDays_val": 274,
    "issueDate": "2023.07.25",
    "longName": "K240725"
}