{
    "askPrice": "",
    "green": 0,
    "coupon": "9,00 %",
    "accruedInterest": "3,1315",
    "settleDate": "2023.11.29",
    "askEhmYield": "",
    "bidYield": "10,45",
    "rawName": "K2024/30",
    "bidPrice": "99,0000",
    "coupon_val": 9,
    "maturityInDays": "239 nap",
    "securityType": "1MÁP",
    "maturityDate": "2024.07.25",
    "name": "K2024/30",
    "bidEhmYield": "10,27",
    "askYield": "",
    "currency": "HUF",
    "maturityInDays_val": 239,
    "issueDate": "2023.07.25",
    "longName": "K240725"
}