{
    "askPrice": "",
    "green": 0,
    "coupon": "9,00 %",
    "accruedInterest": "6,1890",
    "settleDate": "2024.04.02",
    "askEhmYield": "",
    "bidYield": "12,07",
    "rawName": "K2024/30",
    "bidPrice": "99,0000",
    "coupon_val": 9,
    "maturityInDays": "114 nap",
    "securityType": "1MÁP",
    "maturityDate": "2024.07.25",
    "name": "K2024/30",
    "bidEhmYield": "11,52",
    "askYield": "",
    "currency": "HUF",
    "maturityInDays_val": 114,
    "issueDate": "2023.07.25",
    "longName": "K240725"
}