{
    "askPrice": "",
    "green": 0,
    "coupon": "9,00 %",
    "accruedInterest": "6,7315",
    "settleDate": "2024.04.24",
    "askEhmYield": "",
    "bidYield": "12,84",
    "rawName": "K2024/30",
    "bidPrice": "99,0000",
    "coupon_val": 9,
    "maturityInDays": "92 nap",
    "securityType": "1MÁP",
    "maturityDate": "2024.07.25",
    "name": "K2024/30",
    "bidEhmYield": "12,17",
    "askYield": "",
    "currency": "HUF",
    "maturityInDays_val": 92,
    "issueDate": "2023.07.25",
    "longName": "K240725"
}