{
    "askPrice": "",
    "green": 0,
    "coupon": "9,00 %",
    "accruedInterest": "7,2000",
    "settleDate": "2024.05.13",
    "askEhmYield": "",
    "bidYield": "13,90",
    "rawName": "K2024/30",
    "bidPrice": "99,0000",
    "coupon_val": 9,
    "maturityInDays": "73 nap",
    "securityType": "1MÁP",
    "maturityDate": "2024.07.25",
    "name": "K2024/30",
    "bidEhmYield": "13,06",
    "askYield": "",
    "currency": "HUF",
    "maturityInDays_val": 73,
    "issueDate": "2023.07.25",
    "longName": "K240725"
}