{
    "askPrice": "",
    "green": 0,
    "coupon": "9,00 %",
    "accruedInterest": "4,4630",
    "settleDate": "2024.01.22",
    "askEhmYield": "",
    "bidYield": "10,83",
    "rawName": "K2024/30",
    "bidPrice": "99,0000",
    "coupon_val": 9,
    "maturityInDays": "185 nap",
    "securityType": "1MÁP",
    "maturityDate": "2024.07.25",
    "name": "K2024/30",
    "bidEhmYield": "10,56",
    "askYield": "",
    "currency": "HUF",
    "maturityInDays_val": 185,
    "issueDate": "2023.07.25",
    "longName": "K240725"
}