{
    "askPrice": "",
    "green": 0,
    "coupon": "9,00 %",
    "accruedInterest": "5,1534",
    "settleDate": "2024.02.19",
    "askEhmYield": "",
    "bidYield": "11,15",
    "rawName": "K2024/30",
    "bidPrice": "99,0000",
    "coupon_val": 9,
    "maturityInDays": "157 nap",
    "securityType": "1MÁP",
    "maturityDate": "2024.07.25",
    "name": "K2024/30",
    "bidEhmYield": "10,82",
    "askYield": "",
    "currency": "HUF",
    "maturityInDays_val": 157,
    "issueDate": "2023.07.25",
    "longName": "K240725"
}