{
    "askPrice": "",
    "green": 0,
    "coupon": "3,50 %",
    "accruedInterest": "0,0549",
    "settleDate": "2023.10.02",
    "askEhmYield": "",
    "bidYield": "5,08",
    "rawName": "N2028/13",
    "bidPrice": "100,0000",
    "coupon_val": 3.5,
    "maturityInDays": "1638 nap",
    "securityType": "MÁP Plusz",
    "maturityDate": "2028.03.27",
    "name": "N2028/13",
    "bidEhmYield": "",
    "askYield": "",
    "currency": "HUF",
    "maturityInDays_val": 1638,
    "issueDate": "2023.03.27",
    "longName": "N280327"
}