{
    "askPrice": "",
    "green": 0,
    "coupon": "3,50 %",
    "accruedInterest": "1,3030",
    "settleDate": "2023.08.11",
    "askEhmYield": "",
    "bidYield": "5,15",
    "rawName": "N2028/13",
    "bidPrice": "99,5000",
    "coupon_val": 3.5,
    "maturityInDays": "1690 nap",
    "securityType": "MÁP Plusz",
    "maturityDate": "2028.03.27",
    "name": "N2028/13",
    "bidEhmYield": "",
    "askYield": "",
    "currency": "HUF",
    "maturityInDays_val": 1690,
    "issueDate": "2023.03.27",
    "longName": "N280327"
}