{
    "askPrice": "99,1025",
    "green": 0,
    "coupon": 0,
    "accruedInterest": 0,
    "settleDate": "2023.11.27",
    "askEhmYield": "7,51",
    "bidYield": "8,75",
    "rawName": "D240110",
    "bidPrice": "98,9419",
    "maturityInDays": "44 nap",
    "securityType": "DKJ",
    "maturityDate": "2024.01.10",
    "name": "D240110",
    "bidEhmYield": "8,87",
    "askYield": "7,41",
    "currency": "HUF",
    "maturityInDays_val": 44,
    "issueDate": "2023.10.11",
    "longName": "D240110"
}