{
    "askPrice": "",
    "green": 0,
    "coupon": 0,
    "accruedInterest": 0,
    "settleDate": "2023.12.29",
    "askEhmYield": "",
    "bidYield": "7,15",
    "rawName": "D240110",
    "bidPrice": "99,7622",
    "maturityInDays": "12 nap",
    "securityType": "DKJ",
    "maturityDate": "2024.01.10",
    "name": "D240110",
    "bidEhmYield": "7,25",
    "askYield": "",
    "currency": "HUF",
    "maturityInDays_val": 12,
    "issueDate": "2023.10.11",
    "longName": "D240110"
}