{
    "askPrice": "98,5347",
    "green": 0,
    "coupon": 0,
    "accruedInterest": 0,
    "settleDate": "2023.10.19",
    "askEhmYield": "6,54",
    "bidYield": "7,79",
    "rawName": "D240110",
    "bidPrice": "98,2357",
    "maturityInDays": "83 nap",
    "securityType": "DKJ",
    "maturityDate": "2024.01.10",
    "name": "D240110",
    "bidEhmYield": "7,90",
    "askYield": "6,45",
    "currency": "HUF",
    "maturityInDays_val": 83,
    "issueDate": "2023.10.11",
    "longName": "D240110"
}