{
    "askPrice": "99,1486",
    "green": 0,
    "coupon": 0,
    "accruedInterest": 0,
    "settleDate": "2023.11.29",
    "askEhmYield": "7,46",
    "bidYield": "8,69",
    "rawName": "D240110",
    "bidPrice": "98,9963",
    "maturityInDays": "42 nap",
    "securityType": "DKJ",
    "maturityDate": "2024.01.10",
    "name": "D240110",
    "bidEhmYield": "8,81",
    "askYield": "7,36",
    "currency": "HUF",
    "maturityInDays_val": 42,
    "issueDate": "2023.10.11",
    "longName": "D240110"
}