{
    "askPrice": "",
    "green": 0,
    "coupon": 0,
    "accruedInterest": 0,
    "settleDate": "2023.12.22",
    "askEhmYield": "",
    "bidYield": "6,62",
    "rawName": "D240110",
    "bidPrice": "99,6518",
    "maturityInDays": "19 nap",
    "securityType": "DKJ",
    "maturityDate": "2024.01.10",
    "name": "D240110",
    "bidEhmYield": "6,71",
    "askYield": "",
    "currency": "HUF",
    "maturityInDays_val": 19,
    "issueDate": "2023.10.11",
    "longName": "D240110"
}