{
    "askPrice": "98,6323",
    "green": 0,
    "coupon": 0,
    "accruedInterest": 0,
    "settleDate": "2023.10.24",
    "askEhmYield": "6,49",
    "bidYield": "7,75",
    "rawName": "D240110",
    "bidPrice": "98,3486",
    "maturityInDays": "78 nap",
    "securityType": "DKJ",
    "maturityDate": "2024.01.10",
    "name": "D240110",
    "bidEhmYield": "7,86",
    "askYield": "6,40",
    "currency": "HUF",
    "maturityInDays_val": 78,
    "issueDate": "2023.10.11",
    "longName": "D240110"
}