{
    "askPrice": "98,3284",
    "green": 0,
    "coupon": 0,
    "accruedInterest": 0,
    "settleDate": "2023.10.17",
    "askEhmYield": "7,30",
    "bidYield": "8,48",
    "rawName": "D240110",
    "bidPrice": "98,0371",
    "maturityInDays": "85 nap",
    "securityType": "DKJ",
    "maturityDate": "2024.01.10",
    "name": "D240110",
    "bidEhmYield": "8,60",
    "askYield": "7,20",
    "currency": "HUF",
    "maturityInDays_val": 85,
    "issueDate": "2023.10.11",
    "longName": "D240110"
}