{
    "askPrice": "",
    "green": 0,
    "coupon": 0,
    "accruedInterest": 0,
    "settleDate": "2023.12.19",
    "askEhmYield": "",
    "bidYield": "7,48",
    "rawName": "D240110",
    "bidPrice": "99,5450",
    "maturityInDays": "22 nap",
    "securityType": "DKJ",
    "maturityDate": "2024.01.10",
    "name": "D240110",
    "bidEhmYield": "7,58",
    "askYield": "",
    "currency": "HUF",
    "maturityInDays_val": 22,
    "issueDate": "2023.10.11",
    "longName": "D240110"
}