{
    "askPrice": "",
    "green": 0,
    "coupon": null,
    "accruedInterest": "3,45",
    "settleDate": "2022.08.16",
    "askEhmYield": "",
    "bidYield": "",
    "rawName": "2024/N",
    "bidPrice": "99,00",
    "maturityInDays": "741 nap",
    "securityType": "BMÁP",
    "maturityDate": "2024.08.26",
    "name": "2024/N",
    "bidEhmYield": "",
    "askYield": "",
    "currency": "HUF",
    "maturityInDays_val": 741,
    "longName": "A240826N14"
}