{
    "askPrice": "",
    "green": 0,
    "coupon": null,
    "accruedInterest": "3,28",
    "settleDate": "2022.07.29",
    "askEhmYield": "",
    "bidYield": "",
    "rawName": "2024/N",
    "bidPrice": "99,00",
    "maturityInDays": "759 nap",
    "securityType": "BMÁP",
    "maturityDate": "2024.08.26",
    "name": "2024/N",
    "bidEhmYield": "",
    "askYield": "",
    "currency": "HUF",
    "maturityInDays_val": 759,
    "longName": "A240826N14"
}