{
    "askPrice": "",
    "green": 0,
    "coupon": null,
    "accruedInterest": "6,4853",
    "settleDate": "2023.03.06",
    "askEhmYield": "",
    "bidYield": "",
    "rawName": "2024/N",
    "bidPrice": "99,0000",
    "maturityInDays": "539 nap",
    "securityType": "BMÁP",
    "maturityDate": "2024.08.26",
    "name": "2024/N",
    "bidEhmYield": "",
    "askYield": "",
    "currency": "HUF",
    "maturityInDays_val": 539,
    "issueDate": "2014.08.26",
    "longName": "A240826N14"
}