{
    "askPrice": "",
    "green": 0,
    "coupon": null,
    "accruedInterest": 0,
    "settleDate": "2023.08.25",
    "askEhmYield": "",
    "bidYield": "",
    "rawName": "2024/N",
    "bidPrice": "",
    "maturityInDays": "367 nap",
    "securityType": "BMÁP",
    "maturityDate": "2024.08.26",
    "name": "2024/N",
    "bidEhmYield": "",
    "askYield": "",
    "currency": "HUF",
    "maturityInDays_val": 367,
    "issueDate": "2014.08.26",
    "longName": "A240826N14"
}