{
    "askPrice": "",
    "green": 0,
    "coupon": "3,50 %",
    "accruedInterest": "2,61",
    "settleDate": "2022.11.17",
    "askEhmYield": "",
    "bidYield": "5,51",
    "rawName": "N2026/16",
    "bidPrice": "99,50",
    "coupon_val": 3.5,
    "maturityInDays": "1249 nap",
    "securityType": "MÁP Plusz",
    "maturityDate": "2026.04.19",
    "name": "N2026/16",
    "bidEhmYield": "",
    "askYield": "",
    "currency": "HUF",
    "maturityInDays_val": 1249,
    "issueDate": "2021-04-19",
    "longName": "N260419"
}