{
    "askPrice": "",
    "green": 0,
    "coupon": "3,50 %",
    "accruedInterest": "1,84",
    "settleDate": "2022.09.15",
    "askEhmYield": "",
    "bidYield": "",
    "rawName": "N2026/16",
    "bidPrice": "99,50",
    "coupon_val": 3.5,
    "maturityInDays": "1312 nap",
    "securityType": "MÁP Plusz",
    "maturityDate": "2026.04.19",
    "name": "N2026/16",
    "bidEhmYield": "",
    "askYield": "",
    "currency": "HUF",
    "maturityInDays_val": 1312,
    "longName": "N260419"
}