{
    "askPrice": "",
    "green": 0,
    "coupon": "3,50 %",
    "accruedInterest": "0,8607",
    "settleDate": "2023.06.21",
    "askEhmYield": "",
    "bidYield": "5,70",
    "rawName": "N2026/16",
    "bidPrice": "99,5000",
    "coupon_val": 3.5,
    "maturityInDays": "1033 nap",
    "securityType": "MÁP Plusz",
    "maturityDate": "2026.04.19",
    "name": "N2026/16",
    "bidEhmYield": "",
    "askYield": "",
    "currency": "HUF",
    "maturityInDays_val": 1033,
    "issueDate": "2021.04.19",
    "longName": "N260419"
}