{
    "askPrice": "",
    "green": 0,
    "coupon": "3,50 %",
    "accruedInterest": "4,0164",
    "settleDate": "2024.02.07",
    "askEhmYield": "",
    "bidYield": "5,91",
    "rawName": "N2026/16",
    "bidPrice": "99,5000",
    "coupon_val": 3.5,
    "maturityInDays": "802 nap",
    "securityType": "MÁP Plusz",
    "maturityDate": "2026.04.19",
    "name": "N2026/16",
    "bidEhmYield": "",
    "askYield": "",
    "currency": "HUF",
    "maturityInDays_val": 802,
    "issueDate": "2021.04.19",
    "longName": "N260419"
}