{
    "askPrice": "",
    "green": 0,
    "coupon": "3,50 %",
    "accruedInterest": "4,7678",
    "settleDate": "2024.04.02",
    "askEhmYield": "",
    "bidYield": "5,99",
    "rawName": "N2026/16",
    "bidPrice": "99,5000",
    "coupon_val": 3.5,
    "maturityInDays": "747 nap",
    "securityType": "MÁP Plusz",
    "maturityDate": "2026.04.19",
    "name": "N2026/16",
    "bidEhmYield": "",
    "askYield": "",
    "currency": "HUF",
    "maturityInDays_val": 747,
    "issueDate": "2021.04.19",
    "longName": "N260419"
}