{
    "askPrice": "",
    "green": 0,
    "coupon": "8,00 %",
    "accruedInterest": "1,0521",
    "settleDate": "2024.01.08",
    "askEhmYield": "",
    "bidYield": "9,17",
    "rawName": "K2024/47",
    "bidPrice": "99,0000",
    "coupon_val": 8,
    "maturityInDays": "318 nap",
    "securityType": "1MÁP",
    "maturityDate": "2024.11.21",
    "name": "K2024/47",
    "bidEhmYield": "9,12",
    "askYield": "",
    "currency": "HUF",
    "maturityInDays_val": 318,
    "issueDate": "2023.11.21",
    "longName": "K241121"
}