{
    "askPrice": "",
    "green": 0,
    "coupon": "8,00 %",
    "accruedInterest": "1,7096",
    "settleDate": "2024.02.07",
    "askEhmYield": "",
    "bidYield": "9,26",
    "rawName": "K2024/47",
    "bidPrice": "99,0000",
    "coupon_val": 8,
    "maturityInDays": "288 nap",
    "securityType": "1MÁP",
    "maturityDate": "2024.11.21",
    "name": "K2024/47",
    "bidEhmYield": "9,17",
    "askYield": "",
    "currency": "HUF",
    "maturityInDays_val": 288,
    "issueDate": "2023.11.21",
    "longName": "K241121"
}