{
    "askPrice": "",
    "green": 0,
    "coupon": "3,50 %",
    "accruedInterest": "0,2188",
    "settleDate": "2024.04.17",
    "askEhmYield": "",
    "bidYield": "5,04",
    "rawName": "N2029/13",
    "bidPrice": "99,5000",
    "coupon_val": 3.5,
    "maturityInDays": "1803 nap",
    "securityType": "MÁP Plusz",
    "maturityDate": "2029.03.25",
    "name": "N2029/13",
    "bidEhmYield": "",
    "askYield": "",
    "currency": "HUF",
    "maturityInDays_val": 1803,
    "issueDate": "2024.03.25",
    "longName": "N290325"
}