{
    "askPrice": "",
    "green": 0,
    "coupon": "3,50 %",
    "accruedInterest": "4,18",
    "settleDate": "2022.07.04",
    "askEhmYield": "",
    "bidYield": "",
    "rawName": "N2024/13",
    "bidPrice": "99,50",
    "coupon_val": 3.5,
    "maturityInDays": "791 nap",
    "securityType": "MÁP Plusz",
    "maturityDate": "2024.09.02",
    "name": "N2024/13",
    "bidEhmYield": "",
    "askYield": "",
    "currency": "HUF",
    "maturityInDays_val": 791,
    "longName": "N240902"
}