{
    "askPrice": "",
    "green": 0,
    "coupon": "3,50 %",
    "accruedInterest": "0,71",
    "settleDate": "2022.10.19",
    "askEhmYield": "",
    "bidYield": "6,04",
    "rawName": "N2024/13",
    "bidPrice": "99,50",
    "coupon_val": 3.5,
    "maturityInDays": "684 nap",
    "securityType": "MÁP Plusz",
    "maturityDate": "2024.09.02",
    "name": "N2024/13",
    "bidEhmYield": "",
    "askYield": "",
    "currency": "HUF",
    "maturityInDays_val": 684,
    "longName": "N240902"
}