{
    "askPrice": "",
    "green": 0,
    "coupon": "3,50 %",
    "accruedInterest": "3,3301",
    "settleDate": "2023.04.11",
    "askEhmYield": "",
    "bidYield": "6,21",
    "rawName": "N2024/13",
    "bidPrice": "99,5000",
    "coupon_val": 3.5,
    "maturityInDays": "510 nap",
    "securityType": "MÁP Plusz",
    "maturityDate": "2024.09.02",
    "name": "N2024/13",
    "bidEhmYield": "",
    "askYield": "",
    "currency": "HUF",
    "maturityInDays_val": 510,
    "issueDate": "2019.09.02",
    "longName": "N240902"
}