{
    "askPrice": "",
    "green": 0,
    "coupon": "3,50 %",
    "accruedInterest": "4,9425",
    "settleDate": "2023.07.27",
    "askEhmYield": "",
    "bidYield": "6,42",
    "rawName": "N2024/13",
    "bidPrice": "99,5000",
    "coupon_val": 3.5,
    "maturityInDays": "403 nap",
    "securityType": "MÁP Plusz",
    "maturityDate": "2024.09.02",
    "name": "N2024/13",
    "bidEhmYield": "",
    "askYield": "",
    "currency": "HUF",
    "maturityInDays_val": 403,
    "issueDate": "2019.09.02",
    "longName": "N240902"
}