{
    "askPrice": "",
    "green": 0,
    "coupon": "3,50 %",
    "accruedInterest": "2,7869",
    "settleDate": "2024.02.19",
    "askEhmYield": "",
    "bidYield": "6,88",
    "rawName": "N2024/13",
    "bidPrice": "99,5000",
    "coupon_val": 3.5,
    "maturityInDays": "196 nap",
    "securityType": "MÁP Plusz",
    "maturityDate": "2024.09.02",
    "name": "N2024/13",
    "bidEhmYield": "",
    "askYield": "",
    "currency": "HUF",
    "maturityInDays_val": 196,
    "issueDate": "2019.09.02",
    "longName": "N240902"
}