{
    "askPrice": "",
    "green": 0,
    "coupon": 0,
    "accruedInterest": 0,
    "settleDate": "2023.11.24",
    "askEhmYield": "",
    "bidYield": "8,75",
    "rawName": "D240103",
    "bidPrice": "99,0371",
    "maturityInDays": "40 nap",
    "securityType": "DKJ",
    "maturityDate": "2024.01.03",
    "name": "D240103",
    "bidEhmYield": "8,87",
    "askYield": "",
    "currency": "HUF",
    "maturityInDays_val": 40,
    "issueDate": "2023.10.04",
    "longName": "D240103"
}