{
    "askPrice": "98,7535",
    "green": 0,
    "coupon": 0,
    "accruedInterest": 0,
    "settleDate": "2023.10.24",
    "askEhmYield": "6,49",
    "bidYield": "7,75",
    "rawName": "D240103",
    "bidPrice": "98,4945",
    "maturityInDays": "71 nap",
    "securityType": "DKJ",
    "maturityDate": "2024.01.03",
    "name": "D240103",
    "bidEhmYield": "7,86",
    "askYield": "6,40",
    "currency": "HUF",
    "maturityInDays_val": 71,
    "issueDate": "2023.10.04",
    "longName": "D240103"
}