{
    "askPrice": "98,1114",
    "green": 0,
    "coupon": 0,
    "accruedInterest": 0,
    "settleDate": "2023.10.05",
    "askEhmYield": "7,81",
    "bidYield": "9,05",
    "rawName": "D240103",
    "bidPrice": "97,7876",
    "maturityInDays": "90 nap",
    "securityType": "DKJ",
    "maturityDate": "2024.01.03",
    "name": "D240103",
    "bidEhmYield": "9,18",
    "askYield": "7,70",
    "currency": "HUF",
    "maturityInDays_val": 90,
    "issueDate": "2023.10.04",
    "longName": "D240103"
}