{
    "askPrice": "",
    "green": 0,
    "coupon": 0,
    "accruedInterest": 0,
    "settleDate": "2023.12.11",
    "askEhmYield": "",
    "bidYield": "8,20",
    "rawName": "D240103",
    "bidPrice": "99,4788",
    "maturityInDays": "23 nap",
    "securityType": "DKJ",
    "maturityDate": "2024.01.03",
    "name": "D240103",
    "bidEhmYield": "8,31",
    "askYield": "",
    "currency": "HUF",
    "maturityInDays_val": 23,
    "issueDate": "2023.10.04",
    "longName": "D240103"
}