{
    "askPrice": "",
    "green": 0,
    "coupon": 0,
    "accruedInterest": 0,
    "settleDate": "2023.11.21",
    "askEhmYield": "",
    "bidYield": "8,88",
    "rawName": "D240103",
    "bidPrice": "98,9505",
    "maturityInDays": "43 nap",
    "securityType": "DKJ",
    "maturityDate": "2024.01.03",
    "name": "D240103",
    "bidEhmYield": "9,00",
    "askYield": "",
    "currency": "HUF",
    "maturityInDays_val": 43,
    "issueDate": "2023.10.04",
    "longName": "D240103"
}