{
    "askPrice": "",
    "green": 0,
    "coupon": 0,
    "accruedInterest": 0,
    "settleDate": "2023.11.20",
    "askEhmYield": "",
    "bidYield": "8,80",
    "rawName": "D240103",
    "bidPrice": "98,9359",
    "maturityInDays": "44 nap",
    "securityType": "DKJ",
    "maturityDate": "2024.01.03",
    "name": "D240103",
    "bidEhmYield": "8,92",
    "askYield": "",
    "currency": "HUF",
    "maturityInDays_val": 44,
    "issueDate": "2023.10.04",
    "longName": "D240103"
}