{
    "askPrice": "98,8286",
    "green": 0,
    "coupon": 0,
    "accruedInterest": 0,
    "settleDate": "2023.11.08",
    "askEhmYield": "7,73",
    "bidYield": "9,00",
    "rawName": "D240103",
    "bidPrice": "98,6193",
    "maturityInDays": "56 nap",
    "securityType": "DKJ",
    "maturityDate": "2024.01.03",
    "name": "D240103",
    "bidEhmYield": "9,13",
    "askYield": "7,62",
    "currency": "HUF",
    "maturityInDays_val": 56,
    "issueDate": "2023.10.04",
    "longName": "D240103"
}