{
    "askPrice": "",
    "green": 0,
    "coupon": 0,
    "accruedInterest": 0,
    "settleDate": "2023.11.23",
    "askEhmYield": "",
    "bidYield": "8,79",
    "rawName": "D240103",
    "bidPrice": "99,0088",
    "maturityInDays": "41 nap",
    "securityType": "DKJ",
    "maturityDate": "2024.01.03",
    "name": "D240103",
    "bidEhmYield": "8,91",
    "askYield": "",
    "currency": "HUF",
    "maturityInDays_val": 41,
    "issueDate": "2023.10.04",
    "longName": "D240103"
}