{
    "askPrice": "98,1938",
    "green": 0,
    "coupon": 0,
    "accruedInterest": 0,
    "settleDate": "2023.10.09",
    "askEhmYield": "7,81",
    "bidYield": "9,00",
    "rawName": "D240103",
    "bidPrice": "97,8953",
    "maturityInDays": "86 nap",
    "securityType": "DKJ",
    "maturityDate": "2024.01.03",
    "name": "D240103",
    "bidEhmYield": "9,12",
    "askYield": "7,70",
    "currency": "HUF",
    "maturityInDays_val": 86,
    "issueDate": "2023.10.04",
    "longName": "D240103"
}