{
    "askPrice": "100,0000",
    "green": 0,
    "coupon": null,
    "accruedInterest": "0,9068",
    "settleDate": "2024.04.05",
    "askEhmYield": "",
    "bidYield": "",
    "rawName": "2027/N",
    "bidPrice": "99,0000",
    "maturityInDays": "1146 nap",
    "securityType": "BMÁP",
    "maturityDate": "2027.05.26",
    "name": "2027/N",
    "bidEhmYield": "",
    "askYield": "",
    "currency": "HUF",
    "maturityInDays_val": 1146,
    "issueDate": "2023.11.09",
    "longName": "A270526N23"
}