{
    "askPrice": "100,0000",
    "green": 0,
    "coupon": null,
    "accruedInterest": "2,0948",
    "settleDate": "2024.01.29",
    "askEhmYield": "",
    "bidYield": "",
    "rawName": "2027/N",
    "bidPrice": "99,0000",
    "maturityInDays": "1213 nap",
    "securityType": "BMÁP",
    "maturityDate": "2027.05.26",
    "name": "2027/N",
    "bidEhmYield": "",
    "askYield": "",
    "currency": "HUF",
    "maturityInDays_val": 1213,
    "issueDate": "2023.11.09",
    "longName": "A270526N23"
}