{
    "askPrice": "",
    "green": 0,
    "coupon": "3,50 %",
    "accruedInterest": "3,32",
    "settleDate": "2022.11.04",
    "askEhmYield": "",
    "bidYield": "5,56",
    "rawName": "N2026/06",
    "bidPrice": "99,50",
    "coupon_val": 3.5,
    "maturityInDays": "1192 nap",
    "securityType": "MÁP Plusz",
    "maturityDate": "2026.02.08",
    "name": "N2026/06",
    "bidEhmYield": "",
    "askYield": "",
    "currency": "HUF",
    "maturityInDays_val": 1192,
    "issueDate": "2021-02-08",
    "longName": "N260208"
}