{
    "askPrice": "",
    "green": 0,
    "coupon": "3,50 %",
    "accruedInterest": "3,8712",
    "settleDate": "2022.12.19",
    "askEhmYield": "",
    "bidYield": "5,61",
    "rawName": "N2026/06",
    "bidPrice": "99,5000",
    "coupon_val": 3.5,
    "maturityInDays": "1147 nap",
    "securityType": "MÁP Plusz",
    "maturityDate": "2026.02.08",
    "name": "N2026/06",
    "bidEhmYield": "",
    "askYield": "",
    "currency": "HUF",
    "maturityInDays_val": 1147,
    "issueDate": "2021.02.08",
    "longName": "N260208"
}