{
    "askPrice": "",
    "green": 0,
    "coupon": "3,50 %",
    "accruedInterest": "1,89",
    "settleDate": "2022.07.11",
    "askEhmYield": "",
    "bidYield": "",
    "rawName": "N2026/06",
    "bidPrice": "99,50",
    "coupon_val": 3.5,
    "maturityInDays": "1308 nap",
    "securityType": "MÁP Plusz",
    "maturityDate": "2026.02.08",
    "name": "N2026/06",
    "bidEhmYield": "",
    "askYield": "",
    "currency": "HUF",
    "maturityInDays_val": 1308,
    "longName": "N260208"
}