{
    "askPrice": "",
    "green": 0,
    "coupon": "3,50 %",
    "accruedInterest": "3,3425",
    "settleDate": "2023.10.10",
    "askEhmYield": "",
    "bidYield": "5,85",
    "rawName": "N2026/06",
    "bidPrice": "99,5000",
    "coupon_val": 3.5,
    "maturityInDays": "852 nap",
    "securityType": "MÁP Plusz",
    "maturityDate": "2026.02.08",
    "name": "N2026/06",
    "bidEhmYield": "",
    "askYield": "",
    "currency": "HUF",
    "maturityInDays_val": 852,
    "issueDate": "2021.02.08",
    "longName": "N260208"
}