{
    "askPrice": "",
    "green": 0,
    "coupon": "3,50 %",
    "accruedInterest": "0,0959",
    "settleDate": "2023.02.15",
    "askEhmYield": "",
    "bidYield": "5,49",
    "rawName": "N2026/06",
    "bidPrice": "100,0000",
    "coupon_val": 3.5,
    "maturityInDays": "1089 nap",
    "securityType": "MÁP Plusz",
    "maturityDate": "2026.02.08",
    "name": "N2026/06",
    "bidEhmYield": "",
    "askYield": "",
    "currency": "HUF",
    "maturityInDays_val": 1089,
    "issueDate": "2021.02.08",
    "longName": "N260208"
}