{
    "askPrice": "",
    "green": 0,
    "coupon": "3,50 %",
    "accruedInterest": "4,9041",
    "settleDate": "2024.02.01",
    "askEhmYield": "",
    "bidYield": "6,00",
    "rawName": "N2026/06",
    "bidPrice": "99,5000",
    "coupon_val": 3.5,
    "maturityInDays": "738 nap",
    "securityType": "MÁP Plusz",
    "maturityDate": "2026.02.08",
    "name": "N2026/06",
    "bidEhmYield": "",
    "askYield": "",
    "currency": "HUF",
    "maturityInDays_val": 738,
    "issueDate": "2021.02.08",
    "longName": "N260208"
}