{
    "askPrice": "",
    "green": 0,
    "coupon": "3,50 %",
    "accruedInterest": "4,7945",
    "settleDate": "2024.01.24",
    "askEhmYield": "",
    "bidYield": "5,99",
    "rawName": "N2026/06",
    "bidPrice": "99,5000",
    "coupon_val": 3.5,
    "maturityInDays": "746 nap",
    "securityType": "MÁP Plusz",
    "maturityDate": "2026.02.08",
    "name": "N2026/06",
    "bidEhmYield": "",
    "askYield": "",
    "currency": "HUF",
    "maturityInDays_val": 746,
    "issueDate": "2021.02.08",
    "longName": "N260208"
}