{
    "askPrice": "",
    "green": 0,
    "coupon": "3,50 %",
    "accruedInterest": "0,4809",
    "settleDate": "2024.03.11",
    "askEhmYield": "",
    "bidYield": "6,03",
    "rawName": "N2026/06",
    "bidPrice": "99,5000",
    "coupon_val": 3.5,
    "maturityInDays": "699 nap",
    "securityType": "MÁP Plusz",
    "maturityDate": "2026.02.08",
    "name": "N2026/06",
    "bidEhmYield": "",
    "askYield": "",
    "currency": "HUF",
    "maturityInDays_val": 699,
    "issueDate": "2021.02.08",
    "longName": "N260208"
}