{
    "askPrice": "",
    "green": 0,
    "coupon": "3,50 %",
    "accruedInterest": "4,58",
    "settleDate": "2022.06.21",
    "askEhmYield": "",
    "bidYield": "",
    "rawName": "N2024/07",
    "bidPrice": "99,50",
    "coupon_val": 3.5,
    "maturityInDays": "762 nap",
    "securityType": "MÁP Plusz",
    "maturityDate": "2024.07.22",
    "name": "N2024/07",
    "bidEhmYield": "",
    "askYield": "",
    "currency": "HUF",
    "maturityInDays_val": 762,
    "longName": "N240722"
}