{
    "askPrice": "",
    "green": 0,
    "coupon": "3,50 %",
    "accruedInterest": "4,8973",
    "settleDate": "2023.06.12",
    "askEhmYield": "",
    "bidYield": "6,41",
    "rawName": "N2024/07",
    "bidPrice": "99,5000",
    "coupon_val": 3.5,
    "maturityInDays": "406 nap",
    "securityType": "MÁP Plusz",
    "maturityDate": "2024.07.22",
    "name": "N2024/07",
    "bidEhmYield": "",
    "askYield": "",
    "currency": "HUF",
    "maturityInDays_val": 406,
    "issueDate": "2019.07.22",
    "longName": "N240722"
}