{
    "askPrice": "",
    "green": 0,
    "coupon": "3,50 %",
    "accruedInterest": "1,5738",
    "settleDate": "2023.10.26",
    "askEhmYield": "",
    "bidYield": "6,66",
    "rawName": "N2024/07",
    "bidPrice": "99,5000",
    "coupon_val": 3.5,
    "maturityInDays": "270 nap",
    "securityType": "MÁP Plusz",
    "maturityDate": "2024.07.22",
    "name": "N2024/07",
    "bidEhmYield": "",
    "askYield": "",
    "currency": "HUF",
    "maturityInDays_val": 270,
    "issueDate": "2019.07.22",
    "longName": "N240722"
}