{
    "askPrice": "",
    "green": 0,
    "coupon": "3,50 %",
    "accruedInterest": "4,7014",
    "settleDate": "2023.05.30",
    "askEhmYield": "",
    "bidYield": "6,38",
    "rawName": "N2024/07",
    "bidPrice": "99,5000",
    "coupon_val": 3.5,
    "maturityInDays": "419 nap",
    "securityType": "MÁP Plusz",
    "maturityDate": "2024.07.22",
    "name": "N2024/07",
    "bidEhmYield": "",
    "askYield": "",
    "currency": "HUF",
    "maturityInDays_val": 419,
    "issueDate": "2019.07.22",
    "longName": "N240722"
}