{
    "askPrice": "",
    "green": 0,
    "coupon": "3,50 %",
    "accruedInterest": "3,6230",
    "settleDate": "2024.02.28",
    "askEhmYield": "",
    "bidYield": "7,19",
    "rawName": "N2024/07",
    "bidPrice": "99,5000",
    "coupon_val": 3.5,
    "maturityInDays": "145 nap",
    "securityType": "MÁP Plusz",
    "maturityDate": "2024.07.22",
    "name": "N2024/07",
    "bidEhmYield": "",
    "askYield": "",
    "currency": "HUF",
    "maturityInDays_val": 145,
    "issueDate": "2019.07.22",
    "longName": "N240722"
}