{
    "askPrice": "",
    "green": 0,
    "coupon": "3,50 %",
    "accruedInterest": "4,0000",
    "settleDate": "2024.03.22",
    "askEhmYield": "",
    "bidYield": "7,42",
    "rawName": "N2024/07",
    "bidPrice": "99,5000",
    "coupon_val": 3.5,
    "maturityInDays": "122 nap",
    "securityType": "MÁP Plusz",
    "maturityDate": "2024.07.22",
    "name": "N2024/07",
    "bidEhmYield": "",
    "askYield": "",
    "currency": "HUF",
    "maturityInDays_val": 122,
    "issueDate": "2019.07.22",
    "longName": "N240722"
}