{
    "askPrice": "",
    "green": 0,
    "coupon": "3,50 %",
    "accruedInterest": "1,75",
    "settleDate": "2022.07.28",
    "askEhmYield": "",
    "bidYield": "",
    "rawName": "N2026/10",
    "bidPrice": "99,50",
    "coupon_val": 3.5,
    "maturityInDays": "1319 nap",
    "securityType": "MÁP Plusz",
    "maturityDate": "2026.03.08",
    "name": "N2026/10",
    "bidEhmYield": "",
    "askYield": "",
    "currency": "HUF",
    "maturityInDays_val": 1319,
    "longName": "N260308"
}