{
    "askPrice": "",
    "green": 0,
    "coupon": "3,50 %",
    "accruedInterest": "3,13",
    "settleDate": "2022.11.17",
    "askEhmYield": "",
    "bidYield": "5,55",
    "rawName": "N2026/10",
    "bidPrice": "99,50",
    "coupon_val": 3.5,
    "maturityInDays": "1207 nap",
    "securityType": "MÁP Plusz",
    "maturityDate": "2026.03.08",
    "name": "N2026/10",
    "bidEhmYield": "",
    "askYield": "",
    "currency": "HUF",
    "maturityInDays_val": 1207,
    "issueDate": "2021-03-08",
    "longName": "N260308"
}