{
    "askPrice": "",
    "green": 0,
    "coupon": "3,50 %",
    "accruedInterest": "3,6247",
    "settleDate": "2022.12.27",
    "askEhmYield": "",
    "bidYield": "5,59",
    "rawName": "N2026/10",
    "bidPrice": "99,5000",
    "coupon_val": 3.5,
    "maturityInDays": "1167 nap",
    "securityType": "MÁP Plusz",
    "maturityDate": "2026.03.08",
    "name": "N2026/10",
    "bidEhmYield": "",
    "askYield": "",
    "currency": "HUF",
    "maturityInDays_val": 1167,
    "issueDate": "2021.03.08",
    "longName": "N260308"
}