{
    "askPrice": "",
    "green": 0,
    "coupon": "3,50 %",
    "accruedInterest": "4,8087",
    "settleDate": "2024.02.23",
    "askEhmYield": "",
    "bidYield": "5,99",
    "rawName": "N2026/10",
    "bidPrice": "99,5000",
    "coupon_val": 3.5,
    "maturityInDays": "744 nap",
    "securityType": "MÁP Plusz",
    "maturityDate": "2026.03.08",
    "name": "N2026/10",
    "bidEhmYield": "",
    "askYield": "",
    "currency": "HUF",
    "maturityInDays_val": 744,
    "issueDate": "2021.03.08",
    "longName": "N260308"
}