{
    "askPrice": "",
    "green": 0,
    "coupon": "3,50 %",
    "accruedInterest": "0,1507",
    "settleDate": "2024.03.18",
    "askEhmYield": "",
    "bidYield": "5,74",
    "rawName": "N2026/10",
    "bidPrice": "100,0000",
    "coupon_val": 3.5,
    "maturityInDays": "720 nap",
    "securityType": "MÁP Plusz",
    "maturityDate": "2026.03.08",
    "name": "N2026/10",
    "bidEhmYield": "",
    "askYield": "",
    "currency": "HUF",
    "maturityInDays_val": 720,
    "issueDate": "2021.03.08",
    "longName": "N260308"
}