{
    "askPrice": "",
    "green": 0,
    "coupon": "3,50 %",
    "accruedInterest": "0,7233",
    "settleDate": "2024.04.25",
    "askEhmYield": "",
    "bidYield": "6,04",
    "rawName": "N2026/10",
    "bidPrice": "99,5000",
    "coupon_val": 3.5,
    "maturityInDays": "682 nap",
    "securityType": "MÁP Plusz",
    "maturityDate": "2026.03.08",
    "name": "N2026/10",
    "bidEhmYield": "",
    "askYield": "",
    "currency": "HUF",
    "maturityInDays_val": 682,
    "issueDate": "2021.03.08",
    "longName": "N260308"
}