{
    "askPrice": "",
    "green": 0,
    "coupon": "3,50 %",
    "accruedInterest": "1,50",
    "settleDate": "2022.11.11",
    "askEhmYield": "",
    "bidYield": "5,32",
    "rawName": "N2026/52",
    "bidPrice": "99,50",
    "coupon_val": 3.5,
    "maturityInDays": "1507 nap",
    "securityType": "MÁP Plusz",
    "maturityDate": "2026.12.27",
    "name": "N2026/52",
    "bidEhmYield": "",
    "askYield": "",
    "currency": "HUF",
    "maturityInDays_val": 1507,
    "issueDate": "2021-12-27",
    "longName": "N261227"
}