{
    "askPrice": "",
    "green": 0,
    "coupon": "3,50 %",
    "accruedInterest": "0,56",
    "settleDate": "2022.08.17",
    "askEhmYield": "",
    "bidYield": "",
    "rawName": "N2026/52",
    "bidPrice": "99,50",
    "coupon_val": 3.5,
    "maturityInDays": "1593 nap",
    "securityType": "MÁP Plusz",
    "maturityDate": "2026.12.27",
    "name": "N2026/52",
    "bidEhmYield": "",
    "askYield": "",
    "currency": "HUF",
    "maturityInDays_val": 1593,
    "longName": "N261227"
}