{
    "askPrice": "",
    "green": 0,
    "coupon": "3,50 %",
    "accruedInterest": "0,8014",
    "settleDate": "2023.03.02",
    "askEhmYield": "",
    "bidYield": "5,40",
    "rawName": "N2026/52",
    "bidPrice": "99,5000",
    "coupon_val": 3.5,
    "maturityInDays": "1396 nap",
    "securityType": "MÁP Plusz",
    "maturityDate": "2026.12.27",
    "name": "N2026/52",
    "bidEhmYield": "",
    "askYield": "",
    "currency": "HUF",
    "maturityInDays_val": 1396,
    "issueDate": "2021.12.27",
    "longName": "N261227"
}