{
    "askPrice": "",
    "green": 0,
    "coupon": "3,50 %",
    "accruedInterest": "0,1093",
    "settleDate": "2024.01.04",
    "askEhmYield": "",
    "bidYield": "5,49",
    "rawName": "N2026/52",
    "bidPrice": "100,0000",
    "coupon_val": 3.5,
    "maturityInDays": "1088 nap",
    "securityType": "MÁP Plusz",
    "maturityDate": "2026.12.27",
    "name": "N2026/52",
    "bidEhmYield": "",
    "askYield": "",
    "currency": "HUF",
    "maturityInDays_val": 1088,
    "issueDate": "2021.12.27",
    "longName": "N261227"
}