{
    "askPrice": "",
    "green": 0,
    "coupon": "3,50 %",
    "accruedInterest": "1,55",
    "settleDate": "2022.08.18",
    "askEhmYield": "",
    "bidYield": "",
    "rawName": "N2025/17",
    "bidPrice": "99,50",
    "coupon_val": 3.5,
    "maturityInDays": "983 nap",
    "securityType": "MÁP Plusz",
    "maturityDate": "2025.04.27",
    "name": "N2025/17",
    "bidEhmYield": "",
    "askYield": "",
    "currency": "HUF",
    "maturityInDays_val": 983,
    "longName": "N250427"
}