{
    "askPrice": "",
    "green": 0,
    "coupon": "3,50 %",
    "accruedInterest": "2,70",
    "settleDate": "2022.11.10",
    "askEhmYield": "",
    "bidYield": "5,80",
    "rawName": "N2025/17",
    "bidPrice": "99,50",
    "coupon_val": 3.5,
    "maturityInDays": "899 nap",
    "securityType": "MÁP Plusz",
    "maturityDate": "2025.04.27",
    "name": "N2025/17",
    "bidEhmYield": "",
    "askYield": "",
    "currency": "HUF",
    "maturityInDays_val": 899,
    "issueDate": "2020-04-27",
    "longName": "N250427"
}