{
    "askPrice": "",
    "green": 0,
    "coupon": "3,50 %",
    "accruedInterest": "0,9467",
    "settleDate": "2023.06.29",
    "askEhmYield": "",
    "bidYield": "6,05",
    "rawName": "N2025/17",
    "bidPrice": "99,5000",
    "coupon_val": 3.5,
    "maturityInDays": "668 nap",
    "securityType": "MÁP Plusz",
    "maturityDate": "2025.04.27",
    "name": "N2025/17",
    "bidEhmYield": "",
    "askYield": "",
    "currency": "HUF",
    "maturityInDays_val": 668,
    "issueDate": "2020.04.27",
    "longName": "N250427"
}