{
    "askPrice": "",
    "green": 0,
    "coupon": "3,50 %",
    "accruedInterest": "0,5109",
    "settleDate": "2023.05.31",
    "askEhmYield": "",
    "bidYield": "6,03",
    "rawName": "N2025/17",
    "bidPrice": "99,5000",
    "coupon_val": 3.5,
    "maturityInDays": "697 nap",
    "securityType": "MÁP Plusz",
    "maturityDate": "2025.04.27",
    "name": "N2025/17",
    "bidEhmYield": "",
    "askYield": "",
    "currency": "HUF",
    "maturityInDays_val": 697,
    "issueDate": "2020.04.27",
    "longName": "N250427"
}