{
    "askPrice": "",
    "green": 0,
    "coupon": "9,00 %",
    "accruedInterest": "5,1781",
    "settleDate": "2023.12.27",
    "askEhmYield": "",
    "bidYield": "11,17",
    "rawName": "K2024/22",
    "bidPrice": "99,0000",
    "coupon_val": 9,
    "maturityInDays": "156 nap",
    "securityType": "1MÁP",
    "maturityDate": "2024.05.31",
    "name": "K2024/22",
    "bidEhmYield": "10,83",
    "askYield": "",
    "currency": "HUF",
    "maturityInDays_val": 156,
    "issueDate": "2023.05.31",
    "longName": "K240531"
}