{
    "askPrice": "",
    "green": 0,
    "coupon": "9,00 %",
    "accruedInterest": "3,3041",
    "settleDate": "2023.10.12",
    "askEhmYield": "",
    "bidYield": "10,49",
    "rawName": "K2024/22",
    "bidPrice": "99,0000",
    "coupon_val": 9,
    "maturityInDays": "232 nap",
    "securityType": "1MÁP",
    "maturityDate": "2024.05.31",
    "name": "K2024/22",
    "bidEhmYield": "10,30",
    "askYield": "",
    "currency": "HUF",
    "maturityInDays_val": 232,
    "issueDate": "2023.05.31",
    "longName": "K240531"
}