{
    "askPrice": "",
    "green": 0,
    "coupon": "9,00 %",
    "accruedInterest": "2,5890",
    "settleDate": "2023.09.13",
    "askEhmYield": "",
    "bidYield": "10,35",
    "rawName": "K2024/22",
    "bidPrice": "99,0000",
    "coupon_val": 9,
    "maturityInDays": "261 nap",
    "securityType": "1MÁP",
    "maturityDate": "2024.05.31",
    "name": "K2024/22",
    "bidEhmYield": "10,20",
    "askYield": "",
    "currency": "HUF",
    "maturityInDays_val": 261,
    "issueDate": "2023.05.31",
    "longName": "K240531"
}