{
    "askPrice": "",
    "green": 0,
    "coupon": "9,00 %",
    "accruedInterest": "4,2658",
    "settleDate": "2023.11.20",
    "askEhmYield": "",
    "bidYield": "10,76",
    "rawName": "K2024/22",
    "bidPrice": "99,0000",
    "coupon_val": 9,
    "maturityInDays": "193 nap",
    "securityType": "1MÁP",
    "maturityDate": "2024.05.31",
    "name": "K2024/22",
    "bidEhmYield": "10,50",
    "askYield": "",
    "currency": "HUF",
    "maturityInDays_val": 193,
    "issueDate": "2023.05.31",
    "longName": "K240531"
}