{
    "askPrice": "",
    "green": 0,
    "coupon": "9,00 %",
    "accruedInterest": "8,3836",
    "settleDate": "2024.05.06",
    "askEhmYield": "",
    "bidYield": "24,38",
    "rawName": "K2024/22",
    "bidPrice": "99,0000",
    "coupon_val": 9,
    "maturityInDays": "25 nap",
    "securityType": "1MÁP",
    "maturityDate": "2024.05.31",
    "name": "K2024/22",
    "bidEhmYield": "21,64",
    "askYield": "",
    "currency": "HUF",
    "maturityInDays_val": 25,
    "issueDate": "2023.05.31",
    "longName": "K240531"
}