{
    "askPrice": "",
    "green": 0,
    "coupon": "9,00 %",
    "accruedInterest": "8,5562",
    "settleDate": "2024.05.13",
    "askEhmYield": "",
    "bidYield": "26,20",
    "rawName": "K2024/22",
    "bidPrice": "99,2000",
    "coupon_val": 9,
    "maturityInDays": "18 nap",
    "securityType": "1MÁP",
    "maturityDate": "2024.05.31",
    "name": "K2024/22",
    "bidEhmYield": "22,94",
    "askYield": "",
    "currency": "HUF",
    "maturityInDays_val": 18,
    "issueDate": "2023.05.31",
    "longName": "K240531"
}