{
    "askPrice": "",
    "green": 0,
    "coupon": "9,00 %",
    "accruedInterest": "5,8192",
    "settleDate": "2024.01.22",
    "askEhmYield": "",
    "bidYield": "11,61",
    "rawName": "K2024/22",
    "bidPrice": "99,0000",
    "coupon_val": 9,
    "maturityInDays": "130 nap",
    "securityType": "1MÁP",
    "maturityDate": "2024.05.31",
    "name": "K2024/22",
    "bidEhmYield": "11,20",
    "askYield": "",
    "currency": "HUF",
    "maturityInDays_val": 130,
    "issueDate": "2023.05.31",
    "longName": "K240531"
}