{
    "askPrice": "",
    "green": 0,
    "coupon": "9,00 %",
    "accruedInterest": "7,3479",
    "settleDate": "2024.03.25",
    "askEhmYield": "",
    "bidYield": "14,36",
    "rawName": "K2024/22",
    "bidPrice": "99,0000",
    "coupon_val": 9,
    "maturityInDays": "67 nap",
    "securityType": "1MÁP",
    "maturityDate": "2024.05.31",
    "name": "K2024/22",
    "bidEhmYield": "13,46",
    "askYield": "",
    "currency": "HUF",
    "maturityInDays_val": 67,
    "issueDate": "2023.05.31",
    "longName": "K240531"
}