{
    "askPrice": "",
    "green": 0,
    "coupon": "9,00 %",
    "accruedInterest": "8,2110",
    "settleDate": "2024.04.29",
    "askEhmYield": "",
    "bidYield": "20,78",
    "rawName": "K2024/22",
    "bidPrice": "99,0000",
    "coupon_val": 9,
    "maturityInDays": "32 nap",
    "securityType": "1MÁP",
    "maturityDate": "2024.05.31",
    "name": "K2024/22",
    "bidEhmYield": "18,77",
    "askYield": "",
    "currency": "HUF",
    "maturityInDays_val": 32,
    "issueDate": "2023.05.31",
    "longName": "K240531"
}