{
    "askPrice": "",
    "green": 0,
    "coupon": "9,00 %",
    "accruedInterest": "7,6932",
    "settleDate": "2024.04.08",
    "askEhmYield": "",
    "bidYield": "15,87",
    "rawName": "K2024/22",
    "bidPrice": "99,0000",
    "coupon_val": 9,
    "maturityInDays": "53 nap",
    "securityType": "1MÁP",
    "maturityDate": "2024.05.31",
    "name": "K2024/22",
    "bidEhmYield": "14,73",
    "askYield": "",
    "currency": "HUF",
    "maturityInDays_val": 53,
    "issueDate": "2023.05.31",
    "longName": "K240531"
}