{
    "askPrice": "",
    "green": 0,
    "coupon": "9,00 %",
    "accruedInterest": "8,3096",
    "settleDate": "2024.05.03",
    "askEhmYield": "",
    "bidYield": "22,60",
    "rawName": "K2024/22",
    "bidPrice": "99,0000",
    "coupon_val": 9,
    "maturityInDays": "28 nap",
    "securityType": "1MÁP",
    "maturityDate": "2024.05.31",
    "name": "K2024/22",
    "bidEhmYield": "20,23",
    "askYield": "",
    "currency": "HUF",
    "maturityInDays_val": 28,
    "issueDate": "2023.05.31",
    "longName": "K240531"
}