{
    "askPrice": "",
    "green": 0,
    "coupon": "3,50 %",
    "accruedInterest": "0,97",
    "settleDate": "2022.09.01",
    "askEhmYield": "",
    "bidYield": "",
    "rawName": "N2026/24",
    "bidPrice": "99,50",
    "coupon_val": 3.5,
    "maturityInDays": "1382 nap",
    "securityType": "MÁP Plusz",
    "maturityDate": "2026.06.14",
    "name": "N2026/24",
    "bidEhmYield": "",
    "askYield": "",
    "currency": "HUF",
    "maturityInDays_val": 1382,
    "longName": "N260614"
}