{
    "askPrice": "",
    "green": 0,
    "coupon": "3,50 %",
    "accruedInterest": "2,7123",
    "settleDate": "2023.01.20",
    "askEhmYield": "",
    "bidYield": "5,51",
    "rawName": "N2026/24",
    "bidPrice": "99,5000",
    "coupon_val": 3.5,
    "maturityInDays": "1241 nap",
    "securityType": "MÁP Plusz",
    "maturityDate": "2026.06.14",
    "name": "N2026/24",
    "bidEhmYield": "",
    "askYield": "",
    "currency": "HUF",
    "maturityInDays_val": 1241,
    "issueDate": "2021.06.14",
    "longName": "N260614"
}