{
    "askPrice": "",
    "green": 0,
    "coupon": "3,50 %",
    "accruedInterest": "4,3151",
    "settleDate": "2023.05.30",
    "askEhmYield": "",
    "bidYield": "5,65",
    "rawName": "N2026/24",
    "bidPrice": "99,5000",
    "coupon_val": 3.5,
    "maturityInDays": "1111 nap",
    "securityType": "MÁP Plusz",
    "maturityDate": "2026.06.14",
    "name": "N2026/24",
    "bidEhmYield": "",
    "askYield": "",
    "currency": "HUF",
    "maturityInDays_val": 1111,
    "issueDate": "2021.06.14",
    "longName": "N260614"
}