{
    "askPrice": "",
    "green": 0,
    "coupon": "3,50 %",
    "accruedInterest": "3,0464",
    "settleDate": "2024.01.23",
    "askEhmYield": "",
    "bidYield": "5,83",
    "rawName": "N2026/24",
    "bidPrice": "99,5000",
    "coupon_val": 3.5,
    "maturityInDays": "873 nap",
    "securityType": "MÁP Plusz",
    "maturityDate": "2026.06.14",
    "name": "N2026/24",
    "bidEhmYield": "",
    "askYield": "",
    "currency": "HUF",
    "maturityInDays_val": 873,
    "issueDate": "2021.06.14",
    "longName": "N260614"
}