{
    "askPrice": "97,4659",
    "green": 0,
    "coupon": 0,
    "accruedInterest": 0,
    "settleDate": "2023.05.22",
    "askEhmYield": "13,18",
    "bidYield": "14,30",
    "rawName": "D230802",
    "bidPrice": "97,2195",
    "maturityInDays": "72 nap",
    "securityType": "DKJ",
    "maturityDate": "2023.08.02",
    "name": "D230802",
    "bidEhmYield": "14,50",
    "askYield": "13,00",
    "currency": "HUF",
    "maturityInDays_val": 72,
    "issueDate": "2023.05.03",
    "longName": "D230802"
}