{
    "askPrice": "98,2791",
    "green": 0,
    "coupon": 0,
    "accruedInterest": 0,
    "settleDate": "2023.06.12",
    "askEhmYield": "12,53",
    "bidYield": "13,54",
    "rawName": "D230802",
    "bidPrice": "98,1179",
    "maturityInDays": "51 nap",
    "securityType": "DKJ",
    "maturityDate": "2023.08.02",
    "name": "D230802",
    "bidEhmYield": "13,73",
    "askYield": "12,36",
    "currency": "HUF",
    "maturityInDays_val": 51,
    "issueDate": "2023.05.03",
    "longName": "D230802"
}