{
    "askPrice": "96,6547",
    "green": 0,
    "coupon": 0,
    "accruedInterest": 0,
    "settleDate": "2023.05.05",
    "askEhmYield": "14,19",
    "bidYield": "15,25",
    "rawName": "D230802",
    "bidPrice": "96,3668",
    "maturityInDays": "89 nap",
    "securityType": "DKJ",
    "maturityDate": "2023.08.02",
    "name": "D230802",
    "bidEhmYield": "15,46",
    "askYield": "14,00",
    "currency": "HUF",
    "maturityInDays_val": 89,
    "issueDate": "2023.05.03",
    "longName": "D230802"
}