{
    "askPrice": "",
    "green": 0,
    "coupon": 0,
    "accruedInterest": 0,
    "settleDate": "2023.07.28",
    "askEhmYield": "",
    "bidYield": "10,73",
    "rawName": "D230802",
    "bidPrice": "99,8512",
    "maturityInDays": "5 nap",
    "securityType": "DKJ",
    "maturityDate": "2023.08.02",
    "name": "D230802",
    "bidEhmYield": "10,88",
    "askYield": "",
    "currency": "HUF",
    "maturityInDays_val": 5,
    "issueDate": "2023.05.03",
    "longName": "D230802"
}