{
    "askPrice": "99,3784",
    "green": 0,
    "coupon": 0,
    "accruedInterest": 0,
    "settleDate": "2023.07.10",
    "askEhmYield": "9,93",
    "bidYield": "11,00",
    "rawName": "D230802",
    "bidPrice": "99,3021",
    "maturityInDays": "23 nap",
    "securityType": "DKJ",
    "maturityDate": "2023.08.02",
    "name": "D230802",
    "bidEhmYield": "11,15",
    "askYield": "9,79",
    "currency": "HUF",
    "maturityInDays_val": 23,
    "issueDate": "2023.05.03",
    "longName": "D230802"
}