{
    "askPrice": "",
    "green": 0,
    "coupon": "9,00 %",
    "accruedInterest": "4,7096",
    "settleDate": "2023.08.03",
    "askEhmYield": "",
    "bidYield": "11,00",
    "rawName": "K2024/04",
    "bidPrice": "99,0000",
    "coupon_val": 9,
    "maturityInDays": "174 nap",
    "securityType": "1MÁP",
    "maturityDate": "2024.01.24",
    "name": "K2024/04",
    "bidEhmYield": "10,70",
    "askYield": "",
    "currency": "HUF",
    "maturityInDays_val": 174,
    "issueDate": "2023.01.24",
    "longName": "K240124"
}