{
    "askPrice": "",
    "green": 0,
    "coupon": "9,00 %",
    "accruedInterest": "7,9151",
    "settleDate": "2023.12.11",
    "askEhmYield": "",
    "bidYield": "17,38",
    "rawName": "K2024/04",
    "bidPrice": "99,0000",
    "coupon_val": 9,
    "maturityInDays": "44 nap",
    "securityType": "1MÁP",
    "maturityDate": "2024.01.24",
    "name": "K2024/04",
    "bidEhmYield": "16,18",
    "askYield": "",
    "currency": "HUF",
    "maturityInDays_val": 44,
    "issueDate": "2023.01.24",
    "longName": "K240124"
}