{
    "askPrice": "",
    "green": 0,
    "coupon": "9,00 %",
    "accruedInterest": "4,6603",
    "settleDate": "2023.08.01",
    "askEhmYield": "",
    "bidYield": "10,98",
    "rawName": "K2024/04",
    "bidPrice": "99,0000",
    "coupon_val": 9,
    "maturityInDays": "176 nap",
    "securityType": "1MÁP",
    "maturityDate": "2024.01.24",
    "name": "K2024/04",
    "bidEhmYield": "10,68",
    "askYield": "",
    "currency": "HUF",
    "maturityInDays_val": 176,
    "issueDate": "2023.01.24",
    "longName": "K240124"
}