{
    "askPrice": "",
    "green": 0,
    "coupon": "9,00 %",
    "accruedInterest": "3,6247",
    "settleDate": "2023.06.20",
    "askEhmYield": "",
    "bidYield": "10,62",
    "rawName": "K2024/04",
    "bidPrice": "99,0000",
    "coupon_val": 9,
    "maturityInDays": "218 nap",
    "securityType": "1MÁP",
    "maturityDate": "2024.01.24",
    "name": "K2024/04",
    "bidEhmYield": "10,40",
    "askYield": "",
    "currency": "HUF",
    "maturityInDays_val": 218,
    "issueDate": "2023.01.24",
    "longName": "K240124"
}