{
    "askPrice": "",
    "green": 0,
    "coupon": "9,00 %",
    "accruedInterest": "1,0849",
    "settleDate": "2023.03.09",
    "askEhmYield": "",
    "bidYield": "10,19",
    "rawName": "K2024/04",
    "bidPrice": "99,0000",
    "coupon_val": 9,
    "maturityInDays": "321 nap",
    "securityType": "1MÁP",
    "maturityDate": "2024.01.24",
    "name": "K2024/04",
    "bidEhmYield": "10,13",
    "askYield": "",
    "currency": "HUF",
    "maturityInDays_val": 321,
    "issueDate": "2023.01.24",
    "longName": "K240124"
}