{
    "askPrice": "",
    "green": 0,
    "coupon": "9,00 %",
    "accruedInterest": "2,0466",
    "settleDate": "2023.04.17",
    "askEhmYield": "",
    "bidYield": "10,30",
    "rawName": "K2024/04",
    "bidPrice": "99,0000",
    "coupon_val": 9,
    "maturityInDays": "282 nap",
    "securityType": "1MÁP",
    "maturityDate": "2024.01.24",
    "name": "K2024/04",
    "bidEhmYield": "10,19",
    "askYield": "",
    "currency": "HUF",
    "maturityInDays_val": 282,
    "issueDate": "2023.01.24",
    "longName": "K240124"
}