{
    "askPrice": "",
    "green": 0,
    "coupon": "9,00 %",
    "accruedInterest": "2,4904",
    "settleDate": "2023.05.05",
    "askEhmYield": "",
    "bidYield": "10,37",
    "rawName": "K2024/04",
    "bidPrice": "99,0000",
    "coupon_val": 9,
    "maturityInDays": "264 nap",
    "securityType": "1MÁP",
    "maturityDate": "2024.01.24",
    "name": "K2024/04",
    "bidEhmYield": "10,23",
    "askYield": "",
    "currency": "HUF",
    "maturityInDays_val": 264,
    "issueDate": "2023.01.24",
    "longName": "K240124"
}