{
    "askPrice": "",
    "green": 0,
    "coupon": "9,00 %",
    "accruedInterest": "4,9068",
    "settleDate": "2023.08.11",
    "askEhmYield": "",
    "bidYield": "11,10",
    "rawName": "K2024/04",
    "bidPrice": "99,0000",
    "coupon_val": 9,
    "maturityInDays": "166 nap",
    "securityType": "1MÁP",
    "maturityDate": "2024.01.24",
    "name": "K2024/04",
    "bidEhmYield": "10,78",
    "askYield": "",
    "currency": "HUF",
    "maturityInDays_val": 166,
    "issueDate": "2023.01.24",
    "longName": "K240124"
}