{
    "askPrice": "",
    "green": 0,
    "coupon": "9,00 %",
    "accruedInterest": "8,1123",
    "settleDate": "2023.12.19",
    "askEhmYield": "",
    "bidYield": "19,38",
    "rawName": "K2024/04",
    "bidPrice": "99,0000",
    "coupon_val": 9,
    "maturityInDays": "36 nap",
    "securityType": "1MÁP",
    "maturityDate": "2024.01.24",
    "name": "K2024/04",
    "bidEhmYield": "17,87",
    "askYield": "",
    "currency": "HUF",
    "maturityInDays_val": 36,
    "issueDate": "2023.01.24",
    "longName": "K240124"
}