{
    "askPrice": "",
    "green": 0,
    "coupon": "9,00 %",
    "accruedInterest": "3,7973",
    "settleDate": "2023.06.27",
    "askEhmYield": "",
    "bidYield": "10,67",
    "rawName": "K2024/04",
    "bidPrice": "99,0000",
    "coupon_val": 9,
    "maturityInDays": "211 nap",
    "securityType": "1MÁP",
    "maturityDate": "2024.01.24",
    "name": "K2024/04",
    "bidEhmYield": "10,44",
    "askYield": "",
    "currency": "HUF",
    "maturityInDays_val": 211,
    "issueDate": "2023.01.24",
    "longName": "K240124"
}