{
    "askPrice": "",
    "green": 0,
    "coupon": "9,00 %",
    "accruedInterest": "8,4575",
    "settleDate": "2024.01.02",
    "askEhmYield": "",
    "bidYield": "22,83",
    "rawName": "K2024/04",
    "bidPrice": "99,2000",
    "coupon_val": 9,
    "maturityInDays": "22 nap",
    "securityType": "1MÁP",
    "maturityDate": "2024.01.24",
    "name": "K2024/04",
    "bidEhmYield": "20,69",
    "askYield": "",
    "currency": "HUF",
    "maturityInDays_val": 22,
    "issueDate": "2023.01.24",
    "longName": "K240124"
}