{
    "askPrice": "",
    "green": 0,
    "coupon": "9,00 %",
    "accruedInterest": "8,5068",
    "settleDate": "2024.01.04",
    "askEhmYield": "",
    "bidYield": "24,33",
    "rawName": "K2024/04",
    "bidPrice": "99,2000",
    "coupon_val": 9,
    "maturityInDays": "20 nap",
    "securityType": "1MÁP",
    "maturityDate": "2024.01.24",
    "name": "K2024/04",
    "bidEhmYield": "21,91",
    "askYield": "",
    "currency": "HUF",
    "maturityInDays_val": 20,
    "issueDate": "2023.01.24",
    "longName": "K240124"
}