{
    "askPrice": "",
    "green": 0,
    "coupon": "9,00 %",
    "accruedInterest": "8,6055",
    "settleDate": "2024.01.08",
    "askEhmYield": "",
    "bidYield": "25,89",
    "rawName": "K2024/04",
    "bidPrice": "99,3000",
    "coupon_val": 9,
    "maturityInDays": "16 nap",
    "securityType": "1MÁP",
    "maturityDate": "2024.01.24",
    "name": "K2024/04",
    "bidEhmYield": "23,14",
    "askYield": "",
    "currency": "HUF",
    "maturityInDays_val": 16,
    "issueDate": "2023.01.24",
    "longName": "K240124"
}