{
    "askPrice": "",
    "green": 0,
    "coupon": "3,50 %",
    "accruedInterest": "2,95",
    "settleDate": "2022.11.07",
    "askEhmYield": "",
    "bidYield": "5,82",
    "rawName": "N2025/14",
    "bidPrice": "99,50",
    "coupon_val": 3.5,
    "maturityInDays": "881 nap",
    "securityType": "MÁP Plusz",
    "maturityDate": "2025.04.06",
    "name": "N2025/14",
    "bidEhmYield": "",
    "askYield": "",
    "currency": "HUF",
    "maturityInDays_val": 881,
    "issueDate": "2020-04-06",
    "longName": "N250406"
}