{
    "askPrice": "",
    "green": 0,
    "coupon": "3,50 %",
    "accruedInterest": "2,03",
    "settleDate": "2022.09.01",
    "askEhmYield": "",
    "bidYield": "",
    "rawName": "N2025/14",
    "bidPrice": "99,50",
    "coupon_val": 3.5,
    "maturityInDays": "948 nap",
    "securityType": "MÁP Plusz",
    "maturityDate": "2025.04.06",
    "name": "N2025/14",
    "bidEhmYield": "",
    "askYield": "",
    "currency": "HUF",
    "maturityInDays_val": 948,
    "longName": "N250406"
}