{
    "askPrice": "",
    "green": 0,
    "coupon": "3,50 %",
    "accruedInterest": "4,4110",
    "settleDate": "2023.02.22",
    "askEhmYield": "",
    "bidYield": "5,95",
    "rawName": "N2025/14",
    "bidPrice": "99,5000",
    "coupon_val": 3.5,
    "maturityInDays": "774 nap",
    "securityType": "MÁP Plusz",
    "maturityDate": "2025.04.06",
    "name": "N2025/14",
    "bidEhmYield": "",
    "askYield": "",
    "currency": "HUF",
    "maturityInDays_val": 774,
    "issueDate": "2020.04.06",
    "longName": "N250406"
}