{
    "askPrice": "",
    "green": 0,
    "coupon": "3,50 %",
    "accruedInterest": "1,39",
    "settleDate": "2022.07.19",
    "askEhmYield": "",
    "bidYield": "",
    "rawName": "N2026/37",
    "bidPrice": "99,50",
    "coupon_val": 3.5,
    "maturityInDays": "1517 nap",
    "securityType": "MÁP Plusz",
    "maturityDate": "2026.09.13",
    "name": "N2026/37",
    "bidEhmYield": "",
    "askYield": "",
    "currency": "HUF",
    "maturityInDays_val": 1517,
    "longName": "N260913"
}