{
    "askPrice": "",
    "green": 0,
    "coupon": "3,50 %",
    "accruedInterest": "0,70",
    "settleDate": "2022.11.09",
    "askEhmYield": "",
    "bidYield": "5,39",
    "rawName": "N2026/37",
    "bidPrice": "99,50",
    "coupon_val": 3.5,
    "maturityInDays": "1404 nap",
    "securityType": "MÁP Plusz",
    "maturityDate": "2026.09.13",
    "name": "N2026/37",
    "bidEhmYield": "",
    "askYield": "",
    "currency": "HUF",
    "maturityInDays_val": 1404,
    "issueDate": "2021-09-13",
    "longName": "N260913"
}