{
    "askPrice": "",
    "green": 0,
    "coupon": "3,50 %",
    "accruedInterest": "3,8096",
    "settleDate": "2023.07.19",
    "askEhmYield": "",
    "bidYield": "5,60",
    "rawName": "N2026/37",
    "bidPrice": "99,5000",
    "coupon_val": 3.5,
    "maturityInDays": "1152 nap",
    "securityType": "MÁP Plusz",
    "maturityDate": "2026.09.13",
    "name": "N2026/37",
    "bidEhmYield": "",
    "askYield": "",
    "currency": "HUF",
    "maturityInDays_val": 1152,
    "issueDate": "2021.09.13",
    "longName": "N260913"
}