{
    "askPrice": "",
    "green": 0,
    "coupon": "3,50 %",
    "accruedInterest": "2,7732",
    "settleDate": "2024.04.03",
    "askEhmYield": "",
    "bidYield": "5,81",
    "rawName": "N2026/37",
    "bidPrice": "99,5000",
    "coupon_val": 3.5,
    "maturityInDays": "893 nap",
    "securityType": "MÁP Plusz",
    "maturityDate": "2026.09.13",
    "name": "N2026/37",
    "bidEhmYield": "",
    "askYield": "",
    "currency": "HUF",
    "maturityInDays_val": 893,
    "issueDate": "2021.09.13",
    "longName": "N260913"
}