{
    "askPrice": "",
    "green": 0,
    "coupon": "3,50 %",
    "accruedInterest": "2,3087",
    "settleDate": "2024.02.29",
    "askEhmYield": "",
    "bidYield": "5,78",
    "rawName": "N2026/37",
    "bidPrice": "99,5000",
    "coupon_val": 3.5,
    "maturityInDays": "927 nap",
    "securityType": "MÁP Plusz",
    "maturityDate": "2026.09.13",
    "name": "N2026/37",
    "bidEhmYield": "",
    "askYield": "",
    "currency": "HUF",
    "maturityInDays_val": 927,
    "issueDate": "2021.09.13",
    "longName": "N260913"
}