{
    "askPrice": "",
    "green": 0,
    "coupon": "9,00 %",
    "accruedInterest": "0,0493",
    "settleDate": "2023.08.17",
    "askEhmYield": "",
    "bidYield": "10,08",
    "rawName": "K2024/33",
    "bidPrice": "99,0000",
    "coupon_val": 9,
    "maturityInDays": "364 nap",
    "securityType": "1MÁP",
    "maturityDate": "2024.08.15",
    "name": "K2024/33",
    "bidEhmYield": "10,07",
    "askYield": "",
    "currency": "HUF",
    "maturityInDays_val": 364,
    "issueDate": "2023.08.15",
    "longName": "K240815"
}