{
    "askPrice": "",
    "green": 0,
    "coupon": "6,00 %",
    "accruedInterest": 0,
    "settleDate": "2024.05.14",
    "askEhmYield": "",
    "bidYield": "7,07",
    "rawName": "K2025/20",
    "bidPrice": "99,0000",
    "coupon_val": 6,
    "maturityInDays": "365 nap",
    "securityType": "1MÁP",
    "maturityDate": "2025.05.14",
    "name": "K2025/20",
    "bidEhmYield": "7,07",
    "askYield": "",
    "currency": "HUF",
    "maturityInDays_val": 365,
    "issueDate": "2024.05.14",
    "longName": "K250514"
}