{
    "askPrice": "",
    "green": 0,
    "coupon": "6,50 %",
    "accruedInterest": "0,4274",
    "settleDate": "2024.04.19",
    "askEhmYield": "",
    "bidYield": "7,63",
    "rawName": "K2025/13",
    "bidPrice": "99,0000",
    "coupon_val": 6.5,
    "maturityInDays": "341 nap",
    "securityType": "1MÁP",
    "maturityDate": "2025.03.26",
    "name": "K2025/13",
    "bidEhmYield": "7,61",
    "askYield": "",
    "currency": "HUF",
    "maturityInDays_val": 341,
    "issueDate": "2024.03.26",
    "longName": "K250326"
}