{
    "askPrice": "",
    "green": 0,
    "coupon": "6,50 %",
    "accruedInterest": "0,8726",
    "settleDate": "2024.05.14",
    "askEhmYield": "",
    "bidYield": "7,70",
    "rawName": "K2025/13",
    "bidPrice": "99,0000",
    "coupon_val": 6.5,
    "maturityInDays": "316 nap",
    "securityType": "1MÁP",
    "maturityDate": "2025.03.26",
    "name": "K2025/13",
    "bidEhmYield": "7,66",
    "askYield": "",
    "currency": "HUF",
    "maturityInDays_val": 316,
    "issueDate": "2024.03.26",
    "longName": "K250326"
}