{
    "askPrice": "",
    "green": 0,
    "coupon": null,
    "accruedInterest": "2,48",
    "settleDate": "2022.11.07",
    "askEhmYield": "",
    "bidYield": "",
    "rawName": "2028/K",
    "bidPrice": "99,00",
    "maturityInDays": "2052 nap",
    "securityType": "PMÁP",
    "maturityDate": "2028.06.20",
    "name": "2028/K",
    "bidEhmYield": "",
    "askYield": "",
    "currency": "HUF",
    "maturityInDays_val": 2052,
    "issueDate": "2022-06-23",
    "longName": "A280620K22"
}