{
    "askPrice": "100,00",
    "green": 0,
    "coupon": null,
    "accruedInterest": "1,08",
    "settleDate": "2022.08.22",
    "askEhmYield": "",
    "bidYield": "",
    "rawName": "2028/K",
    "bidPrice": "99,00",
    "maturityInDays": "2129 nap",
    "securityType": "PMÁP",
    "maturityDate": "2028.06.20",
    "name": "2028/K",
    "bidEhmYield": "",
    "askYield": "",
    "currency": "HUF",
    "maturityInDays_val": 2129,
    "longName": "A280620K22"
}