{
    "askPrice": "",
    "green": 0,
    "coupon": null,
    "accruedInterest": "2,30",
    "settleDate": "2022.10.28",
    "askEhmYield": "",
    "bidYield": "",
    "rawName": "2028/K",
    "bidPrice": "99,00",
    "maturityInDays": "2062 nap",
    "securityType": "PMÁP",
    "maturityDate": "2028.06.20",
    "name": "2028/K",
    "bidEhmYield": "",
    "askYield": "",
    "currency": "HUF",
    "maturityInDays_val": 2062,
    "longName": "A280620K22"
}