{
    "askPrice": "",
    "green": 0,
    "coupon": null,
    "accruedInterest": "3,3800",
    "settleDate": "2022.12.27",
    "askEhmYield": "",
    "bidYield": "",
    "rawName": "2028/K",
    "bidPrice": "99,0000",
    "maturityInDays": "2002 nap",
    "securityType": "PMÁP",
    "maturityDate": "2028.06.20",
    "name": "2028/K",
    "bidEhmYield": "",
    "askYield": "",
    "currency": "HUF",
    "maturityInDays_val": 2002,
    "issueDate": "2022.06.23",
    "longName": "A280620K22"
}