{
    "askPrice": "",
    "green": 0,
    "coupon": "3,50 %",
    "accruedInterest": "0,26",
    "settleDate": "2022.11.14",
    "askEhmYield": "",
    "bidYield": "5,68",
    "rawName": "N2025/43",
    "bidPrice": "99,50",
    "coupon_val": 3.5,
    "maturityInDays": "1077 nap",
    "securityType": "MÁP Plusz",
    "maturityDate": "2025.10.26",
    "name": "N2025/43",
    "bidEhmYield": "",
    "askYield": "",
    "currency": "HUF",
    "maturityInDays_val": 1077,
    "issueDate": "2020-10-26",
    "longName": "N251026"
}