{
    "askPrice": "",
    "green": 0,
    "coupon": "3,50 %",
    "accruedInterest": "3,13",
    "settleDate": "2022.07.07",
    "askEhmYield": "",
    "bidYield": "",
    "rawName": "N2025/43",
    "bidPrice": "99,50",
    "coupon_val": 3.5,
    "maturityInDays": "1207 nap",
    "securityType": "MÁP Plusz",
    "maturityDate": "2025.10.26",
    "name": "N2025/43",
    "bidEhmYield": "",
    "askYield": "",
    "currency": "HUF",
    "maturityInDays_val": 1207,
    "longName": "N251026"
}