{
    "askPrice": "",
    "green": 0,
    "coupon": "3,50 %",
    "accruedInterest": "0,10",
    "settleDate": "2022.11.02",
    "askEhmYield": "",
    "bidYield": "5,49",
    "rawName": "N2025/43",
    "bidPrice": "100,00",
    "coupon_val": 3.5,
    "maturityInDays": "1089 nap",
    "securityType": "MÁP Plusz",
    "maturityDate": "2025.10.26",
    "name": "N2025/43",
    "bidEhmYield": "",
    "askYield": "",
    "currency": "HUF",
    "maturityInDays_val": 1089,
    "issueDate": "2020-10-26",
    "longName": "N251026"
}