{
    "askPrice": "",
    "green": 0,
    "coupon": "3,50 %",
    "accruedInterest": "0,1052",
    "settleDate": "2023.11.02",
    "askEhmYield": "",
    "bidYield": "5,74",
    "rawName": "N2025/43",
    "bidPrice": "100,0000",
    "coupon_val": 3.5,
    "maturityInDays": "724 nap",
    "securityType": "MÁP Plusz",
    "maturityDate": "2025.10.26",
    "name": "N2025/43",
    "bidEhmYield": "",
    "askYield": "",
    "currency": "HUF",
    "maturityInDays_val": 724,
    "issueDate": "2020.10.26",
    "longName": "N251026"
}