{
    "askPrice": "",
    "green": 0,
    "coupon": "3,50 %",
    "accruedInterest": "4,9726",
    "settleDate": "2023.10.24",
    "askEhmYield": "",
    "bidYield": "",
    "rawName": "N2025/43",
    "bidPrice": "",
    "coupon_val": 3.5,
    "maturityInDays": "733 nap",
    "securityType": "MÁP Plusz",
    "maturityDate": "2025.10.26",
    "name": "N2025/43",
    "bidEhmYield": "",
    "askYield": "",
    "currency": "HUF",
    "maturityInDays_val": 733,
    "issueDate": "2020.10.26",
    "longName": "N251026"
}