{
    "askPrice": "",
    "green": 0,
    "coupon": "3,50 %",
    "accruedInterest": "2,0411",
    "settleDate": "2023.03.24",
    "askEhmYield": "",
    "bidYield": "5,76",
    "rawName": "N2025/43",
    "bidPrice": "99,5000",
    "coupon_val": 3.5,
    "maturityInDays": "947 nap",
    "securityType": "MÁP Plusz",
    "maturityDate": "2025.10.26",
    "name": "N2025/43",
    "bidEhmYield": "",
    "askYield": "",
    "currency": "HUF",
    "maturityInDays_val": 947,
    "issueDate": "2020.10.26",
    "longName": "N251026"
}