{
    "askPrice": "",
    "green": 0,
    "coupon": "3,50 %",
    "accruedInterest": "2,3893",
    "settleDate": "2024.04.02",
    "askEhmYield": "",
    "bidYield": "6,13",
    "rawName": "N2025/43",
    "bidPrice": "99,5000",
    "coupon_val": 3.5,
    "maturityInDays": "572 nap",
    "securityType": "MÁP Plusz",
    "maturityDate": "2025.10.26",
    "name": "N2025/43",
    "bidEhmYield": "",
    "askYield": "",
    "currency": "HUF",
    "maturityInDays_val": 572,
    "issueDate": "2020.10.26",
    "longName": "N251026"
}