{
    "askPrice": "",
    "green": 0,
    "coupon": "3,50 %",
    "accruedInterest": "1,4426",
    "settleDate": "2024.01.30",
    "askEhmYield": "",
    "bidYield": "6,07",
    "rawName": "N2025/43",
    "bidPrice": "99,5000",
    "coupon_val": 3.5,
    "maturityInDays": "635 nap",
    "securityType": "MÁP Plusz",
    "maturityDate": "2025.10.26",
    "name": "N2025/43",
    "bidEhmYield": "",
    "askYield": "",
    "currency": "HUF",
    "maturityInDays_val": 635,
    "issueDate": "2020.10.26",
    "longName": "N251026"
}