{
    "askPrice": "",
    "green": 0,
    "coupon": "9,00 %",
    "accruedInterest": "5,9178",
    "settleDate": "2023.11.16",
    "askEhmYield": "",
    "bidYield": "11,69",
    "rawName": "K2024/12",
    "bidPrice": "99,0000",
    "coupon_val": 9,
    "maturityInDays": "126 nap",
    "securityType": "1MÁP",
    "maturityDate": "2024.03.21",
    "name": "K2024/12",
    "bidEhmYield": "11,27",
    "askYield": "",
    "currency": "HUF",
    "maturityInDays_val": 126,
    "issueDate": "2023.03.21",
    "longName": "K240321"
}