{
    "askPrice": "",
    "green": 0,
    "coupon": "9,00 %",
    "accruedInterest": "6,4603",
    "settleDate": "2023.12.08",
    "askEhmYield": "",
    "bidYield": "12,28",
    "rawName": "K2024/12",
    "bidPrice": "99,0000",
    "coupon_val": 9,
    "maturityInDays": "104 nap",
    "securityType": "1MÁP",
    "maturityDate": "2024.03.21",
    "name": "K2024/12",
    "bidEhmYield": "11,78",
    "askYield": "",
    "currency": "HUF",
    "maturityInDays_val": 104,
    "issueDate": "2023.03.21",
    "longName": "K240321"
}