{
    "askPrice": "",
    "green": 0,
    "coupon": "9,00 %",
    "accruedInterest": "5,0548",
    "settleDate": "2023.10.12",
    "askEhmYield": "",
    "bidYield": "11,10",
    "rawName": "K2024/12",
    "bidPrice": "99,0000",
    "coupon_val": 9,
    "maturityInDays": "161 nap",
    "securityType": "1MÁP",
    "maturityDate": "2024.03.21",
    "name": "K2024/12",
    "bidEhmYield": "10,77",
    "askYield": "",
    "currency": "HUF",
    "maturityInDays_val": 161,
    "issueDate": "2023.03.21",
    "longName": "K240321"
}