{
    "askPrice": "",
    "green": 0,
    "coupon": "9,00 %",
    "accruedInterest": "5,4247",
    "settleDate": "2023.10.27",
    "askEhmYield": "",
    "bidYield": "11,32",
    "rawName": "K2024/12",
    "bidPrice": "99,0000",
    "coupon_val": 9,
    "maturityInDays": "146 nap",
    "securityType": "1MÁP",
    "maturityDate": "2024.03.21",
    "name": "K2024/12",
    "bidEhmYield": "10,95",
    "askYield": "",
    "currency": "HUF",
    "maturityInDays_val": 146,
    "issueDate": "2023.03.21",
    "longName": "K240321"
}