{
    "askPrice": "",
    "green": 0,
    "coupon": "9,00 %",
    "accruedInterest": "1,5781",
    "settleDate": "2023.05.24",
    "askEhmYield": "",
    "bidYield": "10,21",
    "rawName": "K2024/12",
    "bidPrice": "99,0000",
    "coupon_val": 9,
    "maturityInDays": "302 nap",
    "securityType": "1MÁP",
    "maturityDate": "2024.03.21",
    "name": "K2024/12",
    "bidEhmYield": "10,12",
    "askYield": "",
    "currency": "HUF",
    "maturityInDays_val": 302,
    "issueDate": "2023.03.21",
    "longName": "K240321"
}