{
    "askPrice": "",
    "green": 0,
    "coupon": "9,00 %",
    "accruedInterest": "7,0767",
    "settleDate": "2024.01.02",
    "askEhmYield": "",
    "bidYield": "13,38",
    "rawName": "K2024/12",
    "bidPrice": "99,0000",
    "coupon_val": 9,
    "maturityInDays": "79 nap",
    "securityType": "1MÁP",
    "maturityDate": "2024.03.21",
    "name": "K2024/12",
    "bidEhmYield": "12,73",
    "askYield": "",
    "currency": "HUF",
    "maturityInDays_val": 79,
    "issueDate": "2023.03.21",
    "longName": "K240321"
}