{
    "askPrice": "",
    "green": 0,
    "coupon": "9,00 %",
    "accruedInterest": "3,2795",
    "settleDate": "2023.08.01",
    "askEhmYield": "",
    "bidYield": "10,48",
    "rawName": "K2024/12",
    "bidPrice": "99,0000",
    "coupon_val": 9,
    "maturityInDays": "233 nap",
    "securityType": "1MÁP",
    "maturityDate": "2024.03.21",
    "name": "K2024/12",
    "bidEhmYield": "10,29",
    "askYield": "",
    "currency": "HUF",
    "maturityInDays_val": 233,
    "issueDate": "2023.03.21",
    "longName": "K240321"
}