{
    "askPrice": "",
    "green": 0,
    "coupon": "9,00 %",
    "accruedInterest": "2,4904",
    "settleDate": "2023.06.30",
    "askEhmYield": "",
    "bidYield": "10,33",
    "rawName": "K2024/12",
    "bidPrice": "99,0000",
    "coupon_val": 9,
    "maturityInDays": "265 nap",
    "securityType": "1MÁP",
    "maturityDate": "2024.03.21",
    "name": "K2024/12",
    "bidEhmYield": "10,19",
    "askYield": "",
    "currency": "HUF",
    "maturityInDays_val": 265,
    "issueDate": "2023.03.21",
    "longName": "K240321"
}