{
    "askPrice": "",
    "green": 0,
    "coupon": "9,00 %",
    "accruedInterest": "8,8521",
    "settleDate": "2024.03.14",
    "askEhmYield": "",
    "bidYield": "43,19",
    "rawName": "K2024/12",
    "bidPrice": "99,4000",
    "coupon_val": 9,
    "maturityInDays": "7 nap",
    "securityType": "1MÁP",
    "maturityDate": "2024.03.21",
    "name": "K2024/12",
    "bidEhmYield": "36,03",
    "askYield": "",
    "currency": "HUF",
    "maturityInDays_val": 7,
    "issueDate": "2023.03.21",
    "longName": "K240321"
}