{
    "askPrice": "",
    "green": 0,
    "coupon": "9,00 %",
    "accruedInterest": "8,8027",
    "settleDate": "2024.03.12",
    "askEhmYield": "",
    "bidYield": "34,68",
    "rawName": "K2024/12",
    "bidPrice": "99,4000",
    "coupon_val": 9,
    "maturityInDays": "9 nap",
    "securityType": "1MÁP",
    "maturityDate": "2024.03.21",
    "name": "K2024/12",
    "bidEhmYield": "29,88",
    "askYield": "",
    "currency": "HUF",
    "maturityInDays_val": 9,
    "issueDate": "2023.03.21",
    "longName": "K240321"
}