{
    "askPrice": "",
    "green": 0,
    "coupon": "9,00 %",
    "accruedInterest": "8,3096",
    "settleDate": "2024.02.21",
    "askEhmYield": "",
    "bidYield": "21,74",
    "rawName": "K2024/12",
    "bidPrice": "99,0000",
    "coupon_val": 9,
    "maturityInDays": "29 nap",
    "securityType": "1MÁP",
    "maturityDate": "2024.03.21",
    "name": "K2024/12",
    "bidEhmYield": "19,83",
    "askYield": "",
    "currency": "HUF",
    "maturityInDays_val": 29,
    "issueDate": "2023.03.21",
    "longName": "K240321"
}