{
    "askPrice": "",
    "green": 0,
    "coupon": "9,00 %",
    "accruedInterest": "7,1260",
    "settleDate": "2024.01.04",
    "askEhmYield": "",
    "bidYield": "13,50",
    "rawName": "K2024/12",
    "bidPrice": "99,0000",
    "coupon_val": 9,
    "maturityInDays": "77 nap",
    "securityType": "1MÁP",
    "maturityDate": "2024.03.21",
    "name": "K2024/12",
    "bidEhmYield": "12,84",
    "askYield": "",
    "currency": "HUF",
    "maturityInDays_val": 77,
    "issueDate": "2023.03.21",
    "longName": "K240321"
}