{
    "askPrice": "",
    "green": 0,
    "coupon": "3,50 %",
    "accruedInterest": "0,8306",
    "settleDate": "2023.12.18",
    "askEhmYield": "",
    "bidYield": "5,26",
    "rawName": "N2028/14",
    "bidPrice": "99,5000",
    "coupon_val": 3.5,
    "maturityInDays": "1568 nap",
    "securityType": "MÁP Plusz",
    "maturityDate": "2028.04.03",
    "name": "N2028/14",
    "bidEhmYield": "",
    "askYield": "",
    "currency": "HUF",
    "maturityInDays_val": 1568,
    "issueDate": "2023.04.03",
    "longName": "N280403"
}