{
    "askPrice": "",
    "green": 0,
    "coupon": "3,50 %",
    "accruedInterest": "1,6926",
    "settleDate": "2023.09.27",
    "askEhmYield": "",
    "bidYield": "5,20",
    "rawName": "N2028/14",
    "bidPrice": "99,5000",
    "coupon_val": 3.5,
    "maturityInDays": "1650 nap",
    "securityType": "MÁP Plusz",
    "maturityDate": "2028.04.03",
    "name": "N2028/14",
    "bidEhmYield": "",
    "askYield": "",
    "currency": "HUF",
    "maturityInDays_val": 1650,
    "issueDate": "2023.04.03",
    "longName": "N280403"
}