{
    "askPrice": "",
    "green": 0,
    "coupon": "3,50 %",
    "accruedInterest": "1,7486",
    "settleDate": "2024.03.11",
    "askEhmYield": "",
    "bidYield": "5,34",
    "rawName": "N2028/14",
    "bidPrice": "99,5000",
    "coupon_val": 3.5,
    "maturityInDays": "1484 nap",
    "securityType": "MÁP Plusz",
    "maturityDate": "2028.04.03",
    "name": "N2028/14",
    "bidEhmYield": "",
    "askYield": "",
    "currency": "HUF",
    "maturityInDays_val": 1484,
    "issueDate": "2023.04.03",
    "longName": "N280403"
}