{
    "askPrice": "",
    "green": 0,
    "coupon": null,
    "accruedInterest": "4,0763",
    "settleDate": "2023.09.11",
    "askEhmYield": "",
    "bidYield": "",
    "rawName": "2028/L",
    "bidPrice": "99,0000",
    "maturityInDays": "1780 nap",
    "securityType": "PMÁP",
    "maturityDate": "2028.07.26",
    "name": "2028/L",
    "bidEhmYield": "",
    "askYield": "",
    "currency": "HUF",
    "maturityInDays_val": 1780,
    "issueDate": "2023.06.02",
    "longName": "A280726L23"
}