{
    "askPrice": "100,0000",
    "green": 0,
    "coupon": null,
    "accruedInterest": "1,2527",
    "settleDate": "2023.07.03",
    "askEhmYield": "",
    "bidYield": "",
    "rawName": "2028/L",
    "bidPrice": "99,0000",
    "maturityInDays": "1850 nap",
    "securityType": "PMÁP",
    "maturityDate": "2028.07.26",
    "name": "2028/L",
    "bidEhmYield": "",
    "askYield": "",
    "currency": "HUF",
    "maturityInDays_val": 1850,
    "issueDate": "2023.06.02",
    "longName": "A280726L23"
}