{
    "askPrice": "100,0000",
    "green": 0,
    "coupon": null,
    "accruedInterest": "2,1418",
    "settleDate": "2023.07.25",
    "askEhmYield": "",
    "bidYield": "",
    "rawName": "2028/L",
    "bidPrice": "99,0000",
    "maturityInDays": "1828 nap",
    "securityType": "PMÁP",
    "maturityDate": "2028.07.26",
    "name": "2028/L",
    "bidEhmYield": "",
    "askYield": "",
    "currency": "HUF",
    "maturityInDays_val": 1828,
    "issueDate": "2023.06.02",
    "longName": "A280726L23"
}