{
    "askPrice": "",
    "green": 0,
    "coupon": null,
    "accruedInterest": "11,8140",
    "settleDate": "2024.03.21",
    "askEhmYield": "",
    "bidYield": "",
    "rawName": "2028/L",
    "bidPrice": "99,0000",
    "maturityInDays": "1588 nap",
    "securityType": "PMÁP",
    "maturityDate": "2028.07.26",
    "name": "2028/L",
    "bidEhmYield": "",
    "askYield": "",
    "currency": "HUF",
    "maturityInDays_val": 1588,
    "issueDate": "2023.06.02",
    "longName": "A280726L23"
}