{
    "askPrice": "",
    "green": 0,
    "coupon": "3,50 %",
    "accruedInterest": "0,27",
    "settleDate": "2022.09.19",
    "askEhmYield": "",
    "bidYield": "",
    "rawName": "N2027/34",
    "bidPrice": "99,50",
    "coupon_val": 3.5,
    "maturityInDays": "1798 nap",
    "securityType": "MÁP Plusz",
    "maturityDate": "2027.08.22",
    "name": "N2027/34",
    "bidEhmYield": "",
    "askYield": "",
    "currency": "HUF",
    "maturityInDays_val": 1798,
    "longName": "N270822"
}