{
    "askPrice": "",
    "green": 0,
    "coupon": "3,50 %",
    "accruedInterest": "0,68",
    "settleDate": "2022.11.02",
    "askEhmYield": "",
    "bidYield": "5,09",
    "rawName": "N2027/34",
    "bidPrice": "99,50",
    "coupon_val": 3.5,
    "maturityInDays": "1754 nap",
    "securityType": "MÁP Plusz",
    "maturityDate": "2027.08.22",
    "name": "N2027/34",
    "bidEhmYield": "",
    "askYield": "",
    "currency": "HUF",
    "maturityInDays_val": 1754,
    "issueDate": "2022-08-22",
    "longName": "N270822"
}