{
    "askPrice": "",
    "green": 0,
    "coupon": "3,50 %",
    "accruedInterest": "1,5000",
    "settleDate": "2023.12.22",
    "askEhmYield": "",
    "bidYield": "5,44",
    "rawName": "N2027/34",
    "bidPrice": "99,5000",
    "coupon_val": 3.5,
    "maturityInDays": "1339 nap",
    "securityType": "MÁP Plusz",
    "maturityDate": "2027.08.22",
    "name": "N2027/34",
    "bidEhmYield": "",
    "askYield": "",
    "currency": "HUF",
    "maturityInDays_val": 1339,
    "issueDate": "2022.08.22",
    "longName": "N270822"
}