{
    "askPrice": "",
    "green": 0,
    "coupon": "3,50 %",
    "accruedInterest": "1,4076",
    "settleDate": "2023.01.17",
    "askEhmYield": "",
    "bidYield": "5,17",
    "rawName": "N2027/34",
    "bidPrice": "99,5000",
    "coupon_val": 3.5,
    "maturityInDays": "1678 nap",
    "securityType": "MÁP Plusz",
    "maturityDate": "2027.08.22",
    "name": "N2027/34",
    "bidEhmYield": "",
    "askYield": "",
    "currency": "HUF",
    "maturityInDays_val": 1678,
    "issueDate": "2022.08.22",
    "longName": "N270822"
}