{
    "askPrice": "",
    "green": 0,
    "coupon": "3,50 %",
    "accruedInterest": "0,1635",
    "settleDate": "2024.03.14",
    "askEhmYield": "",
    "bidYield": "5,03",
    "rawName": "N2029/09",
    "bidPrice": "99,5000",
    "coupon_val": 3.5,
    "maturityInDays": "1810 nap",
    "securityType": "MÁP Plusz",
    "maturityDate": "2029.02.26",
    "name": "N2029/09",
    "bidEhmYield": "",
    "askYield": "",
    "currency": "HUF",
    "maturityInDays_val": 1810,
    "issueDate": "2024.02.26",
    "longName": "N290226"
}