{
    "askPrice": "100,0000",
    "green": 0,
    "coupon": null,
    "accruedInterest": "3,8836",
    "settleDate": "2024.04.10",
    "askEhmYield": "",
    "bidYield": "",
    "rawName": "2043/S_BABA",
    "bidPrice": "100,0000",
    "maturityInDays": "6871 nap",
    "securityType": "BABA",
    "maturityDate": "2043.02.01",
    "name": "2043/S_BABA",
    "bidEhmYield": "",
    "askYield": "",
    "currency": "HUF",
    "maturityInDays_val": 6871,
    "issueDate": "2024.02.01",
    "longName": "A430201S24"
}