{
    "askPrice": "",
    "green": 0,
    "coupon": null,
    "accruedInterest": "2,56",
    "settleDate": "2022.07.18",
    "askEhmYield": "",
    "bidYield": "",
    "rawName": "2023/K",
    "bidPrice": "99,00",
    "maturityInDays": "212 nap",
    "securityType": "PMÁP",
    "maturityDate": "2023.02.15",
    "name": "2023/K",
    "bidEhmYield": "",
    "askYield": "",
    "currency": "HUF",
    "maturityInDays_val": 212,
    "longName": "A230215K19"
}