{
    "askPrice": "",
    "green": 0,
    "coupon": null,
    "accruedInterest": "3,74",
    "settleDate": "2022.09.27",
    "askEhmYield": "",
    "bidYield": "",
    "rawName": "2023/K",
    "bidPrice": "99,00",
    "maturityInDays": "141 nap",
    "securityType": "PMÁP",
    "maturityDate": "2023.02.15",
    "name": "2023/K",
    "bidEhmYield": "",
    "askYield": "",
    "currency": "HUF",
    "maturityInDays_val": 141,
    "longName": "A230215K19"
}