{
    "askPrice": "",
    "green": 0,
    "coupon": null,
    "accruedInterest": "5,0100",
    "settleDate": "2022.12.12",
    "askEhmYield": "",
    "bidYield": "",
    "rawName": "2023/K",
    "bidPrice": "99,0000",
    "maturityInDays": "65 nap",
    "securityType": "PMÁP",
    "maturityDate": "2023.02.15",
    "name": "2023/K",
    "bidEhmYield": "",
    "askYield": "",
    "currency": "HUF",
    "maturityInDays_val": 65,
    "issueDate": "2019.11.05",
    "longName": "A230215K19"
}