{
    "askPrice": "",
    "green": 0,
    "coupon": null,
    "accruedInterest": "4,8000",
    "settleDate": "2022.11.29",
    "askEhmYield": "",
    "bidYield": "",
    "rawName": "2023/K",
    "bidPrice": "99,0000",
    "maturityInDays": "78 nap",
    "securityType": "PMÁP",
    "maturityDate": "2023.02.15",
    "name": "2023/K",
    "bidEhmYield": "",
    "askYield": "",
    "currency": "HUF",
    "maturityInDays_val": 78,
    "issueDate": "2019.11.05",
    "longName": "A230215K19"
}