{
    "askPrice": "",
    "green": 0,
    "coupon": null,
    "accruedInterest": "4,55",
    "settleDate": "2022.11.14",
    "askEhmYield": "",
    "bidYield": "",
    "rawName": "2023/K",
    "bidPrice": "99,00",
    "maturityInDays": "93 nap",
    "securityType": "PMÁP",
    "maturityDate": "2023.02.15",
    "name": "2023/K",
    "bidEhmYield": "",
    "askYield": "",
    "currency": "HUF",
    "maturityInDays_val": 93,
    "issueDate": "2019-11-05",
    "longName": "A230215K19"
}