{
    "askPrice": "",
    "green": 0,
    "coupon": "3,50 %",
    "accruedInterest": "0,7717",
    "settleDate": "2023.08.07",
    "askEhmYield": "",
    "bidYield": "5,26",
    "rawName": "N2027/48",
    "bidPrice": "99,5000",
    "coupon_val": 3.5,
    "maturityInDays": "1574 nap",
    "securityType": "MÁP Plusz",
    "maturityDate": "2027.11.28",
    "name": "N2027/48",
    "bidEhmYield": "",
    "askYield": "",
    "currency": "HUF",
    "maturityInDays_val": 1574,
    "issueDate": "2022.11.28",
    "longName": "N271128"
}