{
    "askPrice": "",
    "green": 0,
    "coupon": "3,50 %",
    "accruedInterest": "0,8607",
    "settleDate": "2024.02.06",
    "askEhmYield": "",
    "bidYield": "5,40",
    "rawName": "N2027/48",
    "bidPrice": "99,5000",
    "coupon_val": 3.5,
    "maturityInDays": "1391 nap",
    "securityType": "MÁP Plusz",
    "maturityDate": "2027.11.28",
    "name": "N2027/48",
    "bidEhmYield": "",
    "askYield": "",
    "currency": "HUF",
    "maturityInDays_val": 1391,
    "issueDate": "2022.11.28",
    "longName": "N271128"
}