{
    "askPrice": "98,3436",
    "green": 0,
    "coupon": 0,
    "accruedInterest": 0,
    "settleDate": "2023.07.20",
    "askEhmYield": "9,92",
    "bidYield": "11,09",
    "rawName": "D230920",
    "bidPrice": "98,1259",
    "maturityInDays": "62 nap",
    "securityType": "DKJ",
    "maturityDate": "2023.09.20",
    "name": "D230920",
    "bidEhmYield": "11,24",
    "askYield": "9,78",
    "currency": "HUF",
    "maturityInDays_val": 62,
    "issueDate": "2023.02.15",
    "longName": "D230920"
}