{
    "askPrice": "93,4708",
    "green": 0,
    "coupon": 0,
    "accruedInterest": 0,
    "settleDate": "2023.04.04",
    "askEhmYield": "15,09",
    "bidYield": "15,70",
    "rawName": "D230920",
    "bidPrice": "93,1356",
    "maturityInDays": "169 nap",
    "securityType": "DKJ",
    "maturityDate": "2023.09.20",
    "name": "D230920",
    "bidEhmYield": "15,92",
    "askYield": "14,88",
    "currency": "HUF",
    "maturityInDays_val": 169,
    "issueDate": "2023.02.15",
    "longName": "D230920"
}