{
    "askPrice": "93,0124",
    "green": 0,
    "coupon": 0,
    "accruedInterest": 0,
    "settleDate": "2023.03.22",
    "askEhmYield": "15,07",
    "bidYield": "15,65",
    "rawName": "D230920",
    "bidPrice": "92,6681",
    "maturityInDays": "182 nap",
    "securityType": "DKJ",
    "maturityDate": "2023.09.20",
    "name": "D230920",
    "bidEhmYield": "15,87",
    "askYield": "14,86",
    "currency": "HUF",
    "maturityInDays_val": 182,
    "issueDate": "2023.02.15",
    "longName": "D230920"
}