{
    "askPrice": "94,9954",
    "green": 0,
    "coupon": 0,
    "accruedInterest": 0,
    "settleDate": "2023.05.10",
    "askEhmYield": "14,46",
    "bidYield": "15,08",
    "rawName": "D230920",
    "bidPrice": "94,7228",
    "maturityInDays": "133 nap",
    "securityType": "DKJ",
    "maturityDate": "2023.09.20",
    "name": "D230920",
    "bidEhmYield": "15,29",
    "askYield": "14,26",
    "currency": "HUF",
    "maturityInDays_val": 133,
    "issueDate": "2023.02.15",
    "longName": "D230920"
}