{
    "askPrice": "92,5622",
    "green": 0,
    "coupon": 0,
    "accruedInterest": 0,
    "settleDate": "2023.03.06",
    "askEhmYield": "14,81",
    "bidYield": "15,43",
    "rawName": "D230920",
    "bidPrice": "92,1774",
    "maturityInDays": "198 nap",
    "securityType": "DKJ",
    "maturityDate": "2023.09.20",
    "name": "D230920",
    "bidEhmYield": "15,64",
    "askYield": "14,61",
    "currency": "HUF",
    "maturityInDays_val": 198,
    "issueDate": "2023.02.15",
    "longName": "D230920"
}