{
    "askPrice": "93,5349",
    "green": 0,
    "coupon": 0,
    "accruedInterest": 0,
    "settleDate": "2023.04.06",
    "askEhmYield": "15,11",
    "bidYield": "15,70",
    "rawName": "D230920",
    "bidPrice": "93,2114",
    "maturityInDays": "167 nap",
    "securityType": "DKJ",
    "maturityDate": "2023.09.20",
    "name": "D230920",
    "bidEhmYield": "15,92",
    "askYield": "14,90",
    "currency": "HUF",
    "maturityInDays_val": 167,
    "issueDate": "2023.02.15",
    "longName": "D230920"
}