{
    "askPrice": "92,3333",
    "green": 0,
    "coupon": 0,
    "accruedInterest": 0,
    "settleDate": "2023.02.20",
    "askEhmYield": "14,30",
    "bidYield": "14,90",
    "rawName": "D230920",
    "bidPrice": "91,9334",
    "maturityInDays": "212 nap",
    "securityType": "DKJ",
    "maturityDate": "2023.09.20",
    "name": "D230920",
    "bidEhmYield": "15,11",
    "askYield": "14,10",
    "currency": "HUF",
    "maturityInDays_val": 212,
    "issueDate": "2023.02.15",
    "longName": "D230920"
}