{
    "askPrice": "94,4916",
    "green": 0,
    "coupon": 0,
    "accruedInterest": 0,
    "settleDate": "2023.04.25",
    "askEhmYield": "14,38",
    "bidYield": "14,99",
    "rawName": "D230920",
    "bidPrice": "94,1952",
    "maturityInDays": "148 nap",
    "securityType": "DKJ",
    "maturityDate": "2023.09.20",
    "name": "D230920",
    "bidEhmYield": "15,20",
    "askYield": "14,18",
    "currency": "HUF",
    "maturityInDays_val": 148,
    "issueDate": "2023.02.15",
    "longName": "D230920"
}