{
    "askPrice": "99,1926",
    "green": 0,
    "coupon": 0,
    "accruedInterest": 0,
    "settleDate": "2023.08.18",
    "askEhmYield": "9,00",
    "bidYield": "10,19",
    "rawName": "D230920",
    "bidPrice": "99,0746",
    "maturityInDays": "33 nap",
    "securityType": "DKJ",
    "maturityDate": "2023.09.20",
    "name": "D230920",
    "bidEhmYield": "10,33",
    "askYield": "8,88",
    "currency": "HUF",
    "maturityInDays_val": 33,
    "issueDate": "2023.02.15",
    "longName": "D230920"
}