{
    "askPrice": "98,4488",
    "green": 0,
    "coupon": 0,
    "accruedInterest": 0,
    "settleDate": "2023.07.24",
    "askEhmYield": "9,92",
    "bidYield": "11,08",
    "rawName": "D230920",
    "bidPrice": "98,2462",
    "maturityInDays": "58 nap",
    "securityType": "DKJ",
    "maturityDate": "2023.09.20",
    "name": "D230920",
    "bidEhmYield": "11,23",
    "askYield": "9,78",
    "currency": "HUF",
    "maturityInDays_val": 58,
    "issueDate": "2023.02.15",
    "longName": "D230920"
}