{
    "askPrice": "94,0799",
    "green": 0,
    "coupon": 0,
    "accruedInterest": 0,
    "settleDate": "2023.04.19",
    "askEhmYield": "14,91",
    "bidYield": "15,44",
    "rawName": "D230920",
    "bidPrice": "93,8043",
    "maturityInDays": "154 nap",
    "securityType": "DKJ",
    "maturityDate": "2023.09.20",
    "name": "D230920",
    "bidEhmYield": "15,65",
    "askYield": "14,71",
    "currency": "HUF",
    "maturityInDays_val": 154,
    "issueDate": "2023.02.15",
    "longName": "D230920"
}