{
    "askPrice": "94,7278",
    "green": 0,
    "coupon": 0,
    "accruedInterest": 0,
    "settleDate": "2023.05.02",
    "askEhmYield": "14,41",
    "bidYield": "15,00",
    "rawName": "D230920",
    "bidPrice": "94,4510",
    "maturityInDays": "141 nap",
    "securityType": "DKJ",
    "maturityDate": "2023.09.20",
    "name": "D230920",
    "bidEhmYield": "15,21",
    "askYield": "14,21",
    "currency": "HUF",
    "maturityInDays_val": 141,
    "issueDate": "2023.02.15",
    "longName": "D230920"
}