{
    "askPrice": "94,7814",
    "green": 0,
    "coupon": 0,
    "accruedInterest": 0,
    "settleDate": "2023.05.04",
    "askEhmYield": "14,46",
    "bidYield": "15,07",
    "rawName": "D230920",
    "bidPrice": "94,5013",
    "maturityInDays": "139 nap",
    "securityType": "DKJ",
    "maturityDate": "2023.09.20",
    "name": "D230920",
    "bidEhmYield": "15,28",
    "askYield": "14,26",
    "currency": "HUF",
    "maturityInDays_val": 139,
    "issueDate": "2023.02.15",
    "longName": "D230920"
}