{
    "askPrice": "",
    "green": 0,
    "coupon": 0,
    "accruedInterest": 0,
    "settleDate": "2023.09.13",
    "askEhmYield": "",
    "bidYield": "10,25",
    "rawName": "D230920",
    "bidPrice": "99,8011",
    "maturityInDays": "7 nap",
    "securityType": "DKJ",
    "maturityDate": "2023.09.20",
    "name": "D230920",
    "bidEhmYield": "10,39",
    "askYield": "",
    "currency": "HUF",
    "maturityInDays_val": 7,
    "issueDate": "2023.02.15",
    "longName": "D230920"
}