{
    "askPrice": "97,9716",
    "green": 0,
    "coupon": 0,
    "accruedInterest": 0,
    "settleDate": "2023.07.05",
    "askEhmYield": "9,81",
    "bidYield": "10,92",
    "rawName": "D230920",
    "bidPrice": "97,7176",
    "maturityInDays": "77 nap",
    "securityType": "DKJ",
    "maturityDate": "2023.09.20",
    "name": "D230920",
    "bidEhmYield": "11,07",
    "askYield": "9,68",
    "currency": "HUF",
    "maturityInDays_val": 77,
    "issueDate": "2023.02.15",
    "longName": "D230920"
}