{
    "askPrice": "94,9239",
    "green": 0,
    "coupon": 0,
    "accruedInterest": 0,
    "settleDate": "2023.05.08",
    "askEhmYield": "14,46",
    "bidYield": "15,06",
    "rawName": "D230920",
    "bidPrice": "94,6544",
    "maturityInDays": "135 nap",
    "securityType": "DKJ",
    "maturityDate": "2023.09.20",
    "name": "D230920",
    "bidEhmYield": "15,27",
    "askYield": "14,26",
    "currency": "HUF",
    "maturityInDays_val": 135,
    "issueDate": "2023.02.15",
    "longName": "D230920"
}