{
    "askPrice": "92,9631",
    "green": 0,
    "coupon": 0,
    "accruedInterest": 0,
    "settleDate": "2023.03.20",
    "askEhmYield": "15,02",
    "bidYield": "15,65",
    "rawName": "D230920",
    "bidPrice": "92,5935",
    "maturityInDays": "184 nap",
    "securityType": "DKJ",
    "maturityDate": "2023.09.20",
    "name": "D230920",
    "bidEhmYield": "15,87",
    "askYield": "14,81",
    "currency": "HUF",
    "maturityInDays_val": 184,
    "issueDate": "2023.02.15",
    "longName": "D230920"
}