{
    "askPrice": "",
    "green": 0,
    "coupon": "3,50 %",
    "accruedInterest": "1,7283",
    "settleDate": "2022.12.09",
    "askEhmYield": "",
    "bidYield": "5,34",
    "rawName": "N2027/01",
    "bidPrice": "99,5000",
    "coupon_val": 3.5,
    "maturityInDays": "1486 nap",
    "securityType": "MÁP Plusz",
    "maturityDate": "2027.01.03",
    "name": "N2027/01",
    "bidEhmYield": "",
    "askYield": "",
    "currency": "HUF",
    "maturityInDays_val": 1486,
    "issueDate": "2022.01.03",
    "longName": "N270103"
}