{
    "askPrice": "",
    "green": 0,
    "coupon": "3,50 %",
    "accruedInterest": "1,46",
    "settleDate": "2022.11.14",
    "askEhmYield": "",
    "bidYield": "5,31",
    "rawName": "N2027/01",
    "bidPrice": "99,50",
    "coupon_val": 3.5,
    "maturityInDays": "1511 nap",
    "securityType": "MÁP Plusz",
    "maturityDate": "2027.01.03",
    "name": "N2027/01",
    "bidEhmYield": "",
    "askYield": "",
    "currency": "HUF",
    "maturityInDays_val": 1511,
    "issueDate": "2022-01-03",
    "longName": "N270103"
}