{
    "askPrice": "",
    "green": 0,
    "coupon": "3,50 %",
    "accruedInterest": "0,24",
    "settleDate": "2022.07.25",
    "askEhmYield": "",
    "bidYield": "",
    "rawName": "N2027/01",
    "bidPrice": "99,50",
    "coupon_val": 3.5,
    "maturityInDays": "1623 nap",
    "securityType": "MÁP Plusz",
    "maturityDate": "2027.01.03",
    "name": "N2027/01",
    "bidEhmYield": "",
    "askYield": "",
    "currency": "HUF",
    "maturityInDays_val": 1623,
    "longName": "N270103"
}