{
    "askPrice": "",
    "green": 0,
    "coupon": "3,50 %",
    "accruedInterest": "1,9565",
    "settleDate": "2022.12.30",
    "askEhmYield": "",
    "bidYield": "",
    "rawName": "N2027/01",
    "bidPrice": "",
    "coupon_val": 3.5,
    "maturityInDays": "1465 nap",
    "securityType": "MÁP Plusz",
    "maturityDate": "2027.01.03",
    "name": "N2027/01",
    "bidEhmYield": "",
    "askYield": "",
    "currency": "HUF",
    "maturityInDays_val": 1465,
    "issueDate": "2022.01.03",
    "longName": "N270103"
}