{
    "askPrice": "",
    "green": 0,
    "coupon": "3,50 %",
    "accruedInterest": "2,2315",
    "settleDate": "2023.07.03",
    "askEhmYield": "",
    "bidYield": "5,48",
    "rawName": "N2027/01",
    "bidPrice": "99,5000",
    "coupon_val": 3.5,
    "maturityInDays": "1280 nap",
    "securityType": "MÁP Plusz",
    "maturityDate": "2027.01.03",
    "name": "N2027/01",
    "bidEhmYield": "",
    "askYield": "",
    "currency": "HUF",
    "maturityInDays_val": 1280,
    "issueDate": "2022.01.03",
    "longName": "N270103"
}