{
    "askPrice": "",
    "green": 0,
    "coupon": "3,50 %",
    "accruedInterest": "1,0603",
    "settleDate": "2023.03.30",
    "askEhmYield": "",
    "bidYield": "5,41",
    "rawName": "N2027/01",
    "bidPrice": "99,5000",
    "coupon_val": 3.5,
    "maturityInDays": "1375 nap",
    "securityType": "MÁP Plusz",
    "maturityDate": "2027.01.03",
    "name": "N2027/01",
    "bidEhmYield": "",
    "askYield": "",
    "currency": "HUF",
    "maturityInDays_val": 1375,
    "issueDate": "2022.01.03",
    "longName": "N270103"
}