{
    "askPrice": "",
    "green": 0,
    "coupon": "3,50 %",
    "accruedInterest": "0,6041",
    "settleDate": "2023.02.21",
    "askEhmYield": "",
    "bidYield": "5,39",
    "rawName": "N2027/01",
    "bidPrice": "99,5000",
    "coupon_val": 3.5,
    "maturityInDays": "1412 nap",
    "securityType": "MÁP Plusz",
    "maturityDate": "2027.01.03",
    "name": "N2027/01",
    "bidEhmYield": "",
    "askYield": "",
    "currency": "HUF",
    "maturityInDays_val": 1412,
    "issueDate": "2022.01.03",
    "longName": "N270103"
}