{
    "askPrice": "",
    "green": 0,
    "coupon": "3,50 %",
    "accruedInterest": "0,1603",
    "settleDate": "2023.01.16",
    "askEhmYield": "",
    "bidYield": "5,37",
    "rawName": "N2027/01",
    "bidPrice": "99,5000",
    "coupon_val": 3.5,
    "maturityInDays": "1448 nap",
    "securityType": "MÁP Plusz",
    "maturityDate": "2027.01.03",
    "name": "N2027/01",
    "bidEhmYield": "",
    "askYield": "",
    "currency": "HUF",
    "maturityInDays_val": 1448,
    "issueDate": "2022.01.03",
    "longName": "N270103"
}