{
    "askPrice": "",
    "green": 0,
    "coupon": "3,50 %",
    "accruedInterest": "0,0683",
    "settleDate": "2024.01.08",
    "askEhmYield": "",
    "bidYield": "5,48",
    "rawName": "N2027/01",
    "bidPrice": "100,0000",
    "coupon_val": 3.5,
    "maturityInDays": "1091 nap",
    "securityType": "MÁP Plusz",
    "maturityDate": "2027.01.03",
    "name": "N2027/01",
    "bidEhmYield": "",
    "askYield": "",
    "currency": "HUF",
    "maturityInDays_val": 1091,
    "issueDate": "2022.01.03",
    "longName": "N270103"
}