{
    "askPrice": "",
    "green": 0,
    "coupon": "3,50 %",
    "accruedInterest": "0,03",
    "settleDate": "2022.09.22",
    "askEhmYield": "",
    "bidYield": "",
    "rawName": "N2027/38",
    "bidPrice": "99,50",
    "coupon_val": 3.5,
    "maturityInDays": "1823 nap",
    "securityType": "MÁP Plusz",
    "maturityDate": "2027.09.19",
    "name": "N2027/38",
    "bidEhmYield": "",
    "askYield": "",
    "currency": "HUF",
    "maturityInDays_val": 1823,
    "longName": "N270919"
}