{
    "askPrice": "",
    "green": 0,
    "coupon": "3,50 %",
    "accruedInterest": "0,7638",
    "settleDate": "2022.12.07",
    "askEhmYield": "",
    "bidYield": "5,09",
    "rawName": "N2027/38",
    "bidPrice": "99,5000",
    "coupon_val": 3.5,
    "maturityInDays": "1747 nap",
    "securityType": "MÁP Plusz",
    "maturityDate": "2027.09.19",
    "name": "N2027/38",
    "bidEhmYield": "",
    "askYield": "",
    "currency": "HUF",
    "maturityInDays_val": 1747,
    "issueDate": "2022.09.19",
    "longName": "N270919"
}