{
    "askPrice": "",
    "green": 0,
    "coupon": "3,50 %",
    "accruedInterest": "1,11",
    "settleDate": "2022.11.07",
    "askEhmYield": "",
    "bidYield": "5,41",
    "rawName": "N2026/32",
    "bidPrice": "99,50",
    "coupon_val": 3.5,
    "maturityInDays": "1371 nap",
    "securityType": "MÁP Plusz",
    "maturityDate": "2026.08.09",
    "name": "N2026/32",
    "bidEhmYield": "",
    "askYield": "",
    "currency": "HUF",
    "maturityInDays_val": 1371,
    "issueDate": "2021-08-09",
    "longName": "N260809"
}