{
    "askPrice": "",
    "green": 0,
    "coupon": "3,50 %",
    "accruedInterest": "0,83",
    "settleDate": "2022.10.15",
    "askEhmYield": "",
    "bidYield": "",
    "rawName": "N2026/32",
    "bidPrice": "99,50",
    "coupon_val": 3.5,
    "maturityInDays": "1394 nap",
    "securityType": "MÁP Plusz",
    "maturityDate": "2026.08.09",
    "name": "N2026/32",
    "bidEhmYield": "",
    "askYield": "",
    "currency": "HUF",
    "maturityInDays_val": 1394,
    "longName": "N260809"
}