{
    "askPrice": "",
    "green": 0,
    "coupon": "3,50 %",
    "accruedInterest": "1,2158",
    "settleDate": "2023.11.06",
    "askEhmYield": "",
    "bidYield": "5,72",
    "rawName": "N2026/32",
    "bidPrice": "99,5000",
    "coupon_val": 3.5,
    "maturityInDays": "1007 nap",
    "securityType": "MÁP Plusz",
    "maturityDate": "2026.08.09",
    "name": "N2026/32",
    "bidEhmYield": "",
    "askYield": "",
    "currency": "HUF",
    "maturityInDays_val": 1007,
    "issueDate": "2021.08.09",
    "longName": "N260809"
}