{
    "askPrice": "",
    "green": 0,
    "coupon": "3,50 %",
    "accruedInterest": "3,5656",
    "settleDate": "2024.04.26",
    "askEhmYield": "",
    "bidYield": "5,87",
    "rawName": "N2026/32",
    "bidPrice": "99,5000",
    "coupon_val": 3.5,
    "maturityInDays": "835 nap",
    "securityType": "MÁP Plusz",
    "maturityDate": "2026.08.09",
    "name": "N2026/32",
    "bidEhmYield": "",
    "askYield": "",
    "currency": "HUF",
    "maturityInDays_val": 835,
    "issueDate": "2021.08.09",
    "longName": "N260809"
}