{
    "askPrice": "",
    "green": 0,
    "coupon": "3,50 %",
    "accruedInterest": "0,5385",
    "settleDate": "2023.11.06",
    "askEhmYield": "",
    "bidYield": "5,07",
    "rawName": "N2028/37",
    "bidPrice": "99,5000",
    "coupon_val": 3.5,
    "maturityInDays": "1771 nap",
    "securityType": "MÁP Plusz",
    "maturityDate": "2028.09.11",
    "name": "N2028/37",
    "bidEhmYield": "",
    "askYield": "",
    "currency": "HUF",
    "maturityInDays_val": 1771,
    "issueDate": "2023.09.11",
    "longName": "N280911"
}