{
    "askPrice": "",
    "green": 0,
    "coupon": "3,50 %",
    "accruedInterest": "1,1442",
    "settleDate": "2024.01.08",
    "askEhmYield": "",
    "bidYield": "5,13",
    "rawName": "N2028/37",
    "bidPrice": "99,5000",
    "coupon_val": 3.5,
    "maturityInDays": "1708 nap",
    "securityType": "MÁP Plusz",
    "maturityDate": "2028.09.11",
    "name": "N2028/37",
    "bidEhmYield": "",
    "askYield": "",
    "currency": "HUF",
    "maturityInDays_val": 1708,
    "issueDate": "2023.09.11",
    "longName": "N280911"
}