{
    "askPrice": "",
    "green": 0,
    "coupon": "3,50 %",
    "accruedInterest": 0,
    "settleDate": "2024.03.08",
    "askEhmYield": "",
    "bidYield": "",
    "rawName": "N2028/37",
    "bidPrice": "",
    "coupon_val": 3.5,
    "maturityInDays": "1648 nap",
    "securityType": "MÁP Plusz",
    "maturityDate": "2028.09.11",
    "name": "N2028/37",
    "bidEhmYield": "",
    "askYield": "",
    "currency": "HUF",
    "maturityInDays_val": 1648,
    "issueDate": "2023.09.11",
    "longName": "N280911"
}