{
    "askPrice": "",
    "green": 0,
    "coupon": "9,00 %",
    "accruedInterest": "4,5370",
    "settleDate": "2023.07.20",
    "askEhmYield": "",
    "bidYield": "10,93",
    "rawName": "K2024/03",
    "bidPrice": "99,0000",
    "coupon_val": 9,
    "maturityInDays": "181 nap",
    "securityType": "1MÁP",
    "maturityDate": "2024.01.17",
    "name": "K2024/03",
    "bidEhmYield": "10,64",
    "askYield": "",
    "currency": "HUF",
    "maturityInDays_val": 181,
    "issueDate": "2023.01.17",
    "longName": "K240117"
}