{
    "askPrice": "",
    "green": 0,
    "coupon": "9,00 %",
    "accruedInterest": "3,6493",
    "settleDate": "2023.06.14",
    "askEhmYield": "",
    "bidYield": "10,62",
    "rawName": "K2024/03",
    "bidPrice": "99,0000",
    "coupon_val": 9,
    "maturityInDays": "217 nap",
    "securityType": "1MÁP",
    "maturityDate": "2024.01.17",
    "name": "K2024/03",
    "bidEhmYield": "10,41",
    "askYield": "",
    "currency": "HUF",
    "maturityInDays_val": 217,
    "issueDate": "2023.01.17",
    "longName": "K240117"
}