{
    "askPrice": "",
    "green": 0,
    "coupon": "9,00 %",
    "accruedInterest": "2,2685",
    "settleDate": "2023.04.19",
    "askEhmYield": "",
    "bidYield": "10,34",
    "rawName": "K2024/03",
    "bidPrice": "99,0000",
    "coupon_val": 9,
    "maturityInDays": "273 nap",
    "securityType": "1MÁP",
    "maturityDate": "2024.01.17",
    "name": "K2024/03",
    "bidEhmYield": "10,21",
    "askYield": "",
    "currency": "HUF",
    "maturityInDays_val": 273,
    "issueDate": "2023.01.17",
    "longName": "K240117"
}