{
    "askPrice": "",
    "green": 0,
    "coupon": "9,00 %",
    "accruedInterest": "6,9534",
    "settleDate": "2023.10.26",
    "askEhmYield": "",
    "bidYield": "13,28",
    "rawName": "K2024/03",
    "bidPrice": "99,0000",
    "coupon_val": 9,
    "maturityInDays": "83 nap",
    "securityType": "1MÁP",
    "maturityDate": "2024.01.17",
    "name": "K2024/03",
    "bidEhmYield": "12,64",
    "askYield": "",
    "currency": "HUF",
    "maturityInDays_val": 83,
    "issueDate": "2023.01.17",
    "longName": "K240117"
}