{
    "askPrice": "",
    "green": 0,
    "coupon": "9,00 %",
    "accruedInterest": "6,5836",
    "settleDate": "2023.10.11",
    "askEhmYield": "",
    "bidYield": "12,59",
    "rawName": "K2024/03",
    "bidPrice": "99,0000",
    "coupon_val": 9,
    "maturityInDays": "98 nap",
    "securityType": "1MÁP",
    "maturityDate": "2024.01.17",
    "name": "K2024/03",
    "bidEhmYield": "12,05",
    "askYield": "",
    "currency": "HUF",
    "maturityInDays_val": 98,
    "issueDate": "2023.01.17",
    "longName": "K240117"
}