{
    "askPrice": "",
    "green": 0,
    "coupon": "9,00 %",
    "accruedInterest": "2,6630",
    "settleDate": "2023.05.05",
    "askEhmYield": "",
    "bidYield": "10,40",
    "rawName": "K2024/03",
    "bidPrice": "99,0000",
    "coupon_val": 9,
    "maturityInDays": "257 nap",
    "securityType": "1MÁP",
    "maturityDate": "2024.01.17",
    "name": "K2024/03",
    "bidEhmYield": "10,25",
    "askYield": "",
    "currency": "HUF",
    "maturityInDays_val": 257,
    "issueDate": "2023.01.17",
    "longName": "K240117"
}