{
    "askPrice": "",
    "green": 0,
    "coupon": "9,00 %",
    "accruedInterest": "1,9479",
    "settleDate": "2023.04.06",
    "askEhmYield": "",
    "bidYield": "10,29",
    "rawName": "K2024/03",
    "bidPrice": "99,0000",
    "coupon_val": 9,
    "maturityInDays": "286 nap",
    "securityType": "1MÁP",
    "maturityDate": "2024.01.17",
    "name": "K2024/03",
    "bidEhmYield": "10,18",
    "askYield": "",
    "currency": "HUF",
    "maturityInDays_val": 286,
    "issueDate": "2023.01.17",
    "longName": "K240117"
}