{
    "askPrice": "",
    "green": 0,
    "coupon": "9,00 %",
    "accruedInterest": "3,9699",
    "settleDate": "2023.06.27",
    "askEhmYield": "",
    "bidYield": "10,72",
    "rawName": "K2024/03",
    "bidPrice": "99,0000",
    "coupon_val": 9,
    "maturityInDays": "204 nap",
    "securityType": "1MÁP",
    "maturityDate": "2024.01.17",
    "name": "K2024/03",
    "bidEhmYield": "10,48",
    "askYield": "",
    "currency": "HUF",
    "maturityInDays_val": 204,
    "issueDate": "2023.01.17",
    "longName": "K240117"
}