{
    "askPrice": "",
    "green": 0,
    "coupon": "9,00 %",
    "accruedInterest": "2,9096",
    "settleDate": "2023.05.15",
    "askEhmYield": "",
    "bidYield": "10,45",
    "rawName": "K2024/03",
    "bidPrice": "99,0000",
    "coupon_val": 9,
    "maturityInDays": "247 nap",
    "securityType": "1MÁP",
    "maturityDate": "2024.01.17",
    "name": "K2024/03",
    "bidEhmYield": "10,28",
    "askYield": "",
    "currency": "HUF",
    "maturityInDays_val": 247,
    "issueDate": "2023.01.17",
    "longName": "K240117"
}