{
    "askPrice": "",
    "green": 0,
    "coupon": "9,00 %",
    "accruedInterest": "4,5123",
    "settleDate": "2023.07.19",
    "askEhmYield": "",
    "bidYield": "10,92",
    "rawName": "K2024/03",
    "bidPrice": "99,0000",
    "coupon_val": 9,
    "maturityInDays": "182 nap",
    "securityType": "1MÁP",
    "maturityDate": "2024.01.17",
    "name": "K2024/03",
    "bidEhmYield": "10,63",
    "askYield": "",
    "currency": "HUF",
    "maturityInDays_val": 182,
    "issueDate": "2023.01.17",
    "longName": "K240117"
}