{
    "askPrice": "",
    "green": 0,
    "coupon": "3,50 %",
    "accruedInterest": "0,08",
    "settleDate": "2022.06.21",
    "askEhmYield": "",
    "bidYield": "",
    "rawName": "N2025/24",
    "bidPrice": "100,00",
    "coupon_val": 3.5,
    "maturityInDays": "1090 nap",
    "securityType": "MÁP Plusz",
    "maturityDate": "2025.06.15",
    "name": "N2025/24",
    "bidEhmYield": "",
    "askYield": "",
    "currency": "HUF",
    "maturityInDays_val": 1090,
    "longName": "N250615"
}