{
    "askPrice": "",
    "green": 0,
    "coupon": "3,50 %",
    "accruedInterest": "2,6899",
    "settleDate": "2023.12.11",
    "askEhmYield": "",
    "bidYield": "6,15",
    "rawName": "N2025/24",
    "bidPrice": "99,5000",
    "coupon_val": 3.5,
    "maturityInDays": "552 nap",
    "securityType": "MÁP Plusz",
    "maturityDate": "2025.06.15",
    "name": "N2025/24",
    "bidEhmYield": "",
    "askYield": "",
    "currency": "HUF",
    "maturityInDays_val": 552,
    "issueDate": "2020.06.15",
    "longName": "N250615"
}