{
    "askPrice": "",
    "green": 0,
    "coupon": "3,50 %",
    "accruedInterest": "3,3836",
    "settleDate": "2023.02.17",
    "askEhmYield": "",
    "bidYield": "5,86",
    "rawName": "N2025/24",
    "bidPrice": "99,5000",
    "coupon_val": 3.5,
    "maturityInDays": "849 nap",
    "securityType": "MÁP Plusz",
    "maturityDate": "2025.06.15",
    "name": "N2025/24",
    "bidEhmYield": "",
    "askYield": "",
    "currency": "HUF",
    "maturityInDays_val": 849,
    "issueDate": "2020.06.15",
    "longName": "N250615"
}