{
    "askPrice": "",
    "green": 0,
    "coupon": "3,50 %",
    "accruedInterest": "4,9590",
    "settleDate": "2024.05.10",
    "askEhmYield": "",
    "bidYield": "6,42",
    "rawName": "N2025/24",
    "bidPrice": "99,5000",
    "coupon_val": 3.5,
    "maturityInDays": "401 nap",
    "securityType": "MÁP Plusz",
    "maturityDate": "2025.06.15",
    "name": "N2025/24",
    "bidEhmYield": "",
    "askYield": "",
    "currency": "HUF",
    "maturityInDays_val": 401,
    "issueDate": "2020.06.15",
    "longName": "N250615"
}