{
    "askPrice": "",
    "green": 0,
    "coupon": "3,50 %",
    "accruedInterest": "3,3811",
    "settleDate": "2024.01.26",
    "askEhmYield": "",
    "bidYield": "6,21",
    "rawName": "N2025/24",
    "bidPrice": "99,5000",
    "coupon_val": 3.5,
    "maturityInDays": "506 nap",
    "securityType": "MÁP Plusz",
    "maturityDate": "2025.06.15",
    "name": "N2025/24",
    "bidEhmYield": "",
    "askYield": "",
    "currency": "HUF",
    "maturityInDays_val": 506,
    "issueDate": "2020.06.15",
    "longName": "N250615"
}