{
    "askPrice": "99,4777",
    "green": 0,
    "coupon": 0,
    "accruedInterest": 0,
    "settleDate": "2023.12.27",
    "askEhmYield": "5,48",
    "bidYield": "6,65",
    "rawName": "D240131",
    "bidPrice": "99,3576",
    "maturityInDays": "35 nap",
    "securityType": "DKJ",
    "maturityDate": "2024.01.31",
    "name": "D240131",
    "bidEhmYield": "6,74",
    "askYield": "5,40",
    "currency": "HUF",
    "maturityInDays_val": 35,
    "issueDate": "2023.11.02",
    "longName": "D240131"
}