{
    "askPrice": "98,4434",
    "green": 0,
    "coupon": 0,
    "accruedInterest": 0,
    "settleDate": "2023.11.16",
    "askEhmYield": "7,59",
    "bidYield": "8,88",
    "rawName": "D240131",
    "bidPrice": "98,1598",
    "maturityInDays": "76 nap",
    "securityType": "DKJ",
    "maturityDate": "2024.01.31",
    "name": "D240131",
    "bidEhmYield": "9,00",
    "askYield": "7,49",
    "currency": "HUF",
    "maturityInDays_val": 76,
    "issueDate": "2023.11.02",
    "longName": "D240131"
}