{
    "askPrice": "99,5350",
    "green": 0,
    "coupon": 0,
    "accruedInterest": 0,
    "settleDate": "2024.01.02",
    "askEhmYield": "5,88",
    "bidYield": "7,15",
    "rawName": "D240131",
    "bidPrice": "99,4273",
    "maturityInDays": "29 nap",
    "securityType": "DKJ",
    "maturityDate": "2024.01.31",
    "name": "D240131",
    "bidEhmYield": "7,25",
    "askYield": "5,80",
    "currency": "HUF",
    "maturityInDays_val": 29,
    "issueDate": "2023.11.02",
    "longName": "D240131"
}