{
    "askPrice": "98,6105",
    "green": 0,
    "coupon": 0,
    "accruedInterest": 0,
    "settleDate": "2023.11.24",
    "askEhmYield": "7,56",
    "bidYield": "8,75",
    "rawName": "D240131",
    "bidPrice": "98,3741",
    "maturityInDays": "68 nap",
    "securityType": "DKJ",
    "maturityDate": "2024.01.31",
    "name": "D240131",
    "bidEhmYield": "8,87",
    "askYield": "7,46",
    "currency": "HUF",
    "maturityInDays_val": 68,
    "issueDate": "2023.11.02",
    "longName": "D240131"
}