{
    "askPrice": "99,5162",
    "green": 0,
    "coupon": 0,
    "accruedInterest": 0,
    "settleDate": "2024.01.03",
    "askEhmYield": "6,34",
    "bidYield": "7,55",
    "rawName": "D240131",
    "bidPrice": "99,4162",
    "maturityInDays": "28 nap",
    "securityType": "DKJ",
    "maturityDate": "2024.01.31",
    "name": "D240131",
    "bidEhmYield": "7,65",
    "askYield": "6,25",
    "currency": "HUF",
    "maturityInDays_val": 28,
    "issueDate": "2023.11.02",
    "longName": "D240131"
}