{
    "askPrice": "",
    "green": 0,
    "coupon": "3,50 %",
    "accruedInterest": "1,40",
    "settleDate": "2022.10.24",
    "askEhmYield": "",
    "bidYield": "5,17",
    "rawName": "N2027/22",
    "bidPrice": "99,50",
    "coupon_val": 3.5,
    "maturityInDays": "1679 nap",
    "securityType": "MÁP Plusz",
    "maturityDate": "2027.05.30",
    "name": "N2027/22",
    "bidEhmYield": "",
    "askYield": "",
    "currency": "HUF",
    "maturityInDays_val": 1679,
    "longName": "N270530"
}