{
    "askPrice": "",
    "green": 0,
    "coupon": "3,50 %",
    "accruedInterest": "0,36",
    "settleDate": "2022.07.07",
    "askEhmYield": "",
    "bidYield": "",
    "rawName": "N2027/22",
    "bidPrice": "99,50",
    "coupon_val": 3.5,
    "maturityInDays": "1788 nap",
    "securityType": "MÁP Plusz",
    "maturityDate": "2027.05.30",
    "name": "N2027/22",
    "bidEhmYield": "",
    "askYield": "",
    "currency": "HUF",
    "maturityInDays_val": 1788,
    "longName": "N270530"
}