{
    "askPrice": "",
    "green": 0,
    "coupon": "3,50 %",
    "accruedInterest": "1,61",
    "settleDate": "2022.11.15",
    "askEhmYield": "",
    "bidYield": "5,19",
    "rawName": "N2027/22",
    "bidPrice": "99,50",
    "coupon_val": 3.5,
    "maturityInDays": "1657 nap",
    "securityType": "MÁP Plusz",
    "maturityDate": "2027.05.30",
    "name": "N2027/22",
    "bidEhmYield": "",
    "askYield": "",
    "currency": "HUF",
    "maturityInDays_val": 1657,
    "issueDate": "2022-05-30",
    "longName": "N270530"
}