{
    "askPrice": "",
    "green": 0,
    "coupon": "3,50 %",
    "accruedInterest": "0,1326",
    "settleDate": "2022.12.12",
    "askEhmYield": "",
    "bidYield": "5,21",
    "rawName": "N2027/22",
    "bidPrice": "99,5000",
    "coupon_val": 3.5,
    "maturityInDays": "1630 nap",
    "securityType": "MÁP Plusz",
    "maturityDate": "2027.05.30",
    "name": "N2027/22",
    "bidEhmYield": "",
    "askYield": "",
    "currency": "HUF",
    "maturityInDays_val": 1630,
    "issueDate": "2022.05.30",
    "longName": "N270530"
}