{
    "askPrice": "",
    "green": 0,
    "coupon": "3,50 %",
    "accruedInterest": "2,5943",
    "settleDate": "2023.12.27",
    "askEhmYield": "",
    "bidYield": "5,51",
    "rawName": "N2027/22",
    "bidPrice": "99,5000",
    "coupon_val": 3.5,
    "maturityInDays": "1250 nap",
    "securityType": "MÁP Plusz",
    "maturityDate": "2027.05.30",
    "name": "N2027/22",
    "bidEhmYield": "",
    "askYield": "",
    "currency": "HUF",
    "maturityInDays_val": 1250,
    "issueDate": "2022.05.30",
    "longName": "N270530"
}