{
    "askPrice": "",
    "green": 0,
    "coupon": "3,50 %",
    "accruedInterest": "0,0246",
    "settleDate": "2023.06.01",
    "askEhmYield": "",
    "bidYield": "5,22",
    "rawName": "N2027/22",
    "bidPrice": "100,0000",
    "coupon_val": 3.5,
    "maturityInDays": "1459 nap",
    "securityType": "MÁP Plusz",
    "maturityDate": "2027.05.30",
    "name": "N2027/22",
    "bidEhmYield": "",
    "askYield": "",
    "currency": "HUF",
    "maturityInDays_val": 1459,
    "issueDate": "2022.05.30",
    "longName": "N270530"
}