{
    "askPrice": "",
    "green": 0,
    "coupon": "3,50 %",
    "accruedInterest": "4,1557",
    "settleDate": "2024.05.02",
    "askEhmYield": "",
    "bidYield": "5,63",
    "rawName": "N2027/22",
    "bidPrice": "99,5000",
    "coupon_val": 3.5,
    "maturityInDays": "1123 nap",
    "securityType": "MÁP Plusz",
    "maturityDate": "2027.05.30",
    "name": "N2027/22",
    "bidEhmYield": "",
    "askYield": "",
    "currency": "HUF",
    "maturityInDays_val": 1123,
    "issueDate": "2022.05.30",
    "longName": "N270530"
}