{
    "askPrice": "",
    "green": 0,
    "coupon": "7,00 %",
    "accruedInterest": "0,1151",
    "settleDate": "2022.12.05",
    "askEhmYield": "",
    "bidYield": "7,54",
    "rawName": "K2023/48",
    "bidPrice": "99,5000",
    "coupon_val": 7,
    "maturityInDays": "359 nap",
    "securityType": "1MÁP",
    "maturityDate": "2023.11.29",
    "name": "K2023/48",
    "bidEhmYield": "7,54",
    "askYield": "",
    "currency": "HUF",
    "maturityInDays_val": 359,
    "issueDate": "2022.11.29",
    "longName": "K231129"
}