{
    "askPrice": "",
    "green": 0,
    "coupon": "7,00 %",
    "accruedInterest": "1,0740",
    "settleDate": "2023.01.24",
    "askEhmYield": "",
    "bidYield": "8,23",
    "rawName": "K2023/48",
    "bidPrice": "99,0000",
    "coupon_val": 7,
    "maturityInDays": "309 nap",
    "securityType": "1MÁP",
    "maturityDate": "2023.11.29",
    "name": "K2023/48",
    "bidEhmYield": "8,18",
    "askYield": "",
    "currency": "HUF",
    "maturityInDays_val": 309,
    "issueDate": "2022.11.29",
    "longName": "K231129"
}