{
    "askPrice": "",
    "green": 0,
    "coupon": "7,00 %",
    "accruedInterest": "3,1068",
    "settleDate": "2023.05.10",
    "askEhmYield": "",
    "bidYield": "8,78",
    "rawName": "K2023/48",
    "bidPrice": "99,0000",
    "coupon_val": 7,
    "maturityInDays": "203 nap",
    "securityType": "1MÁP",
    "maturityDate": "2023.11.29",
    "name": "K2023/48",
    "bidEhmYield": "8,62",
    "askYield": "",
    "currency": "HUF",
    "maturityInDays_val": 203,
    "issueDate": "2022.11.29",
    "longName": "K231129"
}