{
    "askPrice": "",
    "green": 0,
    "coupon": "7,00 %",
    "accruedInterest": "3,7397",
    "settleDate": "2023.06.12",
    "askEhmYield": "",
    "bidYield": "9,12",
    "rawName": "K2023/48",
    "bidPrice": "99,0000",
    "coupon_val": 7,
    "maturityInDays": "170 nap",
    "securityType": "1MÁP",
    "maturityDate": "2023.11.29",
    "name": "K2023/48",
    "bidEhmYield": "8,90",
    "askYield": "",
    "currency": "HUF",
    "maturityInDays_val": 170,
    "issueDate": "2022.11.29",
    "longName": "K231129"
}