{
    "askPrice": "",
    "green": 0,
    "coupon": "7,00 %",
    "accruedInterest": "4,0082",
    "settleDate": "2023.06.26",
    "askEhmYield": "",
    "bidYield": "9,30",
    "rawName": "K2023/48",
    "bidPrice": "99,0000",
    "coupon_val": 7,
    "maturityInDays": "156 nap",
    "securityType": "1MÁP",
    "maturityDate": "2023.11.29",
    "name": "K2023/48",
    "bidEhmYield": "9,07",
    "askYield": "",
    "currency": "HUF",
    "maturityInDays_val": 156,
    "issueDate": "2022.11.29",
    "longName": "K231129"
}