{
    "askPrice": "",
    "green": 0,
    "coupon": "7,00 %",
    "accruedInterest": "6,8274",
    "settleDate": "2023.11.20",
    "askEhmYield": "",
    "bidYield": "34,16",
    "rawName": "K2023/48",
    "bidPrice": "99,4000",
    "coupon_val": 7,
    "maturityInDays": "9 nap",
    "securityType": "1MÁP",
    "maturityDate": "2023.11.29",
    "name": "K2023/48",
    "bidEhmYield": "29,50",
    "askYield": "",
    "currency": "HUF",
    "maturityInDays_val": 9,
    "issueDate": "2022.11.29",
    "longName": "K231129"
}