{
    "askPrice": "",
    "green": 0,
    "coupon": "7,00 %",
    "accruedInterest": "5,8877",
    "settleDate": "2023.10.02",
    "askEhmYield": "",
    "bidYield": "13,37",
    "rawName": "K2023/48",
    "bidPrice": "99,0000",
    "coupon_val": 7,
    "maturityInDays": "58 nap",
    "securityType": "1MÁP",
    "maturityDate": "2023.11.29",
    "name": "K2023/48",
    "bidEhmYield": "12,67",
    "askYield": "",
    "currency": "HUF",
    "maturityInDays_val": 58,
    "issueDate": "2022.11.29",
    "longName": "K231129"
}