{
    "askPrice": "",
    "green": 0,
    "coupon": "7,00 %",
    "accruedInterest": "6,5589",
    "settleDate": "2023.11.06",
    "askEhmYield": "",
    "bidYield": "20,34",
    "rawName": "K2023/48",
    "bidPrice": "99,2000",
    "coupon_val": 7,
    "maturityInDays": "23 nap",
    "securityType": "1MÁP",
    "maturityDate": "2023.11.29",
    "name": "K2023/48",
    "bidEhmYield": "18,62",
    "askYield": "",
    "currency": "HUF",
    "maturityInDays_val": 23,
    "issueDate": "2022.11.29",
    "longName": "K231129"
}