{
    "askPrice": "",
    "green": 0,
    "coupon": "7,00 %",
    "accruedInterest": "3,6055",
    "settleDate": "2023.06.05",
    "askEhmYield": "",
    "bidYield": "9,03",
    "rawName": "K2023/48",
    "bidPrice": "99,0000",
    "coupon_val": 7,
    "maturityInDays": "177 nap",
    "securityType": "1MÁP",
    "maturityDate": "2023.11.29",
    "name": "K2023/48",
    "bidEhmYield": "8,83",
    "askYield": "",
    "currency": "HUF",
    "maturityInDays_val": 177,
    "issueDate": "2022.11.29",
    "longName": "K231129"
}