{
    "askPrice": "",
    "green": 0,
    "coupon": "7,00 %",
    "accruedInterest": "6,6932",
    "settleDate": "2023.11.13",
    "askEhmYield": "",
    "bidYield": "24,07",
    "rawName": "K2023/48",
    "bidPrice": "99,3000",
    "coupon_val": 7,
    "maturityInDays": "16 nap",
    "securityType": "1MÁP",
    "maturityDate": "2023.11.29",
    "name": "K2023/48",
    "bidEhmYield": "21,67",
    "askYield": "",
    "currency": "HUF",
    "maturityInDays_val": 16,
    "issueDate": "2022.11.29",
    "longName": "K231129"
}