{
    "askPrice": "",
    "green": 0,
    "coupon": "7,00 %",
    "accruedInterest": "1,2274",
    "settleDate": "2023.02.01",
    "askEhmYield": "",
    "bidYield": "8,25",
    "rawName": "K2023/48",
    "bidPrice": "99,0000",
    "coupon_val": 7,
    "maturityInDays": "301 nap",
    "securityType": "1MÁP",
    "maturityDate": "2023.11.29",
    "name": "K2023/48",
    "bidEhmYield": "8,19",
    "askYield": "",
    "currency": "HUF",
    "maturityInDays_val": 301,
    "issueDate": "2022.11.29",
    "longName": "K231129"
}