{
    "askPrice": "",
    "green": 0,
    "coupon": "3,50 %",
    "accruedInterest": "0,39",
    "settleDate": "2022.11.16",
    "askEhmYield": "",
    "bidYield": "6,03",
    "rawName": "N2024/20",
    "bidPrice": "99,50",
    "coupon_val": 3.5,
    "maturityInDays": "705 nap",
    "securityType": "MÁP Plusz",
    "maturityDate": "2024.10.21",
    "name": "N2024/20",
    "bidEhmYield": "",
    "askYield": "",
    "currency": "HUF",
    "maturityInDays_val": 705,
    "issueDate": "2019-10-21",
    "longName": "N241021"
}