{
    "askPrice": "",
    "green": 0,
    "coupon": "3,50 %",
    "accruedInterest": "3,89",
    "settleDate": "2022.08.01",
    "askEhmYield": "",
    "bidYield": "",
    "rawName": "N2024/20",
    "bidPrice": "99,50",
    "coupon_val": 3.5,
    "maturityInDays": "812 nap",
    "securityType": "MÁP Plusz",
    "maturityDate": "2024.10.21",
    "name": "N2024/20",
    "bidEhmYield": "",
    "askYield": "",
    "currency": "HUF",
    "maturityInDays_val": 812,
    "longName": "N241021"
}