{
    "askPrice": "",
    "green": 0,
    "coupon": "3,50 %",
    "accruedInterest": "0,0984",
    "settleDate": "2023.10.27",
    "askEhmYield": "",
    "bidYield": "6,00",
    "rawName": "N2024/20",
    "bidPrice": "100,0000",
    "coupon_val": 3.5,
    "maturityInDays": "360 nap",
    "securityType": "MÁP Plusz",
    "maturityDate": "2024.10.21",
    "name": "N2024/20",
    "bidEhmYield": "",
    "askYield": "",
    "currency": "HUF",
    "maturityInDays_val": 360,
    "issueDate": "2019.10.21",
    "longName": "N241021"
}