{
    "askPrice": "",
    "green": 0,
    "coupon": "3,50 %",
    "accruedInterest": "2,5918",
    "settleDate": "2023.04.11",
    "askEhmYield": "",
    "bidYield": "6,15",
    "rawName": "N2024/20",
    "bidPrice": "99,5000",
    "coupon_val": 3.5,
    "maturityInDays": "559 nap",
    "securityType": "MÁP Plusz",
    "maturityDate": "2024.10.21",
    "name": "N2024/20",
    "bidEhmYield": "",
    "askYield": "",
    "currency": "HUF",
    "maturityInDays_val": 559,
    "issueDate": "2019.10.21",
    "longName": "N241021"
}