{
    "askPrice": "",
    "green": 0,
    "coupon": "3,50 %",
    "accruedInterest": "1,7541",
    "settleDate": "2024.02.05",
    "askEhmYield": "",
    "bidYield": "6,69",
    "rawName": "N2024/20",
    "bidPrice": "99,5000",
    "coupon_val": 3.5,
    "maturityInDays": "259 nap",
    "securityType": "MÁP Plusz",
    "maturityDate": "2024.10.21",
    "name": "N2024/20",
    "bidEhmYield": "",
    "askYield": "",
    "currency": "HUF",
    "maturityInDays_val": 259,
    "issueDate": "2019.10.21",
    "longName": "N241021"
}