{
    "askPrice": "93,8720",
    "green": 0,
    "coupon": "6,00 %",
    "accruedInterest": "0,5425",
    "settleDate": "2022.12.27",
    "askEhmYield": "13,57",
    "bidYield": "14,35",
    "rawName": "2023/A",
    "bidPrice": "93,2861",
    "coupon_val": 6,
    "maturityInDays": "332 nap",
    "securityType": "KTV",
    "maturityDate": "2023.11.24",
    "name": "2023/A",
    "bidEhmYield": "14,35",
    "askYield": "13,57",
    "currency": "HUF",
    "maturityInDays_val": 332,
    "issueDate": "2007.01.10",
    "longName": "A231124A07"
}