{
    "askPrice": "93,9352",
    "green": 0,
    "coupon": "6,00 %",
    "accruedInterest": "0,2466",
    "settleDate": "2022.12.09",
    "askEhmYield": "13,12",
    "bidYield": "13,92",
    "rawName": "2023/A",
    "bidPrice": "93,3009",
    "coupon_val": 6,
    "maturityInDays": "350 nap",
    "securityType": "KTV",
    "maturityDate": "2023.11.24",
    "name": "2023/A",
    "bidEhmYield": "13,92",
    "askYield": "13,12",
    "currency": "HUF",
    "maturityInDays_val": 350,
    "issueDate": "2007.01.10",
    "longName": "A231124A07"
}