{
    "askPrice": "93,06",
    "green": 0,
    "coupon": "6,00 %",
    "accruedInterest": "5,56",
    "settleDate": "2022.10.28",
    "askEhmYield": "13,33",
    "bidYield": "14,05",
    "rawName": "2023/A",
    "bidPrice": "92,43",
    "coupon_val": 6,
    "maturityInDays": "392 nap",
    "securityType": "KTV",
    "maturityDate": "2023.11.24",
    "name": "2023/A",
    "bidEhmYield": "14,05",
    "askYield": "13,33",
    "currency": "HUF",
    "maturityInDays_val": 392,
    "longName": "A231124A07"
}