{
    "askPrice": "93,02",
    "green": 0,
    "coupon": "6,00 %",
    "accruedInterest": "5,08",
    "settleDate": "2022.09.29",
    "askEhmYield": "12,84",
    "bidYield": "13,61",
    "rawName": "2023/A",
    "bidPrice": "92,30",
    "coupon_val": 6,
    "maturityInDays": "421 nap",
    "securityType": "KTV",
    "maturityDate": "2023.11.24",
    "name": "2023/A",
    "bidEhmYield": "13,61",
    "askYield": "12,84",
    "currency": "HUF",
    "maturityInDays_val": 421,
    "longName": "A231124A07"
}