{
    "askPrice": "95,14",
    "green": 0,
    "coupon": "6,00 %",
    "accruedInterest": "4,16",
    "settleDate": "2022.08.04",
    "askEhmYield": "10,10",
    "bidYield": "10,77",
    "rawName": "2023/A",
    "bidPrice": "94,39",
    "coupon_val": 6,
    "maturityInDays": "477 nap",
    "securityType": "KTV",
    "maturityDate": "2023.11.24",
    "name": "2023/A",
    "bidEhmYield": "10,77",
    "askYield": "10,10",
    "currency": "HUF",
    "maturityInDays_val": 477,
    "longName": "A231124A07"
}