{
    "askPrice": "91,24",
    "green": 0,
    "coupon": "6,00 %",
    "accruedInterest": "5,38",
    "settleDate": "2022.10.17",
    "askEhmYield": "15,16",
    "bidYield": "16,64",
    "rawName": "2023/A",
    "bidPrice": "89,96",
    "coupon_val": 6,
    "maturityInDays": "403 nap",
    "securityType": "KTV",
    "maturityDate": "2023.11.24",
    "name": "2023/A",
    "bidEhmYield": "16,64",
    "askYield": "15,16",
    "currency": "HUF",
    "maturityInDays_val": 403,
    "longName": "A231124A07"
}