{
    "askPrice": "94,0739",
    "green": 0,
    "coupon": "6,00 %",
    "accruedInterest": "0,4274",
    "settleDate": "2022.12.20",
    "askEhmYield": "13,16",
    "bidYield": "13,90",
    "rawName": "2023/A",
    "bidPrice": "93,5035",
    "coupon_val": 6,
    "maturityInDays": "339 nap",
    "securityType": "KTV",
    "maturityDate": "2023.11.24",
    "name": "2023/A",
    "bidEhmYield": "13,90",
    "askYield": "13,16",
    "currency": "HUF",
    "maturityInDays_val": 339,
    "issueDate": "2007.01.10",
    "longName": "A231124A07"
}