{
    "askPrice": "94,8501",
    "green": 0,
    "coupon": "6,00 %",
    "accruedInterest": "0,1151",
    "settleDate": "2022.12.01",
    "askEhmYield": "11,86",
    "bidYield": "12,69",
    "rawName": "2023/A",
    "bidPrice": "94,1641",
    "coupon_val": 6,
    "maturityInDays": "358 nap",
    "securityType": "KTV",
    "maturityDate": "2023.11.24",
    "name": "2023/A",
    "bidEhmYield": "12,69",
    "askYield": "11,86",
    "currency": "HUF",
    "maturityInDays_val": 358,
    "issueDate": "2007.01.10",
    "longName": "A231124A07"
}