{
    "askPrice": "91,35",
    "green": 0,
    "coupon": "6,00 %",
    "accruedInterest": "5,44",
    "settleDate": "2022.10.21",
    "askEhmYield": "15,13",
    "bidYield": "15,85",
    "rawName": "2023/A",
    "bidPrice": "90,73",
    "coupon_val": 6,
    "maturityInDays": "399 nap",
    "securityType": "KTV",
    "maturityDate": "2023.11.24",
    "name": "2023/A",
    "bidEhmYield": "15,85",
    "askYield": "15,13",
    "currency": "HUF",
    "maturityInDays_val": 399,
    "longName": "A231124A07"
}