{
    "askPrice": "94,2506",
    "green": 0,
    "coupon": "6,00 %",
    "accruedInterest": "5,9507",
    "settleDate": "2022.11.21",
    "askEhmYield": "12,41",
    "bidYield": "13,13",
    "rawName": "2023/A",
    "bidPrice": "93,6458",
    "coupon_val": 6,
    "maturityInDays": "368 nap",
    "securityType": "KTV",
    "maturityDate": "2023.11.24",
    "name": "2023/A",
    "bidEhmYield": "13,13",
    "askYield": "12,41",
    "currency": "HUF",
    "maturityInDays_val": 368,
    "issueDate": "2007.01.10",
    "longName": "A231124A07"
}