{
    "askPrice": "95,87",
    "green": 0,
    "coupon": "6,00 %",
    "accruedInterest": "3,81",
    "settleDate": "2022.07.14",
    "askEhmYield": "9,31",
    "bidYield": "9,97",
    "rawName": "2023/A",
    "bidPrice": "95,09",
    "coupon_val": 6,
    "maturityInDays": "498 nap",
    "securityType": "KTV",
    "maturityDate": "2023.11.24",
    "name": "2023/A",
    "bidEhmYield": "9,97",
    "askYield": "9,31",
    "currency": "HUF",
    "maturityInDays_val": 498,
    "longName": "A231124A07"
}