{
    "askPrice": "95,21",
    "green": 0,
    "coupon": "6,00 %",
    "accruedInterest": "4,22",
    "settleDate": "2022.08.08",
    "askEhmYield": "10,07",
    "bidYield": "10,74",
    "rawName": "2023/A",
    "bidPrice": "94,47",
    "coupon_val": 6,
    "maturityInDays": "473 nap",
    "securityType": "KTV",
    "maturityDate": "2023.11.24",
    "name": "2023/A",
    "bidEhmYield": "10,74",
    "askYield": "10,07",
    "currency": "HUF",
    "maturityInDays_val": 473,
    "longName": "A231124A07"
}