{
    "askPrice": "91,20",
    "green": 0,
    "coupon": "6,00 %",
    "accruedInterest": "5,34",
    "settleDate": "2022.10.15",
    "askEhmYield": "15,16",
    "bidYield": "16,64",
    "rawName": "2023/A",
    "bidPrice": "89,92",
    "coupon_val": 6,
    "maturityInDays": "405 nap",
    "securityType": "KTV",
    "maturityDate": "2023.11.24",
    "name": "2023/A",
    "bidEhmYield": "16,64",
    "askYield": "15,16",
    "currency": "HUF",
    "maturityInDays_val": 405,
    "longName": "A231124A07"
}