{
    "askPrice": "95,27",
    "green": 0,
    "coupon": "6,00 %",
    "accruedInterest": "3,95",
    "settleDate": "2022.07.22",
    "askEhmYield": "9,88",
    "bidYield": "10,55",
    "rawName": "2023/A",
    "bidPrice": "94,50",
    "coupon_val": 6,
    "maturityInDays": "490 nap",
    "securityType": "KTV",
    "maturityDate": "2023.11.24",
    "name": "2023/A",
    "bidEhmYield": "10,55",
    "askYield": "9,88",
    "currency": "HUF",
    "maturityInDays_val": 490,
    "longName": "A231124A07"
}