{
    "askPrice": "95,0622",
    "green": 0,
    "coupon": "6,00 %",
    "accruedInterest": "0,0164",
    "settleDate": "2022.11.25",
    "askEhmYield": "11,52",
    "bidYield": "12,30",
    "rawName": "2023/A",
    "bidPrice": "94,4036",
    "coupon_val": 6,
    "maturityInDays": "364 nap",
    "securityType": "KTV",
    "maturityDate": "2023.11.24",
    "name": "2023/A",
    "bidEhmYield": "12,30",
    "askYield": "11,52",
    "currency": "HUF",
    "maturityInDays_val": 364,
    "issueDate": "2007.01.10",
    "longName": "A231124A07"
}