{
    "askPrice": "93,08",
    "green": 0,
    "coupon": "6,00 %",
    "accruedInterest": "4,92",
    "settleDate": "2022.09.19",
    "askEhmYield": "12,62",
    "bidYield": "13,38",
    "rawName": "2023/A",
    "bidPrice": "92,34",
    "coupon_val": 6,
    "maturityInDays": "431 nap",
    "securityType": "KTV",
    "maturityDate": "2023.11.24",
    "name": "2023/A",
    "bidEhmYield": "13,38",
    "askYield": "12,62",
    "currency": "HUF",
    "maturityInDays_val": 431,
    "longName": "A231124A07"
}