{
    "askPrice": "98,07",
    "green": 0,
    "coupon": "6,00 %",
    "accruedInterest": "3,65",
    "settleDate": "2022.07.04",
    "askEhmYield": "7,47",
    "bidYield": "8,13",
    "rawName": "2023/A",
    "bidPrice": "97,24",
    "coupon_val": 6,
    "maturityInDays": "508 nap",
    "securityType": "KTV",
    "maturityDate": "2023.11.24",
    "name": "2023/A",
    "bidEhmYield": "8,13",
    "askYield": "7,47",
    "currency": "HUF",
    "maturityInDays_val": 508,
    "longName": "A231124A07"
}