{
    "askPrice": "91,58",
    "green": 0,
    "coupon": "6,00 %",
    "accruedInterest": "5,39",
    "settleDate": "2022.10.18",
    "askEhmYield": "14,80",
    "bidYield": "16,02",
    "rawName": "2023/A",
    "bidPrice": "90,52",
    "coupon_val": 6,
    "maturityInDays": "402 nap",
    "securityType": "KTV",
    "maturityDate": "2023.11.24",
    "name": "2023/A",
    "bidEhmYield": "16,02",
    "askYield": "14,80",
    "currency": "HUF",
    "maturityInDays_val": 402,
    "longName": "A231124A07"
}