{
    "askPrice": "96,08",
    "green": 0,
    "coupon": "6,00 %",
    "accruedInterest": "3,72",
    "settleDate": "2022.07.08",
    "askEhmYield": "9,10",
    "bidYield": "9,76",
    "rawName": "2023/A",
    "bidPrice": "95,28",
    "coupon_val": 6,
    "maturityInDays": "504 nap",
    "securityType": "KTV",
    "maturityDate": "2023.11.24",
    "name": "2023/A",
    "bidEhmYield": "9,76",
    "askYield": "9,10",
    "currency": "HUF",
    "maturityInDays_val": 504,
    "longName": "A231124A07"
}