{
    "askPrice": "94,87",
    "green": 0,
    "coupon": "6,00 %",
    "accruedInterest": "3,90",
    "settleDate": "2022.07.19",
    "askEhmYield": "10,20",
    "bidYield": "10,86",
    "rawName": "2023/A",
    "bidPrice": "94,11",
    "coupon_val": 6,
    "maturityInDays": "493 nap",
    "securityType": "KTV",
    "maturityDate": "2023.11.24",
    "name": "2023/A",
    "bidEhmYield": "10,86",
    "askYield": "10,20",
    "currency": "HUF",
    "maturityInDays_val": 493,
    "longName": "A231124A07"
}