{
    "askPrice": "92,24",
    "green": 0,
    "coupon": "6,00 %",
    "accruedInterest": "5,31",
    "settleDate": "2022.10.13",
    "askEhmYield": "13,95",
    "bidYield": "14,73",
    "rawName": "2023/A",
    "bidPrice": "91,54",
    "coupon_val": 6,
    "maturityInDays": "407 nap",
    "securityType": "KTV",
    "maturityDate": "2023.11.24",
    "name": "2023/A",
    "bidEhmYield": "14,73",
    "askYield": "13,95",
    "currency": "HUF",
    "maturityInDays_val": 407,
    "longName": "A231124A07"
}