{
    "askPrice": "98,17",
    "green": 0,
    "coupon": "6,00 %",
    "accruedInterest": "3,68",
    "settleDate": "2022.07.06",
    "askEhmYield": "7,40",
    "bidYield": "8,06",
    "rawName": "2023/A",
    "bidPrice": "97,34",
    "coupon_val": 6,
    "maturityInDays": "506 nap",
    "securityType": "KTV",
    "maturityDate": "2023.11.24",
    "name": "2023/A",
    "bidEhmYield": "8,06",
    "askYield": "7,40",
    "currency": "HUF",
    "maturityInDays_val": 506,
    "longName": "A231124A07"
}