{
    "askPrice": "",
    "green": 0,
    "coupon": "6,00 %",
    "accruedInterest": "5,3918",
    "settleDate": "2023.10.18",
    "askEhmYield": "",
    "bidYield": "7,77",
    "rawName": "2023/A",
    "bidPrice": "99,8072",
    "coupon_val": 6,
    "maturityInDays": "37 nap",
    "securityType": "KTV",
    "maturityDate": "2023.11.24",
    "name": "2023/A",
    "bidEhmYield": "7,77",
    "askYield": "",
    "currency": "HUF",
    "maturityInDays_val": 37,
    "issueDate": "2007.01.10",
    "longName": "A231124A07"
}