{
    "askPrice": "95,4309",
    "green": 0,
    "coupon": "6,00 %",
    "accruedInterest": "2,2685",
    "settleDate": "2023.04.11",
    "askEhmYield": "14,01",
    "bidYield": "14,84",
    "rawName": "2023/A",
    "bidPrice": "94,9912",
    "coupon_val": 6,
    "maturityInDays": "227 nap",
    "securityType": "KTV",
    "maturityDate": "2023.11.24",
    "name": "2023/A",
    "bidEhmYield": "14,84",
    "askYield": "14,01",
    "currency": "HUF",
    "maturityInDays_val": 227,
    "issueDate": "2007.01.10",
    "longName": "A231124A07"
}