{
    "askPrice": "94,4287",
    "green": 0,
    "coupon": "6,00 %",
    "accruedInterest": "1,2658",
    "settleDate": "2023.02.09",
    "askEhmYield": "13,84",
    "bidYield": "14,65",
    "rawName": "2023/A",
    "bidPrice": "93,8949",
    "coupon_val": 6,
    "maturityInDays": "288 nap",
    "securityType": "KTV",
    "maturityDate": "2023.11.24",
    "name": "2023/A",
    "bidEhmYield": "14,65",
    "askYield": "13,84",
    "currency": "HUF",
    "maturityInDays_val": 288,
    "issueDate": "2007.01.10",
    "longName": "A231124A07"
}