{
    "askPrice": "",
    "green": 0,
    "coupon": "6,00 %",
    "accruedInterest": "3,9288",
    "settleDate": "2023.07.21",
    "askEhmYield": "",
    "bidYield": "11,53",
    "rawName": "2023/A",
    "bidPrice": "98,1525",
    "coupon_val": 6,
    "maturityInDays": "126 nap",
    "securityType": "KTV",
    "maturityDate": "2023.11.24",
    "name": "2023/A",
    "bidEhmYield": "11,53",
    "askYield": "",
    "currency": "HUF",
    "maturityInDays_val": 126,
    "issueDate": "2007.01.10",
    "longName": "A231124A07"
}