{
    "askPrice": "96,3543",
    "green": 0,
    "coupon": "6,00 %",
    "accruedInterest": "3,0904",
    "settleDate": "2023.05.31",
    "askEhmYield": "14,07",
    "bidYield": "14,79",
    "rawName": "2023/A",
    "bidPrice": "96,0513",
    "coupon_val": 6,
    "maturityInDays": "177 nap",
    "securityType": "KTV",
    "maturityDate": "2023.11.24",
    "name": "2023/A",
    "bidEhmYield": "14,79",
    "askYield": "14,07",
    "currency": "HUF",
    "maturityInDays_val": 177,
    "issueDate": "2007.01.10",
    "longName": "A231124A07"
}