{
    "askPrice": "",
    "green": 0,
    "coupon": "6,00 %",
    "accruedInterest": "4,2082",
    "settleDate": "2023.08.07",
    "askEhmYield": "",
    "bidYield": "11,49",
    "rawName": "2023/A",
    "bidPrice": "98,4042",
    "coupon_val": 6,
    "maturityInDays": "109 nap",
    "securityType": "KTV",
    "maturityDate": "2023.11.24",
    "name": "2023/A",
    "bidEhmYield": "11,49",
    "askYield": "",
    "currency": "HUF",
    "maturityInDays_val": 109,
    "issueDate": "2007.01.10",
    "longName": "A231124A07"
}