{
    "askPrice": "94,5438",
    "green": 0,
    "coupon": "6,00 %",
    "accruedInterest": "1,2164",
    "settleDate": "2023.02.06",
    "askEhmYield": "13,59",
    "bidYield": "14,35",
    "rawName": "2023/A",
    "bidPrice": "94,0361",
    "coupon_val": 6,
    "maturityInDays": "291 nap",
    "securityType": "KTV",
    "maturityDate": "2023.11.24",
    "name": "2023/A",
    "bidEhmYield": "14,35",
    "askYield": "13,59",
    "currency": "HUF",
    "maturityInDays_val": 291,
    "issueDate": "2007.01.10",
    "longName": "A231124A07"
}