{
    "askPrice": "97,6209",
    "green": 0,
    "coupon": "6,00 %",
    "accruedInterest": "3,5671",
    "settleDate": "2023.06.29",
    "askEhmYield": "12,14",
    "bidYield": "12,90",
    "rawName": "2023/A",
    "bidPrice": "97,3441",
    "coupon_val": 6,
    "maturityInDays": "148 nap",
    "securityType": "KTV",
    "maturityDate": "2023.11.24",
    "name": "2023/A",
    "bidEhmYield": "12,90",
    "askYield": "12,14",
    "currency": "HUF",
    "maturityInDays_val": 148,
    "issueDate": "2007.01.10",
    "longName": "A231124A07"
}