{
    "askPrice": "",
    "green": 0,
    "coupon": "6,00 %",
    "accruedInterest": "5,7370",
    "settleDate": "2023.11.08",
    "askEhmYield": "",
    "bidYield": "9,00",
    "rawName": "2023/A",
    "bidPrice": "99,8633",
    "coupon_val": 6,
    "maturityInDays": "16 nap",
    "securityType": "KTV",
    "maturityDate": "2023.11.24",
    "name": "2023/A",
    "bidEhmYield": "9,00",
    "askYield": "",
    "currency": "HUF",
    "maturityInDays_val": 16,
    "issueDate": "2007.01.10",
    "longName": "A231124A07"
}