{
    "askPrice": "97,0541",
    "green": 0,
    "coupon": "6,00 %",
    "accruedInterest": "3,4685",
    "settleDate": "2023.06.23",
    "askEhmYield": "13,40",
    "bidYield": "14,20",
    "rawName": "2023/A",
    "bidPrice": "96,7564",
    "coupon_val": 6,
    "maturityInDays": "154 nap",
    "securityType": "KTV",
    "maturityDate": "2023.11.24",
    "name": "2023/A",
    "bidEhmYield": "14,20",
    "askYield": "13,40",
    "currency": "HUF",
    "maturityInDays_val": 154,
    "issueDate": "2007.01.10",
    "longName": "A231124A07"
}