{
    "askPrice": "94,7346",
    "green": 0,
    "coupon": "6,00 %",
    "accruedInterest": "0,8055",
    "settleDate": "2023.01.12",
    "askEhmYield": "12,75",
    "bidYield": "13,55",
    "rawName": "2023/A",
    "bidPrice": "94,1516",
    "coupon_val": 6,
    "maturityInDays": "316 nap",
    "securityType": "KTV",
    "maturityDate": "2023.11.24",
    "name": "2023/A",
    "bidEhmYield": "13,55",
    "askYield": "12,75",
    "currency": "HUF",
    "maturityInDays_val": 316,
    "issueDate": "2007.01.10",
    "longName": "A231124A07"
}