{
    "askPrice": "",
    "green": 0,
    "coupon": "6,00 %",
    "accruedInterest": "5,6384",
    "settleDate": "2023.11.02",
    "askEhmYield": "",
    "bidYield": "8,91",
    "rawName": "2023/A",
    "bidPrice": "99,8177",
    "coupon_val": 6,
    "maturityInDays": "22 nap",
    "securityType": "KTV",
    "maturityDate": "2023.11.24",
    "name": "2023/A",
    "bidEhmYield": "8,91",
    "askYield": "",
    "currency": "HUF",
    "maturityInDays_val": 22,
    "issueDate": "2007.01.10",
    "longName": "A231124A07"
}