{
    "askPrice": "",
    "green": 0,
    "coupon": "6,00 %",
    "accruedInterest": "4,3726",
    "settleDate": "2023.08.17",
    "askEhmYield": "",
    "bidYield": "10,97",
    "rawName": "2023/A",
    "bidPrice": "98,6766",
    "coupon_val": 6,
    "maturityInDays": "99 nap",
    "securityType": "KTV",
    "maturityDate": "2023.11.24",
    "name": "2023/A",
    "bidEhmYield": "10,97",
    "askYield": "",
    "currency": "HUF",
    "maturityInDays_val": 99,
    "issueDate": "2007.01.10",
    "longName": "A231124A07"
}