{
    "askPrice": "94,3431",
    "green": 0,
    "coupon": "6,00 %",
    "accruedInterest": "1,5945",
    "settleDate": "2023.03.01",
    "askEhmYield": "14,55",
    "bidYield": "15,35",
    "rawName": "2023/A",
    "bidPrice": "93,8541",
    "coupon_val": 6,
    "maturityInDays": "268 nap",
    "securityType": "KTV",
    "maturityDate": "2023.11.24",
    "name": "2023/A",
    "bidEhmYield": "15,35",
    "askYield": "14,55",
    "currency": "HUF",
    "maturityInDays_val": 268,
    "issueDate": "2007.01.10",
    "longName": "A231124A07"
}