{
    "askPrice": "95,7041",
    "green": 0,
    "coupon": "6,00 %",
    "accruedInterest": "2,6301",
    "settleDate": "2023.05.03",
    "askEhmYield": "14,30",
    "bidYield": "15,05",
    "rawName": "2023/A",
    "bidPrice": "95,3435",
    "coupon_val": 6,
    "maturityInDays": "205 nap",
    "securityType": "KTV",
    "maturityDate": "2023.11.24",
    "name": "2023/A",
    "bidEhmYield": "15,05",
    "askYield": "14,30",
    "currency": "HUF",
    "maturityInDays_val": 205,
    "issueDate": "2007.01.10",
    "longName": "A231124A07"
}