{
    "askPrice": "94,1673",
    "green": 0,
    "coupon": "6,00 %",
    "accruedInterest": "0,6740",
    "settleDate": "2023.01.04",
    "askEhmYield": "13,35",
    "bidYield": "14,05",
    "rawName": "2023/A",
    "bidPrice": "93,6504",
    "coupon_val": 6,
    "maturityInDays": "324 nap",
    "securityType": "KTV",
    "maturityDate": "2023.11.24",
    "name": "2023/A",
    "bidEhmYield": "14,05",
    "askYield": "13,35",
    "currency": "HUF",
    "maturityInDays_val": 324,
    "issueDate": "2007.01.10",
    "longName": "A231124A07"
}