{
    "askPrice": "",
    "green": 0,
    "coupon": "6,00 %",
    "accruedInterest": "3,6493",
    "settleDate": "2023.07.04",
    "askEhmYield": "",
    "bidYield": "11,49",
    "rawName": "2023/A",
    "bidPrice": "97,9287",
    "coupon_val": 6,
    "maturityInDays": "143 nap",
    "securityType": "KTV",
    "maturityDate": "2023.11.24",
    "name": "2023/A",
    "bidEhmYield": "11,49",
    "askYield": "",
    "currency": "HUF",
    "maturityInDays_val": 143,
    "issueDate": "2007.01.10",
    "longName": "A231124A07"
}