{
    "askPrice": "94,3670",
    "green": 0,
    "coupon": "6,00 %",
    "accruedInterest": "1,5781",
    "settleDate": "2023.02.28",
    "askEhmYield": "14,48",
    "bidYield": "15,30",
    "rawName": "2023/A",
    "bidPrice": "93,8637",
    "coupon_val": 6,
    "maturityInDays": "269 nap",
    "securityType": "KTV",
    "maturityDate": "2023.11.24",
    "name": "2023/A",
    "bidEhmYield": "15,30",
    "askYield": "14,48",
    "currency": "HUF",
    "maturityInDays_val": 269,
    "issueDate": "2007.01.10",
    "longName": "A231124A07"
}