{
    "askPrice": "",
    "green": 0,
    "coupon": "6,00 %",
    "accruedInterest": "3,7479",
    "settleDate": "2023.07.10",
    "askEhmYield": "",
    "bidYield": "11,68",
    "rawName": "2023/A",
    "bidPrice": "97,9468",
    "coupon_val": 6,
    "maturityInDays": "137 nap",
    "securityType": "KTV",
    "maturityDate": "2023.11.24",
    "name": "2023/A",
    "bidEhmYield": "11,68",
    "askYield": "",
    "currency": "HUF",
    "maturityInDays_val": 137,
    "issueDate": "2007.01.10",
    "longName": "A231124A07"
}