{
    "askPrice": "",
    "green": 0,
    "coupon": "6,00 %",
    "accruedInterest": "5,0137",
    "settleDate": "2023.09.25",
    "askEhmYield": "",
    "bidYield": "8,25",
    "rawName": "2023/A",
    "bidPrice": "99,6140",
    "coupon_val": 6,
    "maturityInDays": "60 nap",
    "securityType": "KTV",
    "maturityDate": "2023.11.24",
    "name": "2023/A",
    "bidEhmYield": "8,25",
    "askYield": "",
    "currency": "HUF",
    "maturityInDays_val": 60,
    "issueDate": "2007.01.10",
    "longName": "A231124A07"
}