{
    "askPrice": "",
    "green": 0,
    "coupon": "6,00 %",
    "accruedInterest": "5,8192",
    "settleDate": "2023.11.13",
    "askEhmYield": "",
    "bidYield": "8,83",
    "rawName": "2023/A",
    "bidPrice": "99,9109",
    "coupon_val": 6,
    "maturityInDays": "11 nap",
    "securityType": "KTV",
    "maturityDate": "2023.11.24",
    "name": "2023/A",
    "bidEhmYield": "8,83",
    "askYield": "",
    "currency": "HUF",
    "maturityInDays_val": 11,
    "issueDate": "2007.01.10",
    "longName": "A231124A07"
}