{
    "askPrice": "94,9110",
    "green": 0,
    "coupon": "6,00 %",
    "accruedInterest": "0,8877",
    "settleDate": "2023.01.17",
    "askEhmYield": "12,61",
    "bidYield": "13,40",
    "rawName": "2023/A",
    "bidPrice": "94,3421",
    "coupon_val": 6,
    "maturityInDays": "311 nap",
    "securityType": "KTV",
    "maturityDate": "2023.11.24",
    "name": "2023/A",
    "bidEhmYield": "13,40",
    "askYield": "12,61",
    "currency": "HUF",
    "maturityInDays_val": 311,
    "issueDate": "2007.01.10",
    "longName": "A231124A07"
}