{
    "askPrice": "95,6796",
    "green": 0,
    "coupon": "6,00 %",
    "accruedInterest": "2,4822",
    "settleDate": "2023.04.24",
    "askEhmYield": "14,00",
    "bidYield": "14,80",
    "rawName": "2023/A",
    "bidPrice": "95,2780",
    "coupon_val": 6,
    "maturityInDays": "214 nap",
    "securityType": "KTV",
    "maturityDate": "2023.11.24",
    "name": "2023/A",
    "bidEhmYield": "14,80",
    "askYield": "14,00",
    "currency": "HUF",
    "maturityInDays_val": 214,
    "issueDate": "2007.01.10",
    "longName": "A231124A07"
}