{
    "askPrice": "",
    "green": 0,
    "coupon": "6,00 %",
    "accruedInterest": "4,5041",
    "settleDate": "2023.08.25",
    "askEhmYield": "",
    "bidYield": "10,27",
    "rawName": "2023/A",
    "bidPrice": "98,9435",
    "coupon_val": 6,
    "maturityInDays": "91 nap",
    "securityType": "KTV",
    "maturityDate": "2023.11.24",
    "name": "2023/A",
    "bidEhmYield": "10,27",
    "askYield": "",
    "currency": "HUF",
    "maturityInDays_val": 91,
    "issueDate": "2007.01.10",
    "longName": "A231124A07"
}