{
    "askPrice": "95,9398",
    "green": 0,
    "coupon": "6,00 %",
    "accruedInterest": "2,8274",
    "settleDate": "2023.05.15",
    "askEhmYield": "14,30",
    "bidYield": "15,08",
    "rawName": "2023/A",
    "bidPrice": "95,5853",
    "coupon_val": 6,
    "maturityInDays": "193 nap",
    "securityType": "KTV",
    "maturityDate": "2023.11.24",
    "name": "2023/A",
    "bidEhmYield": "15,08",
    "askYield": "14,30",
    "currency": "HUF",
    "maturityInDays_val": 193,
    "issueDate": "2007.01.10",
    "longName": "A231124A07"
}