{
    "askPrice": "95,5942",
    "green": 0,
    "coupon": "6,00 %",
    "accruedInterest": "2,4164",
    "settleDate": "2023.04.20",
    "askEhmYield": "14,02",
    "bidYield": "14,87",
    "rawName": "2023/A",
    "bidPrice": "95,1604",
    "coupon_val": 6,
    "maturityInDays": "218 nap",
    "securityType": "KTV",
    "maturityDate": "2023.11.24",
    "name": "2023/A",
    "bidEhmYield": "14,87",
    "askYield": "14,02",
    "currency": "HUF",
    "maturityInDays_val": 218,
    "issueDate": "2007.01.10",
    "longName": "A231124A07"
}