{
    "askPrice": "95,4443",
    "green": 0,
    "coupon": "6,00 %",
    "accruedInterest": "2,2849",
    "settleDate": "2023.04.12",
    "askEhmYield": "14,02",
    "bidYield": "14,85",
    "rawName": "2023/A",
    "bidPrice": "95,0064",
    "coupon_val": 6,
    "maturityInDays": "226 nap",
    "securityType": "KTV",
    "maturityDate": "2023.11.24",
    "name": "2023/A",
    "bidEhmYield": "14,85",
    "askYield": "14,02",
    "currency": "HUF",
    "maturityInDays_val": 226,
    "issueDate": "2007.01.10",
    "longName": "A231124A07"
}