{
    "askPrice": "",
    "green": 0,
    "coupon": "9,00 %",
    "accruedInterest": "0,0740",
    "settleDate": "2022.12.23",
    "askEhmYield": "",
    "bidYield": "10,11",
    "rawName": "K2023/51",
    "bidPrice": "99,0000",
    "coupon_val": 9,
    "maturityInDays": "362 nap",
    "securityType": "1MÁP",
    "maturityDate": "2023.12.20",
    "name": "K2023/51",
    "bidEhmYield": "10,10",
    "askYield": "",
    "currency": "HUF",
    "maturityInDays_val": 362,
    "issueDate": "2022.12.20",
    "longName": "K231220"
}