{
    "askPrice": "",
    "green": 0,
    "coupon": "9,00 %",
    "accruedInterest": "0,7397",
    "settleDate": "2023.01.19",
    "askEhmYield": "",
    "bidYield": "10,16",
    "rawName": "K2023/51",
    "bidPrice": "99,0000",
    "coupon_val": 9,
    "maturityInDays": "335 nap",
    "securityType": "1MÁP",
    "maturityDate": "2023.12.20",
    "name": "K2023/51",
    "bidEhmYield": "10,12",
    "askYield": "",
    "currency": "HUF",
    "maturityInDays_val": 335,
    "issueDate": "2022.12.20",
    "longName": "K231220"
}