{
    "askPrice": "",
    "green": 0,
    "coupon": "9,00 %",
    "accruedInterest": "2,7863",
    "settleDate": "2023.04.12",
    "askEhmYield": "",
    "bidYield": "10,43",
    "rawName": "K2023/51",
    "bidPrice": "99,0000",
    "coupon_val": 9,
    "maturityInDays": "252 nap",
    "securityType": "1MÁP",
    "maturityDate": "2023.12.20",
    "name": "K2023/51",
    "bidEhmYield": "10,27",
    "askYield": "",
    "currency": "HUF",
    "maturityInDays_val": 252,
    "issueDate": "2022.12.20",
    "longName": "K231220"
}