{
    "askPrice": "",
    "green": 0,
    "coupon": "9,00 %",
    "accruedInterest": "2,3178",
    "settleDate": "2023.03.24",
    "askEhmYield": "",
    "bidYield": "10,34",
    "rawName": "K2023/51",
    "bidPrice": "99,0000",
    "coupon_val": 9,
    "maturityInDays": "271 nap",
    "securityType": "1MÁP",
    "maturityDate": "2023.12.20",
    "name": "K2023/51",
    "bidEhmYield": "10,21",
    "askYield": "",
    "currency": "HUF",
    "maturityInDays_val": 271,
    "issueDate": "2022.12.20",
    "longName": "K231220"
}