{
    "askPrice": "",
    "green": 0,
    "coupon": "9,00 %",
    "accruedInterest": "5,3260",
    "settleDate": "2023.07.24",
    "askEhmYield": "",
    "bidYield": "11,33",
    "rawName": "K2023/51",
    "bidPrice": "99,0000",
    "coupon_val": 9,
    "maturityInDays": "149 nap",
    "securityType": "1MÁP",
    "maturityDate": "2023.12.20",
    "name": "K2023/51",
    "bidEhmYield": "10,97",
    "askYield": "",
    "currency": "HUF",
    "maturityInDays_val": 149,
    "issueDate": "2022.12.20",
    "longName": "K231220"
}