{
    "askPrice": "",
    "green": 0,
    "coupon": "9,00 %",
    "accruedInterest": "4,4630",
    "settleDate": "2023.06.19",
    "askEhmYield": "",
    "bidYield": "10,90",
    "rawName": "K2023/51",
    "bidPrice": "99,0000",
    "coupon_val": 9,
    "maturityInDays": "184 nap",
    "securityType": "1MÁP",
    "maturityDate": "2023.12.20",
    "name": "K2023/51",
    "bidEhmYield": "10,62",
    "askYield": "",
    "currency": "HUF",
    "maturityInDays_val": 184,
    "issueDate": "2022.12.20",
    "longName": "K231220"
}