{
    "askPrice": "",
    "green": 0,
    "coupon": "9,00 %",
    "accruedInterest": "1,8000",
    "settleDate": "2023.03.03",
    "askEhmYield": "",
    "bidYield": "10,27",
    "rawName": "K2023/51",
    "bidPrice": "99,0000",
    "coupon_val": 9,
    "maturityInDays": "292 nap",
    "securityType": "1MÁP",
    "maturityDate": "2023.12.20",
    "name": "K2023/51",
    "bidEhmYield": "10,17",
    "askYield": "",
    "currency": "HUF",
    "maturityInDays_val": 292,
    "issueDate": "2022.12.20",
    "longName": "K231220"
}