{
    "askPrice": "",
    "green": 0,
    "coupon": "9,00 %",
    "accruedInterest": "1,5534",
    "settleDate": "2023.02.21",
    "askEhmYield": "",
    "bidYield": "10,24",
    "rawName": "K2023/51",
    "bidPrice": "99,0000",
    "coupon_val": 9,
    "maturityInDays": "302 nap",
    "securityType": "1MÁP",
    "maturityDate": "2023.12.20",
    "name": "K2023/51",
    "bidEhmYield": "10,15",
    "askYield": "",
    "currency": "HUF",
    "maturityInDays_val": 302,
    "issueDate": "2022.12.20",
    "longName": "K231220"
}