{
    "askPrice": "",
    "green": 0,
    "coupon": "9,00 %",
    "accruedInterest": "8,4329",
    "settleDate": "2023.11.27",
    "askEhmYield": "",
    "bidYield": "22,18",
    "rawName": "K2023/51",
    "bidPrice": "99,2000",
    "coupon_val": 9,
    "maturityInDays": "23 nap",
    "securityType": "1MÁP",
    "maturityDate": "2023.12.20",
    "name": "K2023/51",
    "bidEhmYield": "20,16",
    "askYield": "",
    "currency": "HUF",
    "maturityInDays_val": 23,
    "issueDate": "2022.12.20",
    "longName": "K231220"
}