{
    "askPrice": "100,00",
    "green": 0,
    "coupon": null,
    "accruedInterest": "0,60",
    "settleDate": "2022.08.26",
    "askEhmYield": "",
    "bidYield": "",
    "rawName": "2028/Y_EUR",
    "bidPrice": "99,00",
    "maturityInDays": "2189 nap",
    "securityType": "PEMÁP",
    "maturityDate": "2028.08.23",
    "name": "2028/Y_EUR",
    "bidEhmYield": "",
    "askYield": "",
    "currency": "EUR",
    "maturityInDays_val": 2189,
    "longName": "C280823Y22"
}