{
    "askPrice": "100,00",
    "green": 0,
    "coupon": null,
    "accruedInterest": "1,02",
    "settleDate": "2022.10.19",
    "askEhmYield": "",
    "bidYield": "0,59",
    "rawName": "2028/Y_EUR",
    "bidPrice": "99,00",
    "maturityInDays": "2135 nap",
    "securityType": "PEMÁP",
    "maturityDate": "2028.08.23",
    "name": "2028/Y_EUR",
    "bidEhmYield": "",
    "askYield": "0,42",
    "currency": "EUR",
    "maturityInDays_val": 2135,
    "longName": "C280823Y22"
}