{
    "askPrice": "100,00",
    "green": 0,
    "coupon": null,
    "accruedInterest": "1,18",
    "settleDate": "2022.11.08",
    "askEhmYield": "",
    "bidYield": "",
    "rawName": "2028/Y_EUR",
    "bidPrice": "99,00",
    "maturityInDays": "2115 nap",
    "securityType": "PEMÁP",
    "maturityDate": "2028.08.23",
    "name": "2028/Y_EUR",
    "bidEhmYield": "",
    "askYield": "",
    "currency": "EUR",
    "maturityInDays_val": 2115,
    "issueDate": "2022-06-10",
    "longName": "C280823Y22"
}