{
    "askPrice": "100,0000",
    "green": 0,
    "coupon": null,
    "accruedInterest": "1,9052",
    "settleDate": "2023.02.09",
    "askEhmYield": "",
    "bidYield": "",
    "rawName": "2028/Y_EUR",
    "bidPrice": "99,0000",
    "maturityInDays": "2022 nap",
    "securityType": "PEMÁP",
    "maturityDate": "2028.08.23",
    "name": "2028/Y_EUR",
    "bidEhmYield": "",
    "askYield": "",
    "currency": "EUR",
    "maturityInDays_val": 2022,
    "issueDate": "2022.06.10",
    "longName": "C280823Y22"
}