{
    "askPrice": "98,5885",
    "green": 0,
    "coupon": 0,
    "accruedInterest": 0,
    "settleDate": "2024.03.07",
    "askEhmYield": "6,30",
    "bidYield": "7,52",
    "rawName": "D240529",
    "bidPrice": "98,2958",
    "maturityInDays": "83 nap",
    "securityType": "DKJ",
    "maturityDate": "2024.05.29",
    "name": "D240529",
    "bidEhmYield": "7,62",
    "askYield": "6,21",
    "currency": "HUF",
    "maturityInDays_val": 83,
    "issueDate": "2024.01.31",
    "longName": "D240529"
}