{
    "askPrice": "",
    "green": 0,
    "coupon": 0,
    "accruedInterest": 0,
    "settleDate": "2024.03.27",
    "askEhmYield": "",
    "bidYield": "7,53",
    "rawName": "D240529",
    "bidPrice": "98,6994",
    "maturityInDays": "63 nap",
    "securityType": "DKJ",
    "maturityDate": "2024.05.29",
    "name": "D240529",
    "bidEhmYield": "7,63",
    "askYield": "",
    "currency": "HUF",
    "maturityInDays_val": 63,
    "issueDate": "2024.01.31",
    "longName": "D240529"
}