{
    "askPrice": "",
    "green": 0,
    "coupon": 0,
    "accruedInterest": 0,
    "settleDate": "2024.04.09",
    "askEhmYield": "",
    "bidYield": "7,44",
    "rawName": "D240529",
    "bidPrice": "98,9772",
    "maturityInDays": "50 nap",
    "securityType": "DKJ",
    "maturityDate": "2024.05.29",
    "name": "D240529",
    "bidEhmYield": "7,54",
    "askYield": "",
    "currency": "HUF",
    "maturityInDays_val": 50,
    "issueDate": "2024.01.31",
    "longName": "D240529"
}