{
    "askPrice": "98,4668",
    "green": 0,
    "coupon": 0,
    "accruedInterest": 0,
    "settleDate": "2024.02.28",
    "askEhmYield": "6,25",
    "bidYield": "7,40",
    "rawName": "D240529",
    "bidPrice": "98,1638",
    "maturityInDays": "91 nap",
    "securityType": "DKJ",
    "maturityDate": "2024.05.29",
    "name": "D240529",
    "bidEhmYield": "7,50",
    "askYield": "6,16",
    "currency": "HUF",
    "maturityInDays_val": 91,
    "issueDate": "2024.01.31",
    "longName": "D240529"
}