{
    "askPrice": "98,1797",
    "green": 0,
    "coupon": 0,
    "accruedInterest": 0,
    "settleDate": "2024.02.16",
    "askEhmYield": "6,57",
    "bidYield": "7,30",
    "rawName": "D240529",
    "bidPrice": "97,9541",
    "maturityInDays": "103 nap",
    "securityType": "DKJ",
    "maturityDate": "2024.05.29",
    "name": "D240529",
    "bidEhmYield": "7,40",
    "askYield": "6,48",
    "currency": "HUF",
    "maturityInDays_val": 103,
    "issueDate": "2024.01.31",
    "longName": "D240529"
}