{
    "askPrice": "97,9704",
    "green": 0,
    "coupon": 0,
    "accruedInterest": 0,
    "settleDate": "2024.02.06",
    "askEhmYield": "6,69",
    "bidYield": "7,34",
    "rawName": "D240529",
    "bidPrice": "97,7479",
    "maturityInDays": "113 nap",
    "securityType": "DKJ",
    "maturityDate": "2024.05.29",
    "name": "D240529",
    "bidEhmYield": "7,44",
    "askYield": "6,60",
    "currency": "HUF",
    "maturityInDays_val": 113,
    "issueDate": "2024.01.31",
    "longName": "D240529"
}