{
    "askPrice": "98,1079",
    "green": 0,
    "coupon": 0,
    "accruedInterest": 0,
    "settleDate": "2024.02.13",
    "askEhmYield": "6,64",
    "bidYield": "7,34",
    "rawName": "D240529",
    "bidPrice": "97,8845",
    "maturityInDays": "106 nap",
    "securityType": "DKJ",
    "maturityDate": "2024.05.29",
    "name": "D240529",
    "bidEhmYield": "7,44",
    "askYield": "6,55",
    "currency": "HUF",
    "maturityInDays_val": 106,
    "issueDate": "2024.01.31",
    "longName": "D240529"
}