{
    "askPrice": "98,5549",
    "green": 0,
    "coupon": 0,
    "accruedInterest": 0,
    "settleDate": "2024.03.05",
    "askEhmYield": "6,30",
    "bidYield": "7,52",
    "rawName": "D240529",
    "bidPrice": "98,2554",
    "maturityInDays": "85 nap",
    "securityType": "DKJ",
    "maturityDate": "2024.05.29",
    "name": "D240529",
    "bidEhmYield": "7,62",
    "askYield": "6,21",
    "currency": "HUF",
    "maturityInDays_val": 85,
    "issueDate": "2024.01.31",
    "longName": "D240529"
}