{
    "askPrice": "98,7824",
    "green": 0,
    "coupon": 0,
    "accruedInterest": 0,
    "settleDate": "2024.03.19",
    "askEhmYield": "6,34",
    "bidYield": "7,55",
    "rawName": "D240529",
    "bidPrice": "98,5328",
    "maturityInDays": "71 nap",
    "securityType": "DKJ",
    "maturityDate": "2024.05.29",
    "name": "D240529",
    "bidEhmYield": "7,65",
    "askYield": "6,25",
    "currency": "HUF",
    "maturityInDays_val": 71,
    "issueDate": "2024.01.31",
    "longName": "D240529"
}