{
    "askPrice": "",
    "green": 0,
    "coupon": "3,50 %",
    "accruedInterest": "0,29",
    "settleDate": "2022.08.18",
    "askEhmYield": "",
    "bidYield": "",
    "rawName": "N2027/29",
    "bidPrice": "99,50",
    "coupon_val": 3.5,
    "maturityInDays": "1795 nap",
    "securityType": "MÁP Plusz",
    "maturityDate": "2027.07.18",
    "name": "N2027/29",
    "bidEhmYield": "",
    "askYield": "",
    "currency": "HUF",
    "maturityInDays_val": 1795,
    "longName": "N270718"
}