{
    "askPrice": "",
    "green": 0,
    "coupon": "3,50 %",
    "accruedInterest": "1,2364",
    "settleDate": "2022.11.25",
    "askEhmYield": "",
    "bidYield": "5,15",
    "rawName": "N2027/29",
    "bidPrice": "99,5000",
    "coupon_val": 3.5,
    "maturityInDays": "1696 nap",
    "securityType": "MÁP Plusz",
    "maturityDate": "2027.07.18",
    "name": "N2027/29",
    "bidEhmYield": "",
    "askYield": "",
    "currency": "HUF",
    "maturityInDays_val": 1696,
    "issueDate": "2022.07.18",
    "longName": "N270718"
}