{
    "askPrice": "",
    "green": 0,
    "coupon": "3,50 %",
    "accruedInterest": 0,
    "settleDate": "2023.07.17",
    "askEhmYield": "",
    "bidYield": "",
    "rawName": "N2027/29",
    "bidPrice": "",
    "coupon_val": 3.5,
    "maturityInDays": "1462 nap",
    "securityType": "MÁP Plusz",
    "maturityDate": "2027.07.18",
    "name": "N2027/29",
    "bidEhmYield": "",
    "askYield": "",
    "currency": "HUF",
    "maturityInDays_val": 1462,
    "issueDate": "2022.07.18",
    "longName": "N270718"
}