{
    "askPrice": "",
    "green": 0,
    "coupon": "3,50 %",
    "accruedInterest": "0,0369",
    "settleDate": "2023.07.21",
    "askEhmYield": "",
    "bidYield": "5,22",
    "rawName": "N2027/29",
    "bidPrice": "100,0000",
    "coupon_val": 3.5,
    "maturityInDays": "1458 nap",
    "securityType": "MÁP Plusz",
    "maturityDate": "2027.07.18",
    "name": "N2027/29",
    "bidEhmYield": "",
    "askYield": "",
    "currency": "HUF",
    "maturityInDays_val": 1458,
    "issueDate": "2022.07.18",
    "longName": "N270718"
}