{
    "askPrice": "",
    "green": 0,
    "coupon": "3,50 %",
    "accruedInterest": "0,3443",
    "settleDate": "2023.08.15",
    "askEhmYield": "",
    "bidYield": "5,38",
    "rawName": "N2027/29",
    "bidPrice": "99,5000",
    "coupon_val": 3.5,
    "maturityInDays": "1433 nap",
    "securityType": "MÁP Plusz",
    "maturityDate": "2027.07.18",
    "name": "N2027/29",
    "bidEhmYield": "",
    "askYield": "",
    "currency": "HUF",
    "maturityInDays_val": 1433,
    "issueDate": "2022.07.18",
    "longName": "N270718"
}