{
    "askPrice": "",
    "green": 0,
    "coupon": "3,50 %",
    "accruedInterest": "0,4862",
    "settleDate": "2023.03.03",
    "askEhmYield": "",
    "bidYield": "5,24",
    "rawName": "N2027/29",
    "bidPrice": "99,5000",
    "coupon_val": 3.5,
    "maturityInDays": "1598 nap",
    "securityType": "MÁP Plusz",
    "maturityDate": "2027.07.18",
    "name": "N2027/29",
    "bidEhmYield": "",
    "askYield": "",
    "currency": "HUF",
    "maturityInDays_val": 1598,
    "issueDate": "2022.07.18",
    "longName": "N270718"
}