{
    "askPrice": "",
    "green": 0,
    "coupon": null,
    "accruedInterest": "5,32",
    "settleDate": "2022.07.14",
    "askEhmYield": "",
    "bidYield": "",
    "rawName": "2022/I",
    "bidPrice": "99,00",
    "maturityInDays": "15 nap",
    "securityType": "PMÁP",
    "maturityDate": "2022.07.29",
    "name": "2022/I",
    "bidEhmYield": "",
    "askYield": "",
    "currency": "HUF",
    "maturityInDays_val": 15,
    "longName": "A220729I17"
}