{
    "askPrice": "97,1453",
    "green": 0,
    "coupon": 0,
    "accruedInterest": 0,
    "settleDate": "2023.10.30",
    "askEhmYield": "7,55",
    "bidYield": "8,23",
    "rawName": "D240320",
    "bidPrice": "96,8558",
    "maturityInDays": "142 nap",
    "securityType": "DKJ",
    "maturityDate": "2024.03.20",
    "name": "D240320",
    "bidEhmYield": "8,34",
    "askYield": "7,45",
    "currency": "HUF",
    "maturityInDays_val": 142,
    "issueDate": "2023.08.16",
    "longName": "D240320"
}