{
    "askPrice": "96,2721",
    "green": 0,
    "coupon": 0,
    "accruedInterest": 0,
    "settleDate": "2023.10.02",
    "askEhmYield": "8,31",
    "bidYield": "9,03",
    "rawName": "D240320",
    "bidPrice": "95,9102",
    "maturityInDays": "170 nap",
    "securityType": "DKJ",
    "maturityDate": "2024.03.20",
    "name": "D240320",
    "bidEhmYield": "9,16",
    "askYield": "8,20",
    "currency": "HUF",
    "maturityInDays_val": 170,
    "issueDate": "2023.08.16",
    "longName": "D240320"
}