{
    "askPrice": "96,0519",
    "green": 0,
    "coupon": 0,
    "accruedInterest": 0,
    "settleDate": "2023.09.25",
    "askEhmYield": "8,48",
    "bidYield": "9,16",
    "rawName": "D240320",
    "bidPrice": "95,6904",
    "maturityInDays": "177 nap",
    "securityType": "DKJ",
    "maturityDate": "2024.03.20",
    "name": "D240320",
    "bidEhmYield": "9,29",
    "askYield": "8,36",
    "currency": "HUF",
    "maturityInDays_val": 177,
    "issueDate": "2023.08.16",
    "longName": "D240320"
}