{
    "askPrice": "96,4583",
    "green": 0,
    "coupon": 0,
    "accruedInterest": 0,
    "settleDate": "2023.10.11",
    "askEhmYield": "8,32",
    "bidYield": "8,99",
    "rawName": "D240320",
    "bidPrice": "96,1349",
    "maturityInDays": "161 nap",
    "securityType": "DKJ",
    "maturityDate": "2024.03.20",
    "name": "D240320",
    "bidEhmYield": "9,11",
    "askYield": "8,21",
    "currency": "HUF",
    "maturityInDays_val": 161,
    "issueDate": "2023.08.16",
    "longName": "D240320"
}