{
    "askPrice": "97,2077",
    "green": 0,
    "coupon": 0,
    "accruedInterest": 0,
    "settleDate": "2023.11.06",
    "askEhmYield": "7,77",
    "bidYield": "8,44",
    "rawName": "D240320",
    "bidPrice": "96,9321",
    "maturityInDays": "135 nap",
    "securityType": "DKJ",
    "maturityDate": "2024.03.20",
    "name": "D240320",
    "bidEhmYield": "8,56",
    "askYield": "7,66",
    "currency": "HUF",
    "maturityInDays_val": 135,
    "issueDate": "2023.08.16",
    "longName": "D240320"
}