{
    "askPrice": "97,0437",
    "green": 0,
    "coupon": 0,
    "accruedInterest": 0,
    "settleDate": "2023.10.24",
    "askEhmYield": "7,51",
    "bidYield": "8,23",
    "rawName": "D240320",
    "bidPrice": "96,7273",
    "maturityInDays": "148 nap",
    "securityType": "DKJ",
    "maturityDate": "2024.03.20",
    "name": "D240320",
    "bidEhmYield": "8,34",
    "askYield": "7,41",
    "currency": "HUF",
    "maturityInDays_val": 148,
    "issueDate": "2023.08.16",
    "longName": "D240320"
}