{
    "askPrice": "97,9476",
    "green": 0,
    "coupon": 0,
    "accruedInterest": 0,
    "settleDate": "2023.12.04",
    "askEhmYield": "7,15",
    "bidYield": "7,89",
    "rawName": "D240320",
    "bidPrice": "97,7087",
    "maturityInDays": "107 nap",
    "securityType": "DKJ",
    "maturityDate": "2024.03.20",
    "name": "D240320",
    "bidEhmYield": "8,00",
    "askYield": "7,05",
    "currency": "HUF",
    "maturityInDays_val": 107,
    "issueDate": "2023.08.16",
    "longName": "D240320"
}