{
    "askPrice": "95,0426",
    "green": 0,
    "coupon": 0,
    "accruedInterest": 0,
    "settleDate": "2023.08.30",
    "askEhmYield": "9,38",
    "bidYield": "10,04",
    "rawName": "D240320",
    "bidPrice": "94,6419",
    "maturityInDays": "203 nap",
    "securityType": "DKJ",
    "maturityDate": "2024.03.20",
    "name": "D240320",
    "bidEhmYield": "10,18",
    "askYield": "9,25",
    "currency": "HUF",
    "maturityInDays_val": 203,
    "issueDate": "2023.08.16",
    "longName": "D240320"
}