{
    "askPrice": "97,2243",
    "green": 0,
    "coupon": 0,
    "accruedInterest": 0,
    "settleDate": "2023.11.07",
    "askEhmYield": "7,78",
    "bidYield": "8,44",
    "rawName": "D240320",
    "bidPrice": "96,9541",
    "maturityInDays": "134 nap",
    "securityType": "DKJ",
    "maturityDate": "2024.03.20",
    "name": "D240320",
    "bidEhmYield": "8,56",
    "askYield": "7,67",
    "currency": "HUF",
    "maturityInDays_val": 134,
    "issueDate": "2023.08.16",
    "longName": "D240320"
}