{
    "askPrice": "95,1143",
    "green": 0,
    "coupon": 0,
    "accruedInterest": 0,
    "settleDate": "2023.09.01",
    "askEhmYield": "9,33",
    "bidYield": "9,81",
    "rawName": "D240320",
    "bidPrice": "94,8072",
    "maturityInDays": "201 nap",
    "securityType": "DKJ",
    "maturityDate": "2024.03.20",
    "name": "D240320",
    "bidEhmYield": "9,95",
    "askYield": "9,20",
    "currency": "HUF",
    "maturityInDays_val": 201,
    "issueDate": "2023.08.16",
    "longName": "D240320"
}