{
    "askPrice": "98,7557",
    "green": 0,
    "coupon": 0,
    "accruedInterest": 0,
    "settleDate": "2023.12.27",
    "askEhmYield": "5,47",
    "bidYield": "6,65",
    "rawName": "D240320",
    "bidPrice": "98,4720",
    "maturityInDays": "84 nap",
    "securityType": "DKJ",
    "maturityDate": "2024.03.20",
    "name": "D240320",
    "bidEhmYield": "6,74",
    "askYield": "5,40",
    "currency": "HUF",
    "maturityInDays_val": 84,
    "issueDate": "2023.08.16",
    "longName": "D240320"
}