{
    "askPrice": "97,2479",
    "green": 0,
    "coupon": 0,
    "accruedInterest": 0,
    "settleDate": "2023.11.08",
    "askEhmYield": "7,77",
    "bidYield": "8,48",
    "rawName": "D240320",
    "bidPrice": "96,9623",
    "maturityInDays": "133 nap",
    "securityType": "DKJ",
    "maturityDate": "2024.03.20",
    "name": "D240320",
    "bidEhmYield": "8,60",
    "askYield": "7,66",
    "currency": "HUF",
    "maturityInDays_val": 133,
    "issueDate": "2023.08.16",
    "longName": "D240320"
}