{
    "askPrice": "98,7235",
    "green": 0,
    "coupon": 0,
    "accruedInterest": 0,
    "settleDate": "2024.01.10",
    "askEhmYield": "6,74",
    "bidYield": "7,90",
    "rawName": "D240320",
    "bidPrice": "98,4871",
    "maturityInDays": "70 nap",
    "securityType": "DKJ",
    "maturityDate": "2024.03.20",
    "name": "D240320",
    "bidEhmYield": "8,01",
    "askYield": "6,65",
    "currency": "HUF",
    "maturityInDays_val": 70,
    "issueDate": "2023.08.16",
    "longName": "D240320"
}