{
    "askPrice": "99,1189",
    "green": 0,
    "coupon": 0,
    "accruedInterest": 0,
    "settleDate": "2024.01.30",
    "askEhmYield": "6,49",
    "bidYield": "7,78",
    "rawName": "D240320",
    "bidPrice": "98,9310",
    "maturityInDays": "50 nap",
    "securityType": "DKJ",
    "maturityDate": "2024.03.20",
    "name": "D240320",
    "bidEhmYield": "7,89",
    "askYield": "6,40",
    "currency": "HUF",
    "maturityInDays_val": 50,
    "issueDate": "2023.08.16",
    "longName": "D240320"
}