{
    "askPrice": "99,0712",
    "green": 0,
    "coupon": 0,
    "accruedInterest": 0,
    "settleDate": "2024.01.26",
    "askEhmYield": "6,34",
    "bidYield": "7,60",
    "rawName": "D240320",
    "bidPrice": "98,8728",
    "maturityInDays": "54 nap",
    "securityType": "DKJ",
    "maturityDate": "2024.03.20",
    "name": "D240320",
    "bidEhmYield": "7,71",
    "askYield": "6,25",
    "currency": "HUF",
    "maturityInDays_val": 54,
    "issueDate": "2023.08.16",
    "longName": "D240320"
}