{
    "askPrice": "99,6733",
    "green": 0,
    "coupon": 0,
    "accruedInterest": 0,
    "settleDate": "2024.03.01",
    "askEhmYield": "6,30",
    "bidYield": "7,52",
    "rawName": "D240320",
    "bidPrice": "99,6047",
    "maturityInDays": "19 nap",
    "securityType": "DKJ",
    "maturityDate": "2024.03.20",
    "name": "D240320",
    "bidEhmYield": "7,62",
    "askYield": "6,21",
    "currency": "HUF",
    "maturityInDays_val": 19,
    "issueDate": "2023.08.16",
    "longName": "D240320"
}