{
    "askPrice": "98,8312",
    "green": 0,
    "coupon": 0,
    "accruedInterest": 0,
    "settleDate": "2024.01.15",
    "askEhmYield": "6,64",
    "bidYield": "7,88",
    "rawName": "D240320",
    "bidPrice": "98,5972",
    "maturityInDays": "65 nap",
    "securityType": "DKJ",
    "maturityDate": "2024.03.20",
    "name": "D240320",
    "bidEhmYield": "7,99",
    "askYield": "6,55",
    "currency": "HUF",
    "maturityInDays_val": 65,
    "issueDate": "2023.08.16",
    "longName": "D240320"
}