{
    "askPrice": "",
    "green": 0,
    "coupon": "6,00 %",
    "accruedInterest": "0,1479",
    "settleDate": "2024.05.09",
    "askEhmYield": "",
    "bidYield": "7,09",
    "rawName": "K2025/18",
    "bidPrice": "99,0000",
    "coupon_val": 6,
    "maturityInDays": "356 nap",
    "securityType": "1MÁP",
    "maturityDate": "2025.04.30",
    "name": "K2025/18",
    "bidEhmYield": "7,09",
    "askYield": "",
    "currency": "HUF",
    "maturityInDays_val": 356,
    "issueDate": "2024.04.30",
    "longName": "K250430"
}