{
    "askPrice": "",
    "green": 0,
    "coupon": "3,50 %",
    "accruedInterest": "1,91",
    "settleDate": "2022.11.14",
    "askEhmYield": "",
    "bidYield": "5,35",
    "rawName": "N2026/47",
    "bidPrice": "99,50",
    "coupon_val": 3.5,
    "maturityInDays": "1469 nap",
    "securityType": "MÁP Plusz",
    "maturityDate": "2026.11.22",
    "name": "N2026/47",
    "bidEhmYield": "",
    "askYield": "",
    "currency": "HUF",
    "maturityInDays_val": 1469,
    "issueDate": "2021-11-22",
    "longName": "N261122"
}