{
    "askPrice": "",
    "green": 0,
    "coupon": "3,50 %",
    "accruedInterest": "1,68",
    "settleDate": "2022.10.24",
    "askEhmYield": "",
    "bidYield": "5,33",
    "rawName": "N2026/47",
    "bidPrice": "99,50",
    "coupon_val": 3.5,
    "maturityInDays": "1490 nap",
    "securityType": "MÁP Plusz",
    "maturityDate": "2026.11.22",
    "name": "N2026/47",
    "bidEhmYield": "",
    "askYield": "",
    "currency": "HUF",
    "maturityInDays_val": 1490,
    "longName": "N261122"
}