{
    "askPrice": "",
    "green": 0,
    "coupon": "3,50 %",
    "accruedInterest": "0,0986",
    "settleDate": "2022.11.30",
    "askEhmYield": "",
    "bidYield": "5,36",
    "rawName": "N2026/47",
    "bidPrice": "99,5000",
    "coupon_val": 3.5,
    "maturityInDays": "1453 nap",
    "securityType": "MÁP Plusz",
    "maturityDate": "2026.11.22",
    "name": "N2026/47",
    "bidEhmYield": "",
    "askYield": "",
    "currency": "HUF",
    "maturityInDays_val": 1453,
    "issueDate": "2021.11.22",
    "longName": "N261122"
}