{
    "askPrice": "",
    "green": 0,
    "coupon": "3,50 %",
    "accruedInterest": "1,0356",
    "settleDate": "2023.02.14",
    "askEhmYield": "",
    "bidYield": "5,41",
    "rawName": "N2026/47",
    "bidPrice": "99,5000",
    "coupon_val": 3.5,
    "maturityInDays": "1377 nap",
    "securityType": "MÁP Plusz",
    "maturityDate": "2026.11.22",
    "name": "N2026/47",
    "bidEhmYield": "",
    "askYield": "",
    "currency": "HUF",
    "maturityInDays_val": 1377,
    "issueDate": "2021.11.22",
    "longName": "N261122"
}