{
    "askPrice": "",
    "green": 0,
    "coupon": "3,50 %",
    "accruedInterest": "0,3329",
    "settleDate": "2024.04.15",
    "askEhmYield": "",
    "bidYield": "5,05",
    "rawName": "N2029/11",
    "bidPrice": "99,5000",
    "coupon_val": 3.5,
    "maturityInDays": "1791 nap",
    "securityType": "MÁP Plusz",
    "maturityDate": "2029.03.11",
    "name": "N2029/11",
    "bidEhmYield": "",
    "askYield": "",
    "currency": "HUF",
    "maturityInDays_val": 1791,
    "issueDate": "2024.03.11",
    "longName": "N290311"
}