{
    "askPrice": "",
    "green": 0,
    "coupon": "3,50 %",
    "accruedInterest": "1,1698",
    "settleDate": "2022.12.02",
    "askEhmYield": "",
    "bidYield": "5,14",
    "rawName": "N2027/31",
    "bidPrice": "99,5000",
    "coupon_val": 3.5,
    "maturityInDays": "1703 nap",
    "securityType": "MÁP Plusz",
    "maturityDate": "2027.08.01",
    "name": "N2027/31",
    "bidEhmYield": "",
    "askYield": "",
    "currency": "HUF",
    "maturityInDays_val": 1703,
    "issueDate": "2022.08.01",
    "longName": "N270801"
}