{
    "askPrice": "",
    "green": 0,
    "coupon": "3,50 %",
    "accruedInterest": "0,01",
    "settleDate": "2022.08.02",
    "askEhmYield": "",
    "bidYield": "",
    "rawName": "N2027/31",
    "bidPrice": "99,50",
    "coupon_val": 3.5,
    "maturityInDays": "1825 nap",
    "securityType": "MÁP Plusz",
    "maturityDate": "2027.08.01",
    "name": "N2027/31",
    "bidEhmYield": "",
    "askYield": "",
    "currency": "HUF",
    "maturityInDays_val": 1825,
    "longName": "N270801"
}