{
    "askPrice": "",
    "green": 0,
    "coupon": "3,50 %",
    "accruedInterest": "0,6148",
    "settleDate": "2023.09.20",
    "askEhmYield": "",
    "bidYield": "5,39",
    "rawName": "N2027/31",
    "bidPrice": "99,5000",
    "coupon_val": 3.5,
    "maturityInDays": "1411 nap",
    "securityType": "MÁP Plusz",
    "maturityDate": "2027.08.01",
    "name": "N2027/31",
    "bidEhmYield": "",
    "askYield": "",
    "currency": "HUF",
    "maturityInDays_val": 1411,
    "issueDate": "2022.08.01",
    "longName": "N270801"
}