{
    "askPrice": "",
    "green": 0,
    "coupon": "3,50 %",
    "accruedInterest": "0,0738",
    "settleDate": "2023.08.07",
    "askEhmYield": "",
    "bidYield": "5,22",
    "rawName": "N2027/31",
    "bidPrice": "100,0000",
    "coupon_val": 3.5,
    "maturityInDays": "1455 nap",
    "securityType": "MÁP Plusz",
    "maturityDate": "2027.08.01",
    "name": "N2027/31",
    "bidEhmYield": "",
    "askYield": "",
    "currency": "HUF",
    "maturityInDays_val": 1455,
    "issueDate": "2022.08.01",
    "longName": "N270801"
}