{
    "askPrice": "",
    "green": 0,
    "coupon": "3,50 %",
    "accruedInterest": "3,1844",
    "settleDate": "2024.04.16",
    "askEhmYield": "",
    "bidYield": "5,55",
    "rawName": "N2027/31",
    "bidPrice": "99,5000",
    "coupon_val": 3.5,
    "maturityInDays": "1202 nap",
    "securityType": "MÁP Plusz",
    "maturityDate": "2027.08.01",
    "name": "N2027/31",
    "bidEhmYield": "",
    "askYield": "",
    "currency": "HUF",
    "maturityInDays_val": 1202,
    "issueDate": "2022.08.01",
    "longName": "N270801"
}