{
    "askPrice": "",
    "green": 0,
    "coupon": "8,00 %",
    "accruedInterest": "0,8329",
    "settleDate": "2023.12.22",
    "askEhmYield": "",
    "bidYield": "9,14",
    "rawName": "K2024/46",
    "bidPrice": "99,0000",
    "coupon_val": 8,
    "maturityInDays": "328 nap",
    "securityType": "1MÁP",
    "maturityDate": "2024.11.14",
    "name": "K2024/46",
    "bidEhmYield": "9,10",
    "askYield": "",
    "currency": "HUF",
    "maturityInDays_val": 328,
    "issueDate": "2023.11.14",
    "longName": "K241114"
}