{
    "askPrice": "",
    "green": 0,
    "coupon": "8,00 %",
    "accruedInterest": "3,1781",
    "settleDate": "2024.04.08",
    "askEhmYield": "",
    "bidYield": "9,63",
    "rawName": "K2024/46",
    "bidPrice": "99,0000",
    "coupon_val": 8,
    "maturityInDays": "220 nap",
    "securityType": "1MÁP",
    "maturityDate": "2024.11.14",
    "name": "K2024/46",
    "bidEhmYield": "9,42",
    "askYield": "",
    "currency": "HUF",
    "maturityInDays_val": 220,
    "issueDate": "2023.11.14",
    "longName": "K241114"
}