{
    "askPrice": "",
    "green": 0,
    "coupon": "8,00 %",
    "accruedInterest": "1,4466",
    "settleDate": "2024.01.19",
    "askEhmYield": "",
    "bidYield": "9,22",
    "rawName": "K2024/46",
    "bidPrice": "99,0000",
    "coupon_val": 8,
    "maturityInDays": "300 nap",
    "securityType": "1MÁP",
    "maturityDate": "2024.11.14",
    "name": "K2024/46",
    "bidEhmYield": "9,15",
    "askYield": "",
    "currency": "HUF",
    "maturityInDays_val": 300,
    "issueDate": "2023.11.14",
    "longName": "K241114"
}