{
    "askPrice": "",
    "green": 0,
    "coupon": "8,00 %",
    "accruedInterest": "1,6877",
    "settleDate": "2024.01.30",
    "askEhmYield": "",
    "bidYield": "9,26",
    "rawName": "K2024/46",
    "bidPrice": "99,0000",
    "coupon_val": 8,
    "maturityInDays": "289 nap",
    "securityType": "1MÁP",
    "maturityDate": "2024.11.14",
    "name": "K2024/46",
    "bidEhmYield": "9,17",
    "askYield": "",
    "currency": "HUF",
    "maturityInDays_val": 289,
    "issueDate": "2023.11.14",
    "longName": "K241114"
}