{
    "askPrice": "",
    "green": 0,
    "coupon": null,
    "accruedInterest": "4,0100",
    "settleDate": "2022.12.16",
    "askEhmYield": "",
    "bidYield": "",
    "rawName": "2024/K",
    "bidPrice": "",
    "maturityInDays": "735 nap",
    "securityType": "PMÁP",
    "maturityDate": "2024.12.20",
    "name": "2024/K",
    "bidEhmYield": "",
    "askYield": "",
    "currency": "HUF",
    "maturityInDays_val": 735,
    "issueDate": "2021.07.02",
    "longName": "A241220K21"
}