{
    "askPrice": "",
    "green": 0,
    "coupon": null,
    "accruedInterest": "3,37",
    "settleDate": "2022.10.20",
    "askEhmYield": "",
    "bidYield": "",
    "rawName": "2024/K",
    "bidPrice": "99,00",
    "maturityInDays": "792 nap",
    "securityType": "PMÁP",
    "maturityDate": "2024.12.20",
    "name": "2024/K",
    "bidEhmYield": "",
    "askYield": "",
    "currency": "HUF",
    "maturityInDays_val": 792,
    "longName": "A241220K21"
}