{
    "askPrice": "",
    "green": 0,
    "coupon": null,
    "accruedInterest": "3,57",
    "settleDate": "2022.11.07",
    "askEhmYield": "",
    "bidYield": "",
    "rawName": "2024/K",
    "bidPrice": "99,00",
    "maturityInDays": "774 nap",
    "securityType": "PMÁP",
    "maturityDate": "2024.12.20",
    "name": "2024/K",
    "bidEhmYield": "",
    "askYield": "",
    "currency": "HUF",
    "maturityInDays_val": 774,
    "issueDate": "2021-07-02",
    "longName": "A241220K21"
}