{
    "askPrice": "",
    "green": 0,
    "coupon": null,
    "accruedInterest": "2,72",
    "settleDate": "2022.08.22",
    "askEhmYield": "",
    "bidYield": "",
    "rawName": "2024/K",
    "bidPrice": "99,00",
    "maturityInDays": "851 nap",
    "securityType": "PMÁP",
    "maturityDate": "2024.12.20",
    "name": "2024/K",
    "bidEhmYield": "",
    "askYield": "",
    "currency": "HUF",
    "maturityInDays_val": 851,
    "longName": "A241220K21"
}