{
    "askPrice": "",
    "green": 0,
    "coupon": null,
    "accruedInterest": "5,0486",
    "settleDate": "2023.10.31",
    "askEhmYield": "",
    "bidYield": "",
    "rawName": "2024/K",
    "bidPrice": "99,0000",
    "maturityInDays": "416 nap",
    "securityType": "PMÁP",
    "maturityDate": "2024.12.20",
    "name": "2024/K",
    "bidEhmYield": "",
    "askYield": "",
    "currency": "HUF",
    "maturityInDays_val": 416,
    "issueDate": "2021.07.02",
    "longName": "A241220K21"
}