{
    "askPrice": "",
    "green": 0,
    "coupon": null,
    "accruedInterest": "1,9233",
    "settleDate": "2023.04.19",
    "askEhmYield": "",
    "bidYield": "",
    "rawName": "2024/K",
    "bidPrice": "99,0000",
    "maturityInDays": "611 nap",
    "securityType": "PMÁP",
    "maturityDate": "2024.12.20",
    "name": "2024/K",
    "bidEhmYield": "",
    "askYield": "",
    "currency": "HUF",
    "maturityInDays_val": 611,
    "issueDate": "2021.07.02",
    "longName": "A241220K21"
}