{
    "askPrice": "",
    "green": 0,
    "coupon": null,
    "accruedInterest": "5,2570",
    "settleDate": "2023.11.13",
    "askEhmYield": "",
    "bidYield": "",
    "rawName": "2024/K",
    "bidPrice": "99,0000",
    "maturityInDays": "403 nap",
    "securityType": "PMÁP",
    "maturityDate": "2024.12.20",
    "name": "2024/K",
    "bidEhmYield": "",
    "askYield": "",
    "currency": "HUF",
    "maturityInDays_val": 403,
    "issueDate": "2021.07.02",
    "longName": "A241220K21"
}