{
    "askPrice": "",
    "green": 0,
    "coupon": null,
    "accruedInterest": "3,9107",
    "settleDate": "2023.08.21",
    "askEhmYield": "",
    "bidYield": "",
    "rawName": "2024/K",
    "bidPrice": "99,0000",
    "maturityInDays": "487 nap",
    "securityType": "PMÁP",
    "maturityDate": "2024.12.20",
    "name": "2024/K",
    "bidEhmYield": "",
    "askYield": "",
    "currency": "HUF",
    "maturityInDays_val": 487,
    "issueDate": "2021.07.02",
    "longName": "A241220K21"
}