{
    "askPrice": "98,5614",
    "green": 0,
    "coupon": 0,
    "accruedInterest": 0,
    "settleDate": "2023.12.18",
    "askEhmYield": "6,19",
    "bidYield": "7,48",
    "rawName": "D240313",
    "bidPrice": "98,2445",
    "maturityInDays": "86 nap",
    "securityType": "DKJ",
    "maturityDate": "2024.03.13",
    "name": "D240313",
    "bidEhmYield": "7,58",
    "askYield": "6,11",
    "currency": "HUF",
    "maturityInDays_val": 86,
    "issueDate": "2023.12.13",
    "longName": "D240313"
}