{
    "askPrice": "98,8061",
    "green": 0,
    "coupon": 0,
    "accruedInterest": 0,
    "settleDate": "2023.12.29",
    "askEhmYield": "5,88",
    "bidYield": "7,15",
    "rawName": "D240313",
    "bidPrice": "98,5323",
    "maturityInDays": "75 nap",
    "securityType": "DKJ",
    "maturityDate": "2024.03.13",
    "name": "D240313",
    "bidEhmYield": "7,25",
    "askYield": "5,80",
    "currency": "HUF",
    "maturityInDays_val": 75,
    "issueDate": "2023.12.13",
    "longName": "D240313"
}