{
    "askPrice": "98,8940",
    "green": 0,
    "coupon": 0,
    "accruedInterest": 0,
    "settleDate": "2024.01.12",
    "askEhmYield": "6,69",
    "bidYield": "7,95",
    "rawName": "D240313",
    "bidPrice": "98,6708",
    "maturityInDays": "61 nap",
    "securityType": "DKJ",
    "maturityDate": "2024.03.13",
    "name": "D240313",
    "bidEhmYield": "8,06",
    "askYield": "6,60",
    "currency": "HUF",
    "maturityInDays_val": 61,
    "issueDate": "2023.12.13",
    "longName": "D240313"
}