{
    "askPrice": "98,7963",
    "green": 0,
    "coupon": 0,
    "accruedInterest": 0,
    "settleDate": "2024.01.05",
    "askEhmYield": "6,54",
    "bidYield": "7,71",
    "rawName": "D240313",
    "bidPrice": "98,5646",
    "maturityInDays": "68 nap",
    "securityType": "DKJ",
    "maturityDate": "2024.03.13",
    "name": "D240313",
    "bidEhmYield": "7,82",
    "askYield": "6,45",
    "currency": "HUF",
    "maturityInDays_val": 68,
    "issueDate": "2023.12.13",
    "longName": "D240313"
}