{
    "askPrice": "",
    "green": 0,
    "coupon": 0,
    "accruedInterest": 0,
    "settleDate": "2024.03.07",
    "askEhmYield": "",
    "bidYield": "7,52",
    "rawName": "D240313",
    "bidPrice": "99,8748",
    "maturityInDays": "6 nap",
    "securityType": "DKJ",
    "maturityDate": "2024.03.13",
    "name": "D240313",
    "bidEhmYield": "7,63",
    "askYield": "",
    "currency": "HUF",
    "maturityInDays_val": 6,
    "issueDate": "2023.12.13",
    "longName": "D240313"
}