{
    "askPrice": "99,0904",
    "green": 0,
    "coupon": 0,
    "accruedInterest": 0,
    "settleDate": "2024.01.22",
    "askEhmYield": "6,57",
    "bidYield": "7,80",
    "rawName": "D240313",
    "bidPrice": "98,9071",
    "maturityInDays": "51 nap",
    "securityType": "DKJ",
    "maturityDate": "2024.03.13",
    "name": "D240313",
    "bidEhmYield": "7,91",
    "askYield": "6,48",
    "currency": "HUF",
    "maturityInDays_val": 51,
    "issueDate": "2023.12.13",
    "longName": "D240313"
}