{
    "askPrice": "99,3414",
    "green": 0,
    "coupon": 0,
    "accruedInterest": 0,
    "settleDate": "2024.02.05",
    "askEhmYield": "6,54",
    "bidYield": "7,79",
    "rawName": "D240313",
    "bidPrice": "99,2057",
    "maturityInDays": "37 nap",
    "securityType": "DKJ",
    "maturityDate": "2024.03.13",
    "name": "D240313",
    "bidEhmYield": "7,90",
    "askYield": "6,45",
    "currency": "HUF",
    "maturityInDays_val": 37,
    "issueDate": "2023.12.13",
    "longName": "D240313"
}