{
    "askPrice": "98,0743",
    "green": 0,
    "coupon": 0,
    "accruedInterest": 0,
    "settleDate": "2023.03.20",
    "askEhmYield": "14,05",
    "bidYield": "15,03",
    "rawName": "D230510",
    "bidPrice": "97,9151",
    "maturityInDays": "51 nap",
    "securityType": "DKJ",
    "maturityDate": "2023.05.10",
    "name": "D230510",
    "bidEhmYield": "15,24",
    "askYield": "13,86",
    "currency": "HUF",
    "maturityInDays_val": 51,
    "issueDate": "2023.02.08",
    "longName": "D230510"
}