{
    "askPrice": "",
    "green": 0,
    "coupon": 0,
    "accruedInterest": 0,
    "settleDate": "2023.05.04",
    "askEhmYield": "",
    "bidYield": "15,20",
    "rawName": "D230510",
    "bidPrice": "99,7473",
    "maturityInDays": "6 nap",
    "securityType": "DKJ",
    "maturityDate": "2023.05.10",
    "name": "D230510",
    "bidEhmYield": "15,41",
    "askYield": "",
    "currency": "HUF",
    "maturityInDays_val": 6,
    "issueDate": "2023.02.08",
    "longName": "D230510"
}