{
    "askPrice": "98,8809",
    "green": 0,
    "coupon": 0,
    "accruedInterest": 0,
    "settleDate": "2023.04.11",
    "askEhmYield": "14,24",
    "bidYield": "15,37",
    "rawName": "D230510",
    "bidPrice": "98,7770",
    "maturityInDays": "29 nap",
    "securityType": "DKJ",
    "maturityDate": "2023.05.10",
    "name": "D230510",
    "bidEhmYield": "15,58",
    "askYield": "14,05",
    "currency": "HUF",
    "maturityInDays_val": 29,
    "issueDate": "2023.02.08",
    "longName": "D230510"
}