{
    "askPrice": "98,2693",
    "green": 0,
    "coupon": 0,
    "accruedInterest": 0,
    "settleDate": "2023.03.27",
    "askEhmYield": "14,61",
    "bidYield": "15,70",
    "rawName": "D230510",
    "bidPrice": "98,1172",
    "maturityInDays": "44 nap",
    "securityType": "DKJ",
    "maturityDate": "2023.05.10",
    "name": "D230510",
    "bidEhmYield": "15,92",
    "askYield": "14,41",
    "currency": "HUF",
    "maturityInDays_val": 44,
    "issueDate": "2023.02.08",
    "longName": "D230510"
}