{
    "askPrice": "97,4505",
    "green": 0,
    "coupon": 0,
    "accruedInterest": 0,
    "settleDate": "2023.03.02",
    "askEhmYield": "13,84",
    "bidYield": "15,00",
    "rawName": "D230510",
    "bidPrice": "97,2053",
    "maturityInDays": "69 nap",
    "securityType": "DKJ",
    "maturityDate": "2023.05.10",
    "name": "D230510",
    "bidEhmYield": "15,21",
    "askYield": "13,65",
    "currency": "HUF",
    "maturityInDays_val": 69,
    "issueDate": "2023.02.08",
    "longName": "D230510"
}