{
    "askPrice": "97,3331",
    "green": 0,
    "coupon": 0,
    "accruedInterest": 0,
    "settleDate": "2023.02.27",
    "askEhmYield": "13,89",
    "bidYield": "15,00",
    "rawName": "D230510",
    "bidPrice": "97,0874",
    "maturityInDays": "72 nap",
    "securityType": "DKJ",
    "maturityDate": "2023.05.10",
    "name": "D230510",
    "bidEhmYield": "15,21",
    "askYield": "13,70",
    "currency": "HUF",
    "maturityInDays_val": 72,
    "issueDate": "2023.02.08",
    "longName": "D230510"
}