{
    "askPrice": "",
    "green": 0,
    "coupon": "8,00 %",
    "accruedInterest": "0,2192",
    "settleDate": "2023.12.15",
    "askEhmYield": "",
    "bidYield": "9,08",
    "rawName": "K2024/49",
    "bidPrice": "99,0000",
    "coupon_val": 8,
    "maturityInDays": "356 nap",
    "securityType": "1MÁP",
    "maturityDate": "2024.12.05",
    "name": "K2024/49",
    "bidEhmYield": "9,07",
    "askYield": "",
    "currency": "HUF",
    "maturityInDays_val": 356,
    "issueDate": "2023.12.05",
    "longName": "K241205"
}