{
    "askPrice": "",
    "green": 0,
    "coupon": "8,00 %",
    "accruedInterest": "2,4329",
    "settleDate": "2024.03.26",
    "askEhmYield": "",
    "bidYield": "9,43",
    "rawName": "K2024/49",
    "bidPrice": "99,0000",
    "coupon_val": 8,
    "maturityInDays": "254 nap",
    "securityType": "1MÁP",
    "maturityDate": "2024.12.05",
    "name": "K2024/49",
    "bidEhmYield": "9,27",
    "askYield": "",
    "currency": "HUF",
    "maturityInDays_val": 254,
    "issueDate": "2023.12.05",
    "longName": "K241205"
}