{
    "askPrice": "",
    "green": 0,
    "coupon": "8,00 %",
    "accruedInterest": "2,8712",
    "settleDate": "2024.04.15",
    "askEhmYield": "",
    "bidYield": "9,54",
    "rawName": "K2024/49",
    "bidPrice": "99,0000",
    "coupon_val": 8,
    "maturityInDays": "234 nap",
    "securityType": "1MÁP",
    "maturityDate": "2024.12.05",
    "name": "K2024/49",
    "bidEhmYield": "9,35",
    "askYield": "",
    "currency": "HUF",
    "maturityInDays_val": 234,
    "issueDate": "2023.12.05",
    "longName": "K241205"
}