{
    "askPrice": "",
    "green": 0,
    "coupon": "3,50 %",
    "accruedInterest": "1,73",
    "settleDate": "2022.11.14",
    "askEhmYield": "",
    "bidYield": "",
    "rawName": "N2027/20",
    "bidPrice": "",
    "coupon_val": 3.5,
    "maturityInDays": "1644 nap",
    "securityType": "MÁP Plusz",
    "maturityDate": "2027.05.16",
    "name": "N2027/20",
    "bidEhmYield": "",
    "askYield": "",
    "currency": "HUF",
    "maturityInDays_val": 1644,
    "issueDate": "2022-05-16",
    "longName": "N270516"
}