{
    "askPrice": "",
    "green": 0,
    "coupon": "3,50 %",
    "accruedInterest": "1,62",
    "settleDate": "2022.11.02",
    "askEhmYield": "",
    "bidYield": "5,19",
    "rawName": "N2027/20",
    "bidPrice": "99,50",
    "coupon_val": 3.5,
    "maturityInDays": "1656 nap",
    "securityType": "MÁP Plusz",
    "maturityDate": "2027.05.16",
    "name": "N2027/20",
    "bidEhmYield": "",
    "askYield": "",
    "currency": "HUF",
    "maturityInDays_val": 1656,
    "issueDate": "2022-05-16",
    "longName": "N270516"
}