{
    "askPrice": "",
    "green": 0,
    "coupon": "3,50 %",
    "accruedInterest": "0,01",
    "settleDate": "2022.11.17",
    "askEhmYield": "",
    "bidYield": "5,08",
    "rawName": "N2027/20",
    "bidPrice": "100,00",
    "coupon_val": 3.5,
    "maturityInDays": "1641 nap",
    "securityType": "MÁP Plusz",
    "maturityDate": "2027.05.16",
    "name": "N2027/20",
    "bidEhmYield": "",
    "askYield": "",
    "currency": "HUF",
    "maturityInDays_val": 1641,
    "issueDate": "2022-05-16",
    "longName": "N270516"
}