{
    "askPrice": "",
    "green": 0,
    "coupon": "3,50 %",
    "accruedInterest": "1,08",
    "settleDate": "2022.09.07",
    "askEhmYield": "",
    "bidYield": "",
    "rawName": "N2027/20",
    "bidPrice": "99,50",
    "coupon_val": 3.5,
    "maturityInDays": "1712 nap",
    "securityType": "MÁP Plusz",
    "maturityDate": "2027.05.16",
    "name": "N2027/20",
    "bidEhmYield": "",
    "askYield": "",
    "currency": "HUF",
    "maturityInDays_val": 1712,
    "longName": "N270516"
}