{
    "askPrice": "",
    "green": 0,
    "coupon": "3,50 %",
    "accruedInterest": "0,9344",
    "settleDate": "2023.07.31",
    "askEhmYield": "",
    "bidYield": "5,40",
    "rawName": "N2027/20",
    "bidPrice": "99,5000",
    "coupon_val": 3.5,
    "maturityInDays": "1385 nap",
    "securityType": "MÁP Plusz",
    "maturityDate": "2027.05.16",
    "name": "N2027/20",
    "bidEhmYield": "",
    "askYield": "",
    "currency": "HUF",
    "maturityInDays_val": 1385,
    "issueDate": "2022.05.16",
    "longName": "N270516"
}