{
    "askPrice": "",
    "green": 0,
    "coupon": "3,50 %",
    "accruedInterest": "3,3934",
    "settleDate": "2024.02.16",
    "askEhmYield": "",
    "bidYield": "5,57",
    "rawName": "N2027/20",
    "bidPrice": "99,5000",
    "coupon_val": 3.5,
    "maturityInDays": "1185 nap",
    "securityType": "MÁP Plusz",
    "maturityDate": "2027.05.16",
    "name": "N2027/20",
    "bidEhmYield": "",
    "askYield": "",
    "currency": "HUF",
    "maturityInDays_val": 1185,
    "issueDate": "2022.05.16",
    "longName": "N270516"
}