{
    "askPrice": "",
    "green": 0,
    "coupon": "3,50 %",
    "accruedInterest": "2,08",
    "settleDate": "2022.10.27",
    "askEhmYield": "",
    "bidYield": "6,11",
    "rawName": "N2024/01",
    "bidPrice": "99,50",
    "coupon_val": 3.5,
    "maturityInDays": "593 nap",
    "securityType": "MÁP Plusz",
    "maturityDate": "2024.06.11",
    "name": "N2024/01",
    "bidEhmYield": "",
    "askYield": "",
    "currency": "HUF",
    "maturityInDays_val": 593,
    "longName": "N240611"
}