{
    "askPrice": "",
    "green": 0,
    "coupon": "3,50 %",
    "accruedInterest": "2,17",
    "settleDate": "2022.11.02",
    "askEhmYield": "",
    "bidYield": "6,12",
    "rawName": "N2024/01",
    "bidPrice": "99,50",
    "coupon_val": 3.5,
    "maturityInDays": "587 nap",
    "securityType": "MÁP Plusz",
    "maturityDate": "2024.06.11",
    "name": "N2024/01",
    "bidEhmYield": "",
    "askYield": "",
    "currency": "HUF",
    "maturityInDays_val": 587,
    "issueDate": "2019-06-11",
    "longName": "N240611"
}