{
    "askPrice": "",
    "green": 0,
    "coupon": "3,50 %",
    "accruedInterest": "1,66",
    "settleDate": "2022.09.29",
    "askEhmYield": "",
    "bidYield": "",
    "rawName": "N2024/01",
    "bidPrice": "99,50",
    "coupon_val": 3.5,
    "maturityInDays": "621 nap",
    "securityType": "MÁP Plusz",
    "maturityDate": "2024.06.11",
    "name": "N2024/01",
    "bidEhmYield": "",
    "askYield": "",
    "currency": "HUF",
    "maturityInDays_val": 621,
    "longName": "N240611"
}