{
    "askPrice": "",
    "green": 0,
    "coupon": "3,50 %",
    "accruedInterest": "0,5902",
    "settleDate": "2023.07.17",
    "askEhmYield": "",
    "bidYield": "6,57",
    "rawName": "N2024/01",
    "bidPrice": "99,5000",
    "coupon_val": 3.5,
    "maturityInDays": "330 nap",
    "securityType": "MÁP Plusz",
    "maturityDate": "2024.06.11",
    "name": "N2024/01",
    "bidEhmYield": "",
    "askYield": "",
    "currency": "HUF",
    "maturityInDays_val": 330,
    "issueDate": "2019.06.11",
    "longName": "N240611"
}