{
    "askPrice": "",
    "green": 0,
    "coupon": "3,50 %",
    "accruedInterest": "4,9508",
    "settleDate": "2024.04.08",
    "askEhmYield": "",
    "bidYield": "8,79",
    "rawName": "N2024/01",
    "bidPrice": "99,5000",
    "coupon_val": 3.5,
    "maturityInDays": "64 nap",
    "securityType": "MÁP Plusz",
    "maturityDate": "2024.06.11",
    "name": "N2024/01",
    "bidEhmYield": "",
    "askYield": "",
    "currency": "HUF",
    "maturityInDays_val": 64,
    "issueDate": "2019.06.11",
    "longName": "N240611"
}