{
    "askPrice": "",
    "green": 0,
    "coupon": "3,00 %",
    "accruedInterest": "1,89",
    "settleDate": "2022.09.12",
    "askEhmYield": "",
    "bidYield": "",
    "rawName": "K2023/04",
    "bidPrice": "99,50",
    "coupon_val": 3,
    "maturityInDays": "135 nap",
    "securityType": "1MÁP",
    "maturityDate": "2023.01.25",
    "name": "K2023/04",
    "bidEhmYield": "4,29",
    "askYield": "",
    "currency": "HUF",
    "maturityInDays_val": 135,
    "longName": "K230125"
}