{
    "askPrice": "",
    "green": 0,
    "coupon": "3,00 %",
    "accruedInterest": "2,31",
    "settleDate": "2022.11.02",
    "askEhmYield": "",
    "bidYield": "5,18",
    "rawName": "K2023/04",
    "bidPrice": "99,50",
    "coupon_val": 3,
    "maturityInDays": "84 nap",
    "securityType": "1MÁP",
    "maturityDate": "2023.01.25",
    "name": "K2023/04",
    "bidEhmYield": "5,08",
    "askYield": "",
    "currency": "HUF",
    "maturityInDays_val": 84,
    "issueDate": "2022-01-25",
    "longName": "K230125"
}