{
    "askPrice": "",
    "green": 0,
    "coupon": "3,00 %",
    "accruedInterest": "2,8110",
    "settleDate": "2023.01.02",
    "askEhmYield": "",
    "bidYield": "16,55",
    "rawName": "K2023/04",
    "bidPrice": "99,2000",
    "coupon_val": 3,
    "maturityInDays": "23 nap",
    "securityType": "1MÁP",
    "maturityDate": "2023.01.25",
    "name": "K2023/04",
    "bidEhmYield": "15,39",
    "askYield": "",
    "currency": "HUF",
    "maturityInDays_val": 23,
    "issueDate": "2022.01.25",
    "longName": "K230125"
}