{
    "askPrice": "",
    "green": 0,
    "coupon": "3,00 %",
    "accruedInterest": "1,97",
    "settleDate": "2022.09.22",
    "askEhmYield": "",
    "bidYield": "",
    "rawName": "K2023/04",
    "bidPrice": "99,50",
    "coupon_val": 3,
    "maturityInDays": "125 nap",
    "securityType": "1MÁP",
    "maturityDate": "2023.01.25",
    "name": "K2023/04",
    "bidEhmYield": "4,40",
    "askYield": "",
    "currency": "HUF",
    "maturityInDays_val": 125,
    "longName": "K230125"
}