{
    "askPrice": "",
    "green": 0,
    "coupon": "3,00 %",
    "accruedInterest": "2,4904",
    "settleDate": "2022.11.24",
    "askEhmYield": "",
    "bidYield": "5,97",
    "rawName": "K2023/04",
    "bidPrice": "99,5000",
    "coupon_val": 3,
    "maturityInDays": "62 nap",
    "securityType": "1MÁP",
    "maturityDate": "2023.01.25",
    "name": "K2023/04",
    "bidEhmYield": "5,83",
    "askYield": "",
    "currency": "HUF",
    "maturityInDays_val": 62,
    "issueDate": "2022.01.25",
    "longName": "K230125"
}