{
    "askPrice": "",
    "green": 0,
    "coupon": "3,00 %",
    "accruedInterest": "1,33",
    "settleDate": "2022.07.06",
    "askEhmYield": "",
    "bidYield": "",
    "rawName": "K2023/04",
    "bidPrice": "99,50",
    "coupon_val": 3,
    "maturityInDays": "203 nap",
    "securityType": "1MÁP",
    "maturityDate": "2023.01.25",
    "name": "K2023/04",
    "bidEhmYield": "3,87",
    "askYield": "",
    "currency": "HUF",
    "maturityInDays_val": 203,
    "longName": "K230125"
}