{
    "askPrice": "",
    "green": 0,
    "coupon": "3,00 %",
    "accruedInterest": "2,5890",
    "settleDate": "2022.12.06",
    "askEhmYield": "",
    "bidYield": "6,70",
    "rawName": "K2023/04",
    "bidPrice": "99,5000",
    "coupon_val": 3,
    "maturityInDays": "50 nap",
    "securityType": "1MÁP",
    "maturityDate": "2023.01.25",
    "name": "K2023/04",
    "bidEhmYield": "6,51",
    "askYield": "",
    "currency": "HUF",
    "maturityInDays_val": 50,
    "issueDate": "2022.01.25",
    "longName": "K230125"
}