{
    "askPrice": "",
    "green": 0,
    "coupon": "3,00 %",
    "accruedInterest": "2,24",
    "settleDate": "2022.10.24",
    "askEhmYield": "",
    "bidYield": "4,97",
    "rawName": "K2023/04",
    "bidPrice": "99,50",
    "coupon_val": 3,
    "maturityInDays": "93 nap",
    "securityType": "1MÁP",
    "maturityDate": "2023.01.25",
    "name": "K2023/04",
    "bidEhmYield": "4,88",
    "askYield": "",
    "currency": "HUF",
    "maturityInDays_val": 93,
    "longName": "K230125"
}