{
    "askPrice": "",
    "green": 0,
    "coupon": "3,00 %",
    "accruedInterest": "2,01",
    "settleDate": "2022.09.27",
    "askEhmYield": "",
    "bidYield": "",
    "rawName": "K2023/04",
    "bidPrice": "99,50",
    "coupon_val": 3,
    "maturityInDays": "120 nap",
    "securityType": "1MÁP",
    "maturityDate": "2023.01.25",
    "name": "K2023/04",
    "bidEhmYield": "4,45",
    "askYield": "",
    "currency": "HUF",
    "maturityInDays_val": 120,
    "longName": "K230125"
}