{
    "askPrice": "",
    "green": 0,
    "coupon": "3,50 %",
    "accruedInterest": "1,3808",
    "settleDate": "2022.12.27",
    "askEhmYield": "",
    "bidYield": "5,43",
    "rawName": "N2026/36",
    "bidPrice": "99,5000",
    "coupon_val": 3.5,
    "maturityInDays": "1349 nap",
    "securityType": "MÁP Plusz",
    "maturityDate": "2026.09.06",
    "name": "N2026/36",
    "bidEhmYield": "",
    "askYield": "",
    "currency": "HUF",
    "maturityInDays_val": 1349,
    "issueDate": "2021.09.06",
    "longName": "N260906"
}