{
    "askPrice": "",
    "green": 0,
    "coupon": "3,50 %",
    "accruedInterest": "0,25",
    "settleDate": "2022.09.26",
    "askEhmYield": "",
    "bidYield": "",
    "rawName": "N2026/36",
    "bidPrice": "99,50",
    "coupon_val": 3.5,
    "maturityInDays": "1441 nap",
    "securityType": "MÁP Plusz",
    "maturityDate": "2026.09.06",
    "name": "N2026/36",
    "bidEhmYield": "",
    "askYield": "",
    "currency": "HUF",
    "maturityInDays_val": 1441,
    "longName": "N260906"
}