{
    "askPrice": "",
    "green": 0,
    "coupon": "3,50 %",
    "accruedInterest": "0,4781",
    "settleDate": "2023.10.11",
    "askEhmYield": "",
    "bidYield": "5,69",
    "rawName": "N2026/36",
    "bidPrice": "99,5000",
    "coupon_val": 3.5,
    "maturityInDays": "1061 nap",
    "securityType": "MÁP Plusz",
    "maturityDate": "2026.09.06",
    "name": "N2026/36",
    "bidEhmYield": "",
    "askYield": "",
    "currency": "HUF",
    "maturityInDays_val": 1061,
    "issueDate": "2021.09.06",
    "longName": "N260906"
}