{
    "askPrice": "",
    "green": 0,
    "coupon": "3,50 %",
    "accruedInterest": "2,5820",
    "settleDate": "2024.03.13",
    "askEhmYield": "",
    "bidYield": "5,80",
    "rawName": "N2026/36",
    "bidPrice": "99,5000",
    "coupon_val": 3.5,
    "maturityInDays": "907 nap",
    "securityType": "MÁP Plusz",
    "maturityDate": "2026.09.06",
    "name": "N2026/36",
    "bidEhmYield": "",
    "askYield": "",
    "currency": "HUF",
    "maturityInDays_val": 907,
    "issueDate": "2021.09.06",
    "longName": "N260906"
}