{
    "askPrice": "97,1074",
    "green": 0,
    "coupon": 0,
    "accruedInterest": 0,
    "settleDate": "2023.03.30",
    "askEhmYield": "14,31",
    "bidYield": "15,40",
    "rawName": "D230614",
    "bidPrice": "96,8513",
    "maturityInDays": "76 nap",
    "securityType": "DKJ",
    "maturityDate": "2023.06.14",
    "name": "D230614",
    "bidEhmYield": "15,61",
    "askYield": "14,11",
    "currency": "HUF",
    "maturityInDays_val": 76,
    "issueDate": "2023.03.16",
    "longName": "D230614"
}