{
    "askPrice": "97,6920",
    "green": 0,
    "coupon": 0,
    "accruedInterest": 0,
    "settleDate": "2023.04.12",
    "askEhmYield": "13,69",
    "bidYield": "14,81",
    "rawName": "D230614",
    "bidPrice": "97,4737",
    "maturityInDays": "63 nap",
    "securityType": "DKJ",
    "maturityDate": "2023.06.14",
    "name": "D230614",
    "bidEhmYield": "15,02",
    "askYield": "13,50",
    "currency": "HUF",
    "maturityInDays_val": 63,
    "issueDate": "2023.03.16",
    "longName": "D230614"
}