{
    "askPrice": "97,8845",
    "green": 0,
    "coupon": 0,
    "accruedInterest": 0,
    "settleDate": "2023.04.18",
    "askEhmYield": "13,84",
    "bidYield": "14,98",
    "rawName": "D230614",
    "bidPrice": "97,6831",
    "maturityInDays": "57 nap",
    "securityType": "DKJ",
    "maturityDate": "2023.06.14",
    "name": "D230614",
    "bidEhmYield": "15,19",
    "askYield": "13,65",
    "currency": "HUF",
    "maturityInDays_val": 57,
    "issueDate": "2023.03.16",
    "longName": "D230614"
}