{
    "askPrice": "98,5875",
    "green": 0,
    "coupon": 0,
    "accruedInterest": 0,
    "settleDate": "2023.05.08",
    "askEhmYield": "14,13",
    "bidYield": "15,25",
    "rawName": "D230614",
    "bidPrice": "98,4568",
    "maturityInDays": "37 nap",
    "securityType": "DKJ",
    "maturityDate": "2023.06.14",
    "name": "D230614",
    "bidEhmYield": "15,46",
    "askYield": "13,94",
    "currency": "HUF",
    "maturityInDays_val": 37,
    "issueDate": "2023.03.16",
    "longName": "D230614"
}