{
    "askPrice": "98,0348",
    "green": 0,
    "coupon": 0,
    "accruedInterest": 0,
    "settleDate": "2023.04.24",
    "askEhmYield": "14,35",
    "bidYield": "15,29",
    "rawName": "D230614",
    "bidPrice": "97,8798",
    "maturityInDays": "51 nap",
    "securityType": "DKJ",
    "maturityDate": "2023.06.14",
    "name": "D230614",
    "bidEhmYield": "15,50",
    "askYield": "14,15",
    "currency": "HUF",
    "maturityInDays_val": 51,
    "issueDate": "2023.03.16",
    "longName": "D230614"
}