{
    "askPrice": "97,3407",
    "green": 0,
    "coupon": 0,
    "accruedInterest": 0,
    "settleDate": "2023.04.05",
    "askEhmYield": "14,25",
    "bidYield": "15,37",
    "rawName": "D230614",
    "bidPrice": "97,0981",
    "maturityInDays": "70 nap",
    "securityType": "DKJ",
    "maturityDate": "2023.06.14",
    "name": "D230614",
    "bidEhmYield": "15,58",
    "askYield": "14,05",
    "currency": "HUF",
    "maturityInDays_val": 70,
    "issueDate": "2023.03.16",
    "longName": "D230614"
}