{
    "askPrice": "",
    "green": 0,
    "coupon": 0,
    "accruedInterest": 0,
    "settleDate": "2023.05.15",
    "askEhmYield": "",
    "bidYield": "15,25",
    "rawName": "D230614",
    "bidPrice": "98,7451",
    "maturityInDays": "30 nap",
    "securityType": "DKJ",
    "maturityDate": "2023.06.14",
    "name": "D230614",
    "bidEhmYield": "15,46",
    "askYield": "",
    "currency": "HUF",
    "maturityInDays_val": 30,
    "issueDate": "2023.03.16",
    "longName": "D230614"
}