{
    "askPrice": "",
    "green": 0,
    "coupon": "4,25 %",
    "accruedInterest": "2,05",
    "settleDate": "2022.11.02",
    "askEhmYield": "",
    "bidYield": "5,20",
    "rawName": "K2023/19",
    "bidPrice": "99,50",
    "coupon_val": 4.25,
    "maturityInDays": "189 nap",
    "securityType": "1MÁP",
    "maturityDate": "2023.05.10",
    "name": "K2023/19",
    "bidEhmYield": "5,14",
    "askYield": "",
    "currency": "HUF",
    "maturityInDays_val": 189,
    "issueDate": "2022-05-10",
    "longName": "K230510"
}