{
    "askPrice": "",
    "green": 0,
    "coupon": "4,25 %",
    "accruedInterest": "1,99",
    "settleDate": "2022.10.28",
    "askEhmYield": "",
    "bidYield": "5,18",
    "rawName": "K2023/19",
    "bidPrice": "99,50",
    "coupon_val": 4.25,
    "maturityInDays": "194 nap",
    "securityType": "1MÁP",
    "maturityDate": "2023.05.10",
    "name": "K2023/19",
    "bidEhmYield": "5,11",
    "askYield": "",
    "currency": "HUF",
    "maturityInDays_val": 194,
    "longName": "K230510"
}