{
    "askPrice": "",
    "green": 0,
    "coupon": "4,25 %",
    "accruedInterest": "2,7596",
    "settleDate": "2023.01.02",
    "askEhmYield": "",
    "bidYield": "7,14",
    "rawName": "K2023/19",
    "bidPrice": "99,0000",
    "coupon_val": 4.25,
    "maturityInDays": "128 nap",
    "securityType": "1MÁP",
    "maturityDate": "2023.05.10",
    "name": "K2023/19",
    "bidEhmYield": "6,98",
    "askYield": "",
    "currency": "HUF",
    "maturityInDays_val": 128,
    "issueDate": "2022.05.10",
    "longName": "K230510"
}