{
    "askPrice": "",
    "green": 0,
    "coupon": "4,25 %",
    "accruedInterest": "2,3870",
    "settleDate": "2022.12.01",
    "askEhmYield": "",
    "bidYield": "5,37",
    "rawName": "K2023/19",
    "bidPrice": "99,5000",
    "coupon_val": 4.25,
    "maturityInDays": "160 nap",
    "securityType": "1MÁP",
    "maturityDate": "2023.05.10",
    "name": "K2023/19",
    "bidEhmYield": "5,29",
    "askYield": "",
    "currency": "HUF",
    "maturityInDays_val": 160,
    "issueDate": "2022.05.10",
    "longName": "K230510"
}