{
    "askPrice": "",
    "green": 0,
    "coupon": "4,25 %",
    "accruedInterest": "1,56",
    "settleDate": "2022.09.21",
    "askEhmYield": "",
    "bidYield": "",
    "rawName": "K2023/19",
    "bidPrice": "99,50",
    "coupon_val": 4.25,
    "maturityInDays": "231 nap",
    "securityType": "1MÁP",
    "maturityDate": "2023.05.10",
    "name": "K2023/19",
    "bidEhmYield": "4,99",
    "askYield": "",
    "currency": "HUF",
    "maturityInDays_val": 231,
    "longName": "K230510"
}