{
    "askPrice": "",
    "green": 0,
    "coupon": "4,25 %",
    "accruedInterest": "1,30",
    "settleDate": "2022.08.30",
    "askEhmYield": "",
    "bidYield": "",
    "rawName": "K2023/19",
    "bidPrice": "99,50",
    "coupon_val": 4.25,
    "maturityInDays": "253 nap",
    "securityType": "1MÁP",
    "maturityDate": "2023.05.10",
    "name": "K2023/19",
    "bidEhmYield": "4,93",
    "askYield": "",
    "currency": "HUF",
    "maturityInDays_val": 253,
    "longName": "K230510"
}