{
    "askPrice": "",
    "green": 0,
    "coupon": "4,25 %",
    "accruedInterest": "1,73",
    "settleDate": "2022.10.06",
    "askEhmYield": "",
    "bidYield": "",
    "rawName": "K2023/19",
    "bidPrice": "99,50",
    "coupon_val": 4.25,
    "maturityInDays": "216 nap",
    "securityType": "1MÁP",
    "maturityDate": "2023.05.10",
    "name": "K2023/19",
    "bidEhmYield": "5,03",
    "askYield": "",
    "currency": "HUF",
    "maturityInDays_val": 216,
    "longName": "K230510"
}