{
    "askPrice": "",
    "green": 0,
    "coupon": "4,25 %",
    "accruedInterest": "4,1568",
    "settleDate": "2023.05.02",
    "askEhmYield": "",
    "bidYield": "35,58",
    "rawName": "K2023/19",
    "bidPrice": "99,4000",
    "coupon_val": 4.25,
    "maturityInDays": "8 nap",
    "securityType": "1MÁP",
    "maturityDate": "2023.05.10",
    "name": "K2023/19",
    "bidEhmYield": "30,54",
    "askYield": "",
    "currency": "HUF",
    "maturityInDays_val": 8,
    "issueDate": "2022.05.10",
    "longName": "K230510"
}