{
    "askPrice": "",
    "green": 0,
    "coupon": "4,25 %",
    "accruedInterest": "3,5048",
    "settleDate": "2023.03.07",
    "askEhmYield": "",
    "bidYield": "10,11",
    "rawName": "K2023/19",
    "bidPrice": "99,0000",
    "coupon_val": 4.25,
    "maturityInDays": "64 nap",
    "securityType": "1MÁP",
    "maturityDate": "2023.05.10",
    "name": "K2023/19",
    "bidEhmYield": "9,71",
    "askYield": "",
    "currency": "HUF",
    "maturityInDays_val": 64,
    "issueDate": "2022.05.10",
    "longName": "K230510"
}