{
    "askPrice": "",
    "green": 0,
    "coupon": "4,25 %",
    "accruedInterest": "2,8877",
    "settleDate": "2023.01.13",
    "askEhmYield": "",
    "bidYield": "7,41",
    "rawName": "K2023/19",
    "bidPrice": "99,0000",
    "coupon_val": 4.25,
    "maturityInDays": "117 nap",
    "securityType": "1MÁP",
    "maturityDate": "2023.05.10",
    "name": "K2023/19",
    "bidEhmYield": "7,23",
    "askYield": "",
    "currency": "HUF",
    "maturityInDays_val": 117,
    "issueDate": "2022.05.10",
    "longName": "K230510"
}