{
    "askPrice": "",
    "green": 0,
    "coupon": "4,25 %",
    "accruedInterest": "3,9822",
    "settleDate": "2023.04.17",
    "askEhmYield": "",
    "bidYield": "21,43",
    "rawName": "K2023/19",
    "bidPrice": "99,0000",
    "coupon_val": 4.25,
    "maturityInDays": "23 nap",
    "securityType": "1MÁP",
    "maturityDate": "2023.05.10",
    "name": "K2023/19",
    "bidEhmYield": "19,54",
    "askYield": "",
    "currency": "HUF",
    "maturityInDays_val": 23,
    "issueDate": "2022.05.10",
    "longName": "K230510"
}