{
    "askPrice": "",
    "green": 0,
    "coupon": "3,50 %",
    "accruedInterest": "0,82",
    "settleDate": "2022.11.09",
    "askEhmYield": "",
    "bidYield": "5,10",
    "rawName": "N2027/33",
    "bidPrice": "99,50",
    "coupon_val": 3.5,
    "maturityInDays": "1740 nap",
    "securityType": "MÁP Plusz",
    "maturityDate": "2027.08.15",
    "name": "N2027/33",
    "bidEhmYield": "",
    "askYield": "",
    "currency": "HUF",
    "maturityInDays_val": 1740,
    "issueDate": "2022-08-15",
    "longName": "N270815"
}