{
    "askPrice": "",
    "green": 0,
    "coupon": "3,50 %",
    "accruedInterest": "1,7017",
    "settleDate": "2023.07.19",
    "askEhmYield": "",
    "bidYield": "5,33",
    "rawName": "N2027/33",
    "bidPrice": "99,5000",
    "coupon_val": 3.5,
    "maturityInDays": "1488 nap",
    "securityType": "MÁP Plusz",
    "maturityDate": "2027.08.15",
    "name": "N2027/33",
    "bidEhmYield": "",
    "askYield": "",
    "currency": "HUF",
    "maturityInDays_val": 1488,
    "issueDate": "2022.08.15",
    "longName": "N270815"
}