{
    "askPrice": "",
    "green": 0,
    "coupon": "3,50 %",
    "accruedInterest": "2,9262",
    "settleDate": "2024.04.09",
    "askEhmYield": "",
    "bidYield": "5,53",
    "rawName": "N2027/33",
    "bidPrice": "99,5000",
    "coupon_val": 3.5,
    "maturityInDays": "1223 nap",
    "securityType": "MÁP Plusz",
    "maturityDate": "2027.08.15",
    "name": "N2027/33",
    "bidEhmYield": "",
    "askYield": "",
    "currency": "HUF",
    "maturityInDays_val": 1223,
    "issueDate": "2022.08.15",
    "longName": "N270815"
}