{
    "askPrice": "",
    "green": 0,
    "coupon": "3,50 %",
    "accruedInterest": "2,1762",
    "settleDate": "2024.02.08",
    "askEhmYield": "",
    "bidYield": "5,48",
    "rawName": "N2027/33",
    "bidPrice": "99,5000",
    "coupon_val": 3.5,
    "maturityInDays": "1284 nap",
    "securityType": "MÁP Plusz",
    "maturityDate": "2027.08.15",
    "name": "N2027/33",
    "bidEhmYield": "",
    "askYield": "",
    "currency": "HUF",
    "maturityInDays_val": 1284,
    "issueDate": "2022.08.15",
    "longName": "N270815"
}