{
    "askPrice": "",
    "green": 0,
    "coupon": null,
    "accruedInterest": "3,5152",
    "settleDate": "2024.02.13",
    "askEhmYield": "",
    "bidYield": "",
    "rawName": "2025/X_EUR",
    "bidPrice": "99,0000",
    "maturityInDays": "555 nap",
    "securityType": "PEMÁP",
    "maturityDate": "2025.08.21",
    "name": "2025/X_EUR",
    "bidEhmYield": "",
    "askYield": "",
    "currency": "EUR",
    "maturityInDays_val": 555,
    "issueDate": "2020.06.05",
    "longName": "C250821X20"
}