{
    "askPrice": "",
    "green": 0,
    "coupon": null,
    "accruedInterest": "0,5266",
    "settleDate": "2024.04.15",
    "askEhmYield": "",
    "bidYield": "",
    "rawName": "2025/X_EUR",
    "bidPrice": "99,0000",
    "maturityInDays": "493 nap",
    "securityType": "PEMÁP",
    "maturityDate": "2025.08.21",
    "name": "2025/X_EUR",
    "bidEhmYield": "",
    "askYield": "",
    "currency": "EUR",
    "maturityInDays_val": 493,
    "issueDate": "2020.06.05",
    "longName": "C250821X20"
}