{
    "askPrice": "",
    "green": 0,
    "coupon": null,
    "accruedInterest": "3,1557",
    "settleDate": "2024.01.26",
    "askEhmYield": "",
    "bidYield": "",
    "rawName": "2025/X_EUR",
    "bidPrice": "99,0000",
    "maturityInDays": "573 nap",
    "securityType": "PEMÁP",
    "maturityDate": "2025.08.21",
    "name": "2025/X_EUR",
    "bidEhmYield": "",
    "askYield": "",
    "currency": "EUR",
    "maturityInDays_val": 573,
    "issueDate": "2020.06.05",
    "longName": "C250821X20"
}