{
    "askPrice": "",
    "green": 0,
    "coupon": "3,50 %",
    "accruedInterest": "3,08",
    "settleDate": "2022.10.20",
    "askEhmYield": "",
    "bidYield": "5,83",
    "rawName": "N2025/10",
    "bidPrice": "99,50",
    "coupon_val": 3.5,
    "maturityInDays": "871 nap",
    "securityType": "MÁP Plusz",
    "maturityDate": "2025.03.09",
    "name": "N2025/10",
    "bidEhmYield": "",
    "askYield": "",
    "currency": "HUF",
    "maturityInDays_val": 871,
    "longName": "N250309"
}