{
    "askPrice": "",
    "green": 0,
    "coupon": "3,50 %",
    "accruedInterest": "2,56",
    "settleDate": "2022.09.12",
    "askEhmYield": "",
    "bidYield": "",
    "rawName": "N2025/10",
    "bidPrice": "99,50",
    "coupon_val": 3.5,
    "maturityInDays": "909 nap",
    "securityType": "MÁP Plusz",
    "maturityDate": "2025.03.09",
    "name": "N2025/10",
    "bidEhmYield": "",
    "askYield": "",
    "currency": "HUF",
    "maturityInDays_val": 909,
    "longName": "N250309"
}