{
    "askPrice": "",
    "green": 0,
    "coupon": "3,50 %",
    "accruedInterest": "4,1175",
    "settleDate": "2023.12.08",
    "askEhmYield": "",
    "bidYield": "6,30",
    "rawName": "N2025/10",
    "bidPrice": "99,5000",
    "coupon_val": 3.5,
    "maturityInDays": "457 nap",
    "securityType": "MÁP Plusz",
    "maturityDate": "2025.03.09",
    "name": "N2025/10",
    "bidEhmYield": "",
    "askYield": "",
    "currency": "HUF",
    "maturityInDays_val": 457,
    "issueDate": "2020.03.09",
    "longName": "N250309"
}