{
    "askPrice": "",
    "green": 0,
    "coupon": "3,50 %",
    "accruedInterest": "5,3197",
    "settleDate": "2024.02.26",
    "askEhmYield": "",
    "bidYield": "6,49",
    "rawName": "N2025/10",
    "bidPrice": "99,5000",
    "coupon_val": 3.5,
    "maturityInDays": "377 nap",
    "securityType": "MÁP Plusz",
    "maturityDate": "2025.03.09",
    "name": "N2025/10",
    "bidEhmYield": "",
    "askYield": "",
    "currency": "HUF",
    "maturityInDays_val": 377,
    "issueDate": "2020.03.09",
    "longName": "N250309"
}