{
    "askPrice": "",
    "green": 0,
    "coupon": "3,50 %",
    "accruedInterest": "0,0822",
    "settleDate": "2024.03.14",
    "askEhmYield": "",
    "bidYield": "6,00",
    "rawName": "N2025/10",
    "bidPrice": "100,0000",
    "coupon_val": 3.5,
    "maturityInDays": "360 nap",
    "securityType": "MÁP Plusz",
    "maturityDate": "2025.03.09",
    "name": "N2025/10",
    "bidEhmYield": "",
    "askYield": "",
    "currency": "HUF",
    "maturityInDays_val": 360,
    "issueDate": "2020.03.09",
    "longName": "N250309"
}