{
    "askPrice": "",
    "green": 0,
    "coupon": "3,50 %",
    "accruedInterest": "2,09",
    "settleDate": "2022.11.10",
    "askEhmYield": "",
    "bidYield": "6,11",
    "rawName": "N2024/03",
    "bidPrice": "99,50",
    "coupon_val": 3.5,
    "maturityInDays": "592 nap",
    "securityType": "MÁP Plusz",
    "maturityDate": "2024.06.24",
    "name": "N2024/03",
    "bidEhmYield": "",
    "askYield": "",
    "currency": "HUF",
    "maturityInDays_val": 592,
    "issueDate": "2019-06-24",
    "longName": "N240624"
}