{
    "askPrice": "",
    "green": 0,
    "coupon": "3,50 %",
    "accruedInterest": "2,22",
    "settleDate": "2022.11.18",
    "askEhmYield": "",
    "bidYield": "6,12",
    "rawName": "N2024/03",
    "bidPrice": "99,50",
    "coupon_val": 3.5,
    "maturityInDays": "584 nap",
    "securityType": "MÁP Plusz",
    "maturityDate": "2024.06.24",
    "name": "N2024/03",
    "bidEhmYield": "",
    "askYield": "",
    "currency": "HUF",
    "maturityInDays_val": 584,
    "issueDate": "2019-06-24",
    "longName": "N240624"
}