{
    "askPrice": "",
    "green": 0,
    "coupon": "3,50 %",
    "accruedInterest": "0,81",
    "settleDate": "2022.08.17",
    "askEhmYield": "",
    "bidYield": "",
    "rawName": "N2024/03",
    "bidPrice": "99,50",
    "coupon_val": 3.5,
    "maturityInDays": "677 nap",
    "securityType": "MÁP Plusz",
    "maturityDate": "2024.06.24",
    "name": "N2024/03",
    "bidEhmYield": "",
    "askYield": "",
    "currency": "HUF",
    "maturityInDays_val": 677,
    "longName": "N240624"
}