{
    "askPrice": "",
    "green": 0,
    "coupon": "3,50 %",
    "accruedInterest": "3,6315",
    "settleDate": "2023.02.20",
    "askEhmYield": "",
    "bidYield": "6,24",
    "rawName": "N2024/03",
    "bidPrice": "99,5000",
    "coupon_val": 3.5,
    "maturityInDays": "490 nap",
    "securityType": "MÁP Plusz",
    "maturityDate": "2024.06.24",
    "name": "N2024/03",
    "bidEhmYield": "",
    "askYield": "",
    "currency": "HUF",
    "maturityInDays_val": 490,
    "issueDate": "2019.06.24",
    "longName": "N240624"
}