{
    "askPrice": "",
    "green": 0,
    "coupon": "3,50 %",
    "accruedInterest": "0,0328",
    "settleDate": "2023.06.26",
    "askEhmYield": "",
    "bidYield": "6,53",
    "rawName": "N2024/03",
    "bidPrice": "99,5000",
    "coupon_val": 3.5,
    "maturityInDays": "364 nap",
    "securityType": "MÁP Plusz",
    "maturityDate": "2024.06.24",
    "name": "N2024/03",
    "bidEhmYield": "",
    "askYield": "",
    "currency": "HUF",
    "maturityInDays_val": 364,
    "issueDate": "2019.06.24",
    "longName": "N240624"
}