{
    "askPrice": "",
    "green": 0,
    "coupon": "3,50 %",
    "accruedInterest": "4,0820",
    "settleDate": "2024.02.28",
    "askEhmYield": "",
    "bidYield": "7,48",
    "rawName": "N2024/03",
    "bidPrice": "99,5000",
    "coupon_val": 3.5,
    "maturityInDays": "117 nap",
    "securityType": "MÁP Plusz",
    "maturityDate": "2024.06.24",
    "name": "N2024/03",
    "bidEhmYield": "",
    "askYield": "",
    "currency": "HUF",
    "maturityInDays_val": 117,
    "issueDate": "2019.06.24",
    "longName": "N240624"
}