{
    "askPrice": "",
    "green": 0,
    "coupon": "3,50 %",
    "accruedInterest": "5,3115",
    "settleDate": "2024.05.13",
    "askEhmYield": "",
    "bidYield": "10,33",
    "rawName": "N2024/03",
    "bidPrice": "99,5000",
    "coupon_val": 3.5,
    "maturityInDays": "42 nap",
    "securityType": "MÁP Plusz",
    "maturityDate": "2024.06.24",
    "name": "N2024/03",
    "bidEhmYield": "",
    "askYield": "",
    "currency": "HUF",
    "maturityInDays_val": 42,
    "issueDate": "2019.06.24",
    "longName": "N240624"
}