{
    "askPrice": "",
    "green": 0,
    "coupon": "3,50 %",
    "accruedInterest": "1,2356",
    "settleDate": "2022.12.14",
    "askEhmYield": "",
    "bidYield": "6,06",
    "rawName": "N2024/16",
    "bidPrice": "99,5000",
    "coupon_val": 3.5,
    "maturityInDays": "649 nap",
    "securityType": "MÁP Plusz",
    "maturityDate": "2024.09.23",
    "name": "N2024/16",
    "bidEhmYield": "",
    "askYield": "",
    "currency": "HUF",
    "maturityInDays_val": 649,
    "issueDate": "2019.09.23",
    "longName": "N240923"
}