{
    "askPrice": "",
    "green": 0,
    "coupon": "3,50 %",
    "accruedInterest": "0,84",
    "settleDate": "2022.11.18",
    "askEhmYield": "",
    "bidYield": "6,05",
    "rawName": "N2024/16",
    "bidPrice": "99,50",
    "coupon_val": 3.5,
    "maturityInDays": "675 nap",
    "securityType": "MÁP Plusz",
    "maturityDate": "2024.09.23",
    "name": "N2024/16",
    "bidEhmYield": "",
    "askYield": "",
    "currency": "HUF",
    "maturityInDays_val": 675,
    "issueDate": "2019-09-23",
    "longName": "N240923"
}