{
    "askPrice": "",
    "green": 0,
    "coupon": "3,50 %",
    "accruedInterest": "3,74",
    "settleDate": "2022.06.23",
    "askEhmYield": "",
    "bidYield": "",
    "rawName": "N2024/16",
    "bidPrice": "99,50",
    "coupon_val": 3.5,
    "maturityInDays": "823 nap",
    "securityType": "MÁP Plusz",
    "maturityDate": "2024.09.23",
    "name": "N2024/16",
    "bidEhmYield": "",
    "askYield": "",
    "currency": "HUF",
    "maturityInDays_val": 823,
    "longName": "N240923"
}