{
    "askPrice": "",
    "green": 0,
    "coupon": "3,50 %",
    "accruedInterest": "4,5808",
    "settleDate": "2023.07.24",
    "askEhmYield": "",
    "bidYield": "6,36",
    "rawName": "N2024/16",
    "bidPrice": "99,5000",
    "coupon_val": 3.5,
    "maturityInDays": "427 nap",
    "securityType": "MÁP Plusz",
    "maturityDate": "2024.09.23",
    "name": "N2024/16",
    "bidEhmYield": "",
    "askYield": "",
    "currency": "HUF",
    "maturityInDays_val": 427,
    "issueDate": "2019.09.23",
    "longName": "N240923"
}