{
    "askPrice": "",
    "green": 0,
    "coupon": "3,50 %",
    "accruedInterest": 0,
    "settleDate": "2023.09.22",
    "askEhmYield": "",
    "bidYield": "",
    "rawName": "N2024/16",
    "bidPrice": "",
    "coupon_val": 3.5,
    "maturityInDays": "367 nap",
    "securityType": "MÁP Plusz",
    "maturityDate": "2024.09.23",
    "name": "N2024/16",
    "bidEhmYield": "",
    "askYield": "",
    "currency": "HUF",
    "maturityInDays_val": 367,
    "issueDate": "2019.09.23",
    "longName": "N240923"
}