{
    "askPrice": "",
    "green": 0,
    "coupon": "3,50 %",
    "accruedInterest": "3,1967",
    "settleDate": "2024.04.05",
    "askEhmYield": "",
    "bidYield": "7,01",
    "rawName": "N2024/16",
    "bidPrice": "99,5000",
    "coupon_val": 3.5,
    "maturityInDays": "171 nap",
    "securityType": "MÁP Plusz",
    "maturityDate": "2024.09.23",
    "name": "N2024/16",
    "bidEhmYield": "",
    "askYield": "",
    "currency": "HUF",
    "maturityInDays_val": 171,
    "issueDate": "2019.09.23",
    "longName": "N240923"
}