{
    "askPrice": "99,31",
    "green": 0,
    "coupon": "1,50 %",
    "accruedInterest": "1,27",
    "settleDate": "2022.06.29",
    "askEhmYield": "6,12",
    "bidYield": "6,82",
    "rawName": "2022/C",
    "bidPrice": "99,21",
    "coupon_val": 1.5,
    "maturityInDays": "56 nap",
    "securityType": "KTV",
    "maturityDate": "2022.08.24",
    "name": "2022/C",
    "bidEhmYield": "6,82",
    "askYield": "6,12",
    "currency": "HUF",
    "maturityInDays_val": 56,
    "longName": "A220824C19"
}