{
    "askPrice": "99,52",
    "green": 0,
    "coupon": "1,50 %",
    "accruedInterest": "1,38",
    "settleDate": "2022.07.26",
    "askEhmYield": "7,80",
    "bidYield": "8,50",
    "rawName": "2022/C",
    "bidPrice": "99,46",
    "coupon_val": 1.5,
    "maturityInDays": "29 nap",
    "securityType": "KTV",
    "maturityDate": "2022.08.24",
    "name": "2022/C",
    "bidEhmYield": "8,50",
    "askYield": "7,80",
    "currency": "HUF",
    "maturityInDays_val": 29,
    "longName": "A220824C19"
}