{
    "askPrice": "99,54",
    "green": 0,
    "coupon": "1,50 %",
    "accruedInterest": "1,35",
    "settleDate": "2022.07.19",
    "askEhmYield": "6,26",
    "bidYield": "6,96",
    "rawName": "2022/C",
    "bidPrice": "99,48",
    "coupon_val": 1.5,
    "maturityInDays": "36 nap",
    "securityType": "KTV",
    "maturityDate": "2022.08.24",
    "name": "2022/C",
    "bidEhmYield": "6,96",
    "askYield": "6,26",
    "currency": "HUF",
    "maturityInDays_val": 36,
    "longName": "A220824C19"
}