{
    "askPrice": "",
    "green": 0,
    "coupon": "3,50 %",
    "accruedInterest": "1,97",
    "settleDate": "2022.10.17",
    "askEhmYield": "",
    "bidYield": "",
    "rawName": "N2026/19",
    "bidPrice": "99,50",
    "coupon_val": 3.5,
    "maturityInDays": "1301 nap",
    "securityType": "MÁP Plusz",
    "maturityDate": "2026.05.10",
    "name": "N2026/19",
    "bidEhmYield": "",
    "askYield": "",
    "currency": "HUF",
    "maturityInDays_val": 1301,
    "longName": "N260510"
}