{
    "askPrice": "",
    "green": 0,
    "coupon": "3,50 %",
    "accruedInterest": "2,0082",
    "settleDate": "2023.10.04",
    "askEhmYield": "",
    "bidYield": "5,76",
    "rawName": "N2026/19",
    "bidPrice": "99,5000",
    "coupon_val": 3.5,
    "maturityInDays": "949 nap",
    "securityType": "MÁP Plusz",
    "maturityDate": "2026.05.10",
    "name": "N2026/19",
    "bidEhmYield": "",
    "askYield": "",
    "currency": "HUF",
    "maturityInDays_val": 949,
    "issueDate": "2021.05.10",
    "longName": "N260510"
}