{
    "askPrice": "",
    "green": 0,
    "coupon": "3,50 %",
    "accruedInterest": "0,9426",
    "settleDate": "2023.07.18",
    "askEhmYield": "",
    "bidYield": "5,71",
    "rawName": "N2026/19",
    "bidPrice": "99,5000",
    "coupon_val": 3.5,
    "maturityInDays": "1027 nap",
    "securityType": "MÁP Plusz",
    "maturityDate": "2026.05.10",
    "name": "N2026/19",
    "bidEhmYield": "",
    "askYield": "",
    "currency": "HUF",
    "maturityInDays_val": 1027,
    "issueDate": "2021.05.10",
    "longName": "N260510"
}