{
    "askPrice": "",
    "green": 0,
    "coupon": "3,50 %",
    "accruedInterest": "4,8497",
    "settleDate": "2024.04.29",
    "askEhmYield": "",
    "bidYield": "6,00",
    "rawName": "N2026/19",
    "bidPrice": "99,5000",
    "coupon_val": 3.5,
    "maturityInDays": "741 nap",
    "securityType": "MÁP Plusz",
    "maturityDate": "2026.05.10",
    "name": "N2026/19",
    "bidEhmYield": "",
    "askYield": "",
    "currency": "HUF",
    "maturityInDays_val": 741,
    "issueDate": "2021.05.10",
    "longName": "N260510"
}