{
    "askPrice": "98,1655",
    "green": 0,
    "coupon": 0,
    "accruedInterest": 0,
    "settleDate": "2023.08.25",
    "askEhmYield": "9,09",
    "bidYield": "10,27",
    "rawName": "D231108",
    "bidPrice": "97,9052",
    "maturityInDays": "75 nap",
    "securityType": "DKJ",
    "maturityDate": "2023.11.08",
    "name": "D231108",
    "bidEhmYield": "10,41",
    "askYield": "8,97",
    "currency": "HUF",
    "maturityInDays_val": 75,
    "issueDate": "2023.08.09",
    "longName": "D231108"
}