{
    "askPrice": "",
    "green": 0,
    "coupon": 0,
    "accruedInterest": 0,
    "settleDate": "2023.09.29",
    "askEhmYield": "",
    "bidYield": "8,90",
    "rawName": "D231108",
    "bidPrice": "99,0208",
    "maturityInDays": "40 nap",
    "securityType": "DKJ",
    "maturityDate": "2023.11.08",
    "name": "D231108",
    "bidEhmYield": "9,02",
    "askYield": "",
    "currency": "HUF",
    "maturityInDays_val": 40,
    "issueDate": "2023.08.09",
    "longName": "D231108"
}