{
    "askPrice": "",
    "green": 0,
    "coupon": 0,
    "accruedInterest": 0,
    "settleDate": "2023.10.10",
    "askEhmYield": "",
    "bidYield": "9,05",
    "rawName": "D231108",
    "bidPrice": "99,2762",
    "maturityInDays": "29 nap",
    "securityType": "DKJ",
    "maturityDate": "2023.11.08",
    "name": "D231108",
    "bidEhmYield": "9,18",
    "askYield": "",
    "currency": "HUF",
    "maturityInDays_val": 29,
    "issueDate": "2023.08.09",
    "longName": "D231108"
}