{
    "askPrice": "",
    "green": 0,
    "coupon": 0,
    "accruedInterest": 0,
    "settleDate": "2023.10.27",
    "askEhmYield": "",
    "bidYield": "8,69",
    "rawName": "D231108",
    "bidPrice": "99,7112",
    "maturityInDays": "12 nap",
    "securityType": "DKJ",
    "maturityDate": "2023.11.08",
    "name": "D231108",
    "bidEhmYield": "8,81",
    "askYield": "",
    "currency": "HUF",
    "maturityInDays_val": 12,
    "issueDate": "2023.08.09",
    "longName": "D231108"
}