{
    "askPrice": "98,9054",
    "green": 0,
    "coupon": 0,
    "accruedInterest": 0,
    "settleDate": "2023.09.21",
    "askEhmYield": "8,42",
    "bidYield": "9,64",
    "rawName": "D231108",
    "bidPrice": "98,7310",
    "maturityInDays": "48 nap",
    "securityType": "DKJ",
    "maturityDate": "2023.11.08",
    "name": "D231108",
    "bidEhmYield": "9,77",
    "askYield": "8,30",
    "currency": "HUF",
    "maturityInDays_val": 48,
    "issueDate": "2023.08.09",
    "longName": "D231108"
}