{
    "askPrice": "98,1402",
    "green": 0,
    "coupon": 0,
    "accruedInterest": 0,
    "settleDate": "2023.08.23",
    "askEhmYield": "8,98",
    "bidYield": "10,17",
    "rawName": "D231108",
    "bidPrice": "97,8711",
    "maturityInDays": "77 nap",
    "securityType": "DKJ",
    "maturityDate": "2023.11.08",
    "name": "D231108",
    "bidEhmYield": "10,31",
    "askYield": "8,86",
    "currency": "HUF",
    "maturityInDays_val": 77,
    "issueDate": "2023.08.09",
    "longName": "D231108"
}