{
    "askPrice": "98,8829",
    "green": 0,
    "coupon": 0,
    "accruedInterest": 0,
    "settleDate": "2023.09.20",
    "askEhmYield": "8,42",
    "bidYield": "9,62",
    "rawName": "D231108",
    "bidPrice": "98,7075",
    "maturityInDays": "49 nap",
    "securityType": "DKJ",
    "maturityDate": "2023.11.08",
    "name": "D231108",
    "bidEhmYield": "9,75",
    "askYield": "8,30",
    "currency": "HUF",
    "maturityInDays_val": 49,
    "issueDate": "2023.08.09",
    "longName": "D231108"
}