{
    "askPrice": "63,60",
    "green": 0,
    "coupon": "2,00 %",
    "accruedInterest": "0,31",
    "settleDate": "2022.07.18",
    "askEhmYield": "9,46",
    "bidYield": "10,06",
    "rawName": "2029/A",
    "bidPrice": "61,43",
    "coupon_val": 2,
    "maturityInDays": "2501 nap",
    "securityType": "KTV",
    "maturityDate": "2029.05.23",
    "name": "2029/A",
    "bidEhmYield": "10,06",
    "askYield": "9,46",
    "currency": "HUF",
    "maturityInDays_val": 2501,
    "longName": "A290523A20"
}