{
    "askPrice": "64,83",
    "green": 0,
    "coupon": "2,00 %",
    "accruedInterest": "0,94",
    "settleDate": "2022.11.11",
    "askEhmYield": "9,45",
    "bidYield": "10,10",
    "rawName": "2029/A",
    "bidPrice": "62,57",
    "coupon_val": 2,
    "maturityInDays": "2385 nap",
    "securityType": "KTV",
    "maturityDate": "2029.05.23",
    "name": "2029/A",
    "bidEhmYield": "10,09",
    "askYield": "9,46",
    "currency": "HUF",
    "maturityInDays_val": 2385,
    "issueDate": "2020-06-24",
    "longName": "A290523A20"
}