{
    "askPrice": "69,4791",
    "green": 0,
    "coupon": "2,00 %",
    "accruedInterest": "1,1945",
    "settleDate": "2022.12.27",
    "askEhmYield": "8,33",
    "bidYield": "9,21",
    "rawName": "2029/A",
    "bidPrice": "66,2282",
    "coupon_val": 2,
    "maturityInDays": "2339 nap",
    "securityType": "KTV",
    "maturityDate": "2029.05.23",
    "name": "2029/A",
    "bidEhmYield": "9,20",
    "askYield": "8,34",
    "currency": "HUF",
    "maturityInDays_val": 2339,
    "issueDate": "2020.06.24",
    "longName": "A290523A20"
}