{
    "askPrice": "67,79",
    "green": 0,
    "coupon": "2,00 %",
    "accruedInterest": "0,25",
    "settleDate": "2022.07.07",
    "askEhmYield": "8,34",
    "bidYield": "8,94",
    "rawName": "2029/A",
    "bidPrice": "65,44",
    "coupon_val": 2,
    "maturityInDays": "2512 nap",
    "securityType": "KTV",
    "maturityDate": "2029.05.23",
    "name": "2029/A",
    "bidEhmYield": "8,94",
    "askYield": "8,34",
    "currency": "HUF",
    "maturityInDays_val": 2512,
    "longName": "A290523A20"
}