{
    "askPrice": "68,50",
    "green": 0,
    "coupon": "2,00 %",
    "accruedInterest": "0,98",
    "settleDate": "2022.11.17",
    "askEhmYield": "8,48",
    "bidYield": "9,19",
    "rawName": "2029/A",
    "bidPrice": "65,87",
    "coupon_val": 2,
    "maturityInDays": "2379 nap",
    "securityType": "KTV",
    "maturityDate": "2029.05.23",
    "name": "2029/A",
    "bidEhmYield": "9,18",
    "askYield": "8,49",
    "currency": "HUF",
    "maturityInDays_val": 2379,
    "issueDate": "2020-06-24",
    "longName": "A290523A20"
}