{
    "askPrice": "64,63",
    "green": 0,
    "coupon": "2,00 %",
    "accruedInterest": "0,69",
    "settleDate": "2022.09.26",
    "askEhmYield": "9,38",
    "bidYield": "9,98",
    "rawName": "2029/A",
    "bidPrice": "62,47",
    "coupon_val": 2,
    "maturityInDays": "2431 nap",
    "securityType": "KTV",
    "maturityDate": "2029.05.23",
    "name": "2029/A",
    "bidEhmYield": "9,98",
    "askYield": "9,38",
    "currency": "HUF",
    "maturityInDays_val": 2431,
    "longName": "A290523A20"
}