{
    "askPrice": "67,92",
    "green": 0,
    "coupon": "2,00 %",
    "accruedInterest": "0,15",
    "settleDate": "2022.06.20",
    "askEhmYield": "8,27",
    "bidYield": "8,87",
    "rawName": "2029/A",
    "bidPrice": "65,55",
    "coupon_val": 2,
    "maturityInDays": "2529 nap",
    "securityType": "KTV",
    "maturityDate": "2029.05.23",
    "name": "2029/A",
    "bidEhmYield": "8,87",
    "askYield": "8,27",
    "currency": "HUF",
    "maturityInDays_val": 2529,
    "longName": "A290523A20"
}