{
    "askPrice": "67,99",
    "green": 0,
    "coupon": "2,00 %",
    "accruedInterest": "0,97",
    "settleDate": "2022.11.16",
    "askEhmYield": "8,61",
    "bidYield": "9,34",
    "rawName": "2029/A",
    "bidPrice": "65,31",
    "coupon_val": 2,
    "maturityInDays": "2380 nap",
    "securityType": "KTV",
    "maturityDate": "2029.05.23",
    "name": "2029/A",
    "bidEhmYield": "9,33",
    "askYield": "8,62",
    "currency": "HUF",
    "maturityInDays_val": 2380,
    "issueDate": "2020-06-24",
    "longName": "A290523A20"
}