{
    "askPrice": "70,0300",
    "green": 0,
    "coupon": "2,00 %",
    "accruedInterest": "1,2000",
    "settleDate": "2022.12.28",
    "askEhmYield": "8,19",
    "bidYield": "8,99",
    "rawName": "2029/A",
    "bidPrice": "67,0432",
    "coupon_val": 2,
    "maturityInDays": "2338 nap",
    "securityType": "KTV",
    "maturityDate": "2029.05.23",
    "name": "2029/A",
    "bidEhmYield": "8,98",
    "askYield": "8,20",
    "currency": "HUF",
    "maturityInDays_val": 2338,
    "issueDate": "2020.06.24",
    "longName": "A290523A20"
}