{
    "askPrice": "69,06",
    "green": 0,
    "coupon": "2,00 %",
    "accruedInterest": "0,20",
    "settleDate": "2022.06.29",
    "askEhmYield": "8,01",
    "bidYield": "8,61",
    "rawName": "2029/A",
    "bidPrice": "66,65",
    "coupon_val": 2,
    "maturityInDays": "2520 nap",
    "securityType": "KTV",
    "maturityDate": "2029.05.23",
    "name": "2029/A",
    "bidEhmYield": "8,61",
    "askYield": "8,01",
    "currency": "HUF",
    "maturityInDays_val": 2520,
    "longName": "A290523A20"
}