{
    "askPrice": "68,42",
    "green": 0,
    "coupon": "2,00 %",
    "accruedInterest": "0,42",
    "settleDate": "2022.08.08",
    "askEhmYield": "8,26",
    "bidYield": "8,86",
    "rawName": "2029/A",
    "bidPrice": "66,07",
    "coupon_val": 2,
    "maturityInDays": "2480 nap",
    "securityType": "KTV",
    "maturityDate": "2029.05.23",
    "name": "2029/A",
    "bidEhmYield": "8,86",
    "askYield": "8,26",
    "currency": "HUF",
    "maturityInDays_val": 2480,
    "longName": "A290523A20"
}