{
    "askPrice": "63,16",
    "green": 0,
    "coupon": "2,00 %",
    "accruedInterest": "0,77",
    "settleDate": "2022.10.10",
    "askEhmYield": "9,83",
    "bidYield": "10,43",
    "rawName": "2029/A",
    "bidPrice": "61,08",
    "coupon_val": 2,
    "maturityInDays": "2417 nap",
    "securityType": "KTV",
    "maturityDate": "2029.05.23",
    "name": "2029/A",
    "bidEhmYield": "10,43",
    "askYield": "9,83",
    "currency": "HUF",
    "maturityInDays_val": 2417,
    "longName": "A290523A20"
}