{
    "askPrice": "70,8160",
    "green": 0,
    "coupon": "2,00 %",
    "accruedInterest": "1,0904",
    "settleDate": "2022.12.08",
    "askEhmYield": "7,94",
    "bidYield": "8,80",
    "rawName": "2029/A",
    "bidPrice": "67,5390",
    "coupon_val": 2,
    "maturityInDays": "2358 nap",
    "securityType": "KTV",
    "maturityDate": "2029.05.23",
    "name": "2029/A",
    "bidEhmYield": "8,79",
    "askYield": "7,95",
    "currency": "HUF",
    "maturityInDays_val": 2358,
    "issueDate": "2020.06.24",
    "longName": "A290523A20"
}