{
    "askPrice": "66,63",
    "green": 0,
    "coupon": "2,00 %",
    "accruedInterest": "0,50",
    "settleDate": "2022.08.22",
    "askEhmYield": "8,75",
    "bidYield": "9,35",
    "rawName": "2029/A",
    "bidPrice": "64,37",
    "coupon_val": 2,
    "maturityInDays": "2466 nap",
    "securityType": "KTV",
    "maturityDate": "2029.05.23",
    "name": "2029/A",
    "bidEhmYield": "9,35",
    "askYield": "8,75",
    "currency": "HUF",
    "maturityInDays_val": 2466,
    "longName": "A290523A20"
}