{
    "askPrice": "68,57",
    "green": 0,
    "coupon": "2,00 %",
    "accruedInterest": "0,44",
    "settleDate": "2022.08.12",
    "askEhmYield": "8,23",
    "bidYield": "8,83",
    "rawName": "2029/A",
    "bidPrice": "66,22",
    "coupon_val": 2,
    "maturityInDays": "2476 nap",
    "securityType": "KTV",
    "maturityDate": "2029.05.23",
    "name": "2029/A",
    "bidEhmYield": "8,83",
    "askYield": "8,23",
    "currency": "HUF",
    "maturityInDays_val": 2476,
    "longName": "A290523A20"
}