{
    "askPrice": "68,41",
    "green": 0,
    "coupon": "2,00 %",
    "accruedInterest": "0,16",
    "settleDate": "2022.06.21",
    "askEhmYield": "8,15",
    "bidYield": "8,75",
    "rawName": "2029/A",
    "bidPrice": "66,02",
    "coupon_val": 2,
    "maturityInDays": "2528 nap",
    "securityType": "KTV",
    "maturityDate": "2029.05.23",
    "name": "2029/A",
    "bidEhmYield": "8,75",
    "askYield": "8,15",
    "currency": "HUF",
    "maturityInDays_val": 2528,
    "longName": "A290523A20"
}