{
    "askPrice": "72,0880",
    "green": 0,
    "coupon": "2,00 %",
    "accruedInterest": "1,0356",
    "settleDate": "2022.11.28",
    "askEhmYield": "7,60",
    "bidYield": "8,33",
    "rawName": "2029/A",
    "bidPrice": "69,2284",
    "coupon_val": 2,
    "maturityInDays": "2368 nap",
    "securityType": "KTV",
    "maturityDate": "2029.05.23",
    "name": "2029/A",
    "bidEhmYield": "8,32",
    "askYield": "7,61",
    "currency": "HUF",
    "maturityInDays_val": 2368,
    "issueDate": "2020.06.24",
    "longName": "A290523A20"
}