{
    "askPrice": "64,50",
    "green": 0,
    "coupon": "2,00 %",
    "accruedInterest": "0,29",
    "settleDate": "2022.07.15",
    "askEhmYield": "9,21",
    "bidYield": "9,81",
    "rawName": "2029/A",
    "bidPrice": "62,29",
    "coupon_val": 2,
    "maturityInDays": "2504 nap",
    "securityType": "KTV",
    "maturityDate": "2029.05.23",
    "name": "2029/A",
    "bidEhmYield": "9,81",
    "askYield": "9,21",
    "currency": "HUF",
    "maturityInDays_val": 2504,
    "longName": "A290523A20"
}