{
    "askPrice": "72,0419",
    "green": 0,
    "coupon": "2,00 %",
    "accruedInterest": "1,0082",
    "settleDate": "2022.11.23",
    "askEhmYield": "7,60",
    "bidYield": "8,32",
    "rawName": "2029/A",
    "bidPrice": "69,2176",
    "coupon_val": 2,
    "maturityInDays": "2373 nap",
    "securityType": "KTV",
    "maturityDate": "2029.05.23",
    "name": "2029/A",
    "bidEhmYield": "8,31",
    "askYield": "7,61",
    "currency": "HUF",
    "maturityInDays_val": 2373,
    "issueDate": "2020.06.24",
    "longName": "A290523A20"
}