{
    "askPrice": "75,9626",
    "green": 0,
    "coupon": "2,00 %",
    "accruedInterest": "0,1475",
    "settleDate": "2023.06.19",
    "askEhmYield": "7,10",
    "bidYield": "7,93",
    "rawName": "2029/A",
    "bidPrice": "72,7899",
    "coupon_val": 2,
    "maturityInDays": "2165 nap",
    "securityType": "KTV",
    "maturityDate": "2029.05.23",
    "name": "2029/A",
    "bidEhmYield": "7,92",
    "askYield": "7,11",
    "currency": "HUF",
    "maturityInDays_val": 2165,
    "issueDate": "2020.06.24",
    "longName": "A290523A20"
}