{
    "askPrice": "76,3783",
    "green": 0,
    "coupon": "2,00 %",
    "accruedInterest": "0,7049",
    "settleDate": "2023.09.29",
    "askEhmYield": "7,23",
    "bidYield": "7,90",
    "rawName": "2029/A",
    "bidPrice": "73,9102",
    "coupon_val": 2,
    "maturityInDays": "2063 nap",
    "securityType": "KTV",
    "maturityDate": "2029.05.23",
    "name": "2029/A",
    "bidEhmYield": "7,89",
    "askYield": "7,24",
    "currency": "HUF",
    "maturityInDays_val": 2063,
    "issueDate": "2020.06.24",
    "longName": "A290523A20"
}