{
    "askPrice": "77,6725",
    "green": 0,
    "coupon": "2,00 %",
    "accruedInterest": "0,2404",
    "settleDate": "2023.07.06",
    "askEhmYield": "6,71",
    "bidYield": "7,51",
    "rawName": "2029/A",
    "bidPrice": "74,5527",
    "coupon_val": 2,
    "maturityInDays": "2148 nap",
    "securityType": "KTV",
    "maturityDate": "2029.05.23",
    "name": "2029/A",
    "bidEhmYield": "7,50",
    "askYield": "6,72",
    "currency": "HUF",
    "maturityInDays_val": 2148,
    "issueDate": "2020.06.24",
    "longName": "A290523A20"
}