{
    "askPrice": "77,9168",
    "green": 0,
    "coupon": "2,00 %",
    "accruedInterest": "0,7978",
    "settleDate": "2023.10.16",
    "askEhmYield": "6,87",
    "bidYield": "7,53",
    "rawName": "2029/A",
    "bidPrice": "75,4454",
    "coupon_val": 2,
    "maturityInDays": "2046 nap",
    "securityType": "KTV",
    "maturityDate": "2029.05.23",
    "name": "2029/A",
    "bidEhmYield": "7,52",
    "askYield": "6,88",
    "currency": "HUF",
    "maturityInDays_val": 2046,
    "issueDate": "2020.06.24",
    "longName": "A290523A20"
}