{
    "askPrice": "69,6867",
    "green": 0,
    "coupon": "2,00 %",
    "accruedInterest": "1,8027",
    "settleDate": "2023.04.17",
    "askEhmYield": "8,58",
    "bidYield": "9,43",
    "rawName": "2029/A",
    "bidPrice": "66,6785",
    "coupon_val": 2,
    "maturityInDays": "2228 nap",
    "securityType": "KTV",
    "maturityDate": "2029.05.23",
    "name": "2029/A",
    "bidEhmYield": "9,42",
    "askYield": "8,59",
    "currency": "HUF",
    "maturityInDays_val": 2228,
    "issueDate": "2020.06.24",
    "longName": "A290523A20"
}