{
    "askPrice": "72,8997",
    "green": 0,
    "coupon": "2,00 %",
    "accruedInterest": "0,0383",
    "settleDate": "2023.05.30",
    "askEhmYield": "7,84",
    "bidYield": "8,68",
    "rawName": "2029/A",
    "bidPrice": "69,8189",
    "coupon_val": 2,
    "maturityInDays": "2185 nap",
    "securityType": "KTV",
    "maturityDate": "2029.05.23",
    "name": "2029/A",
    "bidEhmYield": "8,67",
    "askYield": "7,85",
    "currency": "HUF",
    "maturityInDays_val": 2185,
    "issueDate": "2020.06.24",
    "longName": "A290523A20"
}