{
    "askPrice": "77,9446",
    "green": 0,
    "coupon": "2,00 %",
    "accruedInterest": "0,3388",
    "settleDate": "2023.07.24",
    "askEhmYield": "6,68",
    "bidYield": "7,44",
    "rawName": "2029/A",
    "bidPrice": "74,9899",
    "coupon_val": 2,
    "maturityInDays": "2130 nap",
    "securityType": "KTV",
    "maturityDate": "2029.05.23",
    "name": "2029/A",
    "bidEhmYield": "7,43",
    "askYield": "6,69",
    "currency": "HUF",
    "maturityInDays_val": 2130,
    "issueDate": "2020.06.24",
    "longName": "A290523A20"
}