{
    "askPrice": "73,0084",
    "green": 0,
    "coupon": "2,00 %",
    "accruedInterest": "1,8849",
    "settleDate": "2023.05.02",
    "askEhmYield": "7,74",
    "bidYield": "8,60",
    "rawName": "2029/A",
    "bidPrice": "69,8104",
    "coupon_val": 2,
    "maturityInDays": "2213 nap",
    "securityType": "KTV",
    "maturityDate": "2029.05.23",
    "name": "2029/A",
    "bidEhmYield": "8,59",
    "askYield": "7,75",
    "currency": "HUF",
    "maturityInDays_val": 2213,
    "issueDate": "2020.06.24",
    "longName": "A290523A20"
}