{
    "askPrice": "73,5040",
    "green": 0,
    "coupon": "2,00 %",
    "accruedInterest": "0,0109",
    "settleDate": "2023.05.25",
    "askEhmYield": "7,67",
    "bidYield": "8,53",
    "rawName": "2029/A",
    "bidPrice": "70,3124",
    "coupon_val": 2,
    "maturityInDays": "2190 nap",
    "securityType": "KTV",
    "maturityDate": "2029.05.23",
    "name": "2029/A",
    "bidEhmYield": "8,52",
    "askYield": "7,68",
    "currency": "HUF",
    "maturityInDays_val": 2190,
    "issueDate": "2020.06.24",
    "longName": "A290523A20"
}