{
    "askPrice": "77,9211",
    "green": 0,
    "coupon": "2,00 %",
    "accruedInterest": "0,3497",
    "settleDate": "2023.07.26",
    "askEhmYield": "6,69",
    "bidYield": "7,47",
    "rawName": "2029/A",
    "bidPrice": "74,8933",
    "coupon_val": 2,
    "maturityInDays": "2128 nap",
    "securityType": "KTV",
    "maturityDate": "2029.05.23",
    "name": "2029/A",
    "bidEhmYield": "7,46",
    "askYield": "6,70",
    "currency": "HUF",
    "maturityInDays_val": 2128,
    "issueDate": "2020.06.24",
    "longName": "A290523A20"
}