{
    "askPrice": "84,3695",
    "green": 0,
    "coupon": "2,00 %",
    "accruedInterest": "1,1257",
    "settleDate": "2023.12.15",
    "askEhmYield": "5,39",
    "bidYield": "6,05",
    "rawName": "2029/A",
    "bidPrice": "81,6834",
    "coupon_val": 2,
    "maturityInDays": "1986 nap",
    "securityType": "KTV",
    "maturityDate": "2029.05.23",
    "name": "2029/A",
    "bidEhmYield": "6,04",
    "askYield": "5,39",
    "currency": "HUF",
    "maturityInDays_val": 1986,
    "issueDate": "2020.06.24",
    "longName": "A290523A20"
}