{
    "askPrice": "77,0006",
    "green": 0,
    "coupon": "2,00 %",
    "accruedInterest": "0,3989",
    "settleDate": "2023.08.04",
    "askEhmYield": "6,94",
    "bidYield": "7,66",
    "rawName": "2029/A",
    "bidPrice": "74,2544",
    "coupon_val": 2,
    "maturityInDays": "2119 nap",
    "securityType": "KTV",
    "maturityDate": "2029.05.23",
    "name": "2029/A",
    "bidEhmYield": "7,65",
    "askYield": "6,95",
    "currency": "HUF",
    "maturityInDays_val": 2119,
    "issueDate": "2020.06.24",
    "longName": "A290523A20"
}