{
    "askPrice": "76,0541",
    "green": 0,
    "coupon": "2,00 %",
    "accruedInterest": "0,7596",
    "settleDate": "2023.10.09",
    "askEhmYield": "7,34",
    "bidYield": "8,02",
    "rawName": "2029/A",
    "bidPrice": "73,5739",
    "coupon_val": 2,
    "maturityInDays": "2053 nap",
    "securityType": "KTV",
    "maturityDate": "2029.05.23",
    "name": "2029/A",
    "bidEhmYield": "8,01",
    "askYield": "7,35",
    "currency": "HUF",
    "maturityInDays_val": 2053,
    "issueDate": "2020.06.24",
    "longName": "A290523A20"
}