{
    "askPrice": "76,8649",
    "green": 0,
    "coupon": "2,00 %",
    "accruedInterest": "0,4372",
    "settleDate": "2023.08.11",
    "askEhmYield": "6,99",
    "bidYield": "7,70",
    "rawName": "2029/A",
    "bidPrice": "74,1708",
    "coupon_val": 2,
    "maturityInDays": "2112 nap",
    "securityType": "KTV",
    "maturityDate": "2029.05.23",
    "name": "2029/A",
    "bidEhmYield": "7,69",
    "askYield": "7,00",
    "currency": "HUF",
    "maturityInDays_val": 2112,
    "issueDate": "2020.06.24",
    "longName": "A290523A20"
}