{
    "askPrice": "74,8356",
    "green": 0,
    "coupon": "2,00 %",
    "accruedInterest": "1,3041",
    "settleDate": "2023.01.16",
    "askEhmYield": "7,04",
    "bidYield": "7,93",
    "rawName": "2029/A",
    "bidPrice": "71,2710",
    "coupon_val": 2,
    "maturityInDays": "2319 nap",
    "securityType": "KTV",
    "maturityDate": "2029.05.23",
    "name": "2029/A",
    "bidEhmYield": "7,92",
    "askYield": "7,05",
    "currency": "HUF",
    "maturityInDays_val": 2319,
    "issueDate": "2020.06.24",
    "longName": "A290523A20"
}