{
    "askPrice": "69,0784",
    "green": 0,
    "coupon": "2,00 %",
    "accruedInterest": "1,6603",
    "settleDate": "2023.03.22",
    "askEhmYield": "8,67",
    "bidYield": "9,55",
    "rawName": "2029/A",
    "bidPrice": "65,9634",
    "coupon_val": 2,
    "maturityInDays": "2254 nap",
    "securityType": "KTV",
    "maturityDate": "2029.05.23",
    "name": "2029/A",
    "bidEhmYield": "9,54",
    "askYield": "8,68",
    "currency": "HUF",
    "maturityInDays_val": 2254,
    "issueDate": "2020.06.24",
    "longName": "A290523A20"
}