{
    "askPrice": "74,4204",
    "green": 0,
    "coupon": "2,00 %",
    "accruedInterest": "0,0710",
    "settleDate": "2023.06.05",
    "askEhmYield": "7,46",
    "bidYield": "8,29",
    "rawName": "2029/A",
    "bidPrice": "71,3067",
    "coupon_val": 2,
    "maturityInDays": "2179 nap",
    "securityType": "KTV",
    "maturityDate": "2029.05.23",
    "name": "2029/A",
    "bidEhmYield": "8,28",
    "askYield": "7,47",
    "currency": "HUF",
    "maturityInDays_val": 2179,
    "issueDate": "2020.06.24",
    "longName": "A290523A20"
}