{
    "askPrice": "78,1855",
    "green": 0,
    "coupon": "2,00 %",
    "accruedInterest": "0,5464",
    "settleDate": "2023.08.31",
    "askEhmYield": "6,70",
    "bidYield": "7,40",
    "rawName": "2029/A",
    "bidPrice": "75,4979",
    "coupon_val": 2,
    "maturityInDays": "2092 nap",
    "securityType": "KTV",
    "maturityDate": "2029.05.23",
    "name": "2029/A",
    "bidEhmYield": "7,39",
    "askYield": "6,71",
    "currency": "HUF",
    "maturityInDays_val": 2092,
    "issueDate": "2020.06.24",
    "longName": "A290523A20"
}