{
    "askPrice": "69,5073",
    "green": 0,
    "coupon": "2,00 %",
    "accruedInterest": "1,4959",
    "settleDate": "2023.02.20",
    "askEhmYield": "8,47",
    "bidYield": "9,36",
    "rawName": "2029/A",
    "bidPrice": "66,2930",
    "coupon_val": 2,
    "maturityInDays": "2284 nap",
    "securityType": "KTV",
    "maturityDate": "2029.05.23",
    "name": "2029/A",
    "bidEhmYield": "9,35",
    "askYield": "8,48",
    "currency": "HUF",
    "maturityInDays_val": 2284,
    "issueDate": "2020.06.24",
    "longName": "A290523A20"
}