{
    "askPrice": "70,9550",
    "green": 0,
    "coupon": "2,00 %",
    "accruedInterest": "1,7041",
    "settleDate": "2023.03.30",
    "askEhmYield": "8,19",
    "bidYield": "9,07",
    "rawName": "2029/A",
    "bidPrice": "67,7487",
    "coupon_val": 2,
    "maturityInDays": "2246 nap",
    "securityType": "KTV",
    "maturityDate": "2029.05.23",
    "name": "2029/A",
    "bidEhmYield": "9,06",
    "askYield": "8,20",
    "currency": "HUF",
    "maturityInDays_val": 2246,
    "issueDate": "2020.06.24",
    "longName": "A290523A20"
}