{
    "askPrice": "70,5887",
    "green": 0,
    "coupon": "2,00 %",
    "accruedInterest": "1,7699",
    "settleDate": "2023.04.11",
    "askEhmYield": "8,32",
    "bidYield": "9,15",
    "rawName": "2029/A",
    "bidPrice": "67,5964",
    "coupon_val": 2,
    "maturityInDays": "2234 nap",
    "securityType": "KTV",
    "maturityDate": "2029.05.23",
    "name": "2029/A",
    "bidEhmYield": "9,14",
    "askYield": "8,33",
    "currency": "HUF",
    "maturityInDays_val": 2234,
    "issueDate": "2020.06.24",
    "longName": "A290523A20"
}