{
    "askPrice": "76,7561",
    "green": 0,
    "coupon": "2,00 %",
    "accruedInterest": "0,7705",
    "settleDate": "2023.10.11",
    "askEhmYield": "7,16",
    "bidYield": "7,85",
    "rawName": "2029/A",
    "bidPrice": "74,2137",
    "coupon_val": 2,
    "maturityInDays": "2051 nap",
    "securityType": "KTV",
    "maturityDate": "2029.05.23",
    "name": "2029/A",
    "bidEhmYield": "7,84",
    "askYield": "7,17",
    "currency": "HUF",
    "maturityInDays_val": 2051,
    "issueDate": "2020.06.24",
    "longName": "A290523A20"
}