{
    "askPrice": "69,3538",
    "green": 0,
    "coupon": "2,00 %",
    "accruedInterest": "1,5726",
    "settleDate": "2023.03.06",
    "askEhmYield": "8,55",
    "bidYield": "9,45",
    "rawName": "2029/A",
    "bidPrice": "66,1318",
    "coupon_val": 2,
    "maturityInDays": "2270 nap",
    "securityType": "KTV",
    "maturityDate": "2029.05.23",
    "name": "2029/A",
    "bidEhmYield": "9,44",
    "askYield": "8,56",
    "currency": "HUF",
    "maturityInDays_val": 2270,
    "issueDate": "2020.06.24",
    "longName": "A290523A20"
}