{
    "askPrice": "73,6781",
    "green": 0,
    "coupon": "2,00 %",
    "accruedInterest": "1,9562",
    "settleDate": "2023.05.15",
    "askEhmYield": "7,60",
    "bidYield": "8,48",
    "rawName": "2029/A",
    "bidPrice": "70,3897",
    "coupon_val": 2,
    "maturityInDays": "2200 nap",
    "securityType": "KTV",
    "maturityDate": "2029.05.23",
    "name": "2029/A",
    "bidEhmYield": "8,47",
    "askYield": "7,61",
    "currency": "HUF",
    "maturityInDays_val": 2200,
    "issueDate": "2020.06.24",
    "longName": "A290523A20"
}