{
    "askPrice": "73,1828",
    "green": 0,
    "coupon": "2,00 %",
    "accruedInterest": "1,8959",
    "settleDate": "2023.05.04",
    "askEhmYield": "7,70",
    "bidYield": "8,55",
    "rawName": "2029/A",
    "bidPrice": "70,0151",
    "coupon_val": 2,
    "maturityInDays": "2211 nap",
    "securityType": "KTV",
    "maturityDate": "2029.05.23",
    "name": "2029/A",
    "bidEhmYield": "8,54",
    "askYield": "7,71",
    "currency": "HUF",
    "maturityInDays_val": 2211,
    "issueDate": "2020.06.24",
    "longName": "A290523A20"
}