{
    "askPrice": "72,0459",
    "green": 0,
    "coupon": "2,00 %",
    "accruedInterest": "1,2712",
    "settleDate": "2023.01.10",
    "askEhmYield": "7,71",
    "bidYield": "8,59",
    "rawName": "2029/A",
    "bidPrice": "68,6696",
    "coupon_val": 2,
    "maturityInDays": "2325 nap",
    "securityType": "KTV",
    "maturityDate": "2029.05.23",
    "name": "2029/A",
    "bidEhmYield": "8,58",
    "askYield": "7,72",
    "currency": "HUF",
    "maturityInDays_val": 2325,
    "issueDate": "2020.06.24",
    "longName": "A290523A20"
}