{
    "askPrice": "73,6661",
    "green": 0,
    "coupon": "2,00 %",
    "accruedInterest": "1,4192",
    "settleDate": "2023.02.06",
    "askEhmYield": "7,37",
    "bidYield": "8,25",
    "rawName": "2029/A",
    "bidPrice": "70,2369",
    "coupon_val": 2,
    "maturityInDays": "2298 nap",
    "securityType": "KTV",
    "maturityDate": "2029.05.23",
    "name": "2029/A",
    "bidEhmYield": "8,24",
    "askYield": "7,38",
    "currency": "HUF",
    "maturityInDays_val": 2298,
    "issueDate": "2020.06.24",
    "longName": "A290523A20"
}