{
    "askPrice": "78,8584",
    "green": 0,
    "coupon": "2,00 %",
    "accruedInterest": "0,5683",
    "settleDate": "2023.09.04",
    "askEhmYield": "6,54",
    "bidYield": "7,23",
    "rawName": "2029/A",
    "bidPrice": "76,1862",
    "coupon_val": 2,
    "maturityInDays": "2088 nap",
    "securityType": "KTV",
    "maturityDate": "2029.05.23",
    "name": "2029/A",
    "bidEhmYield": "7,22",
    "askYield": "6,55",
    "currency": "HUF",
    "maturityInDays_val": 2088,
    "issueDate": "2020.06.24",
    "longName": "A290523A20"
}