{
    "askPrice": "74,9696",
    "green": 0,
    "coupon": "2,00 %",
    "accruedInterest": "1,3096",
    "settleDate": "2023.01.17",
    "askEhmYield": "7,01",
    "bidYield": "7,88",
    "rawName": "2029/A",
    "bidPrice": "71,4776",
    "coupon_val": 2,
    "maturityInDays": "2318 nap",
    "securityType": "KTV",
    "maturityDate": "2029.05.23",
    "name": "2029/A",
    "bidEhmYield": "7,87",
    "askYield": "7,02",
    "currency": "HUF",
    "maturityInDays_val": 2318,
    "issueDate": "2020.06.24",
    "longName": "A290523A20"
}