{
    "askPrice": "83,8700",
    "green": 0,
    "coupon": "2,00 %",
    "accruedInterest": "1,5246",
    "settleDate": "2024.02.26",
    "askEhmYield": "5,64",
    "bidYield": "6,28",
    "rawName": "2029/A",
    "bidPrice": "81,3741",
    "coupon_val": 2,
    "maturityInDays": "1913 nap",
    "securityType": "KTV",
    "maturityDate": "2029.05.23",
    "name": "2029/A",
    "bidEhmYield": "6,27",
    "askYield": "5,64",
    "currency": "HUF",
    "maturityInDays_val": 1913,
    "issueDate": "2020.06.24",
    "longName": "A290523A20"
}