{
    "askPrice": "83,3123",
    "green": 0,
    "coupon": "2,00 %",
    "accruedInterest": "1,4645",
    "settleDate": "2024.02.15",
    "askEhmYield": "5,76",
    "bidYield": "6,44",
    "rawName": "2029/A",
    "bidPrice": "80,6703",
    "coupon_val": 2,
    "maturityInDays": "1924 nap",
    "securityType": "KTV",
    "maturityDate": "2029.05.23",
    "name": "2029/A",
    "bidEhmYield": "6,43",
    "askYield": "5,76",
    "currency": "HUF",
    "maturityInDays_val": 1924,
    "issueDate": "2020.06.24",
    "longName": "A290523A20"
}