{
    "askPrice": "83,2495",
    "green": 0,
    "coupon": "2,00 %",
    "accruedInterest": "1,6175",
    "settleDate": "2024.03.14",
    "askEhmYield": "5,83",
    "bidYield": "6,49",
    "rawName": "2029/A",
    "bidPrice": "80,7222",
    "coupon_val": 2,
    "maturityInDays": "1896 nap",
    "securityType": "KTV",
    "maturityDate": "2029.05.23",
    "name": "2029/A",
    "bidEhmYield": "6,48",
    "askYield": "5,83",
    "currency": "HUF",
    "maturityInDays_val": 1896,
    "issueDate": "2020.06.24",
    "longName": "A290523A20"
}