{
    "askPrice": "85,8703",
    "green": 0,
    "coupon": "2,00 %",
    "accruedInterest": "1,3005",
    "settleDate": "2024.01.16",
    "askEhmYield": "5,08",
    "bidYield": "5,74",
    "rawName": "2029/A",
    "bidPrice": "83,1682",
    "coupon_val": 2,
    "maturityInDays": "1954 nap",
    "securityType": "KTV",
    "maturityDate": "2029.05.23",
    "name": "2029/A",
    "bidEhmYield": "5,74",
    "askYield": "5,08",
    "currency": "HUF",
    "maturityInDays_val": 1954,
    "issueDate": "2020.06.24",
    "longName": "A290523A20"
}