{
    "askPrice": "83,5039",
    "green": 0,
    "coupon": "2,00 %",
    "accruedInterest": "1,5464",
    "settleDate": "2024.03.01",
    "askEhmYield": "5,74",
    "bidYield": "6,40",
    "rawName": "2029/A",
    "bidPrice": "80,9503",
    "coupon_val": 2,
    "maturityInDays": "1909 nap",
    "securityType": "KTV",
    "maturityDate": "2029.05.23",
    "name": "2029/A",
    "bidEhmYield": "6,39",
    "askYield": "5,74",
    "currency": "HUF",
    "maturityInDays_val": 1909,
    "issueDate": "2020.06.24",
    "longName": "A290523A20"
}