{
    "askPrice": "83,1482",
    "green": 0,
    "coupon": "2,00 %",
    "accruedInterest": "1,4317",
    "settleDate": "2024.02.09",
    "askEhmYield": "5,79",
    "bidYield": "6,45",
    "rawName": "2029/A",
    "bidPrice": "80,5809",
    "coupon_val": 2,
    "maturityInDays": "1930 nap",
    "securityType": "KTV",
    "maturityDate": "2029.05.23",
    "name": "2029/A",
    "bidEhmYield": "6,44",
    "askYield": "5,79",
    "currency": "HUF",
    "maturityInDays_val": 1930,
    "issueDate": "2020.06.24",
    "longName": "A290523A20"
}