{
    "askPrice": "81,0145",
    "green": 0,
    "coupon": "2,00 %",
    "accruedInterest": "1,7541",
    "settleDate": "2024.04.08",
    "askEhmYield": "6,46",
    "bidYield": "7,16",
    "rawName": "2029/A",
    "bidPrice": "78,4940",
    "coupon_val": 2,
    "maturityInDays": "1871 nap",
    "securityType": "KTV",
    "maturityDate": "2029.05.23",
    "name": "2029/A",
    "bidEhmYield": "7,15",
    "askYield": "6,47",
    "currency": "HUF",
    "maturityInDays_val": 1871,
    "issueDate": "2020.06.24",
    "longName": "A290523A20"
}