{
    "askPrice": "81,0370",
    "green": 0,
    "coupon": "2,00 %",
    "accruedInterest": "1,7213",
    "settleDate": "2024.04.02",
    "askEhmYield": "6,44",
    "bidYield": "7,12",
    "rawName": "2029/A",
    "bidPrice": "78,5797",
    "coupon_val": 2,
    "maturityInDays": "1877 nap",
    "securityType": "KTV",
    "maturityDate": "2029.05.23",
    "name": "2029/A",
    "bidEhmYield": "7,11",
    "askYield": "6,45",
    "currency": "HUF",
    "maturityInDays_val": 1877,
    "issueDate": "2020.06.24",
    "longName": "A290523A20"
}