{
    "askPrice": "80,0896",
    "green": 0,
    "coupon": "2,00 %",
    "accruedInterest": "1,7760",
    "settleDate": "2024.04.12",
    "askEhmYield": "6,72",
    "bidYield": "7,37",
    "rawName": "2029/A",
    "bidPrice": "77,7861",
    "coupon_val": 2,
    "maturityInDays": "1867 nap",
    "securityType": "KTV",
    "maturityDate": "2029.05.23",
    "name": "2029/A",
    "bidEhmYield": "7,36",
    "askYield": "6,73",
    "currency": "HUF",
    "maturityInDays_val": 1867,
    "issueDate": "2020.06.24",
    "longName": "A290523A20"
}