{
    "askPrice": "83,8882",
    "green": 0,
    "coupon": "2,00 %",
    "accruedInterest": "1,3880",
    "settleDate": "2024.02.01",
    "askEhmYield": "5,59",
    "bidYield": "6,28",
    "rawName": "2029/A",
    "bidPrice": "81,1665",
    "coupon_val": 2,
    "maturityInDays": "1938 nap",
    "securityType": "KTV",
    "maturityDate": "2029.05.23",
    "name": "2029/A",
    "bidEhmYield": "6,27",
    "askYield": "5,59",
    "currency": "HUF",
    "maturityInDays_val": 1938,
    "issueDate": "2020.06.24",
    "longName": "A290523A20"
}