{
    "askPrice": "",
    "green": 0,
    "coupon": "9,00 %",
    "accruedInterest": "1,7753",
    "settleDate": "2023.09.07",
    "askEhmYield": "",
    "bidYield": "10,23",
    "rawName": "K2024/26",
    "bidPrice": "99,0000",
    "coupon_val": 9,
    "maturityInDays": "294 nap",
    "securityType": "1MÁP",
    "maturityDate": "2024.06.27",
    "name": "K2024/26",
    "bidEhmYield": "10,13",
    "askYield": "",
    "currency": "HUF",
    "maturityInDays_val": 294,
    "issueDate": "2023.06.27",
    "longName": "K240627"
}