{
    "askPrice": "",
    "green": 0,
    "coupon": "9,00 %",
    "accruedInterest": "2,0959",
    "settleDate": "2023.09.20",
    "askEhmYield": "",
    "bidYield": "10,27",
    "rawName": "K2024/26",
    "bidPrice": "99,0000",
    "coupon_val": 9,
    "maturityInDays": "281 nap",
    "securityType": "1MÁP",
    "maturityDate": "2024.06.27",
    "name": "K2024/26",
    "bidEhmYield": "10,16",
    "askYield": "",
    "currency": "HUF",
    "maturityInDays_val": 281,
    "issueDate": "2023.06.27",
    "longName": "K240627"
}