{
    "askPrice": "",
    "green": 0,
    "coupon": "9,00 %",
    "accruedInterest": "4,5370",
    "settleDate": "2023.12.28",
    "askEhmYield": "",
    "bidYield": "10,86",
    "rawName": "K2024/26",
    "bidPrice": "99,0000",
    "coupon_val": 9,
    "maturityInDays": "182 nap",
    "securityType": "1MÁP",
    "maturityDate": "2024.06.27",
    "name": "K2024/26",
    "bidEhmYield": "10,58",
    "askYield": "",
    "currency": "HUF",
    "maturityInDays_val": 182,
    "issueDate": "2023.06.27",
    "longName": "K240627"
}