{
    "askPrice": "",
    "green": 0,
    "coupon": "9,00 %",
    "accruedInterest": "3,2548",
    "settleDate": "2023.11.06",
    "askEhmYield": "",
    "bidYield": "10,48",
    "rawName": "K2024/26",
    "bidPrice": "99,0000",
    "coupon_val": 9,
    "maturityInDays": "234 nap",
    "securityType": "1MÁP",
    "maturityDate": "2024.06.27",
    "name": "K2024/26",
    "bidEhmYield": "10,29",
    "askYield": "",
    "currency": "HUF",
    "maturityInDays_val": 234,
    "issueDate": "2023.06.27",
    "longName": "K240627"
}