{
    "askPrice": "",
    "green": 0,
    "coupon": "9,00 %",
    "accruedInterest": "6,9041",
    "settleDate": "2024.04.03",
    "askEhmYield": "",
    "bidYield": "13,17",
    "rawName": "K2024/26",
    "bidPrice": "99,0000",
    "coupon_val": 9,
    "maturityInDays": "85 nap",
    "securityType": "1MÁP",
    "maturityDate": "2024.06.27",
    "name": "K2024/26",
    "bidEhmYield": "12,45",
    "askYield": "",
    "currency": "HUF",
    "maturityInDays_val": 85,
    "issueDate": "2023.06.27",
    "longName": "K240627"
}