{
    "askPrice": "",
    "green": 0,
    "coupon": "9,00 %",
    "accruedInterest": "7,8904",
    "settleDate": "2024.05.13",
    "askEhmYield": "",
    "bidYield": "17,18",
    "rawName": "K2024/26",
    "bidPrice": "99,0000",
    "coupon_val": 9,
    "maturityInDays": "45 nap",
    "securityType": "1MÁP",
    "maturityDate": "2024.06.27",
    "name": "K2024/26",
    "bidEhmYield": "15,82",
    "askYield": "",
    "currency": "HUF",
    "maturityInDays_val": 45,
    "issueDate": "2023.06.27",
    "longName": "K240627"
}