{
    "askPrice": "",
    "green": 0,
    "coupon": "9,00 %",
    "accruedInterest": "5,8438",
    "settleDate": "2024.02.19",
    "askEhmYield": "",
    "bidYield": "11,63",
    "rawName": "K2024/26",
    "bidPrice": "99,0000",
    "coupon_val": 9,
    "maturityInDays": "129 nap",
    "securityType": "1MÁP",
    "maturityDate": "2024.06.27",
    "name": "K2024/26",
    "bidEhmYield": "11,22",
    "askYield": "",
    "currency": "HUF",
    "maturityInDays_val": 129,
    "issueDate": "2023.06.27",
    "longName": "K240627"
}