{
    "askPrice": "",
    "green": 0,
    "coupon": "3,50 %",
    "accruedInterest": "1,48",
    "settleDate": "2022.10.26",
    "askEhmYield": "",
    "bidYield": "5,43",
    "rawName": "N2026/26",
    "bidPrice": "99,50",
    "coupon_val": 3.5,
    "maturityInDays": "1341 nap",
    "securityType": "MÁP Plusz",
    "maturityDate": "2026.06.28",
    "name": "N2026/26",
    "bidEhmYield": "",
    "askYield": "",
    "currency": "HUF",
    "maturityInDays_val": 1341,
    "longName": "N260628"
}