{
    "askPrice": "",
    "green": 0,
    "coupon": "3,50 %",
    "accruedInterest": "0,79",
    "settleDate": "2022.08.31",
    "askEhmYield": "",
    "bidYield": "",
    "rawName": "N2026/26",
    "bidPrice": "99,50",
    "coupon_val": 3.5,
    "maturityInDays": "1397 nap",
    "securityType": "MÁP Plusz",
    "maturityDate": "2026.06.28",
    "name": "N2026/26",
    "bidEhmYield": "",
    "askYield": "",
    "currency": "HUF",
    "maturityInDays_val": 1397,
    "longName": "N260628"
}