{
    "askPrice": "",
    "green": 0,
    "coupon": "3,50 %",
    "accruedInterest": "1,71",
    "settleDate": "2022.11.14",
    "askEhmYield": "",
    "bidYield": "5,45",
    "rawName": "N2026/26",
    "bidPrice": "99,50",
    "coupon_val": 3.5,
    "maturityInDays": "1322 nap",
    "securityType": "MÁP Plusz",
    "maturityDate": "2026.06.28",
    "name": "N2026/26",
    "bidEhmYield": "",
    "askYield": "",
    "currency": "HUF",
    "maturityInDays_val": 1322,
    "issueDate": "2021-06-28",
    "longName": "N260628"
}