{
    "askPrice": "",
    "green": 0,
    "coupon": "3,50 %",
    "accruedInterest": "4,0562",
    "settleDate": "2023.05.23",
    "askEhmYield": "",
    "bidYield": "5,62",
    "rawName": "N2026/26",
    "bidPrice": "99,5000",
    "coupon_val": 3.5,
    "maturityInDays": "1132 nap",
    "securityType": "MÁP Plusz",
    "maturityDate": "2026.06.28",
    "name": "N2026/26",
    "bidEhmYield": "",
    "askYield": "",
    "currency": "HUF",
    "maturityInDays_val": 1132,
    "issueDate": "2021.06.28",
    "longName": "N260628"
}