{
    "askPrice": "",
    "green": 0,
    "coupon": "3,50 %",
    "accruedInterest": "1,2295",
    "settleDate": "2023.09.26",
    "askEhmYield": "",
    "bidYield": "5,72",
    "rawName": "N2026/26",
    "bidPrice": "99,5000",
    "coupon_val": 3.5,
    "maturityInDays": "1006 nap",
    "securityType": "MÁP Plusz",
    "maturityDate": "2026.06.28",
    "name": "N2026/26",
    "bidEhmYield": "",
    "askYield": "",
    "currency": "HUF",
    "maturityInDays_val": 1006,
    "issueDate": "2021.06.28",
    "longName": "N260628"
}