{
    "askPrice": "",
    "green": 0,
    "coupon": "3,50 %",
    "accruedInterest": "3,4699",
    "settleDate": "2024.03.08",
    "askEhmYield": "",
    "bidYield": "5,86",
    "rawName": "N2026/26",
    "bidPrice": "99,5000",
    "coupon_val": 3.5,
    "maturityInDays": "842 nap",
    "securityType": "MÁP Plusz",
    "maturityDate": "2026.06.28",
    "name": "N2026/26",
    "bidEhmYield": "",
    "askYield": "",
    "currency": "HUF",
    "maturityInDays_val": 842,
    "issueDate": "2021.06.28",
    "longName": "N260628"
}