{
    "askPrice": "",
    "green": 0,
    "coupon": "3,50 %",
    "accruedInterest": "0,27",
    "settleDate": "2022.10.04",
    "askEhmYield": "",
    "bidYield": "",
    "rawName": "N2025/37",
    "bidPrice": "99,50",
    "coupon_val": 3.5,
    "maturityInDays": "1076 nap",
    "securityType": "MÁP Plusz",
    "maturityDate": "2025.09.14",
    "name": "N2025/37",
    "bidEhmYield": "",
    "askYield": "",
    "currency": "HUF",
    "maturityInDays_val": 1076,
    "longName": "N250914"
}