{
    "askPrice": "",
    "green": 0,
    "coupon": "3,50 %",
    "accruedInterest": "3,96",
    "settleDate": "2022.08.01",
    "askEhmYield": "",
    "bidYield": "",
    "rawName": "N2025/37",
    "bidPrice": "99,50",
    "coupon_val": 3.5,
    "maturityInDays": "1140 nap",
    "securityType": "MÁP Plusz",
    "maturityDate": "2025.09.14",
    "name": "N2025/37",
    "bidEhmYield": "",
    "askYield": "",
    "currency": "HUF",
    "maturityInDays_val": 1140,
    "longName": "N250914"
}