{
    "askPrice": "",
    "green": 0,
    "coupon": "3,50 %",
    "accruedInterest": "1,3562",
    "settleDate": "2022.12.22",
    "askEhmYield": "",
    "bidYield": "5,73",
    "rawName": "N2025/37",
    "bidPrice": "99,5000",
    "coupon_val": 3.5,
    "maturityInDays": "997 nap",
    "securityType": "MÁP Plusz",
    "maturityDate": "2025.09.14",
    "name": "N2025/37",
    "bidEhmYield": "",
    "askYield": "",
    "currency": "HUF",
    "maturityInDays_val": 997,
    "issueDate": "2020.09.14",
    "longName": "N250914"
}