{
    "askPrice": "",
    "green": 0,
    "coupon": "3,50 %",
    "accruedInterest": "1,3374",
    "settleDate": "2023.12.12",
    "askEhmYield": "",
    "bidYield": "6,07",
    "rawName": "N2025/37",
    "bidPrice": "99,5000",
    "coupon_val": 3.5,
    "maturityInDays": "642 nap",
    "securityType": "MÁP Plusz",
    "maturityDate": "2025.09.14",
    "name": "N2025/37",
    "bidEhmYield": "",
    "askYield": "",
    "currency": "HUF",
    "maturityInDays_val": 642,
    "issueDate": "2020.09.14",
    "longName": "N250914"
}