{
    "askPrice": "",
    "green": 0,
    "coupon": "3,50 %",
    "accruedInterest": "4,0548",
    "settleDate": "2023.07.07",
    "askEhmYield": "",
    "bidYield": "5,91",
    "rawName": "N2025/37",
    "bidPrice": "99,5000",
    "coupon_val": 3.5,
    "maturityInDays": "800 nap",
    "securityType": "MÁP Plusz",
    "maturityDate": "2025.09.14",
    "name": "N2025/37",
    "bidEhmYield": "",
    "askYield": "",
    "currency": "HUF",
    "maturityInDays_val": 800,
    "issueDate": "2020.09.14",
    "longName": "N250914"
}