{
    "askPrice": "",
    "green": 0,
    "coupon": "3,50 %",
    "accruedInterest": "3,4863",
    "settleDate": "2024.05.03",
    "askEhmYield": "",
    "bidYield": "6,22",
    "rawName": "N2025/37",
    "bidPrice": "99,5000",
    "coupon_val": 3.5,
    "maturityInDays": "499 nap",
    "securityType": "MÁP Plusz",
    "maturityDate": "2025.09.14",
    "name": "N2025/37",
    "bidEhmYield": "",
    "askYield": "",
    "currency": "HUF",
    "maturityInDays_val": 499,
    "issueDate": "2020.09.14",
    "longName": "N250914"
}