{
    "askPrice": "",
    "green": 0,
    "coupon": "3,50 %",
    "accruedInterest": "0,43",
    "settleDate": "2022.11.17",
    "askEhmYield": "",
    "bidYield": "5,06",
    "rawName": "N2027/40",
    "bidPrice": "99,50",
    "coupon_val": 3.5,
    "maturityInDays": "1781 nap",
    "securityType": "MÁP Plusz",
    "maturityDate": "2027.10.03",
    "name": "N2027/40",
    "bidEhmYield": "",
    "askYield": "",
    "currency": "HUF",
    "maturityInDays_val": 1781,
    "issueDate": "2022-10-03",
    "longName": "N271003"
}