{
    "askPrice": "",
    "green": 0,
    "coupon": "3,50 %",
    "accruedInterest": "1,7115",
    "settleDate": "2023.03.30",
    "askEhmYield": "",
    "bidYield": "",
    "rawName": "N2027/40",
    "bidPrice": "",
    "coupon_val": 3.5,
    "maturityInDays": "1648 nap",
    "securityType": "MÁP Plusz",
    "maturityDate": "2027.10.03",
    "name": "N2027/40",
    "bidEhmYield": "",
    "askYield": "",
    "currency": "HUF",
    "maturityInDays_val": 1648,
    "issueDate": "2022.10.03",
    "longName": "N271003"
}