{
    "askPrice": "",
    "green": 0,
    "coupon": "3,50 %",
    "accruedInterest": "0,7869",
    "settleDate": "2023.12.06",
    "askEhmYield": "",
    "bidYield": "5,40",
    "rawName": "N2027/40",
    "bidPrice": "99,5000",
    "coupon_val": 3.5,
    "maturityInDays": "1397 nap",
    "securityType": "MÁP Plusz",
    "maturityDate": "2027.10.03",
    "name": "N2027/40",
    "bidEhmYield": "",
    "askYield": "",
    "currency": "HUF",
    "maturityInDays_val": 1397,
    "issueDate": "2022.10.03",
    "longName": "N271003"
}