{
    "askPrice": "",
    "green": 0,
    "coupon": "3,50 %",
    "accruedInterest": "0,9423",
    "settleDate": "2023.01.09",
    "askEhmYield": "",
    "bidYield": "5,11",
    "rawName": "N2027/40",
    "bidPrice": "99,5000",
    "coupon_val": 3.5,
    "maturityInDays": "1728 nap",
    "securityType": "MÁP Plusz",
    "maturityDate": "2027.10.03",
    "name": "N2027/40",
    "bidEhmYield": "",
    "askYield": "",
    "currency": "HUF",
    "maturityInDays_val": 1728,
    "issueDate": "2022.10.03",
    "longName": "N271003"
}