{
    "askPrice": "",
    "green": 0,
    "coupon": "3,50 %",
    "accruedInterest": "1,1538",
    "settleDate": "2023.01.31",
    "askEhmYield": "",
    "bidYield": "5,14",
    "rawName": "N2027/40",
    "bidPrice": "99,5000",
    "coupon_val": 3.5,
    "maturityInDays": "1706 nap",
    "securityType": "MÁP Plusz",
    "maturityDate": "2027.10.03",
    "name": "N2027/40",
    "bidEhmYield": "",
    "askYield": "",
    "currency": "HUF",
    "maturityInDays_val": 1706,
    "issueDate": "2022.10.03",
    "longName": "N271003"
}