{
    "askPrice": "",
    "green": 0,
    "coupon": "3,50 %",
    "accruedInterest": "1,5369",
    "settleDate": "2024.02.05",
    "askEhmYield": "",
    "bidYield": "5,44",
    "rawName": "N2027/40",
    "bidPrice": "99,5000",
    "coupon_val": 3.5,
    "maturityInDays": "1336 nap",
    "securityType": "MÁP Plusz",
    "maturityDate": "2027.10.03",
    "name": "N2027/40",
    "bidEhmYield": "",
    "askYield": "",
    "currency": "HUF",
    "maturityInDays_val": 1336,
    "issueDate": "2022.10.03",
    "longName": "N271003"
}