{
    "askPrice": "",
    "green": 0,
    "coupon": "2,50 %",
    "accruedInterest": "2,17",
    "settleDate": "2022.06.30",
    "askEhmYield": "",
    "bidYield": "",
    "rawName": "K2022/33",
    "bidPrice": "99,50",
    "coupon_val": 2.5,
    "maturityInDays": "48 nap",
    "securityType": "1MÁP",
    "maturityDate": "2022.08.17",
    "name": "K2022/33",
    "bidEhmYield": "6,20",
    "askYield": "",
    "currency": "HUF",
    "maturityInDays_val": 48,
    "longName": "K220817"
}