{
    "askPrice": "",
    "green": 0,
    "coupon": "3,50 %",
    "accruedInterest": "0,62",
    "settleDate": "2022.11.09",
    "askEhmYield": "",
    "bidYield": "5,39",
    "rawName": "N2026/38",
    "bidPrice": "99,50",
    "coupon_val": 3.5,
    "maturityInDays": "1411 nap",
    "securityType": "MÁP Plusz",
    "maturityDate": "2026.09.20",
    "name": "N2026/38",
    "bidEhmYield": "",
    "askYield": "",
    "currency": "HUF",
    "maturityInDays_val": 1411,
    "issueDate": "2021-09-20",
    "longName": "N260920"
}