{
    "askPrice": "",
    "green": 0,
    "coupon": "3,50 %",
    "accruedInterest": "0,11",
    "settleDate": "2022.09.29",
    "askEhmYield": "",
    "bidYield": "",
    "rawName": "N2026/38",
    "bidPrice": "99,50",
    "coupon_val": 3.5,
    "maturityInDays": "1452 nap",
    "securityType": "MÁP Plusz",
    "maturityDate": "2026.09.20",
    "name": "N2026/38",
    "bidEhmYield": "",
    "askYield": "",
    "currency": "HUF",
    "maturityInDays_val": 1452,
    "longName": "N260920"
}