{
    "askPrice": "",
    "green": 0,
    "coupon": "3,50 %",
    "accruedInterest": "4,3397",
    "settleDate": "2023.09.07",
    "askEhmYield": "",
    "bidYield": "5,65",
    "rawName": "N2026/38",
    "bidPrice": "99,5000",
    "coupon_val": 3.5,
    "maturityInDays": "1109 nap",
    "securityType": "MÁP Plusz",
    "maturityDate": "2026.09.20",
    "name": "N2026/38",
    "bidEhmYield": "",
    "askYield": "",
    "currency": "HUF",
    "maturityInDays_val": 1109,
    "issueDate": "2021.09.20",
    "longName": "N260920"
}