{
    "askPrice": "",
    "green": 0,
    "coupon": "3,50 %",
    "accruedInterest": "1,4647",
    "settleDate": "2023.08.14",
    "askEhmYield": "",
    "bidYield": "5,17",
    "rawName": "N2028/11",
    "bidPrice": "99,5000",
    "coupon_val": 3.5,
    "maturityInDays": "1673 nap",
    "securityType": "MÁP Plusz",
    "maturityDate": "2028.03.13",
    "name": "N2028/11",
    "bidEhmYield": "",
    "askYield": "",
    "currency": "HUF",
    "maturityInDays_val": 1673,
    "issueDate": "2023.03.13",
    "longName": "N280313"
}