{
    "askPrice": "",
    "green": 0,
    "coupon": "3,50 %",
    "accruedInterest": "0,4946",
    "settleDate": "2023.05.04",
    "askEhmYield": "",
    "bidYield": "5,07",
    "rawName": "N2028/11",
    "bidPrice": "99,5000",
    "coupon_val": 3.5,
    "maturityInDays": "1775 nap",
    "securityType": "MÁP Plusz",
    "maturityDate": "2028.03.13",
    "name": "N2028/11",
    "bidEhmYield": "",
    "askYield": "",
    "currency": "HUF",
    "maturityInDays_val": 1775,
    "issueDate": "2023.03.13",
    "longName": "N280313"
}