{
    "askPrice": "",
    "green": 0,
    "coupon": null,
    "accruedInterest": "4,45",
    "settleDate": "2022.10.18",
    "askEhmYield": "",
    "bidYield": "2,52",
    "rawName": "2024/I",
    "bidPrice": "99,00",
    "maturityInDays": "491 nap",
    "securityType": "PMÁP",
    "maturityDate": "2024.02.21",
    "name": "2024/I",
    "bidEhmYield": "",
    "askYield": "",
    "currency": "HUF",
    "maturityInDays_val": 491,
    "longName": "A240221I18"
}