{
    "askPrice": "",
    "green": 0,
    "coupon": null,
    "accruedInterest": "4,88",
    "settleDate": "2022.11.10",
    "askEhmYield": "",
    "bidYield": "",
    "rawName": "2024/I",
    "bidPrice": "99,00",
    "maturityInDays": "468 nap",
    "securityType": "PMÁP",
    "maturityDate": "2024.02.21",
    "name": "2024/I",
    "bidEhmYield": "",
    "askYield": "",
    "currency": "HUF",
    "maturityInDays_val": 468,
    "issueDate": "2018-12-18",
    "longName": "A240221I18"
}