{
    "askPrice": "",
    "green": 0,
    "coupon": null,
    "accruedInterest": "3,91",
    "settleDate": "2022.09.19",
    "askEhmYield": "",
    "bidYield": "",
    "rawName": "2024/I",
    "bidPrice": "99,00",
    "maturityInDays": "520 nap",
    "securityType": "PMÁP",
    "maturityDate": "2024.02.21",
    "name": "2024/I",
    "bidEhmYield": "",
    "askYield": "",
    "currency": "HUF",
    "maturityInDays_val": 520,
    "longName": "A240221I18"
}