{
    "askPrice": "",
    "green": 0,
    "coupon": null,
    "accruedInterest": "3,07",
    "settleDate": "2022.08.05",
    "askEhmYield": "",
    "bidYield": "",
    "rawName": "2024/I",
    "bidPrice": "99,00",
    "maturityInDays": "565 nap",
    "securityType": "PMÁP",
    "maturityDate": "2024.02.21",
    "name": "2024/I",
    "bidEhmYield": "",
    "askYield": "",
    "currency": "HUF",
    "maturityInDays_val": 565,
    "longName": "A240221I18"
}