{
    "askPrice": "",
    "green": 0,
    "coupon": null,
    "accruedInterest": "8,3441",
    "settleDate": "2023.08.28",
    "askEhmYield": "",
    "bidYield": "",
    "rawName": "2024/I",
    "bidPrice": "99,0000",
    "maturityInDays": "177 nap",
    "securityType": "PMÁP",
    "maturityDate": "2024.02.21",
    "name": "2024/I",
    "bidEhmYield": "",
    "askYield": "",
    "currency": "HUF",
    "maturityInDays_val": 177,
    "issueDate": "2018.12.18",
    "longName": "A240221I18"
}