{
    "askPrice": "",
    "green": 0,
    "coupon": null,
    "accruedInterest": 0,
    "settleDate": "2023.02.20",
    "askEhmYield": "",
    "bidYield": "",
    "rawName": "2024/I",
    "bidPrice": "",
    "maturityInDays": "366 nap",
    "securityType": "PMÁP",
    "maturityDate": "2024.02.21",
    "name": "2024/I",
    "bidEhmYield": "",
    "askYield": "",
    "currency": "HUF",
    "maturityInDays_val": 366,
    "issueDate": "2018.12.18",
    "longName": "A240221I18"
}