{
    "askPrice": "",
    "green": 0,
    "coupon": "3,00 %",
    "accruedInterest": "2,8849",
    "settleDate": "2022.12.28",
    "askEhmYield": "",
    "bidYield": "23,01",
    "rawName": "K2023/02",
    "bidPrice": "99,3000",
    "coupon_val": 3,
    "maturityInDays": "14 nap",
    "securityType": "1MÁP",
    "maturityDate": "2023.01.11",
    "name": "K2023/02",
    "bidEhmYield": "20,80",
    "askYield": "",
    "currency": "HUF",
    "maturityInDays_val": 14,
    "issueDate": "2022.01.11",
    "longName": "K230111"
}