{
    "askPrice": "",
    "green": 0,
    "coupon": "3,00 %",
    "accruedInterest": "2,49",
    "settleDate": "2022.11.10",
    "askEhmYield": "",
    "bidYield": "5,97",
    "rawName": "K2023/02",
    "bidPrice": "99,50",
    "coupon_val": 3,
    "maturityInDays": "62 nap",
    "securityType": "1MÁP",
    "maturityDate": "2023.01.11",
    "name": "K2023/02",
    "bidEhmYield": "5,83",
    "askYield": "",
    "currency": "HUF",
    "maturityInDays_val": 62,
    "issueDate": "2022-01-11",
    "longName": "K230111"
}