{
    "askPrice": "",
    "green": 0,
    "coupon": "3,00 %",
    "accruedInterest": "1,60",
    "settleDate": "2022.07.25",
    "askEhmYield": "",
    "bidYield": "",
    "rawName": "K2023/02",
    "bidPrice": "99,50",
    "coupon_val": 3,
    "maturityInDays": "170 nap",
    "securityType": "1MÁP",
    "maturityDate": "2023.01.11",
    "name": "K2023/02",
    "bidEhmYield": "4,03",
    "askYield": "",
    "currency": "HUF",
    "maturityInDays_val": 170,
    "longName": "K230111"
}