{
    "askPrice": "",
    "green": 0,
    "coupon": "3,00 %",
    "accruedInterest": "2,8438",
    "settleDate": "2022.12.23",
    "askEhmYield": "",
    "bidYield": "17,39",
    "rawName": "K2023/02",
    "bidPrice": "99,3000",
    "coupon_val": 3,
    "maturityInDays": "19 nap",
    "securityType": "1MÁP",
    "maturityDate": "2023.01.11",
    "name": "K2023/02",
    "bidEhmYield": "16,10",
    "askYield": "",
    "currency": "HUF",
    "maturityInDays_val": 19,
    "issueDate": "2022.01.11",
    "longName": "K230111"
}