{
    "askPrice": "",
    "green": 0,
    "coupon": "3,00 %",
    "accruedInterest": "2,7288",
    "settleDate": "2022.12.09",
    "askEhmYield": "",
    "bidYield": "14,72",
    "rawName": "K2023/02",
    "bidPrice": "99,0000",
    "coupon_val": 3,
    "maturityInDays": "33 nap",
    "securityType": "1MÁP",
    "maturityDate": "2023.01.11",
    "name": "K2023/02",
    "bidEhmYield": "13,82",
    "askYield": "",
    "currency": "HUF",
    "maturityInDays_val": 33,
    "issueDate": "2022.01.11",
    "longName": "K230111"
}