{
    "askPrice": "",
    "green": 0,
    "coupon": "3,00 %",
    "accruedInterest": "2,6137",
    "settleDate": "2022.11.25",
    "askEhmYield": "",
    "bidYield": "6,94",
    "rawName": "K2023/02",
    "bidPrice": "99,5000",
    "coupon_val": 3,
    "maturityInDays": "47 nap",
    "securityType": "1MÁP",
    "maturityDate": "2023.01.11",
    "name": "K2023/02",
    "bidEhmYield": "6,74",
    "askYield": "",
    "currency": "HUF",
    "maturityInDays_val": 47,
    "issueDate": "2022.01.11",
    "longName": "K230111"
}