{
    "askPrice": "",
    "green": 0,
    "coupon": "3,00 %",
    "accruedInterest": "2,6548",
    "settleDate": "2022.11.30",
    "askEhmYield": "",
    "bidYield": "7,42",
    "rawName": "K2023/02",
    "bidPrice": "99,5000",
    "coupon_val": 3,
    "maturityInDays": "42 nap",
    "securityType": "1MÁP",
    "maturityDate": "2023.01.11",
    "name": "K2023/02",
    "bidEhmYield": "7,19",
    "askYield": "",
    "currency": "HUF",
    "maturityInDays_val": 42,
    "issueDate": "2022.01.11",
    "longName": "K230111"
}