{
    "askPrice": "",
    "green": 0,
    "coupon": "3,00 %",
    "accruedInterest": "2,8767",
    "settleDate": "2022.12.27",
    "askEhmYield": "",
    "bidYield": "21,57",
    "rawName": "K2023/02",
    "bidPrice": "99,3000",
    "coupon_val": 3,
    "maturityInDays": "15 nap",
    "securityType": "1MÁP",
    "maturityDate": "2023.01.11",
    "name": "K2023/02",
    "bidEhmYield": "19,61",
    "askYield": "",
    "currency": "HUF",
    "maturityInDays_val": 15,
    "issueDate": "2022.01.11",
    "longName": "K230111"
}