{
    "askPrice": "",
    "green": 0,
    "coupon": "3,00 %",
    "accruedInterest": "1,39",
    "settleDate": "2022.06.29",
    "askEhmYield": "",
    "bidYield": "",
    "rawName": "K2023/02",
    "bidPrice": "99,50",
    "coupon_val": 3,
    "maturityInDays": "196 nap",
    "securityType": "1MÁP",
    "maturityDate": "2023.01.11",
    "name": "K2023/02",
    "bidEhmYield": "3,90",
    "askYield": "",
    "currency": "HUF",
    "maturityInDays_val": 196,
    "longName": "K230111"
}