{
    "askPrice": "",
    "green": 0,
    "coupon": "3,00 %",
    "accruedInterest": "2,9425",
    "settleDate": "2023.01.04",
    "askEhmYield": "",
    "bidYield": "39,65",
    "rawName": "K2023/02",
    "bidPrice": "99,4000",
    "coupon_val": 3,
    "maturityInDays": "7 nap",
    "securityType": "1MÁP",
    "maturityDate": "2023.01.11",
    "name": "K2023/02",
    "bidEhmYield": "33,50",
    "askYield": "",
    "currency": "HUF",
    "maturityInDays_val": 7,
    "issueDate": "2022.01.11",
    "longName": "K230111"
}