{
    "askPrice": "97,7626",
    "green": 0,
    "coupon": 0,
    "accruedInterest": 0,
    "settleDate": "2023.11.06",
    "askEhmYield": "7,81",
    "bidYield": "8,54",
    "rawName": "D240221",
    "bidPrice": "97,5246",
    "maturityInDays": "107 nap",
    "securityType": "DKJ",
    "maturityDate": "2024.02.21",
    "name": "D240221",
    "bidEhmYield": "8,66",
    "askYield": "7,70",
    "currency": "HUF",
    "maturityInDays_val": 107,
    "issueDate": "2023.03.08",
    "longName": "D240221"
}