{
    "askPrice": "94,0445",
    "green": 0,
    "coupon": 0,
    "accruedInterest": 0,
    "settleDate": "2023.06.30",
    "askEhmYield": "9,79",
    "bidYield": "10,50",
    "rawName": "D240221",
    "bidPrice": "93,5600",
    "maturityInDays": "236 nap",
    "securityType": "DKJ",
    "maturityDate": "2024.02.21",
    "name": "D240221",
    "bidEhmYield": "10,65",
    "askYield": "9,66",
    "currency": "HUF",
    "maturityInDays_val": 236,
    "issueDate": "2023.03.08",
    "longName": "D240221"
}