{
    "askPrice": "90,4012",
    "green": 0,
    "coupon": 0,
    "accruedInterest": 0,
    "settleDate": "2023.05.19",
    "askEhmYield": "13,94",
    "bidYield": "14,45",
    "rawName": "D240221",
    "bidPrice": "89,9615",
    "maturityInDays": "278 nap",
    "securityType": "DKJ",
    "maturityDate": "2024.02.21",
    "name": "D240221",
    "bidEhmYield": "14,65",
    "askYield": "13,75",
    "currency": "HUF",
    "maturityInDays_val": 278,
    "issueDate": "2023.03.08",
    "longName": "D240221"
}