{
    "askPrice": "88,7162",
    "green": 0,
    "coupon": 0,
    "accruedInterest": 0,
    "settleDate": "2023.04.05",
    "askEhmYield": "14,42",
    "bidYield": "15,05",
    "rawName": "D240221",
    "bidPrice": "88,1357",
    "maturityInDays": "322 nap",
    "securityType": "DKJ",
    "maturityDate": "2024.02.21",
    "name": "D240221",
    "bidEhmYield": "15,26",
    "askYield": "14,22",
    "currency": "HUF",
    "maturityInDays_val": 322,
    "issueDate": "2023.03.08",
    "longName": "D240221"
}