{
    "askPrice": "95,9537",
    "green": 0,
    "coupon": 0,
    "accruedInterest": 0,
    "settleDate": "2023.09.04",
    "askEhmYield": "9,05",
    "bidYield": "9,71",
    "rawName": "D240221",
    "bidPrice": "95,6158",
    "maturityInDays": "170 nap",
    "securityType": "DKJ",
    "maturityDate": "2024.02.21",
    "name": "D240221",
    "bidEhmYield": "9,84",
    "askYield": "8,93",
    "currency": "HUF",
    "maturityInDays_val": 170,
    "issueDate": "2023.03.08",
    "longName": "D240221"
}