{
    "askPrice": "96,3428",
    "green": 0,
    "coupon": 0,
    "accruedInterest": 0,
    "settleDate": "2023.09.18",
    "askEhmYield": "8,88",
    "bidYield": "9,58",
    "rawName": "D240221",
    "bidPrice": "96,0141",
    "maturityInDays": "156 nap",
    "securityType": "DKJ",
    "maturityDate": "2024.02.21",
    "name": "D240221",
    "bidEhmYield": "9,71",
    "askYield": "8,76",
    "currency": "HUF",
    "maturityInDays_val": 156,
    "issueDate": "2023.03.08",
    "longName": "D240221"
}