{
    "askPrice": "96,1264",
    "green": 0,
    "coupon": 0,
    "accruedInterest": 0,
    "settleDate": "2023.09.11",
    "askEhmYield": "9,02",
    "bidYield": "9,64",
    "rawName": "D240221",
    "bidPrice": "95,8178",
    "maturityInDays": "163 nap",
    "securityType": "DKJ",
    "maturityDate": "2024.02.21",
    "name": "D240221",
    "bidEhmYield": "9,77",
    "askYield": "8,90",
    "currency": "HUF",
    "maturityInDays_val": 163,
    "issueDate": "2023.03.08",
    "longName": "D240221"
}