{
    "askPrice": "96,0123",
    "green": 0,
    "coupon": 0,
    "accruedInterest": 0,
    "settleDate": "2023.09.06",
    "askEhmYield": "9,02",
    "bidYield": "9,73",
    "rawName": "D240221",
    "bidPrice": "95,6566",
    "maturityInDays": "168 nap",
    "securityType": "DKJ",
    "maturityDate": "2024.02.21",
    "name": "D240221",
    "bidEhmYield": "9,87",
    "askYield": "8,90",
    "currency": "HUF",
    "maturityInDays_val": 168,
    "issueDate": "2023.03.08",
    "longName": "D240221"
}