{
    "askPrice": "98,5352",
    "green": 0,
    "coupon": 0,
    "accruedInterest": 0,
    "settleDate": "2023.12.06",
    "askEhmYield": "7,05",
    "bidYield": "8,30",
    "rawName": "D240221",
    "bidPrice": "98,2557",
    "maturityInDays": "77 nap",
    "securityType": "DKJ",
    "maturityDate": "2024.02.21",
    "name": "D240221",
    "bidEhmYield": "8,42",
    "askYield": "6,95",
    "currency": "HUF",
    "maturityInDays_val": 77,
    "issueDate": "2023.03.08",
    "longName": "D240221"
}