{
    "askPrice": "95,6484",
    "green": 0,
    "coupon": 0,
    "accruedInterest": 0,
    "settleDate": "2023.08.22",
    "askEhmYield": "9,07",
    "bidYield": "9,76",
    "rawName": "D240221",
    "bidPrice": "95,2732",
    "maturityInDays": "183 nap",
    "securityType": "DKJ",
    "maturityDate": "2024.02.21",
    "name": "D240221",
    "bidEhmYield": "9,90",
    "askYield": "8,95",
    "currency": "HUF",
    "maturityInDays_val": 183,
    "issueDate": "2023.03.08",
    "longName": "D240221"
}