{
    "askPrice": "88,2231",
    "green": 0,
    "coupon": 0,
    "accruedInterest": 0,
    "settleDate": "2023.03.21",
    "askEhmYield": "14,46",
    "bidYield": "15,10",
    "rawName": "D240221",
    "bidPrice": "87,6153",
    "maturityInDays": "337 nap",
    "securityType": "DKJ",
    "maturityDate": "2024.02.21",
    "name": "D240221",
    "bidEhmYield": "15,31",
    "askYield": "14,26",
    "currency": "HUF",
    "maturityInDays_val": 337,
    "issueDate": "2023.03.08",
    "longName": "D240221"
}