{
    "askPrice": "98,3671",
    "green": 0,
    "coupon": 0,
    "accruedInterest": 0,
    "settleDate": "2023.11.30",
    "askEhmYield": "7,30",
    "bidYield": "8,43",
    "rawName": "D240221",
    "bidPrice": "98,0935",
    "maturityInDays": "83 nap",
    "securityType": "DKJ",
    "maturityDate": "2024.02.21",
    "name": "D240221",
    "bidEhmYield": "8,55",
    "askYield": "7,20",
    "currency": "HUF",
    "maturityInDays_val": 83,
    "issueDate": "2023.03.08",
    "longName": "D240221"
}