{
    "askPrice": "93,9620",
    "green": 0,
    "coupon": 0,
    "accruedInterest": 0,
    "settleDate": "2023.06.28",
    "askEhmYield": "9,86",
    "bidYield": "10,49",
    "rawName": "D240221",
    "bidPrice": "93,5147",
    "maturityInDays": "238 nap",
    "securityType": "DKJ",
    "maturityDate": "2024.02.21",
    "name": "D240221",
    "bidEhmYield": "10,64",
    "askYield": "9,72",
    "currency": "HUF",
    "maturityInDays_val": 238,
    "issueDate": "2023.03.08",
    "longName": "D240221"
}