{
    "askPrice": "89,6755",
    "green": 0,
    "coupon": 0,
    "accruedInterest": 0,
    "settleDate": "2023.05.02",
    "askEhmYield": "14,25",
    "bidYield": "14,89",
    "rawName": "D240221",
    "bidPrice": "89,1253",
    "maturityInDays": "295 nap",
    "securityType": "DKJ",
    "maturityDate": "2024.02.21",
    "name": "D240221",
    "bidEhmYield": "15,10",
    "askYield": "14,05",
    "currency": "HUF",
    "maturityInDays_val": 295,
    "issueDate": "2023.03.08",
    "longName": "D240221"
}