{
    "askPrice": "90,1487",
    "green": 0,
    "coupon": 0,
    "accruedInterest": 0,
    "settleDate": "2023.05.17",
    "askEhmYield": "14,25",
    "bidYield": "14,75",
    "rawName": "D240221",
    "bidPrice": "89,7084",
    "maturityInDays": "280 nap",
    "securityType": "DKJ",
    "maturityDate": "2024.02.21",
    "name": "D240221",
    "bidEhmYield": "14,95",
    "askYield": "14,05",
    "currency": "HUF",
    "maturityInDays_val": 280,
    "issueDate": "2023.03.08",
    "longName": "D240221"
}