{
    "askPrice": "95,4595",
    "green": 0,
    "coupon": 0,
    "accruedInterest": 0,
    "settleDate": "2023.08.16",
    "askEhmYield": "9,19",
    "bidYield": "9,86",
    "rawName": "D240221",
    "bidPrice": "95,0783",
    "maturityInDays": "189 nap",
    "securityType": "DKJ",
    "maturityDate": "2024.02.21",
    "name": "D240221",
    "bidEhmYield": "10,00",
    "askYield": "9,06",
    "currency": "HUF",
    "maturityInDays_val": 189,
    "issueDate": "2023.03.08",
    "longName": "D240221"
}