{
    "askPrice": "97,8240",
    "green": 0,
    "coupon": 0,
    "accruedInterest": 0,
    "settleDate": "2023.11.09",
    "askEhmYield": "7,81",
    "bidYield": "8,50",
    "rawName": "D240221",
    "bidPrice": "97,6033",
    "maturityInDays": "104 nap",
    "securityType": "DKJ",
    "maturityDate": "2024.02.21",
    "name": "D240221",
    "bidEhmYield": "8,62",
    "askYield": "7,70",
    "currency": "HUF",
    "maturityInDays_val": 104,
    "issueDate": "2023.03.08",
    "longName": "D240221"
}