{
    "askPrice": "94,9529",
    "green": 0,
    "coupon": 0,
    "accruedInterest": 0,
    "settleDate": "2023.08.04",
    "askEhmYield": "9,65",
    "bidYield": "10,31",
    "rawName": "D240221",
    "bidPrice": "94,5569",
    "maturityInDays": "201 nap",
    "securityType": "DKJ",
    "maturityDate": "2024.02.21",
    "name": "D240221",
    "bidEhmYield": "10,45",
    "askYield": "9,52",
    "currency": "HUF",
    "maturityInDays_val": 201,
    "issueDate": "2023.03.08",
    "longName": "D240221"
}