{
    "askPrice": "89,8642",
    "green": 0,
    "coupon": 0,
    "accruedInterest": 0,
    "settleDate": "2023.05.08",
    "askEhmYield": "14,25",
    "bidYield": "14,84",
    "rawName": "D240221",
    "bidPrice": "89,3549",
    "maturityInDays": "289 nap",
    "securityType": "DKJ",
    "maturityDate": "2024.02.21",
    "name": "D240221",
    "bidEhmYield": "15,05",
    "askYield": "14,05",
    "currency": "HUF",
    "maturityInDays_val": 289,
    "issueDate": "2023.03.08",
    "longName": "D240221"
}