{
    "askPrice": "93,6213",
    "green": 0,
    "coupon": 0,
    "accruedInterest": 0,
    "settleDate": "2023.06.26",
    "askEhmYield": "10,36",
    "bidYield": "11,04",
    "rawName": "D240221",
    "bidPrice": "93,1446",
    "maturityInDays": "240 nap",
    "securityType": "DKJ",
    "maturityDate": "2024.02.21",
    "name": "D240221",
    "bidEhmYield": "11,19",
    "askYield": "10,22",
    "currency": "HUF",
    "maturityInDays_val": 240,
    "issueDate": "2023.03.08",
    "longName": "D240221"
}