{
    "askPrice": "95,0731",
    "green": 0,
    "coupon": 0,
    "accruedInterest": 0,
    "settleDate": "2023.08.08",
    "askEhmYield": "9,60",
    "bidYield": "10,25",
    "rawName": "D240221",
    "bidPrice": "94,6889",
    "maturityInDays": "197 nap",
    "securityType": "DKJ",
    "maturityDate": "2024.02.21",
    "name": "D240221",
    "bidEhmYield": "10,39",
    "askYield": "9,47",
    "currency": "HUF",
    "maturityInDays_val": 197,
    "issueDate": "2023.03.08",
    "longName": "D240221"
}