{
    "askPrice": "97,0709",
    "green": 0,
    "coupon": 0,
    "accruedInterest": 0,
    "settleDate": "2023.10.02",
    "askEhmYield": "7,76",
    "bidYield": "8,49",
    "rawName": "D240221",
    "bidPrice": "96,7597",
    "maturityInDays": "142 nap",
    "securityType": "DKJ",
    "maturityDate": "2024.02.21",
    "name": "D240221",
    "bidEhmYield": "8,61",
    "askYield": "7,65",
    "currency": "HUF",
    "maturityInDays_val": 142,
    "issueDate": "2023.03.08",
    "longName": "D240221"
}