{
    "askPrice": "98,6651",
    "green": 0,
    "coupon": 0,
    "accruedInterest": 0,
    "settleDate": "2023.12.12",
    "askEhmYield": "6,96",
    "bidYield": "8,20",
    "rawName": "D240221",
    "bidPrice": "98,4085",
    "maturityInDays": "71 nap",
    "securityType": "DKJ",
    "maturityDate": "2024.02.21",
    "name": "D240221",
    "bidEhmYield": "8,31",
    "askYield": "6,86",
    "currency": "HUF",
    "maturityInDays_val": 71,
    "issueDate": "2023.03.08",
    "longName": "D240221"
}