{
    "askPrice": "89,0977",
    "green": 0,
    "coupon": 0,
    "accruedInterest": 0,
    "settleDate": "2023.04.17",
    "askEhmYield": "14,41",
    "bidYield": "15,02",
    "rawName": "D240221",
    "bidPrice": "88,5474",
    "maturityInDays": "310 nap",
    "securityType": "DKJ",
    "maturityDate": "2024.02.21",
    "name": "D240221",
    "bidEhmYield": "15,23",
    "askYield": "14,21",
    "currency": "HUF",
    "maturityInDays_val": 310,
    "issueDate": "2023.03.08",
    "longName": "D240221"
}