{
    "askPrice": "97,1220",
    "green": 0,
    "coupon": 0,
    "accruedInterest": 0,
    "settleDate": "2023.10.04",
    "askEhmYield": "7,73",
    "bidYield": "8,45",
    "rawName": "D240221",
    "bidPrice": "96,8184",
    "maturityInDays": "140 nap",
    "securityType": "DKJ",
    "maturityDate": "2024.02.21",
    "name": "D240221",
    "bidEhmYield": "8,57",
    "askYield": "7,62",
    "currency": "HUF",
    "maturityInDays_val": 140,
    "issueDate": "2023.03.08",
    "longName": "D240221"
}