{
    "askPrice": "88,6187",
    "green": 0,
    "coupon": 0,
    "accruedInterest": 0,
    "settleDate": "2023.04.03",
    "askEhmYield": "14,47",
    "bidYield": "15,05",
    "rawName": "D240221",
    "bidPrice": "88,0708",
    "maturityInDays": "324 nap",
    "securityType": "DKJ",
    "maturityDate": "2024.02.21",
    "name": "D240221",
    "bidEhmYield": "15,26",
    "askYield": "14,27",
    "currency": "HUF",
    "maturityInDays_val": 324,
    "issueDate": "2023.03.08",
    "longName": "D240221"
}