{
    "askPrice": "88,9170",
    "green": 0,
    "coupon": 0,
    "accruedInterest": 0,
    "settleDate": "2023.04.11",
    "askEhmYield": "14,40",
    "bidYield": "14,95",
    "rawName": "D240221",
    "bidPrice": "88,3995",
    "maturityInDays": "316 nap",
    "securityType": "DKJ",
    "maturityDate": "2024.02.21",
    "name": "D240221",
    "bidEhmYield": "15,16",
    "askYield": "14,20",
    "currency": "HUF",
    "maturityInDays_val": 316,
    "issueDate": "2023.03.08",
    "longName": "D240221"
}