{
    "askPrice": "97,2715",
    "green": 0,
    "coupon": 0,
    "accruedInterest": 0,
    "settleDate": "2023.10.12",
    "askEhmYield": "7,76",
    "bidYield": "8,48",
    "rawName": "D240221",
    "bidPrice": "96,9844",
    "maturityInDays": "132 nap",
    "securityType": "DKJ",
    "maturityDate": "2024.02.21",
    "name": "D240221",
    "bidEhmYield": "8,60",
    "askYield": "7,65",
    "currency": "HUF",
    "maturityInDays_val": 132,
    "issueDate": "2023.03.08",
    "longName": "D240221"
}