{
    "askPrice": "99,1709",
    "green": 0,
    "coupon": 0,
    "accruedInterest": 0,
    "settleDate": "2024.01.04",
    "askEhmYield": "6,36",
    "bidYield": "7,55",
    "rawName": "D240221",
    "bidPrice": "99,0034",
    "maturityInDays": "48 nap",
    "securityType": "DKJ",
    "maturityDate": "2024.02.21",
    "name": "D240221",
    "bidEhmYield": "7,65",
    "askYield": "6,27",
    "currency": "HUF",
    "maturityInDays_val": 48,
    "issueDate": "2023.03.08",
    "longName": "D240221"
}