{
    "askPrice": "99,3672",
    "green": 0,
    "coupon": 0,
    "accruedInterest": 0,
    "settleDate": "2024.01.17",
    "askEhmYield": "6,64",
    "bidYield": "7,88",
    "rawName": "D240221",
    "bidPrice": "99,2397",
    "maturityInDays": "35 nap",
    "securityType": "DKJ",
    "maturityDate": "2024.02.21",
    "name": "D240221",
    "bidEhmYield": "7,99",
    "askYield": "6,55",
    "currency": "HUF",
    "maturityInDays_val": 35,
    "issueDate": "2023.03.08",
    "longName": "D240221"
}