{
    "askPrice": "99,7142",
    "green": 0,
    "coupon": 0,
    "accruedInterest": 0,
    "settleDate": "2024.02.05",
    "askEhmYield": "6,54",
    "bidYield": "7,79",
    "rawName": "D240221",
    "bidPrice": "99,6550",
    "maturityInDays": "16 nap",
    "securityType": "DKJ",
    "maturityDate": "2024.02.21",
    "name": "D240221",
    "bidEhmYield": "7,90",
    "askYield": "6,45",
    "currency": "HUF",
    "maturityInDays_val": 16,
    "issueDate": "2023.03.08",
    "longName": "D240221"
}