{
    "askPrice": "",
    "green": 0,
    "coupon": 0,
    "accruedInterest": 0,
    "settleDate": "2024.02.12",
    "askEhmYield": "",
    "bidYield": "7,79",
    "rawName": "D240221",
    "bidPrice": "99,8056",
    "maturityInDays": "9 nap",
    "securityType": "DKJ",
    "maturityDate": "2024.02.21",
    "name": "D240221",
    "bidEhmYield": "7,90",
    "askYield": "",
    "currency": "HUF",
    "maturityInDays_val": 9,
    "issueDate": "2023.03.08",
    "longName": "D240221"
}