{
    "askPrice": "",
    "green": 0,
    "coupon": "3,00 %",
    "accruedInterest": "2,1781",
    "settleDate": "2022.11.28",
    "askEhmYield": "",
    "bidYield": "4,83",
    "rawName": "K2023/10",
    "bidPrice": "99,5000",
    "coupon_val": 3,
    "maturityInDays": "100 nap",
    "securityType": "1MÁP",
    "maturityDate": "2023.03.08",
    "name": "K2023/10",
    "bidEhmYield": "4,75",
    "askYield": "",
    "currency": "HUF",
    "maturityInDays_val": 100,
    "issueDate": "2022.03.08",
    "longName": "K230308"
}