{
    "askPrice": "",
    "green": 0,
    "coupon": "3,00 %",
    "accruedInterest": "1,72",
    "settleDate": "2022.10.03",
    "askEhmYield": "",
    "bidYield": "",
    "rawName": "K2023/10",
    "bidPrice": "99,50",
    "coupon_val": 3,
    "maturityInDays": "156 nap",
    "securityType": "1MÁP",
    "maturityDate": "2023.03.08",
    "name": "K2023/10",
    "bidEhmYield": "4,12",
    "askYield": "",
    "currency": "HUF",
    "maturityInDays_val": 156,
    "longName": "K230308"
}