{
    "askPrice": "",
    "green": 0,
    "coupon": "3,00 %",
    "accruedInterest": "2,09",
    "settleDate": "2022.11.17",
    "askEhmYield": "",
    "bidYield": "4,64",
    "rawName": "K2023/10",
    "bidPrice": "99,50",
    "coupon_val": 3,
    "maturityInDays": "111 nap",
    "securityType": "1MÁP",
    "maturityDate": "2023.03.08",
    "name": "K2023/10",
    "bidEhmYield": "4,57",
    "askYield": "",
    "currency": "HUF",
    "maturityInDays_val": 111,
    "issueDate": "2022-03-08",
    "longName": "K230308"
}