{
    "askPrice": "",
    "green": 0,
    "coupon": "3,00 %",
    "accruedInterest": "2,01",
    "settleDate": "2022.11.08",
    "askEhmYield": "",
    "bidYield": "4,52",
    "rawName": "K2023/10",
    "bidPrice": "99,50",
    "coupon_val": 3,
    "maturityInDays": "120 nap",
    "securityType": "1MÁP",
    "maturityDate": "2023.03.08",
    "name": "K2023/10",
    "bidEhmYield": "4,45",
    "askYield": "",
    "currency": "HUF",
    "maturityInDays_val": 120,
    "issueDate": "2022-03-08",
    "longName": "K230308"
}