{
    "askPrice": "",
    "green": 0,
    "coupon": "3,00 %",
    "accruedInterest": "2,3753",
    "settleDate": "2022.12.22",
    "askEhmYield": "",
    "bidYield": "7,93",
    "rawName": "K2023/10",
    "bidPrice": "99,0000",
    "coupon_val": 3,
    "maturityInDays": "76 nap",
    "securityType": "1MÁP",
    "maturityDate": "2023.03.08",
    "name": "K2023/10",
    "bidEhmYield": "7,70",
    "askYield": "",
    "currency": "HUF",
    "maturityInDays_val": 76,
    "issueDate": "2022.03.08",
    "longName": "K230308"
}