{
    "askPrice": "",
    "green": 0,
    "coupon": "3,00 %",
    "accruedInterest": "2,6548",
    "settleDate": "2023.01.25",
    "askEhmYield": "",
    "bidYield": "12,10",
    "rawName": "K2023/10",
    "bidPrice": "99,0000",
    "coupon_val": 3,
    "maturityInDays": "42 nap",
    "securityType": "1MÁP",
    "maturityDate": "2023.03.08",
    "name": "K2023/10",
    "bidEhmYield": "11,50",
    "askYield": "",
    "currency": "HUF",
    "maturityInDays_val": 42,
    "issueDate": "2022.03.08",
    "longName": "K230308"
}