{
    "askPrice": "",
    "green": 0,
    "coupon": "3,00 %",
    "accruedInterest": "2,9014",
    "settleDate": "2023.02.24",
    "askEhmYield": "",
    "bidYield": "26,71",
    "rawName": "K2023/10",
    "bidPrice": "99,3000",
    "coupon_val": 3,
    "maturityInDays": "12 nap",
    "securityType": "1MÁP",
    "maturityDate": "2023.03.08",
    "name": "K2023/10",
    "bidEhmYield": "23,77",
    "askYield": "",
    "currency": "HUF",
    "maturityInDays_val": 12,
    "issueDate": "2022.03.08",
    "longName": "K230308"
}