{
    "askPrice": "",
    "green": 0,
    "coupon": "3,00 %",
    "accruedInterest": "2,7205",
    "settleDate": "2023.02.02",
    "askEhmYield": "",
    "bidYield": "14,36",
    "rawName": "K2023/10",
    "bidPrice": "99,0000",
    "coupon_val": 3,
    "maturityInDays": "34 nap",
    "securityType": "1MÁP",
    "maturityDate": "2023.03.08",
    "name": "K2023/10",
    "bidEhmYield": "13,50",
    "askYield": "",
    "currency": "HUF",
    "maturityInDays_val": 34,
    "issueDate": "2022.03.08",
    "longName": "K230308"
}