{
    "askPrice": "",
    "green": 0,
    "coupon": "3,50 %",
    "accruedInterest": "0,29",
    "settleDate": "2022.11.16",
    "askEhmYield": "",
    "bidYield": "6,03",
    "rawName": "N2024/21",
    "bidPrice": "99,50",
    "coupon_val": 3.5,
    "maturityInDays": "712 nap",
    "securityType": "MÁP Plusz",
    "maturityDate": "2024.10.28",
    "name": "N2024/21",
    "bidEhmYield": "",
    "askYield": "",
    "currency": "HUF",
    "maturityInDays_val": 712,
    "issueDate": "2019-10-28",
    "longName": "N241028"
}