{
    "askPrice": "",
    "green": 0,
    "coupon": "3,50 %",
    "accruedInterest": "0,8288",
    "settleDate": "2022.12.22",
    "askEhmYield": "",
    "bidYield": "6,05",
    "rawName": "N2024/21",
    "bidPrice": "99,5000",
    "coupon_val": 3.5,
    "maturityInDays": "676 nap",
    "securityType": "MÁP Plusz",
    "maturityDate": "2024.10.28",
    "name": "N2024/21",
    "bidEhmYield": "",
    "askYield": "",
    "currency": "HUF",
    "maturityInDays_val": 676,
    "issueDate": "2019.10.28",
    "longName": "N241028"
}