{
    "askPrice": "",
    "green": 0,
    "coupon": "3,50 %",
    "accruedInterest": 0,
    "settleDate": "2022.10.28",
    "askEhmYield": "",
    "bidYield": "6,02",
    "rawName": "N2024/21",
    "bidPrice": "99,50",
    "coupon_val": 3.5,
    "maturityInDays": "731 nap",
    "securityType": "MÁP Plusz",
    "maturityDate": "2024.10.28",
    "name": "N2024/21",
    "bidEhmYield": "",
    "askYield": "",
    "currency": "HUF",
    "maturityInDays_val": 731,
    "longName": "N241028"
}