{
    "askPrice": "",
    "green": 0,
    "coupon": "3,50 %",
    "accruedInterest": "0,15",
    "settleDate": "2022.11.07",
    "askEhmYield": "",
    "bidYield": "5,74",
    "rawName": "N2024/21",
    "bidPrice": "100,00",
    "coupon_val": 3.5,
    "maturityInDays": "721 nap",
    "securityType": "MÁP Plusz",
    "maturityDate": "2024.10.28",
    "name": "N2024/21",
    "bidEhmYield": "",
    "askYield": "",
    "currency": "HUF",
    "maturityInDays_val": 721,
    "issueDate": "2019-10-28",
    "longName": "N241028"
}