{
    "askPrice": "",
    "green": 0,
    "coupon": "3,50 %",
    "accruedInterest": "3,63",
    "settleDate": "2022.07.20",
    "askEhmYield": "",
    "bidYield": "",
    "rawName": "N2024/21",
    "bidPrice": "99,50",
    "coupon_val": 3.5,
    "maturityInDays": "831 nap",
    "securityType": "MÁP Plusz",
    "maturityDate": "2024.10.28",
    "name": "N2024/21",
    "bidEhmYield": "",
    "askYield": "",
    "currency": "HUF",
    "maturityInDays_val": 831,
    "longName": "N241028"
}