{
    "askPrice": "",
    "green": 0,
    "coupon": "3,50 %",
    "accruedInterest": "5,4397",
    "settleDate": "2023.10.24",
    "askEhmYield": "",
    "bidYield": "6,52",
    "rawName": "N2024/21",
    "bidPrice": "99,5000",
    "coupon_val": 3.5,
    "maturityInDays": "370 nap",
    "securityType": "MÁP Plusz",
    "maturityDate": "2024.10.28",
    "name": "N2024/21",
    "bidEhmYield": "",
    "askYield": "",
    "currency": "HUF",
    "maturityInDays_val": 370,
    "issueDate": "2019.10.28",
    "longName": "N241028"
}