{
    "askPrice": "",
    "green": 0,
    "coupon": "3,50 %",
    "accruedInterest": "0,0820",
    "settleDate": "2023.11.02",
    "askEhmYield": "",
    "bidYield": "6,00",
    "rawName": "N2024/21",
    "bidPrice": "100,0000",
    "coupon_val": 3.5,
    "maturityInDays": "361 nap",
    "securityType": "MÁP Plusz",
    "maturityDate": "2024.10.28",
    "name": "N2024/21",
    "bidEhmYield": "",
    "askYield": "",
    "currency": "HUF",
    "maturityInDays_val": 361,
    "issueDate": "2019.10.28",
    "longName": "N241028"
}