{
    "askPrice": "",
    "green": 0,
    "coupon": "3,50 %",
    "accruedInterest": "2,4426",
    "settleDate": "2024.03.25",
    "askEhmYield": "",
    "bidYield": "6,80",
    "rawName": "N2024/21",
    "bidPrice": "99,5000",
    "coupon_val": 3.5,
    "maturityInDays": "217 nap",
    "securityType": "MÁP Plusz",
    "maturityDate": "2024.10.28",
    "name": "N2024/21",
    "bidEhmYield": "",
    "askYield": "",
    "currency": "HUF",
    "maturityInDays_val": 217,
    "issueDate": "2019.10.28",
    "longName": "N241028"
}