{
    "askPrice": "",
    "green": 0,
    "coupon": "8,00 %",
    "accruedInterest": "2,0822",
    "settleDate": "2024.04.02",
    "askEhmYield": "",
    "bidYield": "9,36",
    "rawName": "K2024/52",
    "bidPrice": "99,0000",
    "coupon_val": 8,
    "maturityInDays": "270 nap",
    "securityType": "1MÁP",
    "maturityDate": "2024.12.28",
    "name": "K2024/52",
    "bidEhmYield": "9,22",
    "askYield": "",
    "currency": "HUF",
    "maturityInDays_val": 270,
    "issueDate": "2023.12.28",
    "longName": "K241228"
}