{
    "askPrice": "",
    "green": 0,
    "coupon": "8,00 %",
    "accruedInterest": "1,0082",
    "settleDate": "2024.02.12",
    "askEhmYield": "",
    "bidYield": "9,16",
    "rawName": "K2024/52",
    "bidPrice": "99,0000",
    "coupon_val": 8,
    "maturityInDays": "320 nap",
    "securityType": "1MÁP",
    "maturityDate": "2024.12.28",
    "name": "K2024/52",
    "bidEhmYield": "9,11",
    "askYield": "",
    "currency": "HUF",
    "maturityInDays_val": 320,
    "issueDate": "2023.12.28",
    "longName": "K241228"
}