{
    "askPrice": "",
    "green": 0,
    "coupon": "8,00 %",
    "accruedInterest": "0,4164",
    "settleDate": "2024.01.16",
    "askEhmYield": "",
    "bidYield": "9,10",
    "rawName": "K2024/52",
    "bidPrice": "99,0000",
    "coupon_val": 8,
    "maturityInDays": "347 nap",
    "securityType": "1MÁP",
    "maturityDate": "2024.12.28",
    "name": "K2024/52",
    "bidEhmYield": "9,08",
    "askYield": "",
    "currency": "HUF",
    "maturityInDays_val": 347,
    "issueDate": "2023.12.28",
    "longName": "K241228"
}