{
    "askPrice": "",
    "green": 0,
    "coupon": "9,00 %",
    "accruedInterest": "6,1151",
    "settleDate": "2023.09.08",
    "askEhmYield": "",
    "bidYield": "11,99",
    "rawName": "K2024/01",
    "bidPrice": "99,0000",
    "coupon_val": 9,
    "maturityInDays": "117 nap",
    "securityType": "1MÁP",
    "maturityDate": "2024.01.03",
    "name": "K2024/01",
    "bidEhmYield": "11,53",
    "askYield": "",
    "currency": "HUF",
    "maturityInDays_val": 117,
    "issueDate": "2023.01.03",
    "longName": "K240103"
}