{
    "askPrice": "",
    "green": 0,
    "coupon": "9,00 %",
    "accruedInterest": "7,3233",
    "settleDate": "2023.10.27",
    "askEhmYield": "",
    "bidYield": "14,28",
    "rawName": "K2024/01",
    "bidPrice": "99,0000",
    "coupon_val": 9,
    "maturityInDays": "68 nap",
    "securityType": "1MÁP",
    "maturityDate": "2024.01.03",
    "name": "K2024/01",
    "bidEhmYield": "13,51",
    "askYield": "",
    "currency": "HUF",
    "maturityInDays_val": 68,
    "issueDate": "2023.01.03",
    "longName": "K240103"
}