{
    "askPrice": "",
    "green": 0,
    "coupon": "9,00 %",
    "accruedInterest": "4,5616",
    "settleDate": "2023.07.07",
    "askEhmYield": "",
    "bidYield": "10,94",
    "rawName": "K2024/01",
    "bidPrice": "99,0000",
    "coupon_val": 9,
    "maturityInDays": "180 nap",
    "securityType": "1MÁP",
    "maturityDate": "2024.01.03",
    "name": "K2024/01",
    "bidEhmYield": "10,65",
    "askYield": "",
    "currency": "HUF",
    "maturityInDays_val": 180,
    "issueDate": "2023.01.03",
    "longName": "K240103"
}