{
    "askPrice": "",
    "green": 0,
    "coupon": "9,00 %",
    "accruedInterest": "6,4110",
    "settleDate": "2023.09.20",
    "askEhmYield": "",
    "bidYield": "12,34",
    "rawName": "K2024/01",
    "bidPrice": "99,0000",
    "coupon_val": 9,
    "maturityInDays": "105 nap",
    "securityType": "1MÁP",
    "maturityDate": "2024.01.03",
    "name": "K2024/01",
    "bidEhmYield": "11,84",
    "askYield": "",
    "currency": "HUF",
    "maturityInDays_val": 105,
    "issueDate": "2023.01.03",
    "longName": "K240103"
}