{
    "askPrice": "",
    "green": 0,
    "coupon": "9,00 %",
    "accruedInterest": "7,6685",
    "settleDate": "2023.11.10",
    "askEhmYield": "",
    "bidYield": "15,74",
    "rawName": "K2024/01",
    "bidPrice": "99,0000",
    "coupon_val": 9,
    "maturityInDays": "54 nap",
    "securityType": "1MÁP",
    "maturityDate": "2024.01.03",
    "name": "K2024/01",
    "bidEhmYield": "14,77",
    "askYield": "",
    "currency": "HUF",
    "maturityInDays_val": 54,
    "issueDate": "2023.01.03",
    "longName": "K240103"
}