{
    "askPrice": "",
    "green": 0,
    "coupon": "9,00 %",
    "accruedInterest": "8,8274",
    "settleDate": "2023.12.27",
    "askEhmYield": "",
    "bidYield": "44,91",
    "rawName": "K2024/01",
    "bidPrice": "99,4000",
    "coupon_val": 9,
    "maturityInDays": "7 nap",
    "securityType": "1MÁP",
    "maturityDate": "2024.01.03",
    "name": "K2024/01",
    "bidEhmYield": "37,22",
    "askYield": "",
    "currency": "HUF",
    "maturityInDays_val": 7,
    "issueDate": "2023.01.03",
    "longName": "K240103"
}