{
    "askPrice": "",
    "green": 0,
    "coupon": "9,00 %",
    "accruedInterest": "3,9452",
    "settleDate": "2023.06.12",
    "askEhmYield": "",
    "bidYield": "10,71",
    "rawName": "K2024/01",
    "bidPrice": "99,0000",
    "coupon_val": 9,
    "maturityInDays": "205 nap",
    "securityType": "1MÁP",
    "maturityDate": "2024.01.03",
    "name": "K2024/01",
    "bidEhmYield": "10,47",
    "askYield": "",
    "currency": "HUF",
    "maturityInDays_val": 205,
    "issueDate": "2023.01.03",
    "longName": "K240103"
}