{
    "askPrice": "",
    "green": 0,
    "coupon": "9,00 %",
    "accruedInterest": "5,0301",
    "settleDate": "2023.07.26",
    "askEhmYield": "",
    "bidYield": "11,16",
    "rawName": "K2024/01",
    "bidPrice": "99,0000",
    "coupon_val": 9,
    "maturityInDays": "161 nap",
    "securityType": "1MÁP",
    "maturityDate": "2024.01.03",
    "name": "K2024/01",
    "bidEhmYield": "10,83",
    "askYield": "",
    "currency": "HUF",
    "maturityInDays_val": 161,
    "issueDate": "2023.01.03",
    "longName": "K240103"
}