{
    "askPrice": "",
    "green": 0,
    "coupon": "9,00 %",
    "accruedInterest": "2,5644",
    "settleDate": "2023.04.17",
    "askEhmYield": "",
    "bidYield": "10,39",
    "rawName": "K2024/01",
    "bidPrice": "99,0000",
    "coupon_val": 9,
    "maturityInDays": "261 nap",
    "securityType": "1MÁP",
    "maturityDate": "2024.01.03",
    "name": "K2024/01",
    "bidEhmYield": "10,24",
    "askYield": "",
    "currency": "HUF",
    "maturityInDays_val": 261,
    "issueDate": "2023.01.03",
    "longName": "K240103"
}