{
    "askPrice": "",
    "green": 0,
    "coupon": "9,00 %",
    "accruedInterest": "7,8411",
    "settleDate": "2023.11.17",
    "askEhmYield": "",
    "bidYield": "16,81",
    "rawName": "K2024/01",
    "bidPrice": "99,0000",
    "coupon_val": 9,
    "maturityInDays": "47 nap",
    "securityType": "1MÁP",
    "maturityDate": "2024.01.03",
    "name": "K2024/01",
    "bidEhmYield": "15,69",
    "askYield": "",
    "currency": "HUF",
    "maturityInDays_val": 47,
    "issueDate": "2023.01.03",
    "longName": "K240103"
}