{
    "askPrice": "",
    "green": 0,
    "coupon": "9,00 %",
    "accruedInterest": "1,0110",
    "settleDate": "2023.02.13",
    "askEhmYield": "",
    "bidYield": "10,18",
    "rawName": "K2024/01",
    "bidPrice": "99,0000",
    "coupon_val": 9,
    "maturityInDays": "324 nap",
    "securityType": "1MÁP",
    "maturityDate": "2024.01.03",
    "name": "K2024/01",
    "bidEhmYield": "10,13",
    "askYield": "",
    "currency": "HUF",
    "maturityInDays_val": 324,
    "issueDate": "2023.01.03",
    "longName": "K240103"
}