{
    "askPrice": "",
    "green": 0,
    "coupon": "9,00 %",
    "accruedInterest": "3,7726",
    "settleDate": "2023.06.05",
    "askEhmYield": "",
    "bidYield": "10,66",
    "rawName": "K2024/01",
    "bidPrice": "99,0000",
    "coupon_val": 9,
    "maturityInDays": "212 nap",
    "securityType": "1MÁP",
    "maturityDate": "2024.01.03",
    "name": "K2024/01",
    "bidEhmYield": "10,43",
    "askYield": "",
    "currency": "HUF",
    "maturityInDays_val": 212,
    "issueDate": "2023.01.03",
    "longName": "K240103"
}