{
    "askPrice": "",
    "green": 0,
    "coupon": "9,00 %",
    "accruedInterest": "5,8932",
    "settleDate": "2023.08.30",
    "askEhmYield": "",
    "bidYield": "11,77",
    "rawName": "K2024/01",
    "bidPrice": "99,0000",
    "coupon_val": 9,
    "maturityInDays": "126 nap",
    "securityType": "1MÁP",
    "maturityDate": "2024.01.03",
    "name": "K2024/01",
    "bidEhmYield": "11,34",
    "askYield": "",
    "currency": "HUF",
    "maturityInDays_val": 126,
    "issueDate": "2023.01.03",
    "longName": "K240103"
}