{
    "askPrice": "",
    "green": 0,
    "coupon": "9,00 %",
    "accruedInterest": "6,2877",
    "settleDate": "2023.09.15",
    "askEhmYield": "",
    "bidYield": "12,19",
    "rawName": "K2024/01",
    "bidPrice": "99,0000",
    "coupon_val": 9,
    "maturityInDays": "110 nap",
    "securityType": "1MÁP",
    "maturityDate": "2024.01.03",
    "name": "K2024/01",
    "bidEhmYield": "11,70",
    "askYield": "",
    "currency": "HUF",
    "maturityInDays_val": 110,
    "issueDate": "2023.01.03",
    "longName": "K240103"
}