{
    "askPrice": "",
    "green": 0,
    "coupon": "9,00 %",
    "accruedInterest": "8,2849",
    "settleDate": "2023.12.05",
    "askEhmYield": "",
    "bidYield": "22,09",
    "rawName": "K2024/01",
    "bidPrice": "99,0000",
    "coupon_val": 9,
    "maturityInDays": "29 nap",
    "securityType": "1MÁP",
    "maturityDate": "2024.01.03",
    "name": "K2024/01",
    "bidEhmYield": "20,12",
    "askYield": "",
    "currency": "HUF",
    "maturityInDays_val": 29,
    "issueDate": "2023.01.03",
    "longName": "K240103"
}