{
    "askPrice": "",
    "green": 0,
    "coupon": "3,50 %",
    "accruedInterest": "0,27",
    "settleDate": "2022.11.14",
    "askEhmYield": "",
    "bidYield": "5,05",
    "rawName": "N2027/42",
    "bidPrice": "99,50",
    "coupon_val": 3.5,
    "maturityInDays": "1798 nap",
    "securityType": "MÁP Plusz",
    "maturityDate": "2027.10.17",
    "name": "N2027/42",
    "bidEhmYield": "",
    "askYield": "",
    "currency": "HUF",
    "maturityInDays_val": 1798,
    "issueDate": "2022-10-17",
    "longName": "N271017"
}