{
    "askPrice": "",
    "green": 0,
    "coupon": "3,50 %",
    "accruedInterest": "0,8415",
    "settleDate": "2023.07.03",
    "askEhmYield": "",
    "bidYield": "5,26",
    "rawName": "N2027/42",
    "bidPrice": "99,5000",
    "coupon_val": 3.5,
    "maturityInDays": "1567 nap",
    "securityType": "MÁP Plusz",
    "maturityDate": "2027.10.17",
    "name": "N2027/42",
    "bidEhmYield": "",
    "askYield": "",
    "currency": "HUF",
    "maturityInDays_val": 1567,
    "issueDate": "2022.10.17",
    "longName": "N271017"
}