{
    "askPrice": "98,40",
    "green": 0,
    "coupon": "1,75 %",
    "accruedInterest": "1,30",
    "settleDate": "2022.07.25",
    "askEhmYield": "8,30",
    "bidYield": "9,00",
    "rawName": "2022/B",
    "bidPrice": "98,24",
    "coupon_val": 1.75,
    "maturityInDays": "93 nap",
    "securityType": "KTV",
    "maturityDate": "2022.10.26",
    "name": "2022/B",
    "bidEhmYield": "9,00",
    "askYield": "8,30",
    "currency": "HUF",
    "maturityInDays_val": 93,
    "longName": "A221026B17"
}