{
    "askPrice": "98,49",
    "green": 0,
    "coupon": "1,75 %",
    "accruedInterest": "1,17",
    "settleDate": "2022.06.27",
    "askEhmYield": "6,45",
    "bidYield": "7,15",
    "rawName": "2022/B",
    "bidPrice": "98,28",
    "coupon_val": 1.75,
    "maturityInDays": "121 nap",
    "securityType": "KTV",
    "maturityDate": "2022.10.26",
    "name": "2022/B",
    "bidEhmYield": "7,15",
    "askYield": "6,45",
    "currency": "HUF",
    "maturityInDays_val": 121,
    "longName": "A221026B17"
}