{
    "askPrice": "98,62",
    "green": 0,
    "coupon": "1,75 %",
    "accruedInterest": "1,22",
    "settleDate": "2022.07.07",
    "askEhmYield": "6,42",
    "bidYield": "7,12",
    "rawName": "2022/B",
    "bidPrice": "98,43",
    "coupon_val": 1.75,
    "maturityInDays": "111 nap",
    "securityType": "KTV",
    "maturityDate": "2022.10.26",
    "name": "2022/B",
    "bidEhmYield": "7,12",
    "askYield": "6,42",
    "currency": "HUF",
    "maturityInDays_val": 111,
    "longName": "A221026B17"
}