{
    "askPrice": "98,43",
    "green": 0,
    "coupon": "1,75 %",
    "accruedInterest": "1,24",
    "settleDate": "2022.07.11",
    "askEhmYield": "7,31",
    "bidYield": "8,01",
    "rawName": "2022/B",
    "bidPrice": "98,24",
    "coupon_val": 1.75,
    "maturityInDays": "107 nap",
    "securityType": "KTV",
    "maturityDate": "2022.10.26",
    "name": "2022/B",
    "bidEhmYield": "8,01",
    "askYield": "7,31",
    "currency": "HUF",
    "maturityInDays_val": 107,
    "longName": "A221026B17"
}