{
    "askPrice": "98,65",
    "green": 0,
    "coupon": "1,75 %",
    "accruedInterest": "1,37",
    "settleDate": "2022.08.08",
    "askEhmYield": "8,26",
    "bidYield": "8,96",
    "rawName": "2022/B",
    "bidPrice": "98,51",
    "coupon_val": 1.75,
    "maturityInDays": "79 nap",
    "securityType": "KTV",
    "maturityDate": "2022.10.26",
    "name": "2022/B",
    "bidEhmYield": "8,96",
    "askYield": "8,26",
    "currency": "HUF",
    "maturityInDays_val": 79,
    "longName": "A221026B17"
}