{
    "askPrice": "98,33",
    "green": 0,
    "coupon": "1,75 %",
    "accruedInterest": "1,28",
    "settleDate": "2022.07.21",
    "askEhmYield": "8,29",
    "bidYield": "8,99",
    "rawName": "2022/B",
    "bidPrice": "98,16",
    "coupon_val": 1.75,
    "maturityInDays": "97 nap",
    "securityType": "KTV",
    "maturityDate": "2022.10.26",
    "name": "2022/B",
    "bidEhmYield": "8,99",
    "askYield": "8,29",
    "currency": "HUF",
    "maturityInDays_val": 97,
    "longName": "A221026B17"
}