{
    "askPrice": "98,95",
    "green": 0,
    "coupon": "1,75 %",
    "accruedInterest": "1,44",
    "settleDate": "2022.08.22",
    "askEhmYield": "7,88",
    "bidYield": "8,68",
    "rawName": "2022/B",
    "bidPrice": "98,81",
    "coupon_val": 1.75,
    "maturityInDays": "65 nap",
    "securityType": "KTV",
    "maturityDate": "2022.10.26",
    "name": "2022/B",
    "bidEhmYield": "8,68",
    "askYield": "7,88",
    "currency": "HUF",
    "maturityInDays_val": 65,
    "longName": "A221026B17"
}