{
    "askPrice": "98,61",
    "green": 0,
    "coupon": "1,75 %",
    "accruedInterest": "1,18",
    "settleDate": "2022.06.30",
    "askEhmYield": "6,20",
    "bidYield": "6,90",
    "rawName": "2022/B",
    "bidPrice": "98,39",
    "coupon_val": 1.75,
    "maturityInDays": "118 nap",
    "securityType": "KTV",
    "maturityDate": "2022.10.26",
    "name": "2022/B",
    "bidEhmYield": "6,90",
    "askYield": "6,20",
    "currency": "HUF",
    "maturityInDays_val": 118,
    "longName": "A221026B17"
}