{
    "askPrice": "99,60",
    "green": 0,
    "coupon": "1,75 %",
    "accruedInterest": "1,67",
    "settleDate": "2022.10.10",
    "askEhmYield": "11,25",
    "bidYield": "12,05",
    "rawName": "2022/B",
    "bidPrice": "99,57",
    "coupon_val": 1.75,
    "maturityInDays": "16 nap",
    "securityType": "KTV",
    "maturityDate": "2022.10.26",
    "name": "2022/B",
    "bidEhmYield": "12,05",
    "askYield": "11,25",
    "currency": "HUF",
    "maturityInDays_val": 16,
    "longName": "A221026B17"
}