{
    "askPrice": "99,16",
    "green": 0,
    "coupon": "1,75 %",
    "accruedInterest": "1,52",
    "settleDate": "2022.09.08",
    "askEhmYield": "8,34",
    "bidYield": "9,14",
    "rawName": "2022/B",
    "bidPrice": "99,07",
    "coupon_val": 1.75,
    "maturityInDays": "48 nap",
    "securityType": "KTV",
    "maturityDate": "2022.10.26",
    "name": "2022/B",
    "bidEhmYield": "9,14",
    "askYield": "8,34",
    "currency": "HUF",
    "maturityInDays_val": 48,
    "longName": "A221026B17"
}