{
    "askPrice": "98,70",
    "green": 0,
    "coupon": "1,75 %",
    "accruedInterest": "1,38",
    "settleDate": "2022.08.10",
    "askEhmYield": "8,18",
    "bidYield": "8,98",
    "rawName": "2022/B",
    "bidPrice": "98,54",
    "coupon_val": 1.75,
    "maturityInDays": "77 nap",
    "securityType": "KTV",
    "maturityDate": "2022.10.26",
    "name": "2022/B",
    "bidEhmYield": "8,98",
    "askYield": "8,18",
    "currency": "HUF",
    "maturityInDays_val": 77,
    "longName": "A221026B17"
}