{
    "askPrice": "",
    "green": 0,
    "coupon": "1,75 %",
    "accruedInterest": "1,72",
    "settleDate": "2022.10.19",
    "askEhmYield": "",
    "bidYield": "12,12",
    "rawName": "2022/B",
    "bidPrice": "99,81",
    "coupon_val": 1.75,
    "maturityInDays": "7 nap",
    "securityType": "KTV",
    "maturityDate": "2022.10.26",
    "name": "2022/B",
    "bidEhmYield": "12,12",
    "askYield": "",
    "currency": "HUF",
    "maturityInDays_val": 7,
    "longName": "A221026B17"
}