{
    "askPrice": "98,85",
    "green": 0,
    "coupon": "1,75 %",
    "accruedInterest": "1,41",
    "settleDate": "2022.08.17",
    "askEhmYield": "7,95",
    "bidYield": "8,75",
    "rawName": "2022/B",
    "bidPrice": "98,71",
    "coupon_val": 1.75,
    "maturityInDays": "70 nap",
    "securityType": "KTV",
    "maturityDate": "2022.10.26",
    "name": "2022/B",
    "bidEhmYield": "8,75",
    "askYield": "7,95",
    "currency": "HUF",
    "maturityInDays_val": 70,
    "longName": "A221026B17"
}