{
    "askPrice": "98,52",
    "green": 0,
    "coupon": "1,75 %",
    "accruedInterest": "1,34",
    "settleDate": "2022.08.02",
    "askEhmYield": "8,35",
    "bidYield": "9,05",
    "rawName": "2022/B",
    "bidPrice": "98,38",
    "coupon_val": 1.75,
    "maturityInDays": "85 nap",
    "securityType": "KTV",
    "maturityDate": "2022.10.26",
    "name": "2022/B",
    "bidEhmYield": "9,05",
    "askYield": "8,35",
    "currency": "HUF",
    "maturityInDays_val": 85,
    "longName": "A221026B17"
}