{
    "askPrice": "98,35",
    "green": 0,
    "coupon": "1,75 %",
    "accruedInterest": "1,27",
    "settleDate": "2022.07.18",
    "askEhmYield": "8,01",
    "bidYield": "8,71",
    "rawName": "2022/B",
    "bidPrice": "98,18",
    "coupon_val": 1.75,
    "maturityInDays": "100 nap",
    "securityType": "KTV",
    "maturityDate": "2022.10.26",
    "name": "2022/B",
    "bidEhmYield": "8,71",
    "askYield": "8,01",
    "currency": "HUF",
    "maturityInDays_val": 100,
    "longName": "A221026B17"
}