{
    "askPrice": "66,64",
    "green": 0,
    "coupon": "3,00 %",
    "accruedInterest": "0,25",
    "settleDate": "2022.09.21",
    "askEhmYield": "9,09",
    "bidYield": "9,69",
    "rawName": "2030/A",
    "bidPrice": "64,15",
    "coupon_val": 3,
    "maturityInDays": "2891 nap",
    "securityType": "KTV",
    "maturityDate": "2030.08.21",
    "name": "2030/A",
    "bidEhmYield": "9,69",
    "askYield": "9,09",
    "currency": "HUF",
    "maturityInDays_val": 2891,
    "longName": "A300821A19"
}