{
    "askPrice": "64,12",
    "green": 0,
    "coupon": "3,00 %",
    "accruedInterest": "0,67",
    "settleDate": "2022.11.10",
    "askEhmYield": "9,79",
    "bidYield": "10,50",
    "rawName": "2030/A",
    "bidPrice": "61,40",
    "coupon_val": 3,
    "maturityInDays": "2841 nap",
    "securityType": "KTV",
    "maturityDate": "2030.08.21",
    "name": "2030/A",
    "bidEhmYield": "10,49",
    "askYield": "9,80",
    "currency": "HUF",
    "maturityInDays_val": 2841,
    "issueDate": "2019-02-20",
    "longName": "A300821A19"
}