{
    "askPrice": "70,8901",
    "green": 0,
    "coupon": "3,00 %",
    "accruedInterest": "0,9863",
    "settleDate": "2022.12.19",
    "askEhmYield": "8,26",
    "bidYield": "9,15",
    "rawName": "2030/A",
    "bidPrice": "67,0953",
    "coupon_val": 3,
    "maturityInDays": "2802 nap",
    "securityType": "KTV",
    "maturityDate": "2030.08.21",
    "name": "2030/A",
    "bidEhmYield": "9,14",
    "askYield": "8,27",
    "currency": "HUF",
    "maturityInDays_val": 2802,
    "issueDate": "2019.02.20",
    "longName": "A300821A19"
}