{
    "askPrice": "60,99",
    "green": 0,
    "coupon": "3,00 %",
    "accruedInterest": "0,53",
    "settleDate": "2022.10.24",
    "askEhmYield": "10,56",
    "bidYield": "11,30",
    "rawName": "2030/A",
    "bidPrice": "58,31",
    "coupon_val": 3,
    "maturityInDays": "2858 nap",
    "securityType": "KTV",
    "maturityDate": "2030.08.21",
    "name": "2030/A",
    "bidEhmYield": "11,29",
    "askYield": "10,57",
    "currency": "HUF",
    "maturityInDays_val": 2858,
    "longName": "A300821A19"
}