{
    "askPrice": "68,26",
    "green": 0,
    "coupon": "3,00 %",
    "accruedInterest": "2,75",
    "settleDate": "2022.07.22",
    "askEhmYield": "8,61",
    "bidYield": "9,21",
    "rawName": "2030/A",
    "bidPrice": "65,64",
    "coupon_val": 3,
    "maturityInDays": "2952 nap",
    "securityType": "KTV",
    "maturityDate": "2030.08.21",
    "name": "2030/A",
    "bidEhmYield": "9,21",
    "askYield": "8,61",
    "currency": "HUF",
    "maturityInDays_val": 2952,
    "longName": "A300821A19"
}