{
    "askPrice": "70,94",
    "green": 0,
    "coupon": "3,00 %",
    "accruedInterest": "2,52",
    "settleDate": "2022.06.24",
    "askEhmYield": "7,98",
    "bidYield": "8,58",
    "rawName": "2030/A",
    "bidPrice": "68,17",
    "coupon_val": 3,
    "maturityInDays": "2980 nap",
    "securityType": "KTV",
    "maturityDate": "2030.08.21",
    "name": "2030/A",
    "bidEhmYield": "8,58",
    "askYield": "7,98",
    "currency": "HUF",
    "maturityInDays_val": 2980,
    "longName": "A300821A19"
}