{
    "askPrice": "67,75",
    "green": 0,
    "coupon": "3,00 %",
    "accruedInterest": "0,15",
    "settleDate": "2022.09.08",
    "askEhmYield": "8,81",
    "bidYield": "9,41",
    "rawName": "2030/A",
    "bidPrice": "65,20",
    "coupon_val": 3,
    "maturityInDays": "2904 nap",
    "securityType": "KTV",
    "maturityDate": "2030.08.21",
    "name": "2030/A",
    "bidEhmYield": "9,41",
    "askYield": "8,81",
    "currency": "HUF",
    "maturityInDays_val": 2904,
    "longName": "A300821A19"
}