{
    "askPrice": "71,08",
    "green": 0,
    "coupon": "3,00 %",
    "accruedInterest": "2,58",
    "settleDate": "2022.07.01",
    "askEhmYield": "7,96",
    "bidYield": "8,56",
    "rawName": "2030/A",
    "bidPrice": "68,32",
    "coupon_val": 3,
    "maturityInDays": "2973 nap",
    "securityType": "KTV",
    "maturityDate": "2030.08.21",
    "name": "2030/A",
    "bidEhmYield": "8,56",
    "askYield": "7,96",
    "currency": "HUF",
    "maturityInDays_val": 2973,
    "longName": "A300821A19"
}