{
    "askPrice": "73,5445",
    "green": 0,
    "coupon": "3,00 %",
    "accruedInterest": "0,7726",
    "settleDate": "2022.11.23",
    "askEhmYield": "7,64",
    "bidYield": "8,37",
    "rawName": "2030/A",
    "bidPrice": "70,2517",
    "coupon_val": 3,
    "maturityInDays": "2828 nap",
    "securityType": "KTV",
    "maturityDate": "2030.08.21",
    "name": "2030/A",
    "bidEhmYield": "8,36",
    "askYield": "7,65",
    "currency": "HUF",
    "maturityInDays_val": 2828,
    "issueDate": "2019.02.20",
    "longName": "A300821A19"
}