{
    "askPrice": "66,21",
    "green": 0,
    "coupon": "3,00 %",
    "accruedInterest": "2,72",
    "settleDate": "2022.07.18",
    "askEhmYield": "9,07",
    "bidYield": "9,67",
    "rawName": "2030/A",
    "bidPrice": "63,69",
    "coupon_val": 3,
    "maturityInDays": "2956 nap",
    "securityType": "KTV",
    "maturityDate": "2030.08.21",
    "name": "2030/A",
    "bidEhmYield": "9,67",
    "askYield": "9,07",
    "currency": "HUF",
    "maturityInDays_val": 2956,
    "longName": "A300821A19"
}