{
    "askPrice": "65,44",
    "green": 0,
    "coupon": "3,00 %",
    "accruedInterest": "0,31",
    "settleDate": "2022.09.28",
    "askEhmYield": "9,39",
    "bidYield": "9,99",
    "rawName": "2030/A",
    "bidPrice": "63,01",
    "coupon_val": 3,
    "maturityInDays": "2884 nap",
    "securityType": "KTV",
    "maturityDate": "2030.08.21",
    "name": "2030/A",
    "bidEhmYield": "9,99",
    "askYield": "9,39",
    "currency": "HUF",
    "maturityInDays_val": 2884,
    "longName": "A300821A19"
}