{
    "askPrice": "73,90",
    "green": 0,
    "coupon": "3,00 %",
    "accruedInterest": "2,96",
    "settleDate": "2022.08.16",
    "askEhmYield": "7,44",
    "bidYield": "8,04",
    "rawName": "2030/A",
    "bidPrice": "71,04",
    "coupon_val": 3,
    "maturityInDays": "2927 nap",
    "securityType": "KTV",
    "maturityDate": "2030.08.21",
    "name": "2030/A",
    "bidEhmYield": "8,04",
    "askYield": "7,44",
    "currency": "HUF",
    "maturityInDays_val": 2927,
    "longName": "A300821A19"
}