{
    "askPrice": "70,61",
    "green": 0,
    "coupon": "3,00 %",
    "accruedInterest": "0,72",
    "settleDate": "2022.11.17",
    "askEhmYield": "8,27",
    "bidYield": "9,00",
    "rawName": "2030/A",
    "bidPrice": "67,47",
    "coupon_val": 3,
    "maturityInDays": "2834 nap",
    "securityType": "KTV",
    "maturityDate": "2030.08.21",
    "name": "2030/A",
    "bidEhmYield": "8,99",
    "askYield": "8,28",
    "currency": "HUF",
    "maturityInDays_val": 2834,
    "issueDate": "2019-02-20",
    "longName": "A300821A19"
}