{
    "askPrice": "73,2767",
    "green": 0,
    "coupon": "3,00 %",
    "accruedInterest": "0,7890",
    "settleDate": "2022.11.25",
    "askEhmYield": "7,70",
    "bidYield": "8,44",
    "rawName": "2030/A",
    "bidPrice": "69,9563",
    "coupon_val": 3,
    "maturityInDays": "2826 nap",
    "securityType": "KTV",
    "maturityDate": "2030.08.21",
    "name": "2030/A",
    "bidEhmYield": "8,43",
    "askYield": "7,71",
    "currency": "HUF",
    "maturityInDays_val": 2826,
    "issueDate": "2019.02.20",
    "longName": "A300821A19"
}