{
    "askPrice": "72,10",
    "green": 0,
    "coupon": "3,00 %",
    "accruedInterest": "2,61",
    "settleDate": "2022.07.04",
    "askEhmYield": "7,75",
    "bidYield": "8,35",
    "rawName": "2030/A",
    "bidPrice": "69,29",
    "coupon_val": 3,
    "maturityInDays": "2970 nap",
    "securityType": "KTV",
    "maturityDate": "2030.08.21",
    "name": "2030/A",
    "bidEhmYield": "8,35",
    "askYield": "7,75",
    "currency": "HUF",
    "maturityInDays_val": 2970,
    "longName": "A300821A19"
}