{
    "askPrice": "66,98",
    "green": 0,
    "coupon": "3,00 %",
    "accruedInterest": "0,21",
    "settleDate": "2022.09.15",
    "askEhmYield": "9,00",
    "bidYield": "9,60",
    "rawName": "2030/A",
    "bidPrice": "64,47",
    "coupon_val": 3,
    "maturityInDays": "2897 nap",
    "securityType": "KTV",
    "maturityDate": "2030.08.21",
    "name": "2030/A",
    "bidEhmYield": "9,60",
    "askYield": "9,00",
    "currency": "HUF",
    "maturityInDays_val": 2897,
    "longName": "A300821A19"
}