{
    "askPrice": "81,7639",
    "green": 0,
    "coupon": "3,00 %",
    "accruedInterest": "0,6885",
    "settleDate": "2023.11.13",
    "askEhmYield": "6,39",
    "bidYield": "7,11",
    "rawName": "2030/A",
    "bidPrice": "78,4845",
    "coupon_val": 3,
    "maturityInDays": "2473 nap",
    "securityType": "KTV",
    "maturityDate": "2030.08.21",
    "name": "2030/A",
    "bidEhmYield": "7,10",
    "askYield": "6,40",
    "currency": "HUF",
    "maturityInDays_val": 2473,
    "issueDate": "2019.02.20",
    "longName": "A300821A19"
}