{
    "askPrice": "76,0711",
    "green": 0,
    "coupon": "3,00 %",
    "accruedInterest": "2,2767",
    "settleDate": "2023.05.25",
    "askEhmYield": "7,37",
    "bidYield": "8,27",
    "rawName": "2030/A",
    "bidPrice": "72,0987",
    "coupon_val": 3,
    "maturityInDays": "2645 nap",
    "securityType": "KTV",
    "maturityDate": "2030.08.21",
    "name": "2030/A",
    "bidEhmYield": "8,26",
    "askYield": "7,38",
    "currency": "HUF",
    "maturityInDays_val": 2645,
    "issueDate": "2019.02.20",
    "longName": "A300821A19"
}