{
    "askPrice": "",
    "green": 0,
    "coupon": "3,00 %",
    "accruedInterest": 0,
    "settleDate": "2023.08.18",
    "askEhmYield": "",
    "bidYield": "",
    "rawName": "2030/A",
    "bidPrice": "",
    "coupon_val": 3,
    "maturityInDays": "2560 nap",
    "securityType": "KTV",
    "maturityDate": "2030.08.21",
    "name": "2030/A",
    "bidEhmYield": "",
    "askYield": "",
    "currency": "HUF",
    "maturityInDays_val": 2560,
    "issueDate": "2019.02.20",
    "longName": "A300821A19"
}