{
    "askPrice": "77,5749",
    "green": 0,
    "coupon": "3,00 %",
    "accruedInterest": "0,4016",
    "settleDate": "2023.10.09",
    "askEhmYield": "7,25",
    "bidYield": "8,00",
    "rawName": "2030/A",
    "bidPrice": "74,3326",
    "coupon_val": 3,
    "maturityInDays": "2508 nap",
    "securityType": "KTV",
    "maturityDate": "2030.08.21",
    "name": "2030/A",
    "bidEhmYield": "7,99",
    "askYield": "7,26",
    "currency": "HUF",
    "maturityInDays_val": 2508,
    "issueDate": "2019.02.20",
    "longName": "A300821A19"
}