{
    "askPrice": "76,3785",
    "green": 0,
    "coupon": "3,00 %",
    "accruedInterest": "2,2027",
    "settleDate": "2023.05.16",
    "askEhmYield": "7,29",
    "bidYield": "8,17",
    "rawName": "2030/A",
    "bidPrice": "72,4615",
    "coupon_val": 3,
    "maturityInDays": "2654 nap",
    "securityType": "KTV",
    "maturityDate": "2030.08.21",
    "name": "2030/A",
    "bidEhmYield": "8,16",
    "askYield": "7,30",
    "currency": "HUF",
    "maturityInDays_val": 2654,
    "issueDate": "2019.02.20",
    "longName": "A300821A19"
}