{
    "askPrice": "76,6320",
    "green": 0,
    "coupon": "3,00 %",
    "accruedInterest": "2,2274",
    "settleDate": "2023.05.19",
    "askEhmYield": "7,24",
    "bidYield": "8,12",
    "rawName": "2030/A",
    "bidPrice": "72,7032",
    "coupon_val": 3,
    "maturityInDays": "2651 nap",
    "securityType": "KTV",
    "maturityDate": "2030.08.21",
    "name": "2030/A",
    "bidEhmYield": "8,11",
    "askYield": "7,25",
    "currency": "HUF",
    "maturityInDays_val": 2651,
    "issueDate": "2019.02.20",
    "longName": "A300821A19"
}