{
    "askPrice": "72,9849",
    "green": 0,
    "coupon": "3,00 %",
    "accruedInterest": "1,9151",
    "settleDate": "2023.04.11",
    "askEhmYield": "7,98",
    "bidYield": "8,87",
    "rawName": "2030/A",
    "bidPrice": "69,1928",
    "coupon_val": 3,
    "maturityInDays": "2689 nap",
    "securityType": "KTV",
    "maturityDate": "2030.08.21",
    "name": "2030/A",
    "bidEhmYield": "8,86",
    "askYield": "7,99",
    "currency": "HUF",
    "maturityInDays_val": 2689,
    "issueDate": "2019.02.20",
    "longName": "A300821A19"
}