{
    "askPrice": "75,0517",
    "green": 0,
    "coupon": "3,00 %",
    "accruedInterest": "2,0548",
    "settleDate": "2023.04.28",
    "askEhmYield": "7,55",
    "bidYield": "8,45",
    "rawName": "2030/A",
    "bidPrice": "71,1080",
    "coupon_val": 3,
    "maturityInDays": "2672 nap",
    "securityType": "KTV",
    "maturityDate": "2030.08.21",
    "name": "2030/A",
    "bidEhmYield": "8,44",
    "askYield": "7,56",
    "currency": "HUF",
    "maturityInDays_val": 2672,
    "issueDate": "2019.02.20",
    "longName": "A300821A19"
}