{
    "askPrice": "87,4273",
    "green": 0,
    "coupon": "3,00 %",
    "accruedInterest": "1,0656",
    "settleDate": "2023.12.29",
    "askEhmYield": "5,29",
    "bidYield": "6,01",
    "rawName": "2030/A",
    "bidPrice": "83,8802",
    "coupon_val": 3,
    "maturityInDays": "2427 nap",
    "securityType": "KTV",
    "maturityDate": "2030.08.21",
    "name": "2030/A",
    "bidEhmYield": "6,01",
    "askYield": "5,29",
    "currency": "HUF",
    "maturityInDays_val": 2427,
    "issueDate": "2019.02.20",
    "longName": "A300821A19"
}