{
    "askPrice": "79,1254",
    "green": 0,
    "coupon": "3,00 %",
    "accruedInterest": "0,5820",
    "settleDate": "2023.10.31",
    "askEhmYield": "6,94",
    "bidYield": "7,69",
    "rawName": "2030/A",
    "bidPrice": "75,8294",
    "coupon_val": 3,
    "maturityInDays": "2486 nap",
    "securityType": "KTV",
    "maturityDate": "2030.08.21",
    "name": "2030/A",
    "bidEhmYield": "7,68",
    "askYield": "6,95",
    "currency": "HUF",
    "maturityInDays_val": 2486,
    "issueDate": "2019.02.20",
    "longName": "A300821A19"
}