{
    "askPrice": "75,5906",
    "green": 0,
    "coupon": "3,00 %",
    "accruedInterest": "1,3068",
    "settleDate": "2023.01.27",
    "askEhmYield": "7,30",
    "bidYield": "8,18",
    "rawName": "2030/A",
    "bidPrice": "71,5821",
    "coupon_val": 3,
    "maturityInDays": "2763 nap",
    "securityType": "KTV",
    "maturityDate": "2030.08.21",
    "name": "2030/A",
    "bidEhmYield": "8,17",
    "askYield": "7,31",
    "currency": "HUF",
    "maturityInDays_val": 2763,
    "issueDate": "2019.02.20",
    "longName": "A300821A19"
}