{
    "askPrice": "78,5393",
    "green": 0,
    "coupon": "3,00 %",
    "accruedInterest": "2,6630",
    "settleDate": "2023.07.11",
    "askEhmYield": "6,91",
    "bidYield": "7,75",
    "rawName": "2030/A",
    "bidPrice": "74,7421",
    "coupon_val": 3,
    "maturityInDays": "2598 nap",
    "securityType": "KTV",
    "maturityDate": "2030.08.21",
    "name": "2030/A",
    "bidEhmYield": "7,74",
    "askYield": "6,92",
    "currency": "HUF",
    "maturityInDays_val": 2598,
    "issueDate": "2019.02.20",
    "longName": "A300821A19"
}