{
    "askPrice": "78,5545",
    "green": 0,
    "coupon": "3,00 %",
    "accruedInterest": "0,0246",
    "settleDate": "2023.08.24",
    "askEhmYield": "6,97",
    "bidYield": "7,76",
    "rawName": "2030/A",
    "bidPrice": "75,0343",
    "coupon_val": 3,
    "maturityInDays": "2554 nap",
    "securityType": "KTV",
    "maturityDate": "2030.08.21",
    "name": "2030/A",
    "bidEhmYield": "7,75",
    "askYield": "6,98",
    "currency": "HUF",
    "maturityInDays_val": 2554,
    "issueDate": "2019.02.20",
    "longName": "A300821A19"
}