{
    "askPrice": "81,3252",
    "green": 0,
    "coupon": "3,00 %",
    "accruedInterest": "0,1967",
    "settleDate": "2023.09.14",
    "askEhmYield": "6,41",
    "bidYield": "7,16",
    "rawName": "2030/A",
    "bidPrice": "77,8615",
    "coupon_val": 3,
    "maturityInDays": "2533 nap",
    "securityType": "KTV",
    "maturityDate": "2030.08.21",
    "name": "2030/A",
    "bidEhmYield": "7,15",
    "askYield": "6,42",
    "currency": "HUF",
    "maturityInDays_val": 2533,
    "issueDate": "2019.02.20",
    "longName": "A300821A19"
}