{
    "askPrice": "78,8280",
    "green": 0,
    "coupon": "3,00 %",
    "accruedInterest": "2,4904",
    "settleDate": "2023.06.20",
    "askEhmYield": "6,82",
    "bidYield": "7,72",
    "rawName": "2030/A",
    "bidPrice": "74,7170",
    "coupon_val": 3,
    "maturityInDays": "2619 nap",
    "securityType": "KTV",
    "maturityDate": "2030.08.21",
    "name": "2030/A",
    "bidEhmYield": "7,71",
    "askYield": "6,83",
    "currency": "HUF",
    "maturityInDays_val": 2619,
    "issueDate": "2019.02.20",
    "longName": "A300821A19"
}