{
    "askPrice": "81,4440",
    "green": 0,
    "coupon": "3,00 %",
    "accruedInterest": "0,2295",
    "settleDate": "2023.09.18",
    "askEhmYield": "6,39",
    "bidYield": "7,14",
    "rawName": "2030/A",
    "bidPrice": "77,9789",
    "coupon_val": 3,
    "maturityInDays": "2529 nap",
    "securityType": "KTV",
    "maturityDate": "2030.08.21",
    "name": "2030/A",
    "bidEhmYield": "7,13",
    "askYield": "6,40",
    "currency": "HUF",
    "maturityInDays_val": 2529,
    "issueDate": "2019.02.20",
    "longName": "A300821A19"
}