{
    "askPrice": "77,8253",
    "green": 0,
    "coupon": "3,00 %",
    "accruedInterest": "0,3770",
    "settleDate": "2023.10.06",
    "askEhmYield": "7,19",
    "bidYield": "7,93",
    "rawName": "2030/A",
    "bidPrice": "74,6098",
    "coupon_val": 3,
    "maturityInDays": "2511 nap",
    "securityType": "KTV",
    "maturityDate": "2030.08.21",
    "name": "2030/A",
    "bidEhmYield": "7,92",
    "askYield": "7,20",
    "currency": "HUF",
    "maturityInDays_val": 2511,
    "issueDate": "2019.02.20",
    "longName": "A300821A19"
}