{
    "askPrice": "82,7785",
    "green": 0,
    "coupon": "3,00 %",
    "accruedInterest": "0,7787",
    "settleDate": "2023.11.24",
    "askEhmYield": "6,19",
    "bidYield": "6,94",
    "rawName": "2030/A",
    "bidPrice": "79,3261",
    "coupon_val": 3,
    "maturityInDays": "2462 nap",
    "securityType": "KTV",
    "maturityDate": "2030.08.21",
    "name": "2030/A",
    "bidEhmYield": "6,93",
    "askYield": "6,20",
    "currency": "HUF",
    "maturityInDays_val": 2462,
    "issueDate": "2019.02.20",
    "longName": "A300821A19"
}