{
    "askPrice": "79,9675",
    "green": 0,
    "coupon": "3,00 %",
    "accruedInterest": "2,5973",
    "settleDate": "2023.07.03",
    "askEhmYield": "6,60",
    "bidYield": "7,49",
    "rawName": "2030/A",
    "bidPrice": "75,8485",
    "coupon_val": 3,
    "maturityInDays": "2606 nap",
    "securityType": "KTV",
    "maturityDate": "2030.08.21",
    "name": "2030/A",
    "bidEhmYield": "7,48",
    "askYield": "6,61",
    "currency": "HUF",
    "maturityInDays_val": 2606,
    "issueDate": "2019.02.20",
    "longName": "A300821A19"
}