{
    "askPrice": "77,5442",
    "green": 0,
    "coupon": "3,00 %",
    "accruedInterest": "2,3671",
    "settleDate": "2023.06.05",
    "askEhmYield": "7,07",
    "bidYield": "7,96",
    "rawName": "2030/A",
    "bidPrice": "73,5375",
    "coupon_val": 3,
    "maturityInDays": "2634 nap",
    "securityType": "KTV",
    "maturityDate": "2030.08.21",
    "name": "2030/A",
    "bidEhmYield": "7,95",
    "askYield": "7,08",
    "currency": "HUF",
    "maturityInDays_val": 2634,
    "issueDate": "2019.02.20",
    "longName": "A300821A19"
}