{
    "askPrice": "76,0287",
    "green": 0,
    "coupon": "3,00 %",
    "accruedInterest": "2,3342",
    "settleDate": "2023.06.01",
    "askEhmYield": "7,39",
    "bidYield": "8,29",
    "rawName": "2030/A",
    "bidPrice": "72,0684",
    "coupon_val": 3,
    "maturityInDays": "2638 nap",
    "securityType": "KTV",
    "maturityDate": "2030.08.21",
    "name": "2030/A",
    "bidEhmYield": "8,28",
    "askYield": "7,40",
    "currency": "HUF",
    "maturityInDays_val": 2638,
    "issueDate": "2019.02.20",
    "longName": "A300821A19"
}