{
    "askPrice": "86,4101",
    "green": 0,
    "coupon": "3,00 %",
    "accruedInterest": "0,9508",
    "settleDate": "2023.12.15",
    "askEhmYield": "5,48",
    "bidYield": "6,22",
    "rawName": "2030/A",
    "bidPrice": "82,8001",
    "coupon_val": 3,
    "maturityInDays": "2441 nap",
    "securityType": "KTV",
    "maturityDate": "2030.08.21",
    "name": "2030/A",
    "bidEhmYield": "6,21",
    "askYield": "5,48",
    "currency": "HUF",
    "maturityInDays_val": 2441,
    "issueDate": "2019.02.20",
    "longName": "A300821A19"
}