{
    "askPrice": "80,2880",
    "green": 0,
    "coupon": "3,00 %",
    "accruedInterest": "0,1475",
    "settleDate": "2023.09.08",
    "askEhmYield": "6,62",
    "bidYield": "7,37",
    "rawName": "2030/A",
    "bidPrice": "76,8709",
    "coupon_val": 3,
    "maturityInDays": "2539 nap",
    "securityType": "KTV",
    "maturityDate": "2030.08.21",
    "name": "2030/A",
    "bidEhmYield": "7,36",
    "askYield": "6,63",
    "currency": "HUF",
    "maturityInDays_val": 2539,
    "issueDate": "2019.02.20",
    "longName": "A300821A19"
}