{
    "askPrice": "79,2789",
    "green": 0,
    "coupon": "3,00 %",
    "accruedInterest": "0,0574",
    "settleDate": "2023.08.28",
    "askEhmYield": "6,82",
    "bidYield": "7,57",
    "rawName": "2030/A",
    "bidPrice": "75,9015",
    "coupon_val": 3,
    "maturityInDays": "2550 nap",
    "securityType": "KTV",
    "maturityDate": "2030.08.21",
    "name": "2030/A",
    "bidEhmYield": "7,56",
    "askYield": "6,83",
    "currency": "HUF",
    "maturityInDays_val": 2550,
    "issueDate": "2019.02.20",
    "longName": "A300821A19"
}