{
    "askPrice": "76,3715",
    "green": 0,
    "coupon": "3,00 %",
    "accruedInterest": "2,1945",
    "settleDate": "2023.05.15",
    "askEhmYield": "7,29",
    "bidYield": "8,16",
    "rawName": "2030/A",
    "bidPrice": "72,4972",
    "coupon_val": 3,
    "maturityInDays": "2655 nap",
    "securityType": "KTV",
    "maturityDate": "2030.08.21",
    "name": "2030/A",
    "bidEhmYield": "8,15",
    "askYield": "7,30",
    "currency": "HUF",
    "maturityInDays_val": 2655,
    "issueDate": "2019.02.20",
    "longName": "A300821A19"
}