{
    "askPrice": "79,1342",
    "green": 0,
    "coupon": "3,00 %",
    "accruedInterest": "2,5151",
    "settleDate": "2023.06.23",
    "askEhmYield": "6,76",
    "bidYield": "7,64",
    "rawName": "2030/A",
    "bidPrice": "75,0979",
    "coupon_val": 3,
    "maturityInDays": "2616 nap",
    "securityType": "KTV",
    "maturityDate": "2030.08.21",
    "name": "2030/A",
    "bidEhmYield": "7,63",
    "askYield": "6,77",
    "currency": "HUF",
    "maturityInDays_val": 2616,
    "issueDate": "2019.02.20",
    "longName": "A300821A19"
}