{
    "askPrice": "75,7454",
    "green": 0,
    "coupon": "3,00 %",
    "accruedInterest": "2,1123",
    "settleDate": "2023.05.05",
    "askEhmYield": "7,41",
    "bidYield": "8,30",
    "rawName": "2030/A",
    "bidPrice": "71,8100",
    "coupon_val": 3,
    "maturityInDays": "2665 nap",
    "securityType": "KTV",
    "maturityDate": "2030.08.21",
    "name": "2030/A",
    "bidEhmYield": "8,29",
    "askYield": "7,42",
    "currency": "HUF",
    "maturityInDays_val": 2665,
    "issueDate": "2019.02.20",
    "longName": "A300821A19"
}