{
    "askPrice": "81,9765",
    "green": 0,
    "coupon": "3,00 %",
    "accruedInterest": "0,7213",
    "settleDate": "2023.11.17",
    "askEhmYield": "6,35",
    "bidYield": "7,10",
    "rawName": "2030/A",
    "bidPrice": "78,5562",
    "coupon_val": 3,
    "maturityInDays": "2469 nap",
    "securityType": "KTV",
    "maturityDate": "2030.08.21",
    "name": "2030/A",
    "bidEhmYield": "7,09",
    "askYield": "6,36",
    "currency": "HUF",
    "maturityInDays_val": 2469,
    "issueDate": "2019.02.20",
    "longName": "A300821A19"
}