{
    "askPrice": "75,9795",
    "green": 0,
    "coupon": "3,00 %",
    "accruedInterest": "2,1699",
    "settleDate": "2023.05.12",
    "askEhmYield": "7,37",
    "bidYield": "8,23",
    "rawName": "2030/A",
    "bidPrice": "72,1689",
    "coupon_val": 3,
    "maturityInDays": "2658 nap",
    "securityType": "KTV",
    "maturityDate": "2030.08.21",
    "name": "2030/A",
    "bidEhmYield": "8,22",
    "askYield": "7,38",
    "currency": "HUF",
    "maturityInDays_val": 2658,
    "issueDate": "2019.02.20",
    "longName": "A300821A19"
}