{
    "askPrice": "75,8168",
    "green": 0,
    "coupon": "3,00 %",
    "accruedInterest": "2,0877",
    "settleDate": "2023.05.02",
    "askEhmYield": "7,39",
    "bidYield": "8,27",
    "rawName": "2030/A",
    "bidPrice": "71,9163",
    "coupon_val": 3,
    "maturityInDays": "2668 nap",
    "securityType": "KTV",
    "maturityDate": "2030.08.21",
    "name": "2030/A",
    "bidEhmYield": "8,26",
    "askYield": "7,40",
    "currency": "HUF",
    "maturityInDays_val": 2668,
    "issueDate": "2019.02.20",
    "longName": "A300821A19"
}