{
    "askPrice": "82,6995",
    "green": 0,
    "coupon": "3,00 %",
    "accruedInterest": "1,8525",
    "settleDate": "2024.04.03",
    "askEhmYield": "6,37",
    "bidYield": "7,10",
    "rawName": "2030/A",
    "bidPrice": "79,5021",
    "coupon_val": 3,
    "maturityInDays": "2331 nap",
    "securityType": "KTV",
    "maturityDate": "2030.08.21",
    "name": "2030/A",
    "bidEhmYield": "7,09",
    "askYield": "6,38",
    "currency": "HUF",
    "maturityInDays_val": 2331,
    "issueDate": "2019.02.20",
    "longName": "A300821A19"
}