{
    "askPrice": "85,3758",
    "green": 0,
    "coupon": "3,00 %",
    "accruedInterest": "1,6803",
    "settleDate": "2024.03.13",
    "askEhmYield": "5,78",
    "bidYield": "6,51",
    "rawName": "2030/A",
    "bidPrice": "81,9795",
    "coupon_val": 3,
    "maturityInDays": "2352 nap",
    "securityType": "KTV",
    "maturityDate": "2030.08.21",
    "name": "2030/A",
    "bidEhmYield": "6,50",
    "askYield": "5,78",
    "currency": "HUF",
    "maturityInDays_val": 2352,
    "issueDate": "2019.02.20",
    "longName": "A300821A19"
}