{
    "askPrice": "84,7854",
    "green": 0,
    "coupon": "3,00 %",
    "accruedInterest": "1,7213",
    "settleDate": "2024.03.18",
    "askEhmYield": "5,91",
    "bidYield": "6,65",
    "rawName": "2030/A",
    "bidPrice": "81,3792",
    "coupon_val": 3,
    "maturityInDays": "2347 nap",
    "securityType": "KTV",
    "maturityDate": "2030.08.21",
    "name": "2030/A",
    "bidEhmYield": "6,64",
    "askYield": "5,91",
    "currency": "HUF",
    "maturityInDays_val": 2347,
    "issueDate": "2019.02.20",
    "longName": "A300821A19"
}