{
    "askPrice": "80,4770",
    "green": 0,
    "coupon": "3,00 %",
    "accruedInterest": "1,9754",
    "settleDate": "2024.04.18",
    "askEhmYield": "6,89",
    "bidYield": "7,63",
    "rawName": "2030/A",
    "bidPrice": "77,3607",
    "coupon_val": 3,
    "maturityInDays": "2316 nap",
    "securityType": "KTV",
    "maturityDate": "2030.08.21",
    "name": "2030/A",
    "bidEhmYield": "7,62",
    "askYield": "6,90",
    "currency": "HUF",
    "maturityInDays_val": 2316,
    "issueDate": "2019.02.20",
    "longName": "A300821A19"
}