{
    "askPrice": "83,1143",
    "green": 0,
    "coupon": "3,00 %",
    "accruedInterest": "1,7951",
    "settleDate": "2024.03.27",
    "askEhmYield": "6,27",
    "bidYield": "6,99",
    "rawName": "2030/A",
    "bidPrice": "79,9324",
    "coupon_val": 3,
    "maturityInDays": "2338 nap",
    "securityType": "KTV",
    "maturityDate": "2030.08.21",
    "name": "2030/A",
    "bidEhmYield": "6,98",
    "askYield": "6,28",
    "currency": "HUF",
    "maturityInDays_val": 2338,
    "issueDate": "2019.02.20",
    "longName": "A300821A19"
}