{
    "askPrice": "86,8322",
    "green": 0,
    "coupon": "3,00 %",
    "accruedInterest": "1,3525",
    "settleDate": "2024.02.02",
    "askEhmYield": "5,44",
    "bidYield": "6,19",
    "rawName": "2030/A",
    "bidPrice": "83,2185",
    "coupon_val": 3,
    "maturityInDays": "2392 nap",
    "securityType": "KTV",
    "maturityDate": "2030.08.21",
    "name": "2030/A",
    "bidEhmYield": "6,18",
    "askYield": "5,44",
    "currency": "HUF",
    "maturityInDays_val": 2392,
    "issueDate": "2019.02.20",
    "longName": "A300821A19"
}