{
    "askPrice": "80,5714",
    "green": 0,
    "coupon": "3,00 %",
    "accruedInterest": "1,9836",
    "settleDate": "2024.04.19",
    "askEhmYield": "6,87",
    "bidYield": "7,62",
    "rawName": "2030/A",
    "bidPrice": "77,4101",
    "coupon_val": 3,
    "maturityInDays": "2315 nap",
    "securityType": "KTV",
    "maturityDate": "2030.08.21",
    "name": "2030/A",
    "bidEhmYield": "7,61",
    "askYield": "6,88",
    "currency": "HUF",
    "maturityInDays_val": 2315,
    "issueDate": "2019.02.20",
    "longName": "A300821A19"
}