{
    "askPrice": "85,4577",
    "green": 0,
    "coupon": "3,00 %",
    "accruedInterest": "1,5820",
    "settleDate": "2024.03.01",
    "askEhmYield": "5,75",
    "bidYield": "6,49",
    "rawName": "2030/A",
    "bidPrice": "81,9962",
    "coupon_val": 3,
    "maturityInDays": "2364 nap",
    "securityType": "KTV",
    "maturityDate": "2030.08.21",
    "name": "2030/A",
    "bidEhmYield": "6,48",
    "askYield": "5,75",
    "currency": "HUF",
    "maturityInDays_val": 2364,
    "issueDate": "2019.02.20",
    "longName": "A300821A19"
}