{
    "askPrice": "82,6447",
    "green": 0,
    "coupon": "3,00 %",
    "accruedInterest": "2,1393",
    "settleDate": "2024.05.08",
    "askEhmYield": "6,43",
    "bidYield": "7,15",
    "rawName": "2030/A",
    "bidPrice": "79,5365",
    "coupon_val": 3,
    "maturityInDays": "2296 nap",
    "securityType": "KTV",
    "maturityDate": "2030.08.21",
    "name": "2030/A",
    "bidEhmYield": "7,14",
    "askYield": "6,44",
    "currency": "HUF",
    "maturityInDays_val": 2296,
    "issueDate": "2019.02.20",
    "longName": "A300821A19"
}