{
    "askPrice": "85,7780",
    "green": 0,
    "coupon": "3,00 %",
    "accruedInterest": "1,1475",
    "settleDate": "2024.01.08",
    "askEhmYield": "5,63",
    "bidYield": "6,37",
    "rawName": "2030/A",
    "bidPrice": "82,2312",
    "coupon_val": 3,
    "maturityInDays": "2417 nap",
    "securityType": "KTV",
    "maturityDate": "2030.08.21",
    "name": "2030/A",
    "bidEhmYield": "6,36",
    "askYield": "5,63",
    "currency": "HUF",
    "maturityInDays_val": 2417,
    "issueDate": "2019.02.20",
    "longName": "A300821A19"
}