{
    "askPrice": "86,0501",
    "green": 0,
    "coupon": "3,00 %",
    "accruedInterest": "1,1066",
    "settleDate": "2024.01.03",
    "askEhmYield": "5,57",
    "bidYield": "6,29",
    "rawName": "2030/A",
    "bidPrice": "82,5771",
    "coupon_val": 3,
    "maturityInDays": "2422 nap",
    "securityType": "KTV",
    "maturityDate": "2030.08.21",
    "name": "2030/A",
    "bidEhmYield": "6,28",
    "askYield": "5,57",
    "currency": "HUF",
    "maturityInDays_val": 2422,
    "issueDate": "2019.02.20",
    "longName": "A300821A19"
}