{
    "askPrice": "87,1435",
    "green": 0,
    "coupon": "3,00 %",
    "accruedInterest": "1,2869",
    "settleDate": "2024.01.25",
    "askEhmYield": "5,37",
    "bidYield": "6,07",
    "rawName": "2030/A",
    "bidPrice": "83,7402",
    "coupon_val": 3,
    "maturityInDays": "2400 nap",
    "securityType": "KTV",
    "maturityDate": "2030.08.21",
    "name": "2030/A",
    "bidEhmYield": "6,07",
    "askYield": "5,37",
    "currency": "HUF",
    "maturityInDays_val": 2400,
    "issueDate": "2019.02.20",
    "longName": "A300821A19"
}