{
    "askPrice": "86,0011",
    "green": 0,
    "coupon": "3,00 %",
    "accruedInterest": "1,4426",
    "settleDate": "2024.02.13",
    "askEhmYield": "5,62",
    "bidYield": "6,36",
    "rawName": "2030/A",
    "bidPrice": "82,4903",
    "coupon_val": 3,
    "maturityInDays": "2381 nap",
    "securityType": "KTV",
    "maturityDate": "2030.08.21",
    "name": "2030/A",
    "bidEhmYield": "6,35",
    "askYield": "5,62",
    "currency": "HUF",
    "maturityInDays_val": 2381,
    "issueDate": "2019.02.20",
    "longName": "A300821A19"
}