{
    "askPrice": "87,3416",
    "green": 0,
    "coupon": "3,00 %",
    "accruedInterest": "1,3770",
    "settleDate": "2024.02.05",
    "askEhmYield": "5,34",
    "bidYield": "6,07",
    "rawName": "2030/A",
    "bidPrice": "83,8007",
    "coupon_val": 3,
    "maturityInDays": "2389 nap",
    "securityType": "KTV",
    "maturityDate": "2030.08.21",
    "name": "2030/A",
    "bidEhmYield": "6,07",
    "askYield": "5,34",
    "currency": "HUF",
    "maturityInDays_val": 2389,
    "issueDate": "2019.02.20",
    "longName": "A300821A19"
}