{
    "askPrice": "88,1138",
    "green": 0,
    "coupon": "3,00 %",
    "accruedInterest": "1,2213",
    "settleDate": "2024.01.17",
    "askEhmYield": "5,17",
    "bidYield": "5,90",
    "rawName": "2030/A",
    "bidPrice": "84,5096",
    "coupon_val": 3,
    "maturityInDays": "2408 nap",
    "securityType": "KTV",
    "maturityDate": "2030.08.21",
    "name": "2030/A",
    "bidEhmYield": "5,90",
    "askYield": "5,17",
    "currency": "HUF",
    "maturityInDays_val": 2408,
    "issueDate": "2019.02.20",
    "longName": "A300821A19"
}