{
    "askPrice": "",
    "green": 0,
    "coupon": "4,75 %",
    "accruedInterest": "0,31",
    "settleDate": "2022.09.30",
    "askEhmYield": "",
    "bidYield": "",
    "rawName": "K2023/36",
    "bidPrice": "99,50",
    "coupon_val": 4.75,
    "maturityInDays": "341 nap",
    "securityType": "1MÁP",
    "maturityDate": "2023.09.06",
    "name": "K2023/36",
    "bidEhmYield": "5,30",
    "askYield": "",
    "currency": "HUF",
    "maturityInDays_val": 341,
    "longName": "K230906"
}