{
    "askPrice": "",
    "green": 0,
    "coupon": "4,75 %",
    "accruedInterest": "1,1192",
    "settleDate": "2022.12.01",
    "askEhmYield": "",
    "bidYield": "5,40",
    "rawName": "K2023/36",
    "bidPrice": "99,5000",
    "coupon_val": 4.75,
    "maturityInDays": "279 nap",
    "securityType": "1MÁP",
    "maturityDate": "2023.09.06",
    "name": "K2023/36",
    "bidEhmYield": "5,37",
    "askYield": "",
    "currency": "HUF",
    "maturityInDays_val": 279,
    "issueDate": "2022.09.06",
    "longName": "K230906"
}