{
    "askPrice": "",
    "green": 0,
    "coupon": "4,75 %",
    "accruedInterest": "1,0932",
    "settleDate": "2022.11.29",
    "askEhmYield": "",
    "bidYield": "5,40",
    "rawName": "K2023/36",
    "bidPrice": "99,5000",
    "coupon_val": 4.75,
    "maturityInDays": "281 nap",
    "securityType": "1MÁP",
    "maturityDate": "2023.09.06",
    "name": "K2023/36",
    "bidEhmYield": "5,37",
    "askYield": "",
    "currency": "HUF",
    "maturityInDays_val": 281,
    "issueDate": "2022.09.06",
    "longName": "K230906"
}