{
    "askPrice": "",
    "green": 0,
    "coupon": "4,75 %",
    "accruedInterest": "0,90",
    "settleDate": "2022.11.14",
    "askEhmYield": "",
    "bidYield": "5,37",
    "rawName": "K2023/36",
    "bidPrice": "99,50",
    "coupon_val": 4.75,
    "maturityInDays": "296 nap",
    "securityType": "1MÁP",
    "maturityDate": "2023.09.06",
    "name": "K2023/36",
    "bidEhmYield": "5,35",
    "askYield": "",
    "currency": "HUF",
    "maturityInDays_val": 296,
    "issueDate": "2022-09-06",
    "longName": "K230906"
}