{
    "askPrice": "",
    "green": 0,
    "coupon": "4,75 %",
    "accruedInterest": "0,13",
    "settleDate": "2022.09.16",
    "askEhmYield": "",
    "bidYield": "",
    "rawName": "K2023/36",
    "bidPrice": "99,50",
    "coupon_val": 4.75,
    "maturityInDays": "355 nap",
    "securityType": "1MÁP",
    "maturityDate": "2023.09.06",
    "name": "K2023/36",
    "bidEhmYield": "5,28",
    "askYield": "",
    "currency": "HUF",
    "maturityInDays_val": 355,
    "longName": "K230906"
}