{
    "askPrice": "",
    "green": 0,
    "coupon": "4,75 %",
    "accruedInterest": "1,2623",
    "settleDate": "2022.12.12",
    "askEhmYield": "",
    "bidYield": "6,14",
    "rawName": "K2023/36",
    "bidPrice": "99,0000",
    "coupon_val": 4.75,
    "maturityInDays": "268 nap",
    "securityType": "1MÁP",
    "maturityDate": "2023.09.06",
    "name": "K2023/36",
    "bidEhmYield": "6,10",
    "askYield": "",
    "currency": "HUF",
    "maturityInDays_val": 268,
    "issueDate": "2022.09.06",
    "longName": "K230906"
}