{
    "askPrice": "",
    "green": 0,
    "coupon": "4,75 %",
    "accruedInterest": "1,8219",
    "settleDate": "2023.01.24",
    "askEhmYield": "",
    "bidYield": "6,40",
    "rawName": "K2023/36",
    "bidPrice": "99,0000",
    "coupon_val": 4.75,
    "maturityInDays": "225 nap",
    "securityType": "1MÁP",
    "maturityDate": "2023.09.06",
    "name": "K2023/36",
    "bidEhmYield": "6,32",
    "askYield": "",
    "currency": "HUF",
    "maturityInDays_val": 225,
    "issueDate": "2022.09.06",
    "longName": "K230906"
}