{
    "askPrice": "",
    "green": 0,
    "coupon": "4,75 %",
    "accruedInterest": "4,6459",
    "settleDate": "2023.08.29",
    "askEhmYield": "",
    "bidYield": "36,03",
    "rawName": "K2023/36",
    "bidPrice": "99,4000",
    "coupon_val": 4.75,
    "maturityInDays": "8 nap",
    "securityType": "1MÁP",
    "maturityDate": "2023.09.06",
    "name": "K2023/36",
    "bidEhmYield": "30,88",
    "askYield": "",
    "currency": "HUF",
    "maturityInDays_val": 8,
    "issueDate": "2022.09.06",
    "longName": "K230906"
}