{
    "askPrice": "",
    "green": 0,
    "coupon": "4,75 %",
    "accruedInterest": "4,6849",
    "settleDate": "2023.09.01",
    "askEhmYield": "",
    "bidYield": "59,20",
    "rawName": "K2023/36",
    "bidPrice": "99,4000",
    "coupon_val": 4.75,
    "maturityInDays": "5 nap",
    "securityType": "1MÁP",
    "maturityDate": "2023.09.06",
    "name": "K2023/36",
    "bidEhmYield": "46,64",
    "askYield": "",
    "currency": "HUF",
    "maturityInDays_val": 5,
    "issueDate": "2022.09.06",
    "longName": "K230906"
}