{
    "askPrice": "",
    "green": 0,
    "coupon": "4,75 %",
    "accruedInterest": "3,1103",
    "settleDate": "2023.05.03",
    "askEhmYield": "",
    "bidYield": "7,67",
    "rawName": "K2023/36",
    "bidPrice": "99,0000",
    "coupon_val": 4.75,
    "maturityInDays": "126 nap",
    "securityType": "1MÁP",
    "maturityDate": "2023.09.06",
    "name": "K2023/36",
    "bidEhmYield": "7,49",
    "askYield": "",
    "currency": "HUF",
    "maturityInDays_val": 126,
    "issueDate": "2022.09.06",
    "longName": "K230906"
}