{
    "askPrice": "",
    "green": 0,
    "coupon": "4,75 %",
    "accruedInterest": "3,5397",
    "settleDate": "2023.06.05",
    "askEhmYield": "",
    "bidYield": "8,73",
    "rawName": "K2023/36",
    "bidPrice": "99,0000",
    "coupon_val": 4.75,
    "maturityInDays": "93 nap",
    "securityType": "1MÁP",
    "maturityDate": "2023.09.06",
    "name": "K2023/36",
    "bidEhmYield": "8,46",
    "askYield": "",
    "currency": "HUF",
    "maturityInDays_val": 93,
    "issueDate": "2022.09.06",
    "longName": "K230906"
}