{
    "askPrice": "",
    "green": 0,
    "coupon": "4,75 %",
    "accruedInterest": "3,0322",
    "settleDate": "2023.04.27",
    "askEhmYield": "",
    "bidYield": "7,54",
    "rawName": "K2023/36",
    "bidPrice": "99,0000",
    "coupon_val": 4.75,
    "maturityInDays": "132 nap",
    "securityType": "1MÁP",
    "maturityDate": "2023.09.06",
    "name": "K2023/36",
    "bidEhmYield": "7,37",
    "askYield": "",
    "currency": "HUF",
    "maturityInDays_val": 132,
    "issueDate": "2022.09.06",
    "longName": "K230906"
}