{
    "askPrice": "",
    "green": 0,
    "coupon": "4,75 %",
    "accruedInterest": "2,3555",
    "settleDate": "2023.03.06",
    "askEhmYield": "",
    "bidYield": "6,75",
    "rawName": "K2023/36",
    "bidPrice": "99,0000",
    "coupon_val": 4.75,
    "maturityInDays": "184 nap",
    "securityType": "1MÁP",
    "maturityDate": "2023.09.06",
    "name": "K2023/36",
    "bidEhmYield": "6,64",
    "askYield": "",
    "currency": "HUF",
    "maturityInDays_val": 184,
    "issueDate": "2022.09.06",
    "longName": "K230906"
}