{
    "askPrice": "",
    "green": 0,
    "coupon": "9,00 %",
    "accruedInterest": "5,7452",
    "settleDate": "2023.11.16",
    "askEhmYield": "",
    "bidYield": "11,55",
    "rawName": "K2024/13",
    "bidPrice": "99,0000",
    "coupon_val": 9,
    "maturityInDays": "133 nap",
    "securityType": "1MÁP",
    "maturityDate": "2024.03.28",
    "name": "K2024/13",
    "bidEhmYield": "11,15",
    "askYield": "",
    "currency": "HUF",
    "maturityInDays_val": 133,
    "issueDate": "2023.03.28",
    "longName": "K240328"
}