{
    "askPrice": "",
    "green": 0,
    "coupon": "9,00 %",
    "accruedInterest": "4,3890",
    "settleDate": "2023.09.22",
    "askEhmYield": "",
    "bidYield": "10,81",
    "rawName": "K2024/13",
    "bidPrice": "99,0000",
    "coupon_val": 9,
    "maturityInDays": "188 nap",
    "securityType": "1MÁP",
    "maturityDate": "2024.03.28",
    "name": "K2024/13",
    "bidEhmYield": "10,54",
    "askYield": "",
    "currency": "HUF",
    "maturityInDays_val": 188,
    "issueDate": "2023.03.28",
    "longName": "K240328"
}