{
    "askPrice": "",
    "green": 0,
    "coupon": "9,00 %",
    "accruedInterest": "0,6904",
    "settleDate": "2023.04.25",
    "askEhmYield": "",
    "bidYield": "10,12",
    "rawName": "K2024/13",
    "bidPrice": "99,0000",
    "coupon_val": 9,
    "maturityInDays": "338 nap",
    "securityType": "1MÁP",
    "maturityDate": "2024.03.28",
    "name": "K2024/13",
    "bidEhmYield": "10,08",
    "askYield": "",
    "currency": "HUF",
    "maturityInDays_val": 338,
    "issueDate": "2023.03.28",
    "longName": "K240328"
}