{
    "askPrice": "",
    "green": 0,
    "coupon": "9,00 %",
    "accruedInterest": "4,1671",
    "settleDate": "2023.09.13",
    "askEhmYield": "",
    "bidYield": "10,73",
    "rawName": "K2024/13",
    "bidPrice": "99,0000",
    "coupon_val": 9,
    "maturityInDays": "197 nap",
    "securityType": "1MÁP",
    "maturityDate": "2024.03.28",
    "name": "K2024/13",
    "bidEhmYield": "10,48",
    "askYield": "",
    "currency": "HUF",
    "maturityInDays_val": 197,
    "issueDate": "2023.03.28",
    "longName": "K240328"
}