{
    "askPrice": "",
    "green": 0,
    "coupon": "9,00 %",
    "accruedInterest": "8,0137",
    "settleDate": "2024.02.16",
    "askEhmYield": "",
    "bidYield": "17,79",
    "rawName": "K2024/13",
    "bidPrice": "99,0000",
    "coupon_val": 9,
    "maturityInDays": "41 nap",
    "securityType": "1MÁP",
    "maturityDate": "2024.03.28",
    "name": "K2024/13",
    "bidEhmYield": "16,52",
    "askYield": "",
    "currency": "HUF",
    "maturityInDays_val": 41,
    "issueDate": "2023.03.28",
    "longName": "K240328"
}