{
    "askPrice": "",
    "green": 0,
    "coupon": "9,00 %",
    "accruedInterest": "7,8164",
    "settleDate": "2024.02.08",
    "askEhmYield": "",
    "bidYield": "16,27",
    "rawName": "K2024/13",
    "bidPrice": "99,0000",
    "coupon_val": 9,
    "maturityInDays": "49 nap",
    "securityType": "1MÁP",
    "maturityDate": "2024.03.28",
    "name": "K2024/13",
    "bidEhmYield": "15,23",
    "askYield": "",
    "currency": "HUF",
    "maturityInDays_val": 49,
    "issueDate": "2023.03.28",
    "longName": "K240328"
}