{
    "askPrice": "",
    "green": 0,
    "coupon": "8,00 %",
    "accruedInterest": "1,1178",
    "settleDate": "2023.11.02",
    "askEhmYield": "",
    "bidYield": "9,18",
    "rawName": "K2024/37",
    "bidPrice": "99,0000",
    "coupon_val": 8,
    "maturityInDays": "315 nap",
    "securityType": "1MÁP",
    "maturityDate": "2024.09.12",
    "name": "K2024/37",
    "bidEhmYield": "9,12",
    "askYield": "",
    "currency": "HUF",
    "maturityInDays_val": 315,
    "issueDate": "2023.09.12",
    "longName": "K240912"
}