{
    "askPrice": "",
    "green": 0,
    "coupon": "8,00 %",
    "accruedInterest": "2,1260",
    "settleDate": "2023.12.18",
    "askEhmYield": "",
    "bidYield": "9,33",
    "rawName": "K2024/37",
    "bidPrice": "99,0000",
    "coupon_val": 8,
    "maturityInDays": "269 nap",
    "securityType": "1MÁP",
    "maturityDate": "2024.09.12",
    "name": "K2024/37",
    "bidEhmYield": "9,22",
    "askYield": "",
    "currency": "HUF",
    "maturityInDays_val": 269,
    "issueDate": "2023.09.12",
    "longName": "K240912"
}