{
    "askPrice": "",
    "green": 0,
    "coupon": "8,00 %",
    "accruedInterest": "0,8110",
    "settleDate": "2023.10.19",
    "askEhmYield": "",
    "bidYield": "9,14",
    "rawName": "K2024/37",
    "bidPrice": "99,0000",
    "coupon_val": 8,
    "maturityInDays": "329 nap",
    "securityType": "1MÁP",
    "maturityDate": "2024.09.12",
    "name": "K2024/37",
    "bidEhmYield": "9,10",
    "askYield": "",
    "currency": "HUF",
    "maturityInDays_val": 329,
    "issueDate": "2023.09.12",
    "longName": "K240912"
}