{
    "askPrice": "",
    "green": 0,
    "coupon": "8,00 %",
    "accruedInterest": "2,9589",
    "settleDate": "2024.01.25",
    "askEhmYield": "",
    "bidYield": "9,52",
    "rawName": "K2024/37",
    "bidPrice": "99,0000",
    "coupon_val": 8,
    "maturityInDays": "231 nap",
    "securityType": "1MÁP",
    "maturityDate": "2024.09.12",
    "name": "K2024/37",
    "bidEhmYield": "9,36",
    "askYield": "",
    "currency": "HUF",
    "maturityInDays_val": 231,
    "issueDate": "2023.09.12",
    "longName": "K240912"
}