{
    "askPrice": "",
    "green": 0,
    "coupon": "8,00 %",
    "accruedInterest": "3,5945",
    "settleDate": "2024.02.23",
    "askEhmYield": "",
    "bidYield": "9,72",
    "rawName": "K2024/37",
    "bidPrice": "99,0000",
    "coupon_val": 8,
    "maturityInDays": "202 nap",
    "securityType": "1MÁP",
    "maturityDate": "2024.09.12",
    "name": "K2024/37",
    "bidEhmYield": "9,52",
    "askYield": "",
    "currency": "HUF",
    "maturityInDays_val": 202,
    "issueDate": "2023.09.12",
    "longName": "K240912"
}