{
    "askPrice": "",
    "green": 0,
    "coupon": "8,00 %",
    "accruedInterest": "4,8000",
    "settleDate": "2024.04.19",
    "askEhmYield": "",
    "bidYield": "10,42",
    "rawName": "K2024/37",
    "bidPrice": "99,0000",
    "coupon_val": 8,
    "maturityInDays": "146 nap",
    "securityType": "1MÁP",
    "maturityDate": "2024.09.12",
    "name": "K2024/37",
    "bidEhmYield": "10,06",
    "askYield": "",
    "currency": "HUF",
    "maturityInDays_val": 146,
    "issueDate": "2023.09.12",
    "longName": "K240912"
}