{
    "askPrice": "",
    "green": 0,
    "coupon": "8,00 %",
    "accruedInterest": "4,1425",
    "settleDate": "2024.03.19",
    "askEhmYield": "",
    "bidYield": "9,95",
    "rawName": "K2024/37",
    "bidPrice": "99,0000",
    "coupon_val": 8,
    "maturityInDays": "177 nap",
    "securityType": "1MÁP",
    "maturityDate": "2024.09.12",
    "name": "K2024/37",
    "bidEhmYield": "9,71",
    "askYield": "",
    "currency": "HUF",
    "maturityInDays_val": 177,
    "issueDate": "2023.09.12",
    "longName": "K240912"
}