{
    "askPrice": "",
    "green": 0,
    "coupon": "8,00 %",
    "accruedInterest": "5,1726",
    "settleDate": "2024.05.06",
    "askEhmYield": "",
    "bidYield": "10,75",
    "rawName": "K2024/37",
    "bidPrice": "99,0000",
    "coupon_val": 8,
    "maturityInDays": "129 nap",
    "securityType": "1MÁP",
    "maturityDate": "2024.09.12",
    "name": "K2024/37",
    "bidEhmYield": "10,33",
    "askYield": "",
    "currency": "HUF",
    "maturityInDays_val": 129,
    "issueDate": "2023.09.12",
    "longName": "K240912"
}