{
    "askPrice": "",
    "green": 0,
    "coupon": "8,00 %",
    "accruedInterest": "3,6603",
    "settleDate": "2024.02.26",
    "askEhmYield": "",
    "bidYield": "9,75",
    "rawName": "K2024/37",
    "bidPrice": "99,0000",
    "coupon_val": 8,
    "maturityInDays": "199 nap",
    "securityType": "1MÁP",
    "maturityDate": "2024.09.12",
    "name": "K2024/37",
    "bidEhmYield": "9,54",
    "askYield": "",
    "currency": "HUF",
    "maturityInDays_val": 199,
    "issueDate": "2023.09.12",
    "longName": "K240912"
}