{
    "askPrice": "",
    "green": 0,
    "coupon": "3,50 %",
    "accruedInterest": 0,
    "settleDate": "2023.10.20",
    "askEhmYield": "",
    "bidYield": "",
    "rawName": "N2028/17",
    "bidPrice": "",
    "coupon_val": 3.5,
    "maturityInDays": "1648 nap",
    "securityType": "MÁP Plusz",
    "maturityDate": "2028.04.24",
    "name": "N2028/17",
    "bidEhmYield": "",
    "askYield": "",
    "currency": "HUF",
    "maturityInDays_val": 1648,
    "issueDate": "2023.04.24",
    "longName": "N280424"
}