{
    "askPrice": "",
    "green": 0,
    "coupon": "3,50 %",
    "accruedInterest": "1,3388",
    "settleDate": "2023.09.11",
    "askEhmYield": "",
    "bidYield": "5,16",
    "rawName": "N2028/17",
    "bidPrice": "99,5000",
    "coupon_val": 3.5,
    "maturityInDays": "1687 nap",
    "securityType": "MÁP Plusz",
    "maturityDate": "2028.04.24",
    "name": "N2028/17",
    "bidEhmYield": "",
    "askYield": "",
    "currency": "HUF",
    "maturityInDays_val": 1687,
    "issueDate": "2023.04.24",
    "longName": "N280424"
}