{
    "askPrice": "",
    "green": 0,
    "coupon": "3,50 %",
    "accruedInterest": "0,0383",
    "settleDate": "2023.04.28",
    "askEhmYield": "",
    "bidYield": "5,02",
    "rawName": "N2028/17",
    "bidPrice": "99,5000",
    "coupon_val": 3.5,
    "maturityInDays": "1823 nap",
    "securityType": "MÁP Plusz",
    "maturityDate": "2028.04.24",
    "name": "N2028/17",
    "bidEhmYield": "",
    "askYield": "",
    "currency": "HUF",
    "maturityInDays_val": 1823,
    "issueDate": "2023.04.24",
    "longName": "N280424"
}