{
    "askPrice": "",
    "green": 0,
    "coupon": "3,50 %",
    "accruedInterest": "0,1849",
    "settleDate": "2024.05.09",
    "askEhmYield": "",
    "bidYield": "5,37",
    "rawName": "N2028/17",
    "bidPrice": "99,5000",
    "coupon_val": 3.5,
    "maturityInDays": "1446 nap",
    "securityType": "MÁP Plusz",
    "maturityDate": "2028.04.24",
    "name": "N2028/17",
    "bidEhmYield": "",
    "askYield": "",
    "currency": "HUF",
    "maturityInDays_val": 1446,
    "issueDate": "2023.04.24",
    "longName": "N280424"
}