{
    "askPrice": "",
    "green": 0,
    "coupon": "3,50 %",
    "accruedInterest": "1,6284",
    "settleDate": "2024.03.21",
    "askEhmYield": "",
    "bidYield": "5,33",
    "rawName": "N2028/17",
    "bidPrice": "99,5000",
    "coupon_val": 3.5,
    "maturityInDays": "1495 nap",
    "securityType": "MÁP Plusz",
    "maturityDate": "2028.04.24",
    "name": "N2028/17",
    "bidEhmYield": "",
    "askYield": "",
    "currency": "HUF",
    "maturityInDays_val": 1495,
    "issueDate": "2023.04.24",
    "longName": "N280424"
}