{
    "askPrice": "",
    "green": 0,
    "coupon": "3,50 %",
    "accruedInterest": "0,8137",
    "settleDate": "2022.11.23",
    "askEhmYield": "",
    "bidYield": "6,05",
    "rawName": "N2024/17",
    "bidPrice": "99,5000",
    "coupon_val": 3.5,
    "maturityInDays": "677 nap",
    "securityType": "MÁP Plusz",
    "maturityDate": "2024.09.30",
    "name": "N2024/17",
    "bidEhmYield": "",
    "askYield": "",
    "currency": "HUF",
    "maturityInDays_val": 677,
    "issueDate": "2019.09.30",
    "longName": "N240930"
}