{
    "askPrice": "",
    "green": 0,
    "coupon": "3,50 %",
    "accruedInterest": "4,95",
    "settleDate": "2022.09.26",
    "askEhmYield": "",
    "bidYield": "",
    "rawName": "N2024/17",
    "bidPrice": "99,50",
    "coupon_val": 3.5,
    "maturityInDays": "735 nap",
    "securityType": "MÁP Plusz",
    "maturityDate": "2024.09.30",
    "name": "N2024/17",
    "bidEhmYield": "",
    "askYield": "",
    "currency": "HUF",
    "maturityInDays_val": 735,
    "longName": "N240930"
}