{
    "askPrice": "",
    "green": 0,
    "coupon": "3,50 %",
    "accruedInterest": "0,27",
    "settleDate": "2022.10.18",
    "askEhmYield": "",
    "bidYield": "6,02",
    "rawName": "N2024/17",
    "bidPrice": "99,50",
    "coupon_val": 3.5,
    "maturityInDays": "713 nap",
    "securityType": "MÁP Plusz",
    "maturityDate": "2024.09.30",
    "name": "N2024/17",
    "bidEhmYield": "",
    "askYield": "",
    "currency": "HUF",
    "maturityInDays_val": 713,
    "longName": "N240930"
}