{
    "askPrice": "",
    "green": 0,
    "coupon": "3,50 %",
    "accruedInterest": "0,50",
    "settleDate": "2022.11.02",
    "askEhmYield": "",
    "bidYield": "6,03",
    "rawName": "N2024/17",
    "bidPrice": "99,50",
    "coupon_val": 3.5,
    "maturityInDays": "698 nap",
    "securityType": "MÁP Plusz",
    "maturityDate": "2024.09.30",
    "name": "N2024/17",
    "bidEhmYield": "",
    "askYield": "",
    "currency": "HUF",
    "maturityInDays_val": 698,
    "issueDate": "2019-09-30",
    "longName": "N240930"
}