{
    "askPrice": "",
    "green": 0,
    "coupon": "3,50 %",
    "accruedInterest": "5,4247",
    "settleDate": "2023.09.25",
    "askEhmYield": "",
    "bidYield": "6,52",
    "rawName": "N2024/17",
    "bidPrice": "99,5000",
    "coupon_val": 3.5,
    "maturityInDays": "371 nap",
    "securityType": "MÁP Plusz",
    "maturityDate": "2024.09.30",
    "name": "N2024/17",
    "bidEhmYield": "",
    "askYield": "",
    "currency": "HUF",
    "maturityInDays_val": 371,
    "issueDate": "2019.09.30",
    "longName": "N240930"
}