{
    "askPrice": "",
    "green": 0,
    "coupon": "3,50 %",
    "accruedInterest": "3,4262",
    "settleDate": "2024.04.26",
    "askEhmYield": "",
    "bidYield": "7,10",
    "rawName": "N2024/17",
    "bidPrice": "99,5000",
    "coupon_val": 3.5,
    "maturityInDays": "157 nap",
    "securityType": "MÁP Plusz",
    "maturityDate": "2024.09.30",
    "name": "N2024/17",
    "bidEhmYield": "",
    "askYield": "",
    "currency": "HUF",
    "maturityInDays_val": 157,
    "issueDate": "2019.09.30",
    "longName": "N240930"
}