{
    "askPrice": "",
    "green": 0,
    "coupon": "3,50 %",
    "accruedInterest": "2,6721",
    "settleDate": "2024.03.11",
    "askEhmYield": "",
    "bidYield": "6,86",
    "rawName": "N2024/17",
    "bidPrice": "99,5000",
    "coupon_val": 3.5,
    "maturityInDays": "203 nap",
    "securityType": "MÁP Plusz",
    "maturityDate": "2024.09.30",
    "name": "N2024/17",
    "bidEhmYield": "",
    "askYield": "",
    "currency": "HUF",
    "maturityInDays_val": 203,
    "issueDate": "2019.09.30",
    "longName": "N240930"
}