{
    "askPrice": "100,0000",
    "green": 0,
    "coupon": "7,00 %",
    "accruedInterest": "0,1731",
    "settleDate": "2024.04.12",
    "askEhmYield": "7,19",
    "bidYield": "7,58",
    "rawName": "2027/Q2",
    "bidPrice": "99,0000",
    "coupon_val": 7,
    "maturityInDays": "1105 nap",
    "securityType": "FixMÁP",
    "maturityDate": "2027.04.22",
    "name": "2027/Q2",
    "bidEhmYield": "7,58",
    "askYield": "7,19",
    "currency": "HUF",
    "maturityInDays_val": 1105,
    "issueDate": "2024.04.03",
    "longName": "A270422Q24"
}