{
    "askPrice": "",
    "green": 0,
    "coupon": "8,00 %",
    "accruedInterest": "1,2712",
    "settleDate": "2023.11.23",
    "askEhmYield": "",
    "bidYield": "9,20",
    "rawName": "K2024/39",
    "bidPrice": "99,0000",
    "coupon_val": 8,
    "maturityInDays": "308 nap",
    "securityType": "1MÁP",
    "maturityDate": "2024.09.26",
    "name": "K2024/39",
    "bidEhmYield": "9,13",
    "askYield": "",
    "currency": "HUF",
    "maturityInDays_val": 308,
    "issueDate": "2023.09.26",
    "longName": "K240926"
}