{
    "askPrice": "",
    "green": 0,
    "coupon": "8,00 %",
    "accruedInterest": "2,0164",
    "settleDate": "2023.12.27",
    "askEhmYield": "",
    "bidYield": "9,31",
    "rawName": "K2024/39",
    "bidPrice": "99,0000",
    "coupon_val": 8,
    "maturityInDays": "274 nap",
    "securityType": "1MÁP",
    "maturityDate": "2024.09.26",
    "name": "K2024/39",
    "bidEhmYield": "9,21",
    "askYield": "",
    "currency": "HUF",
    "maturityInDays_val": 274,
    "issueDate": "2023.09.26",
    "longName": "K240926"
}