{
    "askPrice": "",
    "green": 0,
    "coupon": "8,00 %",
    "accruedInterest": "4,7781",
    "settleDate": "2024.05.02",
    "askEhmYield": "",
    "bidYield": "10,41",
    "rawName": "K2024/39",
    "bidPrice": "99,0000",
    "coupon_val": 8,
    "maturityInDays": "147 nap",
    "securityType": "1MÁP",
    "maturityDate": "2024.09.26",
    "name": "K2024/39",
    "bidEhmYield": "10,05",
    "askYield": "",
    "currency": "HUF",
    "maturityInDays_val": 147,
    "issueDate": "2023.09.26",
    "longName": "K240926"
}