{
    "askPrice": "",
    "green": 0,
    "coupon": "8,00 %",
    "accruedInterest": "2,5205",
    "settleDate": "2024.01.19",
    "askEhmYield": "",
    "bidYield": "9,41",
    "rawName": "K2024/39",
    "bidPrice": "99,0000",
    "coupon_val": 8,
    "maturityInDays": "251 nap",
    "securityType": "1MÁP",
    "maturityDate": "2024.09.26",
    "name": "K2024/39",
    "bidEhmYield": "9,28",
    "askYield": "",
    "currency": "HUF",
    "maturityInDays_val": 251,
    "issueDate": "2023.09.26",
    "longName": "K240926"
}