{
    "askPrice": "",
    "green": 0,
    "coupon": "8,00 %",
    "accruedInterest": "4,5589",
    "settleDate": "2024.04.22",
    "askEhmYield": "",
    "bidYield": "10,25",
    "rawName": "K2024/39",
    "bidPrice": "99,0000",
    "coupon_val": 8,
    "maturityInDays": "157 nap",
    "securityType": "1MÁP",
    "maturityDate": "2024.09.26",
    "name": "K2024/39",
    "bidEhmYield": "9,92",
    "askYield": "",
    "currency": "HUF",
    "maturityInDays_val": 157,
    "issueDate": "2023.09.26",
    "longName": "K240926"
}