{
    "askPrice": "",
    "green": 0,
    "coupon": "3,50 %",
    "accruedInterest": "0,33",
    "settleDate": "2022.10.21",
    "askEhmYield": "",
    "bidYield": "5,23",
    "rawName": "N2027/12",
    "bidPrice": "99,50",
    "coupon_val": 3.5,
    "maturityInDays": "1612 nap",
    "securityType": "MÁP Plusz",
    "maturityDate": "2027.03.21",
    "name": "N2027/12",
    "bidEhmYield": "",
    "askYield": "",
    "currency": "HUF",
    "maturityInDays_val": 1612,
    "longName": "N270321"
}