{
    "askPrice": "",
    "green": 0,
    "coupon": "3,50 %",
    "accruedInterest": "0,2951",
    "settleDate": "2023.04.14",
    "askEhmYield": "",
    "bidYield": "5,37",
    "rawName": "N2027/12",
    "bidPrice": "99,5000",
    "coupon_val": 3.5,
    "maturityInDays": "1437 nap",
    "securityType": "MÁP Plusz",
    "maturityDate": "2027.03.21",
    "name": "N2027/12",
    "bidEhmYield": "",
    "askYield": "",
    "currency": "HUF",
    "maturityInDays_val": 1437,
    "issueDate": "2022.03.21",
    "longName": "N270321"
}