{
    "askPrice": "",
    "green": 0,
    "coupon": "3,50 %",
    "accruedInterest": "4,0574",
    "settleDate": "2024.02.14",
    "askEhmYield": "",
    "bidYield": "5,62",
    "rawName": "N2027/12",
    "bidPrice": "99,5000",
    "coupon_val": 3.5,
    "maturityInDays": "1131 nap",
    "securityType": "MÁP Plusz",
    "maturityDate": "2027.03.21",
    "name": "N2027/12",
    "bidEhmYield": "",
    "askYield": "",
    "currency": "HUF",
    "maturityInDays_val": 1131,
    "issueDate": "2022.03.21",
    "longName": "N270321"
}