{
    "askPrice": "95,7409",
    "green": 0,
    "coupon": 0,
    "accruedInterest": 0,
    "settleDate": "2023.01.10",
    "askEhmYield": "12,79",
    "bidYield": "13,45",
    "rawName": "D230517",
    "bidPrice": "95,4701",
    "maturityInDays": "127 nap",
    "securityType": "DKJ",
    "maturityDate": "2023.05.17",
    "name": "D230517",
    "bidEhmYield": "13,64",
    "askYield": "12,61",
    "currency": "HUF",
    "maturityInDays_val": 127,
    "issueDate": "2022.10.05",
    "longName": "D230517"
}