{
    "askPrice": "",
    "green": 0,
    "coupon": 0,
    "accruedInterest": 0,
    "settleDate": "2023.05.05",
    "askEhmYield": "",
    "bidYield": "15,25",
    "rawName": "D230517",
    "bidPrice": "99,4942",
    "maturityInDays": "12 nap",
    "securityType": "DKJ",
    "maturityDate": "2023.05.17",
    "name": "D230517",
    "bidEhmYield": "15,46",
    "askYield": "",
    "currency": "HUF",
    "maturityInDays_val": 12,
    "issueDate": "2022.10.05",
    "longName": "D230517"
}