{
    "askPrice": "96,3182",
    "green": 0,
    "coupon": 0,
    "accruedInterest": 0,
    "settleDate": "2023.02.07",
    "askEhmYield": "14,09",
    "bidYield": "14,67",
    "rawName": "D230517",
    "bidPrice": "96,1222",
    "maturityInDays": "99 nap",
    "securityType": "DKJ",
    "maturityDate": "2023.05.17",
    "name": "D230517",
    "bidEhmYield": "14,87",
    "askYield": "13,90",
    "currency": "HUF",
    "maturityInDays_val": 99,
    "issueDate": "2022.10.05",
    "longName": "D230517"
}