{
    "askPrice": "96,1173",
    "green": 0,
    "coupon": 0,
    "accruedInterest": 0,
    "settleDate": "2023.02.01",
    "askEhmYield": "14,04",
    "bidYield": "14,69",
    "rawName": "D230517",
    "bidPrice": "95,8915",
    "maturityInDays": "105 nap",
    "securityType": "DKJ",
    "maturityDate": "2023.05.17",
    "name": "D230517",
    "bidEhmYield": "14,89",
    "askYield": "13,85",
    "currency": "HUF",
    "maturityInDays_val": 105,
    "issueDate": "2022.10.05",
    "longName": "D230517"
}