{
    "askPrice": "96,9824",
    "green": 0,
    "coupon": 0,
    "accruedInterest": 0,
    "settleDate": "2023.02.24",
    "askEhmYield": "13,85",
    "bidYield": "14,90",
    "rawName": "D230517",
    "bidPrice": "96,7175",
    "maturityInDays": "82 nap",
    "securityType": "DKJ",
    "maturityDate": "2023.05.17",
    "name": "D230517",
    "bidEhmYield": "15,11",
    "askYield": "13,66",
    "currency": "HUF",
    "maturityInDays_val": 82,
    "issueDate": "2022.10.05",
    "longName": "D230517"
}