{
    "askPrice": "96,1271",
    "green": 0,
    "coupon": 0,
    "accruedInterest": 0,
    "settleDate": "2023.01.25",
    "askEhmYield": "13,13",
    "bidYield": "13,75",
    "rawName": "D230517",
    "bidPrice": "95,8977",
    "maturityInDays": "112 nap",
    "securityType": "DKJ",
    "maturityDate": "2023.05.17",
    "name": "D230517",
    "bidEhmYield": "13,94",
    "askYield": "12,95",
    "currency": "HUF",
    "maturityInDays_val": 112,
    "issueDate": "2022.10.05",
    "longName": "D230517"
}