{
    "askPrice": "96,0607",
    "green": 0,
    "coupon": 0,
    "accruedInterest": 0,
    "settleDate": "2023.01.23",
    "askEhmYield": "13,13",
    "bidYield": "13,80",
    "rawName": "D230517",
    "bidPrice": "95,8130",
    "maturityInDays": "114 nap",
    "securityType": "DKJ",
    "maturityDate": "2023.05.17",
    "name": "D230517",
    "bidEhmYield": "13,99",
    "askYield": "12,95",
    "currency": "HUF",
    "maturityInDays_val": 114,
    "issueDate": "2022.10.05",
    "longName": "D230517"
}