{
    "askPrice": "",
    "green": 0,
    "coupon": 0,
    "accruedInterest": 0,
    "settleDate": "2023.05.04",
    "askEhmYield": "",
    "bidYield": "15,20",
    "rawName": "D230517",
    "bidPrice": "99,4541",
    "maturityInDays": "13 nap",
    "securityType": "DKJ",
    "maturityDate": "2023.05.17",
    "name": "D230517",
    "bidEhmYield": "15,41",
    "askYield": "",
    "currency": "HUF",
    "maturityInDays_val": 13,
    "issueDate": "2022.10.05",
    "longName": "D230517"
}