{
    "askPrice": "97,8093",
    "green": 0,
    "coupon": 0,
    "accruedInterest": 0,
    "settleDate": "2023.03.23",
    "askEhmYield": "14,86",
    "bidYield": "15,88",
    "rawName": "D230517",
    "bidPrice": "97,6314",
    "maturityInDays": "55 nap",
    "securityType": "DKJ",
    "maturityDate": "2023.05.17",
    "name": "D230517",
    "bidEhmYield": "16,10",
    "askYield": "14,66",
    "currency": "HUF",
    "maturityInDays_val": 55,
    "issueDate": "2022.10.05",
    "longName": "D230517"
}