{
    "askPrice": "96,1604",
    "green": 0,
    "coupon": 0,
    "accruedInterest": 0,
    "settleDate": "2023.01.26",
    "askEhmYield": "13,13",
    "bidYield": "13,78",
    "rawName": "D230517",
    "bidPrice": "95,9243",
    "maturityInDays": "111 nap",
    "securityType": "DKJ",
    "maturityDate": "2023.05.17",
    "name": "D230517",
    "bidEhmYield": "13,97",
    "askYield": "12,95",
    "currency": "HUF",
    "maturityInDays_val": 111,
    "issueDate": "2022.10.05",
    "longName": "D230517"
}