{
    "askPrice": "95,8135",
    "green": 0,
    "coupon": 0,
    "accruedInterest": 0,
    "settleDate": "2023.01.16",
    "askEhmYield": "13,18",
    "bidYield": "13,83",
    "rawName": "D230517",
    "bidPrice": "95,5581",
    "maturityInDays": "121 nap",
    "securityType": "DKJ",
    "maturityDate": "2023.05.17",
    "name": "D230517",
    "bidEhmYield": "14,02",
    "askYield": "13,00",
    "currency": "HUF",
    "maturityInDays_val": 121,
    "issueDate": "2022.10.05",
    "longName": "D230517"
}