{
    "askPrice": "",
    "green": 0,
    "coupon": "3,50 %",
    "accruedInterest": "2,01",
    "settleDate": "2022.11.02",
    "askEhmYield": "",
    "bidYield": "5,76",
    "rawName": "N2025/23",
    "bidPrice": "99,50",
    "coupon_val": 3.5,
    "maturityInDays": "949 nap",
    "securityType": "MÁP Plusz",
    "maturityDate": "2025.06.08",
    "name": "N2025/23",
    "bidEhmYield": "",
    "askYield": "",
    "currency": "HUF",
    "maturityInDays_val": 949,
    "issueDate": "2020-06-08",
    "longName": "N250608"
}