{
    "askPrice": "",
    "green": 0,
    "coupon": "3,50 %",
    "accruedInterest": "1,64",
    "settleDate": "2022.10.06",
    "askEhmYield": "",
    "bidYield": "",
    "rawName": "N2025/23",
    "bidPrice": "99,50",
    "coupon_val": 3.5,
    "maturityInDays": "976 nap",
    "securityType": "MÁP Plusz",
    "maturityDate": "2025.06.08",
    "name": "N2025/23",
    "bidEhmYield": "",
    "askYield": "",
    "currency": "HUF",
    "maturityInDays_val": 976,
    "longName": "N250608"
}