{
    "askPrice": "",
    "green": 0,
    "coupon": "3,50 %",
    "accruedInterest": "3,0685",
    "settleDate": "2023.01.18",
    "askEhmYield": "",
    "bidYield": "5,83",
    "rawName": "N2025/23",
    "bidPrice": "99,5000",
    "coupon_val": 3.5,
    "maturityInDays": "872 nap",
    "securityType": "MÁP Plusz",
    "maturityDate": "2025.06.08",
    "name": "N2025/23",
    "bidEhmYield": "",
    "askYield": "",
    "currency": "HUF",
    "maturityInDays_val": 872,
    "issueDate": "2020.06.08",
    "longName": "N250608"
}