{
    "askPrice": "",
    "green": 0,
    "coupon": "3,50 %",
    "accruedInterest": "0,7213",
    "settleDate": "2023.07.26",
    "askEhmYield": "",
    "bidYield": "6,04",
    "rawName": "N2025/23",
    "bidPrice": "99,5000",
    "coupon_val": 3.5,
    "maturityInDays": "683 nap",
    "securityType": "MÁP Plusz",
    "maturityDate": "2025.06.08",
    "name": "N2025/23",
    "bidEhmYield": "",
    "askYield": "",
    "currency": "HUF",
    "maturityInDays_val": 683,
    "issueDate": "2020.06.08",
    "longName": "N250608"
}