{
    "askPrice": "",
    "green": 0,
    "coupon": "3,50 %",
    "accruedInterest": "2,4194",
    "settleDate": "2023.11.16",
    "askEhmYield": "",
    "bidYield": "6,13",
    "rawName": "N2025/23",
    "bidPrice": "99,5000",
    "coupon_val": 3.5,
    "maturityInDays": "570 nap",
    "securityType": "MÁP Plusz",
    "maturityDate": "2025.06.08",
    "name": "N2025/23",
    "bidEhmYield": "",
    "askYield": "",
    "currency": "HUF",
    "maturityInDays_val": 570,
    "issueDate": "2020.06.08",
    "longName": "N250608"
}