{
    "askPrice": "",
    "green": 0,
    "coupon": "3,50 %",
    "accruedInterest": "4,8087",
    "settleDate": "2024.04.23",
    "askEhmYield": "",
    "bidYield": "6,40",
    "rawName": "N2025/23",
    "bidPrice": "99,5000",
    "coupon_val": 3.5,
    "maturityInDays": "411 nap",
    "securityType": "MÁP Plusz",
    "maturityDate": "2025.06.08",
    "name": "N2025/23",
    "bidEhmYield": "",
    "askYield": "",
    "currency": "HUF",
    "maturityInDays_val": 411,
    "issueDate": "2020.06.08",
    "longName": "N250608"
}