{
    "askPrice": "",
    "green": 0,
    "coupon": "3,50 %",
    "accruedInterest": "0,9945",
    "settleDate": "2023.09.18",
    "askEhmYield": "",
    "bidYield": "5,27",
    "rawName": "N2027/51",
    "bidPrice": "99,5000",
    "coupon_val": 3.5,
    "maturityInDays": "1553 nap",
    "securityType": "MÁP Plusz",
    "maturityDate": "2027.12.19",
    "name": "N2027/51",
    "bidEhmYield": "",
    "askYield": "",
    "currency": "HUF",
    "maturityInDays_val": 1553,
    "issueDate": "2022.12.19",
    "longName": "N271219"
}