{
    "askPrice": "",
    "green": 0,
    "coupon": "3,50 %",
    "accruedInterest": "0,0984",
    "settleDate": "2023.12.27",
    "askEhmYield": "",
    "bidYield": "5,22",
    "rawName": "N2027/51",
    "bidPrice": "100,0000",
    "coupon_val": 3.5,
    "maturityInDays": "1453 nap",
    "securityType": "MÁP Plusz",
    "maturityDate": "2027.12.19",
    "name": "N2027/51",
    "bidEhmYield": "",
    "askYield": "",
    "currency": "HUF",
    "maturityInDays_val": 1453,
    "issueDate": "2022.12.19",
    "longName": "N271219"
}