{
    "askPrice": "",
    "green": 0,
    "coupon": "3,50 %",
    "accruedInterest": "1,7951",
    "settleDate": "2024.05.13",
    "askEhmYield": "",
    "bidYield": "5,45",
    "rawName": "N2027/51",
    "bidPrice": "99,5000",
    "coupon_val": 3.5,
    "maturityInDays": "1315 nap",
    "securityType": "MÁP Plusz",
    "maturityDate": "2027.12.19",
    "name": "N2027/51",
    "bidEhmYield": "",
    "askYield": "",
    "currency": "HUF",
    "maturityInDays_val": 1315,
    "issueDate": "2022.12.19",
    "longName": "N271219"
}