{
    "askPrice": "",
    "green": 0,
    "coupon": "3,50 %",
    "accruedInterest": "0,5164",
    "settleDate": "2024.01.30",
    "askEhmYield": "",
    "bidYield": "5,38",
    "rawName": "N2027/51",
    "bidPrice": "99,5000",
    "coupon_val": 3.5,
    "maturityInDays": "1419 nap",
    "securityType": "MÁP Plusz",
    "maturityDate": "2027.12.19",
    "name": "N2027/51",
    "bidEhmYield": "",
    "askYield": "",
    "currency": "HUF",
    "maturityInDays_val": 1419,
    "issueDate": "2022.12.19",
    "longName": "N271219"
}