{
    "askPrice": "",
    "green": 0,
    "coupon": null,
    "accruedInterest": "1,6769",
    "settleDate": "2023.07.25",
    "askEhmYield": "",
    "bidYield": "",
    "rawName": "2024/X_EUR",
    "bidPrice": "99,0000",
    "maturityInDays": "484 nap",
    "securityType": "PEMÁP",
    "maturityDate": "2024.11.20",
    "name": "2024/X_EUR",
    "bidEhmYield": "",
    "askYield": "",
    "currency": "EUR",
    "maturityInDays_val": 484,
    "issueDate": "2021.06.08",
    "longName": "C241120X21"
}