{
    "askPrice": "",
    "green": 0,
    "coupon": null,
    "accruedInterest": "1,1433",
    "settleDate": "2023.07.04",
    "askEhmYield": "",
    "bidYield": "",
    "rawName": "2024/X_EUR",
    "bidPrice": "99,0000",
    "maturityInDays": "505 nap",
    "securityType": "PEMÁP",
    "maturityDate": "2024.11.20",
    "name": "2024/X_EUR",
    "bidEhmYield": "",
    "askYield": "",
    "currency": "EUR",
    "maturityInDays_val": 505,
    "issueDate": "2021.06.08",
    "longName": "C241120X21"
}