{
    "askPrice": "",
    "green": 0,
    "coupon": null,
    "accruedInterest": "4,4971",
    "settleDate": "2023.11.13",
    "askEhmYield": "",
    "bidYield": "",
    "rawName": "2024/X_EUR",
    "bidPrice": "99,0000",
    "maturityInDays": "373 nap",
    "securityType": "PEMÁP",
    "maturityDate": "2024.11.20",
    "name": "2024/X_EUR",
    "bidEhmYield": "",
    "askYield": "",
    "currency": "EUR",
    "maturityInDays_val": 373,
    "issueDate": "2021.06.08",
    "longName": "C241120X21"
}