{
    "askPrice": "",
    "green": 0,
    "coupon": 0,
    "accruedInterest": 0,
    "settleDate": "2023.06.19",
    "askEhmYield": "",
    "bidYield": "13,50",
    "rawName": "D230705",
    "bidPrice": "99,4036",
    "maturityInDays": "16 nap",
    "securityType": "DKJ",
    "maturityDate": "2023.07.05",
    "name": "D230705",
    "bidEhmYield": "13,69",
    "askYield": "",
    "currency": "HUF",
    "maturityInDays_val": 16,
    "issueDate": "2023.04.05",
    "longName": "D230705"
}