{
    "askPrice": "98,0607",
    "green": 0,
    "coupon": 0,
    "accruedInterest": 0,
    "settleDate": "2023.05.15",
    "askEhmYield": "14,15",
    "bidYield": "15,25",
    "rawName": "D230705",
    "bidPrice": "97,8853",
    "maturityInDays": "51 nap",
    "securityType": "DKJ",
    "maturityDate": "2023.07.05",
    "name": "D230705",
    "bidEhmYield": "15,46",
    "askYield": "13,96",
    "currency": "HUF",
    "maturityInDays_val": 51,
    "issueDate": "2023.04.05",
    "longName": "D230705"
}