{
    "askPrice": "",
    "green": 0,
    "coupon": 0,
    "accruedInterest": 0,
    "settleDate": "2023.06.23",
    "askEhmYield": "",
    "bidYield": "12,15",
    "rawName": "D230705",
    "bidPrice": "99,5966",
    "maturityInDays": "12 nap",
    "securityType": "DKJ",
    "maturityDate": "2023.07.05",
    "name": "D230705",
    "bidEhmYield": "12,32",
    "askYield": "",
    "currency": "HUF",
    "maturityInDays_val": 12,
    "issueDate": "2023.04.05",
    "longName": "D230705"
}