{
    "askPrice": "",
    "green": 0,
    "coupon": 0,
    "accruedInterest": 0,
    "settleDate": "2023.06.15",
    "askEhmYield": "",
    "bidYield": "13,42",
    "rawName": "D230705",
    "bidPrice": "99,2600",
    "maturityInDays": "20 nap",
    "securityType": "DKJ",
    "maturityDate": "2023.07.05",
    "name": "D230705",
    "bidEhmYield": "13,61",
    "askYield": "",
    "currency": "HUF",
    "maturityInDays_val": 20,
    "issueDate": "2023.04.05",
    "longName": "D230705"
}