{
    "askPrice": "96,5703",
    "green": 0,
    "coupon": 0,
    "accruedInterest": 0,
    "settleDate": "2023.04.05",
    "askEhmYield": "14,25",
    "bidYield": "15,37",
    "rawName": "D230705",
    "bidPrice": "96,2601",
    "maturityInDays": "91 nap",
    "securityType": "DKJ",
    "maturityDate": "2023.07.05",
    "name": "D230705",
    "bidEhmYield": "15,58",
    "askYield": "14,05",
    "currency": "HUF",
    "maturityInDays_val": 91,
    "issueDate": "2023.04.05",
    "longName": "D230705"
}