{
    "askPrice": "97,5953",
    "green": 0,
    "coupon": 0,
    "accruedInterest": 0,
    "settleDate": "2023.05.02",
    "askEhmYield": "14,05",
    "bidYield": "15,20",
    "rawName": "D230705",
    "bidPrice": "97,3689",
    "maturityInDays": "64 nap",
    "securityType": "DKJ",
    "maturityDate": "2023.07.05",
    "name": "D230705",
    "bidEhmYield": "15,41",
    "askYield": "13,86",
    "currency": "HUF",
    "maturityInDays_val": 64,
    "issueDate": "2023.04.05",
    "longName": "D230705"
}