{
    "askPrice": "98,9340",
    "green": 0,
    "coupon": 0,
    "accruedInterest": 0,
    "settleDate": "2023.06.05",
    "askEhmYield": "13,11",
    "bidYield": "14,24",
    "rawName": "D230705",
    "bidPrice": "98,8272",
    "maturityInDays": "30 nap",
    "securityType": "DKJ",
    "maturityDate": "2023.07.05",
    "name": "D230705",
    "bidEhmYield": "14,44",
    "askYield": "12,93",
    "currency": "HUF",
    "maturityInDays_val": 30,
    "issueDate": "2023.04.05",
    "longName": "D230705"
}