{
    "askPrice": "",
    "green": 0,
    "coupon": 0,
    "accruedInterest": 0,
    "settleDate": "2023.06.26",
    "askEhmYield": "",
    "bidYield": "12,04",
    "rawName": "D230705",
    "bidPrice": "99,6999",
    "maturityInDays": "9 nap",
    "securityType": "DKJ",
    "maturityDate": "2023.07.05",
    "name": "D230705",
    "bidEhmYield": "12,21",
    "askYield": "",
    "currency": "HUF",
    "maturityInDays_val": 9,
    "issueDate": "2023.04.05",
    "longName": "D230705"
}