{
    "askPrice": "",
    "green": 0,
    "coupon": "3,50 %",
    "accruedInterest": "0,1442",
    "settleDate": "2023.10.10",
    "askEhmYield": "",
    "bidYield": "5,03",
    "rawName": "N2028/39",
    "bidPrice": "99,5000",
    "coupon_val": 3.5,
    "maturityInDays": "1812 nap",
    "securityType": "MÁP Plusz",
    "maturityDate": "2028.09.25",
    "name": "N2028/39",
    "bidEhmYield": "",
    "askYield": "",
    "currency": "HUF",
    "maturityInDays_val": 1812,
    "issueDate": "2023.09.25",
    "longName": "N280925"
}