{
    "askPrice": "",
    "green": 0,
    "coupon": "3,50 %",
    "accruedInterest": "1,3462",
    "settleDate": "2024.02.12",
    "askEhmYield": "",
    "bidYield": "5,15",
    "rawName": "N2028/39",
    "bidPrice": "99,5000",
    "coupon_val": 3.5,
    "maturityInDays": "1687 nap",
    "securityType": "MÁP Plusz",
    "maturityDate": "2028.09.25",
    "name": "N2028/39",
    "bidEhmYield": "",
    "askYield": "",
    "currency": "HUF",
    "maturityInDays_val": 1687,
    "issueDate": "2023.09.25",
    "longName": "N280925"
}