{
    "askPrice": "",
    "green": 0,
    "coupon": "9,00 %",
    "accruedInterest": "5,6959",
    "settleDate": "2023.11.21",
    "askEhmYield": "",
    "bidYield": "11,51",
    "rawName": "K2024/14",
    "bidPrice": "99,0000",
    "coupon_val": 9,
    "maturityInDays": "135 nap",
    "securityType": "1MÁP",
    "maturityDate": "2024.04.04",
    "name": "K2024/14",
    "bidEhmYield": "11,12",
    "askYield": "",
    "currency": "HUF",
    "maturityInDays_val": 135,
    "issueDate": "2023.04.04",
    "longName": "K240404"
}