{
    "askPrice": "",
    "green": 0,
    "coupon": "9,00 %",
    "accruedInterest": "5,4986",
    "settleDate": "2023.11.13",
    "askEhmYield": "",
    "bidYield": "11,37",
    "rawName": "K2024/14",
    "bidPrice": "99,0000",
    "coupon_val": 9,
    "maturityInDays": "143 nap",
    "securityType": "1MÁP",
    "maturityDate": "2024.04.04",
    "name": "K2024/14",
    "bidEhmYield": "10,99",
    "askYield": "",
    "currency": "HUF",
    "maturityInDays_val": 143,
    "issueDate": "2023.04.04",
    "longName": "K240404"
}