{
    "askPrice": "",
    "green": 0,
    "coupon": "9,00 %",
    "accruedInterest": "2,4411",
    "settleDate": "2023.07.12",
    "askEhmYield": "",
    "bidYield": "10,32",
    "rawName": "K2024/14",
    "bidPrice": "99,0000",
    "coupon_val": 9,
    "maturityInDays": "267 nap",
    "securityType": "1MÁP",
    "maturityDate": "2024.04.04",
    "name": "K2024/14",
    "bidEhmYield": "10,19",
    "askYield": "",
    "currency": "HUF",
    "maturityInDays_val": 267,
    "issueDate": "2023.04.04",
    "longName": "K240404"
}