{
    "askPrice": "",
    "green": 0,
    "coupon": "9,00 %",
    "accruedInterest": "6,5836",
    "settleDate": "2023.12.27",
    "askEhmYield": "",
    "bidYield": "12,46",
    "rawName": "K2024/14",
    "bidPrice": "99,0000",
    "coupon_val": 9,
    "maturityInDays": "99 nap",
    "securityType": "1MÁP",
    "maturityDate": "2024.04.04",
    "name": "K2024/14",
    "bidEhmYield": "11,93",
    "askYield": "",
    "currency": "HUF",
    "maturityInDays_val": 99,
    "issueDate": "2023.04.04",
    "longName": "K240404"
}