{
    "askPrice": "",
    "green": 0,
    "coupon": "9,00 %",
    "accruedInterest": "8,4329",
    "settleDate": "2024.03.11",
    "askEhmYield": "",
    "bidYield": "24,64",
    "rawName": "K2024/14",
    "bidPrice": "99,0000",
    "coupon_val": 9,
    "maturityInDays": "24 nap",
    "securityType": "1MÁP",
    "maturityDate": "2024.04.04",
    "name": "K2024/14",
    "bidEhmYield": "22,18",
    "askYield": "",
    "currency": "HUF",
    "maturityInDays_val": 24,
    "issueDate": "2023.04.04",
    "longName": "K240404"
}