{
    "askPrice": "",
    "green": 0,
    "coupon": "9,00 %",
    "accruedInterest": "8,6055",
    "settleDate": "2024.03.18",
    "askEhmYield": "",
    "bidYield": "26,69",
    "rawName": "K2024/14",
    "bidPrice": "99,2000",
    "coupon_val": 9,
    "maturityInDays": "17 nap",
    "securityType": "1MÁP",
    "maturityDate": "2024.04.04",
    "name": "K2024/14",
    "bidEhmYield": "23,79",
    "askYield": "",
    "currency": "HUF",
    "maturityInDays_val": 17,
    "issueDate": "2023.04.04",
    "longName": "K240404"
}