{
    "askPrice": "",
    "green": 0,
    "coupon": "9,00 %",
    "accruedInterest": "8,5068",
    "settleDate": "2024.03.14",
    "askEhmYield": "",
    "bidYield": "23,05",
    "rawName": "K2024/14",
    "bidPrice": "99,2000",
    "coupon_val": 9,
    "maturityInDays": "21 nap",
    "securityType": "1MÁP",
    "maturityDate": "2024.04.04",
    "name": "K2024/14",
    "bidEhmYield": "20,87",
    "askYield": "",
    "currency": "HUF",
    "maturityInDays_val": 21,
    "issueDate": "2023.04.04",
    "longName": "K240404"
}