{
    "askPrice": "",
    "green": 0,
    "coupon": "9,00 %",
    "accruedInterest": "2,0712",
    "settleDate": "2023.04.25",
    "askEhmYield": "",
    "bidYield": "10,31",
    "rawName": "K2024/05",
    "bidPrice": "99,0000",
    "coupon_val": 9,
    "maturityInDays": "281 nap",
    "securityType": "1MÁP",
    "maturityDate": "2024.01.31",
    "name": "K2024/05",
    "bidEhmYield": "10,19",
    "askYield": "",
    "currency": "HUF",
    "maturityInDays_val": 281,
    "issueDate": "2023.01.31",
    "longName": "K240131"
}