{
    "askPrice": "",
    "green": 0,
    "coupon": "9,00 %",
    "accruedInterest": "0,3205",
    "settleDate": "2023.02.13",
    "askEhmYield": "",
    "bidYield": "10,12",
    "rawName": "K2024/05",
    "bidPrice": "99,0000",
    "coupon_val": 9,
    "maturityInDays": "352 nap",
    "securityType": "1MÁP",
    "maturityDate": "2024.01.31",
    "name": "K2024/05",
    "bidEhmYield": "10,11",
    "askYield": "",
    "currency": "HUF",
    "maturityInDays_val": 352,
    "issueDate": "2023.01.31",
    "longName": "K240131"
}