{
    "askPrice": "",
    "green": 0,
    "coupon": "9,00 %",
    "accruedInterest": "7,1507",
    "settleDate": "2023.11.17",
    "askEhmYield": "",
    "bidYield": "13,76",
    "rawName": "K2024/05",
    "bidPrice": "99,0000",
    "coupon_val": 9,
    "maturityInDays": "75 nap",
    "securityType": "1MÁP",
    "maturityDate": "2024.01.31",
    "name": "K2024/05",
    "bidEhmYield": "13,06",
    "askYield": "",
    "currency": "HUF",
    "maturityInDays_val": 75,
    "issueDate": "2023.01.31",
    "longName": "K240131"
}