{
    "askPrice": "",
    "green": 0,
    "coupon": "9,00 %",
    "accruedInterest": "7,7425",
    "settleDate": "2023.12.11",
    "askEhmYield": "",
    "bidYield": "16,16",
    "rawName": "K2024/05",
    "bidPrice": "99,0000",
    "coupon_val": 9,
    "maturityInDays": "51 nap",
    "securityType": "1MÁP",
    "maturityDate": "2024.01.31",
    "name": "K2024/05",
    "bidEhmYield": "15,14",
    "askYield": "",
    "currency": "HUF",
    "maturityInDays_val": 51,
    "issueDate": "2023.01.31",
    "longName": "K240131"
}