{
    "askPrice": "",
    "green": 0,
    "coupon": "9,00 %",
    "accruedInterest": "5,1534",
    "settleDate": "2023.08.28",
    "askEhmYield": "",
    "bidYield": "11,23",
    "rawName": "K2024/05",
    "bidPrice": "99,0000",
    "coupon_val": 9,
    "maturityInDays": "156 nap",
    "securityType": "1MÁP",
    "maturityDate": "2024.01.31",
    "name": "K2024/05",
    "bidEhmYield": "10,89",
    "askYield": "",
    "currency": "HUF",
    "maturityInDays_val": 156,
    "issueDate": "2023.01.31",
    "longName": "K240131"
}