{
    "askPrice": "",
    "green": 0,
    "coupon": "9,00 %",
    "accruedInterest": "4,3890",
    "settleDate": "2023.07.28",
    "askEhmYield": "",
    "bidYield": "10,87",
    "rawName": "K2024/05",
    "bidPrice": "99,0000",
    "coupon_val": 9,
    "maturityInDays": "187 nap",
    "securityType": "1MÁP",
    "maturityDate": "2024.01.31",
    "name": "K2024/05",
    "bidEhmYield": "10,59",
    "askYield": "",
    "currency": "HUF",
    "maturityInDays_val": 187,
    "issueDate": "2023.01.31",
    "longName": "K240131"
}