{
    "askPrice": "",
    "green": 0,
    "coupon": "9,00 %",
    "accruedInterest": "5,8438",
    "settleDate": "2023.09.25",
    "askEhmYield": "",
    "bidYield": "11,72",
    "rawName": "K2024/05",
    "bidPrice": "99,0000",
    "coupon_val": 9,
    "maturityInDays": "128 nap",
    "securityType": "1MÁP",
    "maturityDate": "2024.01.31",
    "name": "K2024/05",
    "bidEhmYield": "11,30",
    "askYield": "",
    "currency": "HUF",
    "maturityInDays_val": 128,
    "issueDate": "2023.01.31",
    "longName": "K240131"
}