{
    "askPrice": "",
    "green": 0,
    "coupon": "9,00 %",
    "accruedInterest": "2,7616",
    "settleDate": "2023.05.23",
    "askEhmYield": "",
    "bidYield": "10,42",
    "rawName": "K2024/05",
    "bidPrice": "99,0000",
    "coupon_val": 9,
    "maturityInDays": "253 nap",
    "securityType": "1MÁP",
    "maturityDate": "2024.01.31",
    "name": "K2024/05",
    "bidEhmYield": "10,26",
    "askYield": "",
    "currency": "HUF",
    "maturityInDays_val": 253,
    "issueDate": "2023.01.31",
    "longName": "K240131"
}