{
    "askPrice": "",
    "green": 0,
    "coupon": "9,00 %",
    "accruedInterest": "8,1863",
    "settleDate": "2023.12.29",
    "askEhmYield": "",
    "bidYield": "20,39",
    "rawName": "K2024/05",
    "bidPrice": "99,0000",
    "coupon_val": 9,
    "maturityInDays": "33 nap",
    "securityType": "1MÁP",
    "maturityDate": "2024.01.31",
    "name": "K2024/05",
    "bidEhmYield": "18,72",
    "askYield": "",
    "currency": "HUF",
    "maturityInDays_val": 33,
    "issueDate": "2023.01.31",
    "longName": "K240131"
}