{
    "askPrice": "",
    "green": 0,
    "coupon": "9,00 %",
    "accruedInterest": "2,3918",
    "settleDate": "2023.05.08",
    "askEhmYield": "",
    "bidYield": "10,36",
    "rawName": "K2024/05",
    "bidPrice": "99,0000",
    "coupon_val": 9,
    "maturityInDays": "268 nap",
    "securityType": "1MÁP",
    "maturityDate": "2024.01.31",
    "name": "K2024/05",
    "bidEhmYield": "10,22",
    "askYield": "",
    "currency": "HUF",
    "maturityInDays_val": 268,
    "issueDate": "2023.01.31",
    "longName": "K240131"
}