{
    "askPrice": "",
    "green": 0,
    "coupon": "9,00 %",
    "accruedInterest": "8,8521",
    "settleDate": "2024.01.25",
    "askEhmYield": "",
    "bidYield": "52,02",
    "rawName": "K2024/05",
    "bidPrice": "99,4000",
    "coupon_val": 9,
    "maturityInDays": "6 nap",
    "securityType": "1MÁP",
    "maturityDate": "2024.01.31",
    "name": "K2024/05",
    "bidEhmYield": "42,03",
    "askYield": "",
    "currency": "HUF",
    "maturityInDays_val": 6,
    "issueDate": "2023.01.31",
    "longName": "K240131"
}