{
    "askPrice": "",
    "green": 0,
    "coupon": "9,00 %",
    "accruedInterest": "6,4356",
    "settleDate": "2023.11.23",
    "askEhmYield": "",
    "bidYield": "12,25",
    "rawName": "K2024/10",
    "bidPrice": "99,0000",
    "coupon_val": 9,
    "maturityInDays": "105 nap",
    "securityType": "1MÁP",
    "maturityDate": "2024.03.07",
    "name": "K2024/10",
    "bidEhmYield": "11,75",
    "askYield": "",
    "currency": "HUF",
    "maturityInDays_val": 105,
    "issueDate": "2023.03.07",
    "longName": "K240307"
}