{
    "askPrice": "",
    "green": 0,
    "coupon": "9,00 %",
    "accruedInterest": "5,2274",
    "settleDate": "2023.10.05",
    "askEhmYield": "",
    "bidYield": "11,20",
    "rawName": "K2024/10",
    "bidPrice": "99,0000",
    "coupon_val": 9,
    "maturityInDays": "154 nap",
    "securityType": "1MÁP",
    "maturityDate": "2024.03.07",
    "name": "K2024/10",
    "bidEhmYield": "10,85",
    "askYield": "",
    "currency": "HUF",
    "maturityInDays_val": 154,
    "issueDate": "2023.03.07",
    "longName": "K240307"
}