{
    "askPrice": "",
    "green": 0,
    "coupon": "9,00 %",
    "accruedInterest": "2,9342",
    "settleDate": "2023.07.04",
    "askEhmYield": "",
    "bidYield": "10,41",
    "rawName": "K2024/10",
    "bidPrice": "99,0000",
    "coupon_val": 9,
    "maturityInDays": "247 nap",
    "securityType": "1MÁP",
    "maturityDate": "2024.03.07",
    "name": "K2024/10",
    "bidEhmYield": "10,24",
    "askYield": "",
    "currency": "HUF",
    "maturityInDays_val": 247,
    "issueDate": "2023.03.07",
    "longName": "K240307"
}