{
    "askPrice": "",
    "green": 0,
    "coupon": "9,00 %",
    "accruedInterest": "4,9808",
    "settleDate": "2023.09.25",
    "askEhmYield": "",
    "bidYield": "11,06",
    "rawName": "K2024/10",
    "bidPrice": "99,0000",
    "coupon_val": 9,
    "maturityInDays": "164 nap",
    "securityType": "1MÁP",
    "maturityDate": "2024.03.07",
    "name": "K2024/10",
    "bidEhmYield": "10,74",
    "askYield": "",
    "currency": "HUF",
    "maturityInDays_val": 164,
    "issueDate": "2023.03.07",
    "longName": "K240307"
}