{
    "askPrice": "",
    "green": 0,
    "coupon": "9,00 %",
    "accruedInterest": "0,6658",
    "settleDate": "2023.04.03",
    "askEhmYield": "",
    "bidYield": "10,12",
    "rawName": "K2024/10",
    "bidPrice": "99,0000",
    "coupon_val": 9,
    "maturityInDays": "339 nap",
    "securityType": "1MÁP",
    "maturityDate": "2024.03.07",
    "name": "K2024/10",
    "bidEhmYield": "10,08",
    "askYield": "",
    "currency": "HUF",
    "maturityInDays_val": 339,
    "issueDate": "2023.03.07",
    "longName": "K240307"
}