{
    "askPrice": "",
    "green": 0,
    "coupon": "9,00 %",
    "accruedInterest": "3,6740",
    "settleDate": "2023.08.03",
    "askEhmYield": "",
    "bidYield": "10,58",
    "rawName": "K2024/10",
    "bidPrice": "99,0000",
    "coupon_val": 9,
    "maturityInDays": "217 nap",
    "securityType": "1MÁP",
    "maturityDate": "2024.03.07",
    "name": "K2024/10",
    "bidEhmYield": "10,36",
    "askYield": "",
    "currency": "HUF",
    "maturityInDays_val": 217,
    "issueDate": "2023.03.07",
    "longName": "K240307"
}