{
    "askPrice": "",
    "green": 0,
    "coupon": "9,00 %",
    "accruedInterest": "7,2986",
    "settleDate": "2023.12.28",
    "askEhmYield": "",
    "bidYield": "13,98",
    "rawName": "K2024/10",
    "bidPrice": "99,0000",
    "coupon_val": 9,
    "maturityInDays": "70 nap",
    "securityType": "1MÁP",
    "maturityDate": "2024.03.07",
    "name": "K2024/10",
    "bidEhmYield": "13,25",
    "askYield": "",
    "currency": "HUF",
    "maturityInDays_val": 70,
    "issueDate": "2023.03.07",
    "longName": "K240307"
}