{
    "askPrice": "",
    "green": 0,
    "coupon": "9,00 %",
    "accruedInterest": "8,9507",
    "settleDate": "2024.03.04",
    "askEhmYield": "",
    "bidYield": "106,87",
    "rawName": "K2024/10",
    "bidPrice": "99,4000",
    "coupon_val": 9,
    "maturityInDays": "3 nap",
    "securityType": "1MÁP",
    "maturityDate": "2024.03.07",
    "name": "K2024/10",
    "bidEhmYield": "72,91",
    "askYield": "",
    "currency": "HUF",
    "maturityInDays_val": 3,
    "issueDate": "2023.03.07",
    "longName": "K240307"
}