{
    "askPrice": "",
    "green": 0,
    "coupon": "9,00 %",
    "accruedInterest": "7,6192",
    "settleDate": "2024.01.10",
    "askEhmYield": "",
    "bidYield": "15,19",
    "rawName": "K2024/10",
    "bidPrice": "99,0000",
    "coupon_val": 9,
    "maturityInDays": "57 nap",
    "securityType": "1MÁP",
    "maturityDate": "2024.03.07",
    "name": "K2024/10",
    "bidEhmYield": "14,30",
    "askYield": "",
    "currency": "HUF",
    "maturityInDays_val": 57,
    "issueDate": "2023.03.07",
    "longName": "K240307"
}