{
    "askPrice": "",
    "green": 0,
    "coupon": null,
    "accruedInterest": "0,4283",
    "settleDate": "2023.06.12",
    "askEhmYield": "",
    "bidYield": "",
    "rawName": "2026/X_EUR",
    "bidPrice": "99,0000",
    "maturityInDays": "1264 nap",
    "securityType": "PEMÁP",
    "maturityDate": "2026.11.27",
    "name": "2026/X_EUR",
    "bidEhmYield": "",
    "askYield": "",
    "currency": "EUR",
    "maturityInDays_val": 1264,
    "issueDate": "2021.06.08",
    "longName": "C261127X21"
}