{
    "askPrice": "",
    "green": 0,
    "coupon": null,
    "accruedInterest": "1,9539",
    "settleDate": "2023.08.08",
    "askEhmYield": "",
    "bidYield": "",
    "rawName": "2026/X_EUR",
    "bidPrice": "99,0000",
    "maturityInDays": "1207 nap",
    "securityType": "PEMÁP",
    "maturityDate": "2026.11.27",
    "name": "2026/X_EUR",
    "bidEhmYield": "",
    "askYield": "",
    "currency": "EUR",
    "maturityInDays_val": 1207,
    "issueDate": "2021.06.08",
    "longName": "C261127X21"
}