{
    "askPrice": "",
    "green": 0,
    "coupon": null,
    "accruedInterest": "2,8529",
    "settleDate": "2024.05.06",
    "askEhmYield": "",
    "bidYield": "",
    "rawName": "2026/X_EUR",
    "bidPrice": "99,0000",
    "maturityInDays": "935 nap",
    "securityType": "PEMÁP",
    "maturityDate": "2026.11.27",
    "name": "2026/X_EUR",
    "bidEhmYield": "",
    "askYield": "",
    "currency": "EUR",
    "maturityInDays_val": 935,
    "issueDate": "2021.06.08",
    "longName": "C261127X21"
}