{
    "askPrice": "",
    "green": 0,
    "coupon": "3,50 %",
    "accruedInterest": "0,7717",
    "settleDate": "2023.10.09",
    "askEhmYield": "",
    "bidYield": "5,26",
    "rawName": "N2028/05",
    "bidPrice": "99,5000",
    "coupon_val": 3.5,
    "maturityInDays": "1574 nap",
    "securityType": "MÁP Plusz",
    "maturityDate": "2028.01.30",
    "name": "N2028/05",
    "bidEhmYield": "",
    "askYield": "",
    "currency": "HUF",
    "maturityInDays_val": 1574,
    "issueDate": "2023.01.30",
    "longName": "N280130"
}