{
    "askPrice": "",
    "green": 0,
    "coupon": "3,50 %",
    "accruedInterest": "1,6739",
    "settleDate": "2024.02.13",
    "askEhmYield": "",
    "bidYield": "5,20",
    "rawName": "N2028/34",
    "bidPrice": "99,5000",
    "coupon_val": 3.5,
    "maturityInDays": "1651 nap",
    "securityType": "MÁP Plusz",
    "maturityDate": "2028.08.21",
    "name": "N2028/34",
    "bidEhmYield": "",
    "askYield": "",
    "currency": "HUF",
    "maturityInDays_val": 1651,
    "issueDate": "2023.08.21",
    "longName": "N280821"
}