{
    "askPrice": "",
    "green": 0,
    "coupon": "3,50 %",
    "accruedInterest": "0,0220",
    "settleDate": "2024.02.23",
    "askEhmYield": "",
    "bidYield": "5,08",
    "rawName": "N2028/34",
    "bidPrice": "100,0000",
    "coupon_val": 3.5,
    "maturityInDays": "1641 nap",
    "securityType": "MÁP Plusz",
    "maturityDate": "2028.08.21",
    "name": "N2028/34",
    "bidEhmYield": "",
    "askYield": "",
    "currency": "HUF",
    "maturityInDays_val": 1641,
    "issueDate": "2023.08.21",
    "longName": "N280821"
}