{
    "askPrice": "",
    "green": 0,
    "coupon": "3,50 %",
    "accruedInterest": "0,5934",
    "settleDate": "2024.04.15",
    "askEhmYield": "",
    "bidYield": "5,24",
    "rawName": "N2028/34",
    "bidPrice": "99,5000",
    "coupon_val": 3.5,
    "maturityInDays": "1589 nap",
    "securityType": "MÁP Plusz",
    "maturityDate": "2028.08.21",
    "name": "N2028/34",
    "bidEhmYield": "",
    "askYield": "",
    "currency": "HUF",
    "maturityInDays_val": 1589,
    "issueDate": "2023.08.21",
    "longName": "N280821"
}