{
    "askPrice": "",
    "green": 0,
    "coupon": "3,50 %",
    "accruedInterest": "0,08",
    "settleDate": "2022.06.20",
    "askEhmYield": "",
    "bidYield": "",
    "rawName": "N2026/50",
    "bidPrice": "100,00",
    "coupon_val": 3.5,
    "maturityInDays": "1637 nap",
    "securityType": "MÁP Plusz",
    "maturityDate": "2026.12.13",
    "name": "N2026/50",
    "bidEhmYield": "",
    "askYield": "",
    "currency": "HUF",
    "maturityInDays_val": 1637,
    "longName": "N261213"
}