{
    "askPrice": "",
    "green": 0,
    "coupon": "3,50 %",
    "accruedInterest": "1,38",
    "settleDate": "2022.10.17",
    "askEhmYield": "",
    "bidYield": "",
    "rawName": "N2026/50",
    "bidPrice": "99,50",
    "coupon_val": 3.5,
    "maturityInDays": "1518 nap",
    "securityType": "MÁP Plusz",
    "maturityDate": "2026.12.13",
    "name": "N2026/50",
    "bidEhmYield": "",
    "askYield": "",
    "currency": "HUF",
    "maturityInDays_val": 1518,
    "longName": "N261213"
}