{
    "askPrice": "",
    "green": 0,
    "coupon": "3,50 %",
    "accruedInterest": "1,55",
    "settleDate": "2022.11.02",
    "askEhmYield": "",
    "bidYield": "5,32",
    "rawName": "N2026/50",
    "bidPrice": "99,50",
    "coupon_val": 3.5,
    "maturityInDays": "1502 nap",
    "securityType": "MÁP Plusz",
    "maturityDate": "2026.12.13",
    "name": "N2026/50",
    "bidEhmYield": "",
    "askYield": "",
    "currency": "HUF",
    "maturityInDays_val": 1502,
    "issueDate": "2021-12-13",
    "longName": "N261213"
}