{
    "askPrice": "",
    "green": 0,
    "coupon": "3,50 %",
    "accruedInterest": "0,0370",
    "settleDate": "2022.12.16",
    "askEhmYield": "",
    "bidYield": "5,22",
    "rawName": "N2026/50",
    "bidPrice": "100,0000",
    "coupon_val": 3.5,
    "maturityInDays": "1458 nap",
    "securityType": "MÁP Plusz",
    "maturityDate": "2026.12.13",
    "name": "N2026/50",
    "bidEhmYield": "",
    "askYield": "",
    "currency": "HUF",
    "maturityInDays_val": 1458,
    "issueDate": "2021.12.13",
    "longName": "N261213"
}