{
    "askPrice": "",
    "green": 0,
    "coupon": "3,50 %",
    "accruedInterest": "4,4753",
    "settleDate": "2023.12.11",
    "askEhmYield": "",
    "bidYield": "",
    "rawName": "N2026/50",
    "bidPrice": "",
    "coupon_val": 3.5,
    "maturityInDays": "1098 nap",
    "securityType": "MÁP Plusz",
    "maturityDate": "2026.12.13",
    "name": "N2026/50",
    "bidEhmYield": "",
    "askYield": "",
    "currency": "HUF",
    "maturityInDays_val": 1098,
    "issueDate": "2021.12.13",
    "longName": "N261213"
}