{
    "askPrice": "",
    "green": 0,
    "coupon": "3,50 %",
    "accruedInterest": "1,7260",
    "settleDate": "2023.05.02",
    "askEhmYield": "",
    "bidYield": "5,45",
    "rawName": "N2026/50",
    "bidPrice": "99,5000",
    "coupon_val": 3.5,
    "maturityInDays": "1321 nap",
    "securityType": "MÁP Plusz",
    "maturityDate": "2026.12.13",
    "name": "N2026/50",
    "bidEhmYield": "",
    "askYield": "",
    "currency": "HUF",
    "maturityInDays_val": 1321,
    "issueDate": "2021.12.13",
    "longName": "N261213"
}