{
    "askPrice": "",
    "green": 0,
    "coupon": "3,50 %",
    "accruedInterest": "0,3699",
    "settleDate": "2023.01.12",
    "askEhmYield": "",
    "bidYield": "5,38",
    "rawName": "N2026/50",
    "bidPrice": "99,5000",
    "coupon_val": 3.5,
    "maturityInDays": "1431 nap",
    "securityType": "MÁP Plusz",
    "maturityDate": "2026.12.13",
    "name": "N2026/50",
    "bidEhmYield": "",
    "askYield": "",
    "currency": "HUF",
    "maturityInDays_val": 1431,
    "issueDate": "2021.12.13",
    "longName": "N261213"
}