{
    "askPrice": "",
    "green": 0,
    "coupon": "3,50 %",
    "accruedInterest": "0,4481",
    "settleDate": "2024.05.13",
    "askEhmYield": "",
    "bidYield": "5,23",
    "rawName": "N2028/40",
    "bidPrice": "99,5000",
    "coupon_val": 3.5,
    "maturityInDays": "1603 nap",
    "securityType": "MÁP Plusz",
    "maturityDate": "2028.10.02",
    "name": "N2028/40",
    "bidEhmYield": "",
    "askYield": "",
    "currency": "HUF",
    "maturityInDays_val": 1603,
    "issueDate": "2023.10.02",
    "longName": "N281002"
}