{
    "askPrice": "",
    "green": 0,
    "coupon": null,
    "accruedInterest": "2,72",
    "settleDate": "2022.07.29",
    "askEhmYield": "",
    "bidYield": "",
    "rawName": "2028/N",
    "bidPrice": "99,00",
    "maturityInDays": "2063 nap",
    "securityType": "BMÁP",
    "maturityDate": "2028.03.22",
    "name": "2028/N",
    "bidEhmYield": "",
    "askYield": "",
    "currency": "HUF",
    "maturityInDays_val": 2063,
    "longName": "A280322N17"
}