{
    "askPrice": "",
    "green": 0,
    "coupon": null,
    "accruedInterest": "4,47",
    "settleDate": "2022.10.20",
    "askEhmYield": "",
    "bidYield": "",
    "rawName": "2028/N",
    "bidPrice": "99,00",
    "maturityInDays": "1980 nap",
    "securityType": "BMÁP",
    "maturityDate": "2028.03.22",
    "name": "2028/N",
    "bidEhmYield": "",
    "askYield": "",
    "currency": "HUF",
    "maturityInDays_val": 1980,
    "longName": "A280322N17"
}