{
    "askPrice": "",
    "green": 0,
    "coupon": null,
    "accruedInterest": "3,42",
    "settleDate": "2022.08.31",
    "askEhmYield": "",
    "bidYield": "",
    "rawName": "2028/N",
    "bidPrice": "99,00",
    "maturityInDays": "2030 nap",
    "securityType": "BMÁP",
    "maturityDate": "2028.03.22",
    "name": "2028/N",
    "bidEhmYield": "",
    "askYield": "",
    "currency": "HUF",
    "maturityInDays_val": 2030,
    "longName": "A280322N17"
}