{
    "askPrice": "",
    "green": 0,
    "coupon": null,
    "accruedInterest": "4,76",
    "settleDate": "2022.11.03",
    "askEhmYield": "",
    "bidYield": "",
    "rawName": "2028/N",
    "bidPrice": "99,00",
    "maturityInDays": "1966 nap",
    "securityType": "BMÁP",
    "maturityDate": "2028.03.22",
    "name": "2028/N",
    "bidEhmYield": "",
    "askYield": "",
    "currency": "HUF",
    "maturityInDays_val": 1966,
    "issueDate": "2017-10-03",
    "longName": "A280322N17"
}