{
    "askPrice": "",
    "green": 0,
    "coupon": null,
    "accruedInterest": "16,6750",
    "settleDate": "2024.03.04",
    "askEhmYield": "",
    "bidYield": "",
    "rawName": "2028/N",
    "bidPrice": "99,0000",
    "maturityInDays": "1479 nap",
    "securityType": "BMÁP",
    "maturityDate": "2028.03.22",
    "name": "2028/N",
    "bidEhmYield": "",
    "askYield": "",
    "currency": "HUF",
    "maturityInDays_val": 1479,
    "issueDate": "2017.10.03",
    "longName": "A280322N17"
}