{
    "askPrice": "",
    "green": 0,
    "coupon": "3,50 %",
    "accruedInterest": "0,6058",
    "settleDate": "2024.04.22",
    "askEhmYield": "",
    "bidYield": "5,08",
    "rawName": "N2029/08",
    "bidPrice": "99,5000",
    "coupon_val": 3.5,
    "maturityInDays": "1764 nap",
    "securityType": "MÁP Plusz",
    "maturityDate": "2029.02.19",
    "name": "N2029/08",
    "bidEhmYield": "",
    "askYield": "",
    "currency": "HUF",
    "maturityInDays_val": 1764,
    "issueDate": "2024.02.19",
    "longName": "N290219"
}