{
    "askPrice": "",
    "green": 0,
    "coupon": "4,25 %",
    "accruedInterest": "2,07",
    "settleDate": "2022.10.15",
    "askEhmYield": "",
    "bidYield": "",
    "rawName": "K2023/16",
    "bidPrice": "99,50",
    "coupon_val": 4.25,
    "maturityInDays": "187 nap",
    "securityType": "1MÁP",
    "maturityDate": "2023.04.20",
    "name": "K2023/16",
    "bidEhmYield": "5,15",
    "askYield": "",
    "currency": "HUF",
    "maturityInDays_val": 187,
    "longName": "K230420"
}