{
    "askPrice": "",
    "green": 0,
    "coupon": "4,25 %",
    "accruedInterest": "2,8411",
    "settleDate": "2022.12.20",
    "askEhmYield": "",
    "bidYield": "7,31",
    "rawName": "K2023/16",
    "bidPrice": "99,0000",
    "coupon_val": 4.25,
    "maturityInDays": "121 nap",
    "securityType": "1MÁP",
    "maturityDate": "2023.04.20",
    "name": "K2023/16",
    "bidEhmYield": "7,14",
    "askYield": "",
    "currency": "HUF",
    "maturityInDays_val": 121,
    "issueDate": "2022.04.20",
    "longName": "K230420"
}