{
    "askPrice": "",
    "green": 0,
    "coupon": "4,25 %",
    "accruedInterest": "1,25",
    "settleDate": "2022.08.05",
    "askEhmYield": "",
    "bidYield": "",
    "rawName": "K2023/16",
    "bidPrice": "99,50",
    "coupon_val": 4.25,
    "maturityInDays": "258 nap",
    "securityType": "1MÁP",
    "maturityDate": "2023.04.20",
    "name": "K2023/16",
    "bidEhmYield": "4,92",
    "askYield": "",
    "currency": "HUF",
    "maturityInDays_val": 258,
    "longName": "K230420"
}