{
    "askPrice": "",
    "green": 0,
    "coupon": "4,25 %",
    "accruedInterest": "2,6199",
    "settleDate": "2022.12.01",
    "askEhmYield": "",
    "bidYield": "5,53",
    "rawName": "K2023/16",
    "bidPrice": "99,5000",
    "coupon_val": 4.25,
    "maturityInDays": "140 nap",
    "securityType": "1MÁP",
    "maturityDate": "2023.04.20",
    "name": "K2023/16",
    "bidEhmYield": "5,44",
    "askYield": "",
    "currency": "HUF",
    "maturityInDays_val": 140,
    "issueDate": "2022.04.20",
    "longName": "K230420"
}