{
    "askPrice": "",
    "green": 0,
    "coupon": "4,25 %",
    "accruedInterest": "2,28",
    "settleDate": "2022.11.02",
    "askEhmYield": "",
    "bidYield": "5,31",
    "rawName": "K2023/16",
    "bidPrice": "99,50",
    "coupon_val": 4.25,
    "maturityInDays": "169 nap",
    "securityType": "1MÁP",
    "maturityDate": "2023.04.20",
    "name": "K2023/16",
    "bidEhmYield": "5,24",
    "askYield": "",
    "currency": "HUF",
    "maturityInDays_val": 169,
    "issueDate": "2022-04-20",
    "longName": "K230420"
}