{
    "askPrice": "",
    "green": 0,
    "coupon": "4,25 %",
    "accruedInterest": "2,7130",
    "settleDate": "2022.12.09",
    "askEhmYield": "",
    "bidYield": "7,05",
    "rawName": "K2023/16",
    "bidPrice": "99,0000",
    "coupon_val": 4.25,
    "maturityInDays": "132 nap",
    "securityType": "1MÁP",
    "maturityDate": "2023.04.20",
    "name": "K2023/16",
    "bidEhmYield": "6,90",
    "askYield": "",
    "currency": "HUF",
    "maturityInDays_val": 132,
    "issueDate": "2022.04.20",
    "longName": "K230420"
}