{
    "askPrice": "",
    "green": 0,
    "coupon": "4,25 %",
    "accruedInterest": "1,77",
    "settleDate": "2022.09.19",
    "askEhmYield": "",
    "bidYield": "",
    "rawName": "K2023/16",
    "bidPrice": "99,50",
    "coupon_val": 4.25,
    "maturityInDays": "213 nap",
    "securityType": "1MÁP",
    "maturityDate": "2023.04.20",
    "name": "K2023/16",
    "bidEhmYield": "5,04",
    "askYield": "",
    "currency": "HUF",
    "maturityInDays_val": 213,
    "longName": "K230420"
}