{
    "askPrice": "",
    "green": 0,
    "coupon": "4,25 %",
    "accruedInterest": "4,1801",
    "settleDate": "2023.04.14",
    "askEhmYield": "",
    "bidYield": "48,02",
    "rawName": "K2023/16",
    "bidPrice": "99,4000",
    "coupon_val": 4.25,
    "maturityInDays": "6 nap",
    "securityType": "1MÁP",
    "maturityDate": "2023.04.20",
    "name": "K2023/16",
    "bidEhmYield": "39,34",
    "askYield": "",
    "currency": "HUF",
    "maturityInDays_val": 6,
    "issueDate": "2022.04.20",
    "longName": "K230420"
}