{
    "askPrice": "",
    "green": 0,
    "coupon": "4,25 %",
    "accruedInterest": "3,7610",
    "settleDate": "2023.03.09",
    "askEhmYield": "",
    "bidYield": "13,32",
    "rawName": "K2023/16",
    "bidPrice": "99,0000",
    "coupon_val": 4.25,
    "maturityInDays": "42 nap",
    "securityType": "1MÁP",
    "maturityDate": "2023.04.20",
    "name": "K2023/16",
    "bidEhmYield": "12,59",
    "askYield": "",
    "currency": "HUF",
    "maturityInDays_val": 42,
    "issueDate": "2022.04.20",
    "longName": "K230420"
}