{
    "askPrice": "",
    "green": 0,
    "coupon": "4,25 %",
    "accruedInterest": "3,4815",
    "settleDate": "2023.02.13",
    "askEhmYield": "",
    "bidYield": "9,92",
    "rawName": "K2023/16",
    "bidPrice": "99,0000",
    "coupon_val": 4.25,
    "maturityInDays": "66 nap",
    "securityType": "1MÁP",
    "maturityDate": "2023.04.20",
    "name": "K2023/16",
    "bidEhmYield": "9,54",
    "askYield": "",
    "currency": "HUF",
    "maturityInDays_val": 66,
    "issueDate": "2022.04.20",
    "longName": "K230420"
}