{
    "askPrice": "",
    "green": 0,
    "coupon": "4,25 %",
    "accruedInterest": "3,5630",
    "settleDate": "2023.02.20",
    "askEhmYield": "",
    "bidYield": "10,62",
    "rawName": "K2023/16",
    "bidPrice": "99,0000",
    "coupon_val": 4.25,
    "maturityInDays": "59 nap",
    "securityType": "1MÁP",
    "maturityDate": "2023.04.20",
    "name": "K2023/16",
    "bidEhmYield": "10,18",
    "askYield": "",
    "currency": "HUF",
    "maturityInDays_val": 59,
    "issueDate": "2022.04.20",
    "longName": "K230420"
}