{
    "askPrice": "",
    "green": 0,
    "coupon": "3,50 %",
    "accruedInterest": "3,44",
    "settleDate": "2022.11.02",
    "askEhmYield": "",
    "bidYield": "5,86",
    "rawName": "N2025/08",
    "bidPrice": "99,50",
    "coupon_val": 3.5,
    "maturityInDays": "845 nap",
    "securityType": "MÁP Plusz",
    "maturityDate": "2025.02.24",
    "name": "N2025/08",
    "bidEhmYield": "",
    "askYield": "",
    "currency": "HUF",
    "maturityInDays_val": 845,
    "issueDate": "2020-02-24",
    "longName": "N250224"
}