{
    "askPrice": "",
    "green": 0,
    "coupon": "3,50 %",
    "accruedInterest": "4,2329",
    "settleDate": "2022.12.30",
    "askEhmYield": "",
    "bidYield": "5,93",
    "rawName": "N2025/08",
    "bidPrice": "99,5000",
    "coupon_val": 3.5,
    "maturityInDays": "787 nap",
    "securityType": "MÁP Plusz",
    "maturityDate": "2025.02.24",
    "name": "N2025/08",
    "bidEhmYield": "",
    "askYield": "",
    "currency": "HUF",
    "maturityInDays_val": 787,
    "issueDate": "2020.02.24",
    "longName": "N250224"
}