{
    "askPrice": "",
    "green": 0,
    "coupon": "3,50 %",
    "accruedInterest": "3,32",
    "settleDate": "2022.10.24",
    "askEhmYield": "",
    "bidYield": "5,85",
    "rawName": "N2025/08",
    "bidPrice": "99,50",
    "coupon_val": 3.5,
    "maturityInDays": "854 nap",
    "securityType": "MÁP Plusz",
    "maturityDate": "2025.02.24",
    "name": "N2025/08",
    "bidEhmYield": "",
    "askYield": "",
    "currency": "HUF",
    "maturityInDays_val": 854,
    "longName": "N250224"
}