{
    "askPrice": "",
    "green": 0,
    "coupon": "3,50 %",
    "accruedInterest": "4,5205",
    "settleDate": "2023.01.20",
    "askEhmYield": "",
    "bidYield": "5,96",
    "rawName": "N2025/08",
    "bidPrice": "99,5000",
    "coupon_val": 3.5,
    "maturityInDays": "766 nap",
    "securityType": "MÁP Plusz",
    "maturityDate": "2025.02.24",
    "name": "N2025/08",
    "bidEhmYield": "",
    "askYield": "",
    "currency": "HUF",
    "maturityInDays_val": 766,
    "issueDate": "2020.02.24",
    "longName": "N250224"
}