{
    "askPrice": "",
    "green": 0,
    "coupon": "3,50 %",
    "accruedInterest": "1,2356",
    "settleDate": "2023.05.17",
    "askEhmYield": "",
    "bidYield": "6,06",
    "rawName": "N2025/08",
    "bidPrice": "99,5000",
    "coupon_val": 3.5,
    "maturityInDays": "649 nap",
    "securityType": "MÁP Plusz",
    "maturityDate": "2025.02.24",
    "name": "N2025/08",
    "bidEhmYield": "",
    "askYield": "",
    "currency": "HUF",
    "maturityInDays_val": 649,
    "issueDate": "2020.02.24",
    "longName": "N250224"
}