{
    "askPrice": "",
    "green": 0,
    "coupon": "3,50 %",
    "accruedInterest": "1,4767",
    "settleDate": "2023.06.02",
    "askEhmYield": "",
    "bidYield": "6,08",
    "rawName": "N2025/08",
    "bidPrice": "99,5000",
    "coupon_val": 3.5,
    "maturityInDays": "633 nap",
    "securityType": "MÁP Plusz",
    "maturityDate": "2025.02.24",
    "name": "N2025/08",
    "bidEhmYield": "",
    "askYield": "",
    "currency": "HUF",
    "maturityInDays_val": 633,
    "issueDate": "2020.02.24",
    "longName": "N250224"
}