{
    "askPrice": "",
    "green": 0,
    "coupon": "3,50 %",
    "accruedInterest": "0,1475",
    "settleDate": "2024.03.04",
    "askEhmYield": "",
    "bidYield": "6,00",
    "rawName": "N2025/08",
    "bidPrice": "100,0000",
    "coupon_val": 3.5,
    "maturityInDays": "357 nap",
    "securityType": "MÁP Plusz",
    "maturityDate": "2025.02.24",
    "name": "N2025/08",
    "bidEhmYield": "",
    "askYield": "",
    "currency": "HUF",
    "maturityInDays_val": 357,
    "issueDate": "2020.02.24",
    "longName": "N250224"
}