{
    "askPrice": "97,9419",
    "green": 0,
    "coupon": 0,
    "accruedInterest": 0,
    "settleDate": "2023.09.19",
    "askEhmYield": "9,02",
    "bidYield": "10,20",
    "rawName": "D231213",
    "bidPrice": "97,6483",
    "maturityInDays": "85 nap",
    "securityType": "DKJ",
    "maturityDate": "2023.12.13",
    "name": "D231213",
    "bidEhmYield": "10,34",
    "askYield": "8,90",
    "currency": "HUF",
    "maturityInDays_val": 85,
    "issueDate": "2023.09.13",
    "longName": "D231213"
}