{
    "askPrice": "98,5664",
    "green": 0,
    "coupon": 0,
    "accruedInterest": 0,
    "settleDate": "2023.10.06",
    "askEhmYield": "7,81",
    "bidYield": "9,05",
    "rawName": "D231213",
    "bidPrice": "98,3193",
    "maturityInDays": "68 nap",
    "securityType": "DKJ",
    "maturityDate": "2023.12.13",
    "name": "D231213",
    "bidEhmYield": "9,18",
    "askYield": "7,70",
    "currency": "HUF",
    "maturityInDays_val": 68,
    "issueDate": "2023.09.13",
    "longName": "D231213"
}