{
    "askPrice": "99,1239",
    "green": 0,
    "coupon": 0,
    "accruedInterest": 0,
    "settleDate": "2023.10.31",
    "askEhmYield": "7,50",
    "bidYield": "8,75",
    "rawName": "D231213",
    "bidPrice": "98,9657",
    "maturityInDays": "43 nap",
    "securityType": "DKJ",
    "maturityDate": "2023.12.13",
    "name": "D231213",
    "bidEhmYield": "8,87",
    "askYield": "7,40",
    "currency": "HUF",
    "maturityInDays_val": 43,
    "issueDate": "2023.09.13",
    "longName": "D231213"
}