{
    "askPrice": "99,1189",
    "green": 0,
    "coupon": 0,
    "accruedInterest": 0,
    "settleDate": "2023.10.24",
    "askEhmYield": "6,49",
    "bidYield": "7,75",
    "rawName": "D231213",
    "bidPrice": "98,9351",
    "maturityInDays": "50 nap",
    "securityType": "DKJ",
    "maturityDate": "2023.12.13",
    "name": "D231213",
    "bidEhmYield": "7,86",
    "askYield": "6,40",
    "currency": "HUF",
    "maturityInDays_val": 50,
    "issueDate": "2023.09.13",
    "longName": "D231213"
}