{
    "askPrice": "98,8533",
    "green": 0,
    "coupon": 0,
    "accruedInterest": 0,
    "settleDate": "2023.10.16",
    "askEhmYield": "7,30",
    "bidYield": "8,59",
    "rawName": "D231213",
    "bidPrice": "98,6349",
    "maturityInDays": "58 nap",
    "securityType": "DKJ",
    "maturityDate": "2023.12.13",
    "name": "D231213",
    "bidEhmYield": "8,71",
    "askYield": "7,20",
    "currency": "HUF",
    "maturityInDays_val": 58,
    "issueDate": "2023.09.13",
    "longName": "D231213"
}