{
    "askPrice": "",
    "green": 0,
    "coupon": 0,
    "accruedInterest": 0,
    "settleDate": "2023.11.22",
    "askEhmYield": "",
    "bidYield": "8,80",
    "rawName": "D231213",
    "bidPrice": "99,4893",
    "maturityInDays": "21 nap",
    "securityType": "DKJ",
    "maturityDate": "2023.12.13",
    "name": "D231213",
    "bidEhmYield": "8,92",
    "askYield": "",
    "currency": "HUF",
    "maturityInDays_val": 21,
    "issueDate": "2023.09.13",
    "longName": "D231213"
}