{
    "askPrice": "98,6772",
    "green": 0,
    "coupon": 0,
    "accruedInterest": 0,
    "settleDate": "2023.10.11",
    "askEhmYield": "7,77",
    "bidYield": "8,98",
    "rawName": "D231213",
    "bidPrice": "98,4528",
    "maturityInDays": "63 nap",
    "securityType": "DKJ",
    "maturityDate": "2023.12.13",
    "name": "D231213",
    "bidEhmYield": "9,10",
    "askYield": "7,66",
    "currency": "HUF",
    "maturityInDays_val": 63,
    "issueDate": "2023.09.13",
    "longName": "D231213"
}