{
    "askPrice": "",
    "green": 0,
    "coupon": "6,50 %",
    "accruedInterest": "1,3890",
    "settleDate": "2024.05.02",
    "askEhmYield": "",
    "bidYield": "7,80",
    "rawName": "K2025/07",
    "bidPrice": "99,0000",
    "coupon_val": 6.5,
    "maturityInDays": "287 nap",
    "securityType": "1MÁP",
    "maturityDate": "2025.02.13",
    "name": "K2025/07",
    "bidEhmYield": "7,72",
    "askYield": "",
    "currency": "HUF",
    "maturityInDays_val": 287,
    "issueDate": "2024.02.13",
    "longName": "K250213"
}