{
    "askPrice": "",
    "green": 0,
    "coupon": "6,50 %",
    "accruedInterest": "1,2110",
    "settleDate": "2024.04.22",
    "askEhmYield": "",
    "bidYield": "7,77",
    "rawName": "K2025/07",
    "bidPrice": "99,0000",
    "coupon_val": 6.5,
    "maturityInDays": "297 nap",
    "securityType": "1MÁP",
    "maturityDate": "2025.02.13",
    "name": "K2025/07",
    "bidEhmYield": "7,69",
    "askYield": "",
    "currency": "HUF",
    "maturityInDays_val": 297,
    "issueDate": "2024.02.13",
    "longName": "K250213"
}