{
    "askPrice": "",
    "green": 0,
    "coupon": "6,50 %",
    "accruedInterest": "0,9795",
    "settleDate": "2024.04.09",
    "askEhmYield": "",
    "bidYield": "7,72",
    "rawName": "K2025/07",
    "bidPrice": "99,0000",
    "coupon_val": 6.5,
    "maturityInDays": "310 nap",
    "securityType": "1MÁP",
    "maturityDate": "2025.02.13",
    "name": "K2025/07",
    "bidEhmYield": "7,66",
    "askYield": "",
    "currency": "HUF",
    "maturityInDays_val": 310,
    "issueDate": "2024.02.13",
    "longName": "K250213"
}