{
    "askPrice": "",
    "green": 0,
    "coupon": "9,00 %",
    "accruedInterest": "0,2959",
    "settleDate": "2023.05.15",
    "askEhmYield": "",
    "bidYield": "10,09",
    "rawName": "K2024/18",
    "bidPrice": "99,0000",
    "coupon_val": 9,
    "maturityInDays": "354 nap",
    "securityType": "1MÁP",
    "maturityDate": "2024.05.03",
    "name": "K2024/18",
    "bidEhmYield": "10,08",
    "askYield": "",
    "currency": "HUF",
    "maturityInDays_val": 354,
    "issueDate": "2023.05.03",
    "longName": "K240503"
}