{
    "askPrice": "",
    "green": 0,
    "coupon": "9,00 %",
    "accruedInterest": "0,1233",
    "settleDate": "2023.05.08",
    "askEhmYield": "",
    "bidYield": "10,08",
    "rawName": "K2024/18",
    "bidPrice": "99,0000",
    "coupon_val": 9,
    "maturityInDays": "361 nap",
    "securityType": "1MÁP",
    "maturityDate": "2024.05.03",
    "name": "K2024/18",
    "bidEhmYield": "10,07",
    "askYield": "",
    "currency": "HUF",
    "maturityInDays_val": 361,
    "issueDate": "2023.05.03",
    "longName": "K240503"
}