{
    "askPrice": "",
    "green": 0,
    "coupon": "9,00 %",
    "accruedInterest": "2,3671",
    "settleDate": "2023.08.07",
    "askEhmYield": "",
    "bidYield": "10,31",
    "rawName": "K2024/18",
    "bidPrice": "99,0000",
    "coupon_val": 9,
    "maturityInDays": "270 nap",
    "securityType": "1MÁP",
    "maturityDate": "2024.05.03",
    "name": "K2024/18",
    "bidEhmYield": "10,18",
    "askYield": "",
    "currency": "HUF",
    "maturityInDays_val": 270,
    "issueDate": "2023.05.03",
    "longName": "K240503"
}