{
    "askPrice": "",
    "green": 0,
    "coupon": "9,00 %",
    "accruedInterest": "5,6712",
    "settleDate": "2023.12.19",
    "askEhmYield": "",
    "bidYield": "11,49",
    "rawName": "K2024/18",
    "bidPrice": "99,0000",
    "coupon_val": 9,
    "maturityInDays": "136 nap",
    "securityType": "1MÁP",
    "maturityDate": "2024.05.03",
    "name": "K2024/18",
    "bidEhmYield": "11,10",
    "askYield": "",
    "currency": "HUF",
    "maturityInDays_val": 136,
    "issueDate": "2023.05.03",
    "longName": "K240503"
}