{
    "askPrice": "",
    "green": 0,
    "coupon": "9,00 %",
    "accruedInterest": "3,9205",
    "settleDate": "2023.10.09",
    "askEhmYield": "",
    "bidYield": "10,65",
    "rawName": "K2024/18",
    "bidPrice": "99,0000",
    "coupon_val": 9,
    "maturityInDays": "207 nap",
    "securityType": "1MÁP",
    "maturityDate": "2024.05.03",
    "name": "K2024/18",
    "bidEhmYield": "10,42",
    "askYield": "",
    "currency": "HUF",
    "maturityInDays_val": 207,
    "issueDate": "2023.05.03",
    "longName": "K240503"
}