{
    "askPrice": "",
    "green": 0,
    "coupon": "9,00 %",
    "accruedInterest": "5,1288",
    "settleDate": "2023.11.27",
    "askEhmYield": "",
    "bidYield": "11,14",
    "rawName": "K2024/18",
    "bidPrice": "99,0000",
    "coupon_val": 9,
    "maturityInDays": "158 nap",
    "securityType": "1MÁP",
    "maturityDate": "2024.05.03",
    "name": "K2024/18",
    "bidEhmYield": "10,81",
    "askYield": "",
    "currency": "HUF",
    "maturityInDays_val": 158,
    "issueDate": "2023.05.03",
    "longName": "K240503"
}