{
    "askPrice": "",
    "green": 0,
    "coupon": "9,00 %",
    "accruedInterest": "3,6247",
    "settleDate": "2023.09.27",
    "askEhmYield": "",
    "bidYield": "10,57",
    "rawName": "K2024/18",
    "bidPrice": "99,0000",
    "coupon_val": 9,
    "maturityInDays": "219 nap",
    "securityType": "1MÁP",
    "maturityDate": "2024.05.03",
    "name": "K2024/18",
    "bidEhmYield": "10,35",
    "askYield": "",
    "currency": "HUF",
    "maturityInDays_val": 219,
    "issueDate": "2023.05.03",
    "longName": "K240503"
}