{
    "askPrice": "",
    "green": 0,
    "coupon": "9,00 %",
    "accruedInterest": "7,5945",
    "settleDate": "2024.03.06",
    "askEhmYield": "",
    "bidYield": "15,08",
    "rawName": "K2024/18",
    "bidPrice": "99,0000",
    "coupon_val": 9,
    "maturityInDays": "58 nap",
    "securityType": "1MÁP",
    "maturityDate": "2024.05.03",
    "name": "K2024/18",
    "bidEhmYield": "14,20",
    "askYield": "",
    "currency": "HUF",
    "maturityInDays_val": 58,
    "issueDate": "2023.05.03",
    "longName": "K240503"
}