{
    "askPrice": "",
    "green": 0,
    "coupon": "9,00 %",
    "accruedInterest": "7,7178",
    "settleDate": "2024.03.11",
    "askEhmYield": "",
    "bidYield": "15,69",
    "rawName": "K2024/18",
    "bidPrice": "99,0000",
    "coupon_val": 9,
    "maturityInDays": "53 nap",
    "securityType": "1MÁP",
    "maturityDate": "2024.05.03",
    "name": "K2024/18",
    "bidEhmYield": "14,73",
    "askYield": "",
    "currency": "HUF",
    "maturityInDays_val": 53,
    "issueDate": "2023.05.03",
    "longName": "K240503"
}