{
    "askPrice": "",
    "green": 0,
    "coupon": "9,00 %",
    "accruedInterest": "6,8548",
    "settleDate": "2024.02.05",
    "askEhmYield": "",
    "bidYield": "12,91",
    "rawName": "K2024/18",
    "bidPrice": "99,0000",
    "coupon_val": 9,
    "maturityInDays": "88 nap",
    "securityType": "1MÁP",
    "maturityDate": "2024.05.03",
    "name": "K2024/18",
    "bidEhmYield": "12,32",
    "askYield": "",
    "currency": "HUF",
    "maturityInDays_val": 88,
    "issueDate": "2023.05.03",
    "longName": "K240503"
}