{
    "askPrice": "",
    "green": 0,
    "coupon": "9,00 %",
    "accruedInterest": "7,4219",
    "settleDate": "2024.02.28",
    "askEhmYield": "",
    "bidYield": "14,39",
    "rawName": "K2024/18",
    "bidPrice": "99,0000",
    "coupon_val": 9,
    "maturityInDays": "65 nap",
    "securityType": "1MÁP",
    "maturityDate": "2024.05.03",
    "name": "K2024/18",
    "bidEhmYield": "13,60",
    "askYield": "",
    "currency": "HUF",
    "maturityInDays_val": 65,
    "issueDate": "2023.05.03",
    "longName": "K240503"
}