{
    "askPrice": "100,00",
    "green": 0,
    "coupon": null,
    "accruedInterest": "4,95",
    "settleDate": "2022.09.12",
    "askEhmYield": "",
    "bidYield": "",
    "rawName": "2033/S_BABA",
    "bidPrice": "100,00",
    "maturityInDays": "3795 nap",
    "securityType": "BABA",
    "maturityDate": "2033.02.01",
    "name": "2033/S_BABA",
    "bidEhmYield": "",
    "askYield": "",
    "currency": "HUF",
    "maturityInDays_val": 3795,
    "longName": "A330201S14"
}