{
    "askPrice": "100,00",
    "green": 0,
    "coupon": null,
    "accruedInterest": "3,57",
    "settleDate": "2022.07.12",
    "askEhmYield": "",
    "bidYield": "",
    "rawName": "2033/S_BABA",
    "bidPrice": "100,00",
    "maturityInDays": "3857 nap",
    "securityType": "BABA",
    "maturityDate": "2033.02.01",
    "name": "2033/S_BABA",
    "bidEhmYield": "",
    "askYield": "",
    "currency": "HUF",
    "maturityInDays_val": 3857,
    "longName": "A330201S14"
}