{
    "askPrice": "100,00",
    "green": 0,
    "coupon": null,
    "accruedInterest": "5,75",
    "settleDate": "2022.10.18",
    "askEhmYield": "",
    "bidYield": "0,23",
    "rawName": "2033/S_BABA",
    "bidPrice": "100,00",
    "maturityInDays": "3759 nap",
    "securityType": "BABA",
    "maturityDate": "2033.02.01",
    "name": "2033/S_BABA",
    "bidEhmYield": "",
    "askYield": "0,23",
    "currency": "HUF",
    "maturityInDays_val": 3759,
    "longName": "A330201S14"
}