{
    "askPrice": "100,0000",
    "green": 0,
    "coupon": null,
    "accruedInterest": "6,6575",
    "settleDate": "2022.11.28",
    "askEhmYield": "",
    "bidYield": "",
    "rawName": "2033/S_BABA",
    "bidPrice": "100,0000",
    "maturityInDays": "3718 nap",
    "securityType": "BABA",
    "maturityDate": "2033.02.01",
    "name": "2033/S_BABA",
    "bidEhmYield": "",
    "askYield": "",
    "currency": "HUF",
    "maturityInDays_val": 3718,
    "issueDate": "2014.02.03",
    "longName": "A330201S14"
}