{
    "askPrice": "",
    "green": 0,
    "coupon": null,
    "accruedInterest": "8,0556",
    "settleDate": "2023.01.30",
    "askEhmYield": "",
    "bidYield": "",
    "rawName": "2033/S_BABA",
    "bidPrice": "",
    "maturityInDays": "3655 nap",
    "securityType": "BABA",
    "maturityDate": "2033.02.01",
    "name": "2033/S_BABA",
    "bidEhmYield": "",
    "askYield": "",
    "currency": "HUF",
    "maturityInDays_val": 3655,
    "issueDate": "2014.02.03",
    "longName": "A330201S14"
}