{
    "askPrice": "100,0000",
    "green": 0,
    "coupon": null,
    "accruedInterest": "16,1096",
    "settleDate": "2024.01.03",
    "askEhmYield": "",
    "bidYield": "",
    "rawName": "2033/S_BABA",
    "bidPrice": "100,0000",
    "maturityInDays": "3317 nap",
    "securityType": "BABA",
    "maturityDate": "2033.02.01",
    "name": "2033/S_BABA",
    "bidEhmYield": "",
    "askYield": "",
    "currency": "HUF",
    "maturityInDays_val": 3317,
    "issueDate": "2014.02.03",
    "longName": "A330201S14"
}