{
    "askPrice": "",
    "green": 0,
    "coupon": "9,00 %",
    "accruedInterest": "4,1918",
    "settleDate": "2023.06.29",
    "askEhmYield": "",
    "bidYield": "10,79",
    "rawName": "K2024/02",
    "bidPrice": "99,0000",
    "coupon_val": 9,
    "maturityInDays": "195 nap",
    "securityType": "1MÁP",
    "maturityDate": "2024.01.10",
    "name": "K2024/02",
    "bidEhmYield": "10,54",
    "askYield": "",
    "currency": "HUF",
    "maturityInDays_val": 195,
    "issueDate": "2023.01.10",
    "longName": "K240110"
}