{
    "askPrice": "",
    "green": 0,
    "coupon": "9,00 %",
    "accruedInterest": "3,4521",
    "settleDate": "2023.05.30",
    "askEhmYield": "",
    "bidYield": "10,57",
    "rawName": "K2024/02",
    "bidPrice": "99,0000",
    "coupon_val": 9,
    "maturityInDays": "225 nap",
    "securityType": "1MÁP",
    "maturityDate": "2024.01.10",
    "name": "K2024/02",
    "bidEhmYield": "10,37",
    "askYield": "",
    "currency": "HUF",
    "maturityInDays_val": 225,
    "issueDate": "2023.01.10",
    "longName": "K240110"
}