{
    "askPrice": "",
    "green": 0,
    "coupon": "9,00 %",
    "accruedInterest": "2,9589",
    "settleDate": "2023.05.10",
    "askEhmYield": "",
    "bidYield": "10,46",
    "rawName": "K2024/02",
    "bidPrice": "99,0000",
    "coupon_val": 9,
    "maturityInDays": "245 nap",
    "securityType": "1MÁP",
    "maturityDate": "2024.01.10",
    "name": "K2024/02",
    "bidEhmYield": "10,29",
    "askYield": "",
    "currency": "HUF",
    "maturityInDays_val": 245,
    "issueDate": "2023.01.10",
    "longName": "K240110"
}