{
    "askPrice": "",
    "green": 0,
    "coupon": "9,00 %",
    "accruedInterest": "5,9425",
    "settleDate": "2023.09.08",
    "askEhmYield": "",
    "bidYield": "11,81",
    "rawName": "K2024/02",
    "bidPrice": "99,0000",
    "coupon_val": 9,
    "maturityInDays": "124 nap",
    "securityType": "1MÁP",
    "maturityDate": "2024.01.10",
    "name": "K2024/02",
    "bidEhmYield": "11,38",
    "askYield": "",
    "currency": "HUF",
    "maturityInDays_val": 124,
    "issueDate": "2023.01.10",
    "longName": "K240110"
}