{
    "askPrice": "",
    "green": 0,
    "coupon": "9,00 %",
    "accruedInterest": "8,1370",
    "settleDate": "2023.12.06",
    "askEhmYield": "",
    "bidYield": "19,70",
    "rawName": "K2024/02",
    "bidPrice": "99,0000",
    "coupon_val": 9,
    "maturityInDays": "35 nap",
    "securityType": "1MÁP",
    "maturityDate": "2024.01.10",
    "name": "K2024/02",
    "bidEhmYield": "18,13",
    "askYield": "",
    "currency": "HUF",
    "maturityInDays_val": 35,
    "issueDate": "2023.01.10",
    "longName": "K240110"
}