{
    "askPrice": "",
    "green": 0,
    "coupon": "9,00 %",
    "accruedInterest": "4,3151",
    "settleDate": "2023.07.04",
    "askEhmYield": "",
    "bidYield": "10,84",
    "rawName": "K2024/02",
    "bidPrice": "99,0000",
    "coupon_val": 9,
    "maturityInDays": "190 nap",
    "securityType": "1MÁP",
    "maturityDate": "2024.01.10",
    "name": "K2024/02",
    "bidEhmYield": "10,57",
    "askYield": "",
    "currency": "HUF",
    "maturityInDays_val": 190,
    "issueDate": "2023.01.10",
    "longName": "K240110"
}