{
    "askPrice": "",
    "green": 0,
    "coupon": "9,00 %",
    "accruedInterest": "4,4877",
    "settleDate": "2023.07.11",
    "askEhmYield": "",
    "bidYield": "10,91",
    "rawName": "K2024/02",
    "bidPrice": "99,0000",
    "coupon_val": 9,
    "maturityInDays": "183 nap",
    "securityType": "1MÁP",
    "maturityDate": "2024.01.10",
    "name": "K2024/02",
    "bidEhmYield": "10,62",
    "askYield": "",
    "currency": "HUF",
    "maturityInDays_val": 183,
    "issueDate": "2023.01.10",
    "longName": "K240110"
}