{
    "askPrice": "100,0000",
    "green": 0,
    "coupon": null,
    "accruedInterest": "0,1082",
    "settleDate": "2023.12.04",
    "askEhmYield": "",
    "bidYield": "",
    "rawName": "2032/I",
    "bidPrice": "99,0000",
    "maturityInDays": "3062 nap",
    "securityType": "PMÁP",
    "maturityDate": "2032.04.22",
    "name": "2032/I",
    "bidEhmYield": "",
    "askYield": "",
    "currency": "HUF",
    "maturityInDays_val": 3062,
    "issueDate": "2023.11.30",
    "longName": "A320422I23"
}