{
    "askPrice": "100,0000",
    "green": 0,
    "coupon": null,
    "accruedInterest": "1,4877",
    "settleDate": "2024.01.24",
    "askEhmYield": "",
    "bidYield": "",
    "rawName": "2032/I",
    "bidPrice": "99,0000",
    "maturityInDays": "3011 nap",
    "securityType": "PMÁP",
    "maturityDate": "2032.04.22",
    "name": "2032/I",
    "bidEhmYield": "",
    "askYield": "",
    "currency": "HUF",
    "maturityInDays_val": 3011,
    "issueDate": "2023.11.30",
    "longName": "A320422I23"
}