{
    "askPrice": "",
    "green": 0,
    "coupon": null,
    "accruedInterest": "3,8951",
    "settleDate": "2024.04.22",
    "askEhmYield": "",
    "bidYield": "",
    "rawName": "2032/I",
    "bidPrice": "99,0000",
    "maturityInDays": "2922 nap",
    "securityType": "PMÁP",
    "maturityDate": "2032.04.22",
    "name": "2032/I",
    "bidEhmYield": "",
    "askYield": "",
    "currency": "HUF",
    "maturityInDays_val": 2922,
    "issueDate": "2023.11.30",
    "longName": "A320422I23"
}