{
    "askPrice": "",
    "green": 0,
    "coupon": null,
    "accruedInterest": "2,4885",
    "settleDate": "2024.03.01",
    "askEhmYield": "",
    "bidYield": "",
    "rawName": "2032/I",
    "bidPrice": "99,0000",
    "maturityInDays": "2974 nap",
    "securityType": "PMÁP",
    "maturityDate": "2032.04.22",
    "name": "2032/I",
    "bidEhmYield": "",
    "askYield": "",
    "currency": "HUF",
    "maturityInDays_val": 2974,
    "issueDate": "2023.11.30",
    "longName": "A320422I23"
}