{
    "askPrice": "",
    "green": 0,
    "coupon": "3,00 %",
    "accruedInterest": "1,75",
    "settleDate": "2022.09.02",
    "askEhmYield": "",
    "bidYield": "",
    "rawName": "K2023/05",
    "bidPrice": "99,50",
    "coupon_val": 3,
    "maturityInDays": "152 nap",
    "securityType": "1MÁP",
    "maturityDate": "2023.02.01",
    "name": "K2023/05",
    "bidEhmYield": "4,15",
    "askYield": "",
    "currency": "HUF",
    "maturityInDays_val": 152,
    "longName": "K230201"
}