{
    "askPrice": "",
    "green": 0,
    "coupon": "3,00 %",
    "accruedInterest": "2,18",
    "settleDate": "2022.10.24",
    "askEhmYield": "",
    "bidYield": "4,83",
    "rawName": "K2023/05",
    "bidPrice": "99,50",
    "coupon_val": 3,
    "maturityInDays": "100 nap",
    "securityType": "1MÁP",
    "maturityDate": "2023.02.01",
    "name": "K2023/05",
    "bidEhmYield": "4,75",
    "askYield": "",
    "currency": "HUF",
    "maturityInDays_val": 100,
    "longName": "K230201"
}