{
    "askPrice": "",
    "green": 0,
    "coupon": "3,00 %",
    "accruedInterest": "2,09",
    "settleDate": "2022.10.13",
    "askEhmYield": "",
    "bidYield": "",
    "rawName": "K2023/05",
    "bidPrice": "99,50",
    "coupon_val": 3,
    "maturityInDays": "111 nap",
    "securityType": "1MÁP",
    "maturityDate": "2023.02.01",
    "name": "K2023/05",
    "bidEhmYield": "4,57",
    "askYield": "",
    "currency": "HUF",
    "maturityInDays_val": 111,
    "longName": "K230201"
}