{
    "askPrice": "",
    "green": 0,
    "coupon": "3,00 %",
    "accruedInterest": "1,38",
    "settleDate": "2022.07.19",
    "askEhmYield": "",
    "bidYield": "",
    "rawName": "K2023/05",
    "bidPrice": "99,50",
    "coupon_val": 3,
    "maturityInDays": "197 nap",
    "securityType": "1MÁP",
    "maturityDate": "2023.02.01",
    "name": "K2023/05",
    "bidEhmYield": "3,89",
    "askYield": "",
    "currency": "HUF",
    "maturityInDays_val": 197,
    "longName": "K230201"
}