{
    "askPrice": "",
    "green": 0,
    "coupon": "3,00 %",
    "accruedInterest": "2,25",
    "settleDate": "2022.11.02",
    "askEhmYield": "",
    "bidYield": "5,01",
    "rawName": "K2023/05",
    "bidPrice": "99,50",
    "coupon_val": 3,
    "maturityInDays": "91 nap",
    "securityType": "1MÁP",
    "maturityDate": "2023.02.01",
    "name": "K2023/05",
    "bidEhmYield": "4,92",
    "askYield": "",
    "currency": "HUF",
    "maturityInDays_val": 91,
    "issueDate": "2022-02-01",
    "longName": "K230201"
}