{
    "askPrice": "",
    "green": 0,
    "coupon": "3,00 %",
    "accruedInterest": "2,4411",
    "settleDate": "2022.11.25",
    "askEhmYield": "",
    "bidYield": "5,70",
    "rawName": "K2023/05",
    "bidPrice": "99,5000",
    "coupon_val": 3,
    "maturityInDays": "68 nap",
    "securityType": "1MÁP",
    "maturityDate": "2023.02.01",
    "name": "K2023/05",
    "bidEhmYield": "5,58",
    "askYield": "",
    "currency": "HUF",
    "maturityInDays_val": 68,
    "issueDate": "2022.02.01",
    "longName": "K230201"
}