{
    "askPrice": "",
    "green": 0,
    "coupon": "9,00 %",
    "accruedInterest": "1,0849",
    "settleDate": "2023.08.17",
    "askEhmYield": "",
    "bidYield": "10,16",
    "rawName": "K2024/27",
    "bidPrice": "99,0000",
    "coupon_val": 9,
    "maturityInDays": "322 nap",
    "securityType": "1MÁP",
    "maturityDate": "2024.07.04",
    "name": "K2024/27",
    "bidEhmYield": "10,10",
    "askYield": "",
    "currency": "HUF",
    "maturityInDays_val": 322,
    "issueDate": "2023.07.04",
    "longName": "K240704"
}