{
    "askPrice": "",
    "green": 0,
    "coupon": "9,00 %",
    "accruedInterest": "3,9699",
    "settleDate": "2023.12.12",
    "askEhmYield": "",
    "bidYield": "10,66",
    "rawName": "K2024/27",
    "bidPrice": "99,0000",
    "coupon_val": 9,
    "maturityInDays": "205 nap",
    "securityType": "1MÁP",
    "maturityDate": "2024.07.04",
    "name": "K2024/27",
    "bidEhmYield": "10,43",
    "askYield": "",
    "currency": "HUF",
    "maturityInDays_val": 205,
    "issueDate": "2023.07.04",
    "longName": "K240704"
}