{
    "askPrice": "",
    "green": 0,
    "coupon": "9,00 %",
    "accruedInterest": "7,7425",
    "settleDate": "2024.05.14",
    "askEhmYield": "",
    "bidYield": "16,16",
    "rawName": "K2024/27",
    "bidPrice": "99,0000",
    "coupon_val": 9,
    "maturityInDays": "51 nap",
    "securityType": "1MÁP",
    "maturityDate": "2024.07.04",
    "name": "K2024/27",
    "bidEhmYield": "14,97",
    "askYield": "",
    "currency": "HUF",
    "maturityInDays_val": 51,
    "issueDate": "2023.07.04",
    "longName": "K240704"
}