{
    "askPrice": "",
    "green": 0,
    "coupon": "9,00 %",
    "accruedInterest": "5,8932",
    "settleDate": "2024.02.28",
    "askEhmYield": "",
    "bidYield": "11,67",
    "rawName": "K2024/27",
    "bidPrice": "99,0000",
    "coupon_val": 9,
    "maturityInDays": "127 nap",
    "securityType": "1MÁP",
    "maturityDate": "2024.07.04",
    "name": "K2024/27",
    "bidEhmYield": "11,25",
    "askYield": "",
    "currency": "HUF",
    "maturityInDays_val": 127,
    "issueDate": "2023.07.04",
    "longName": "K240704"
}