{
    "askPrice": "",
    "green": 0,
    "coupon": "9,00 %",
    "accruedInterest": "6,4110",
    "settleDate": "2024.03.20",
    "askEhmYield": "",
    "bidYield": "12,22",
    "rawName": "K2024/27",
    "bidPrice": "99,0000",
    "coupon_val": 9,
    "maturityInDays": "106 nap",
    "securityType": "1MÁP",
    "maturityDate": "2024.07.04",
    "name": "K2024/27",
    "bidEhmYield": "11,72",
    "askYield": "",
    "currency": "HUF",
    "maturityInDays_val": 106,
    "issueDate": "2023.07.04",
    "longName": "K240704"
}