{
    "askPrice": "",
    "green": 0,
    "coupon": "9,00 %",
    "accruedInterest": "6,0164",
    "settleDate": "2024.03.04",
    "askEhmYield": "",
    "bidYield": "11,78",
    "rawName": "K2024/27",
    "bidPrice": "99,0000",
    "coupon_val": 9,
    "maturityInDays": "122 nap",
    "securityType": "1MÁP",
    "maturityDate": "2024.07.04",
    "name": "K2024/27",
    "bidEhmYield": "11,35",
    "askYield": "",
    "currency": "HUF",
    "maturityInDays_val": 122,
    "issueDate": "2023.07.04",
    "longName": "K240704"
}