{
    "askPrice": "",
    "green": 0,
    "coupon": "9,00 %",
    "accruedInterest": "5,0795",
    "settleDate": "2024.01.26",
    "askEhmYield": "",
    "bidYield": "11,11",
    "rawName": "K2024/27",
    "bidPrice": "99,0000",
    "coupon_val": 9,
    "maturityInDays": "160 nap",
    "securityType": "1MÁP",
    "maturityDate": "2024.07.04",
    "name": "K2024/27",
    "bidEhmYield": "10,79",
    "askYield": "",
    "currency": "HUF",
    "maturityInDays_val": 160,
    "issueDate": "2023.07.04",
    "longName": "K240704"
}