{
    "askPrice": "",
    "green": 0,
    "coupon": "9,00 %",
    "accruedInterest": "7,2986",
    "settleDate": "2024.04.26",
    "askEhmYield": "",
    "bidYield": "14,20",
    "rawName": "K2024/27",
    "bidPrice": "99,0000",
    "coupon_val": 9,
    "maturityInDays": "69 nap",
    "securityType": "1MÁP",
    "maturityDate": "2024.07.04",
    "name": "K2024/27",
    "bidEhmYield": "13,32",
    "askYield": "",
    "currency": "HUF",
    "maturityInDays_val": 69,
    "issueDate": "2023.07.04",
    "longName": "K240704"
}