{
    "askPrice": "100,00",
    "green": 0,
    "coupon": null,
    "accruedInterest": "3,71",
    "settleDate": "2022.07.18",
    "askEhmYield": "",
    "bidYield": "",
    "rawName": "2036/S_BABA",
    "bidPrice": "100,00",
    "maturityInDays": "4946 nap",
    "securityType": "BABA",
    "maturityDate": "2036.02.01",
    "name": "2036/S_BABA",
    "bidEhmYield": "",
    "askYield": "",
    "currency": "HUF",
    "maturityInDays_val": 4946,
    "longName": "A360201S17"
}