{
    "askPrice": "100,0000",
    "green": 0,
    "coupon": null,
    "accruedInterest": "14,0000",
    "settleDate": "2023.11.20",
    "askEhmYield": "",
    "bidYield": "",
    "rawName": "2036/S_BABA",
    "bidPrice": "100,0000",
    "maturityInDays": "4456 nap",
    "securityType": "BABA",
    "maturityDate": "2036.02.01",
    "name": "2036/S_BABA",
    "bidEhmYield": "",
    "askYield": "",
    "currency": "HUF",
    "maturityInDays_val": 4456,
    "issueDate": "2017.02.01",
    "longName": "A360201S17"
}