{
    "askPrice": "",
    "green": 0,
    "coupon": "3,50 %",
    "accruedInterest": "1,70",
    "settleDate": "2022.10.20",
    "askEhmYield": "",
    "bidYield": "5,20",
    "rawName": "N2027/17",
    "bidPrice": "99,50",
    "coupon_val": 3.5,
    "maturityInDays": "1648 nap",
    "securityType": "MÁP Plusz",
    "maturityDate": "2027.04.25",
    "name": "N2027/17",
    "bidEhmYield": "",
    "askYield": "",
    "currency": "HUF",
    "maturityInDays_val": 1648,
    "longName": "N270425"
}