{
    "askPrice": "",
    "green": 0,
    "coupon": "3,50 %",
    "accruedInterest": "0,23",
    "settleDate": "2022.11.15",
    "askEhmYield": "",
    "bidYield": "5,22",
    "rawName": "N2027/17",
    "bidPrice": "99,50",
    "coupon_val": 3.5,
    "maturityInDays": "1622 nap",
    "securityType": "MÁP Plusz",
    "maturityDate": "2027.04.25",
    "name": "N2027/17",
    "bidEhmYield": "",
    "askYield": "",
    "currency": "HUF",
    "maturityInDays_val": 1622,
    "issueDate": "2022-04-25",
    "longName": "N270425"
}