{
    "askPrice": "",
    "green": 0,
    "coupon": "3,50 %",
    "accruedInterest": "0,88",
    "settleDate": "2022.07.26",
    "askEhmYield": "",
    "bidYield": "",
    "rawName": "N2027/17",
    "bidPrice": "99,50",
    "coupon_val": 3.5,
    "maturityInDays": "1734 nap",
    "securityType": "MÁP Plusz",
    "maturityDate": "2027.04.25",
    "name": "N2027/17",
    "bidEhmYield": "",
    "askYield": "",
    "currency": "HUF",
    "maturityInDays_val": 1734,
    "longName": "N270425"
}