{
    "askPrice": "",
    "green": 0,
    "coupon": "3,50 %",
    "accruedInterest": "0,9560",
    "settleDate": "2023.01.20",
    "askEhmYield": "",
    "bidYield": "5,27",
    "rawName": "N2027/17",
    "bidPrice": "99,5000",
    "coupon_val": 3.5,
    "maturityInDays": "1556 nap",
    "securityType": "MÁP Plusz",
    "maturityDate": "2027.04.25",
    "name": "N2027/17",
    "bidEhmYield": "",
    "askYield": "",
    "currency": "HUF",
    "maturityInDays_val": 1556,
    "issueDate": "2022.04.25",
    "longName": "N270425"
}