{
    "askPrice": "",
    "green": 0,
    "coupon": "3,50 %",
    "accruedInterest": "4,0820",
    "settleDate": "2024.03.22",
    "askEhmYield": "",
    "bidYield": "5,63",
    "rawName": "N2027/17",
    "bidPrice": "99,5000",
    "coupon_val": 3.5,
    "maturityInDays": "1129 nap",
    "securityType": "MÁP Plusz",
    "maturityDate": "2027.04.25",
    "name": "N2027/17",
    "bidEhmYield": "",
    "askYield": "",
    "currency": "HUF",
    "maturityInDays_val": 1129,
    "issueDate": "2022.04.25",
    "longName": "N270425"
}