{
    "askPrice": "",
    "green": 0,
    "coupon": "3,50 %",
    "accruedInterest": "4,2910",
    "settleDate": "2024.04.08",
    "askEhmYield": "",
    "bidYield": "5,65",
    "rawName": "N2027/17",
    "bidPrice": "99,5000",
    "coupon_val": 3.5,
    "maturityInDays": "1112 nap",
    "securityType": "MÁP Plusz",
    "maturityDate": "2027.04.25",
    "name": "N2027/17",
    "bidEhmYield": "",
    "askYield": "",
    "currency": "HUF",
    "maturityInDays_val": 1112,
    "issueDate": "2022.04.25",
    "longName": "N270425"
}