{
    "askPrice": "",
    "green": 0,
    "coupon": "3,50 %",
    "accruedInterest": "2,38",
    "settleDate": "2022.11.15",
    "askEhmYield": "",
    "bidYield": "5,78",
    "rawName": "N2025/21",
    "bidPrice": "99,50",
    "coupon_val": 3.5,
    "maturityInDays": "922 nap",
    "securityType": "MÁP Plusz",
    "maturityDate": "2025.05.25",
    "name": "N2025/21",
    "bidEhmYield": "",
    "askYield": "",
    "currency": "HUF",
    "maturityInDays_val": 922,
    "issueDate": "2020-05-25",
    "longName": "N250525"
}