{
    "askPrice": "",
    "green": 0,
    "coupon": "3,50 %",
    "accruedInterest": "2,11",
    "settleDate": "2022.10.26",
    "askEhmYield": "",
    "bidYield": "5,77",
    "rawName": "N2025/21",
    "bidPrice": "99,50",
    "coupon_val": 3.5,
    "maturityInDays": "942 nap",
    "securityType": "MÁP Plusz",
    "maturityDate": "2025.05.25",
    "name": "N2025/21",
    "bidEhmYield": "",
    "askYield": "",
    "currency": "HUF",
    "maturityInDays_val": 942,
    "longName": "N250525"
}