{
    "askPrice": "",
    "green": 0,
    "coupon": "3,50 %",
    "accruedInterest": "1,66",
    "settleDate": "2022.09.23",
    "askEhmYield": "",
    "bidYield": "",
    "rawName": "N2025/21",
    "bidPrice": "99,50",
    "coupon_val": 3.5,
    "maturityInDays": "975 nap",
    "securityType": "MÁP Plusz",
    "maturityDate": "2025.05.25",
    "name": "N2025/21",
    "bidEhmYield": "",
    "askYield": "",
    "currency": "HUF",
    "maturityInDays_val": 975,
    "longName": "N250525"
}