{
    "askPrice": "",
    "green": 0,
    "coupon": "3,50 %",
    "accruedInterest": "3,0055",
    "settleDate": "2023.12.11",
    "askEhmYield": "",
    "bidYield": "6,18",
    "rawName": "N2025/21",
    "bidPrice": "99,5000",
    "coupon_val": 3.5,
    "maturityInDays": "531 nap",
    "securityType": "MÁP Plusz",
    "maturityDate": "2025.05.25",
    "name": "N2025/21",
    "bidEhmYield": "",
    "askYield": "",
    "currency": "HUF",
    "maturityInDays_val": 531,
    "issueDate": "2020.05.25",
    "longName": "N250525"
}