{
    "askPrice": "",
    "green": 0,
    "coupon": "3,50 %",
    "accruedInterest": "3,2877",
    "settleDate": "2023.01.20",
    "askEhmYield": "",
    "bidYield": "5,85",
    "rawName": "N2025/21",
    "bidPrice": "99,5000",
    "coupon_val": 3.5,
    "maturityInDays": "856 nap",
    "securityType": "MÁP Plusz",
    "maturityDate": "2025.05.25",
    "name": "N2025/21",
    "bidEhmYield": "",
    "askYield": "",
    "currency": "HUF",
    "maturityInDays_val": 856,
    "issueDate": "2020.05.25",
    "longName": "N250525"
}