{
    "askPrice": "",
    "green": 0,
    "coupon": "3,50 %",
    "accruedInterest": "3,9071",
    "settleDate": "2024.02.09",
    "askEhmYield": "",
    "bidYield": "6,27",
    "rawName": "N2025/21",
    "bidPrice": "99,5000",
    "coupon_val": 3.5,
    "maturityInDays": "471 nap",
    "securityType": "MÁP Plusz",
    "maturityDate": "2025.05.25",
    "name": "N2025/21",
    "bidEhmYield": "",
    "askYield": "",
    "currency": "HUF",
    "maturityInDays_val": 471,
    "issueDate": "2020.05.25",
    "longName": "N250525"
}