{
    "askPrice": "",
    "green": 0,
    "coupon": "3,50 %",
    "accruedInterest": "0,43",
    "settleDate": "2022.06.21",
    "askEhmYield": "",
    "bidYield": "",
    "rawName": "N2026/20",
    "bidPrice": "99,50",
    "coupon_val": 3.5,
    "maturityInDays": "1426 nap",
    "securityType": "MÁP Plusz",
    "maturityDate": "2026.05.17",
    "name": "N2026/20",
    "bidEhmYield": "",
    "askYield": "",
    "currency": "HUF",
    "maturityInDays_val": 1426,
    "longName": "N260517"
}