{
    "askPrice": "",
    "green": 0,
    "coupon": "3,50 %",
    "accruedInterest": "2,10",
    "settleDate": "2022.11.03",
    "askEhmYield": "",
    "bidYield": "5,47",
    "rawName": "N2026/20",
    "bidPrice": "99,50",
    "coupon_val": 3.5,
    "maturityInDays": "1291 nap",
    "securityType": "MÁP Plusz",
    "maturityDate": "2026.05.17",
    "name": "N2026/20",
    "bidEhmYield": "",
    "askYield": "",
    "currency": "HUF",
    "maturityInDays_val": 1291,
    "issueDate": "2021-05-17",
    "longName": "N260517"
}