{
    "askPrice": "",
    "green": 0,
    "coupon": "3,50 %",
    "accruedInterest": "1,58",
    "settleDate": "2022.09.22",
    "askEhmYield": "",
    "bidYield": "",
    "rawName": "N2026/20",
    "bidPrice": "99,50",
    "coupon_val": 3.5,
    "maturityInDays": "1333 nap",
    "securityType": "MÁP Plusz",
    "maturityDate": "2026.05.17",
    "name": "N2026/20",
    "bidEhmYield": "",
    "askYield": "",
    "currency": "HUF",
    "maturityInDays_val": 1333,
    "longName": "N260517"
}