{
    "askPrice": "",
    "green": 0,
    "coupon": "3,50 %",
    "accruedInterest": "0,8880",
    "settleDate": "2023.07.21",
    "askEhmYield": "",
    "bidYield": "5,70",
    "rawName": "N2026/20",
    "bidPrice": "99,5000",
    "coupon_val": 3.5,
    "maturityInDays": "1031 nap",
    "securityType": "MÁP Plusz",
    "maturityDate": "2026.05.17",
    "name": "N2026/20",
    "bidEhmYield": "",
    "askYield": "",
    "currency": "HUF",
    "maturityInDays_val": 1031,
    "issueDate": "2021.05.17",
    "longName": "N260517"
}