{
    "askPrice": "",
    "green": 0,
    "coupon": "3,50 %",
    "accruedInterest": "0,9563",
    "settleDate": "2023.07.26",
    "askEhmYield": "",
    "bidYield": "5,71",
    "rawName": "N2026/20",
    "bidPrice": "99,5000",
    "coupon_val": 3.5,
    "maturityInDays": "1026 nap",
    "securityType": "MÁP Plusz",
    "maturityDate": "2026.05.17",
    "name": "N2026/20",
    "bidEhmYield": "",
    "askYield": "",
    "currency": "HUF",
    "maturityInDays_val": 1026,
    "issueDate": "2021.05.17",
    "longName": "N260517"
}