{
    "askPrice": "",
    "green": 0,
    "coupon": "3,50 %",
    "accruedInterest": "4,7541",
    "settleDate": "2024.04.29",
    "askEhmYield": "",
    "bidYield": "5,99",
    "rawName": "N2026/20",
    "bidPrice": "99,5000",
    "coupon_val": 3.5,
    "maturityInDays": "748 nap",
    "securityType": "MÁP Plusz",
    "maturityDate": "2026.05.17",
    "name": "N2026/20",
    "bidEhmYield": "",
    "askYield": "",
    "currency": "HUF",
    "maturityInDays_val": 748,
    "issueDate": "2021.05.17",
    "longName": "N260517"
}