{
    "askPrice": "",
    "green": 0,
    "coupon": "3,50 %",
    "accruedInterest": "3,8934",
    "settleDate": "2024.02.26",
    "askEhmYield": "",
    "bidYield": "5,90",
    "rawName": "N2026/20",
    "bidPrice": "99,5000",
    "coupon_val": 3.5,
    "maturityInDays": "811 nap",
    "securityType": "MÁP Plusz",
    "maturityDate": "2026.05.17",
    "name": "N2026/20",
    "bidEhmYield": "",
    "askYield": "",
    "currency": "HUF",
    "maturityInDays_val": 811,
    "issueDate": "2021.05.17",
    "longName": "N260517"
}