{
    "askPrice": "",
    "green": 0,
    "coupon": "3,00 %",
    "accruedInterest": "1,44",
    "settleDate": "2022.07.12",
    "askEhmYield": "",
    "bidYield": "",
    "rawName": "K2023/03",
    "bidPrice": "99,50",
    "coupon_val": 3,
    "maturityInDays": "190 nap",
    "securityType": "1MÁP",
    "maturityDate": "2023.01.18",
    "name": "K2023/03",
    "bidEhmYield": "3,92",
    "askYield": "",
    "currency": "HUF",
    "maturityInDays_val": 190,
    "longName": "K230118"
}