{
    "askPrice": "",
    "green": 0,
    "coupon": "3,00 %",
    "accruedInterest": "2,5808",
    "settleDate": "2022.11.28",
    "askEhmYield": "",
    "bidYield": "6,63",
    "rawName": "K2023/03",
    "bidPrice": "99,5000",
    "coupon_val": 3,
    "maturityInDays": "51 nap",
    "securityType": "1MÁP",
    "maturityDate": "2023.01.18",
    "name": "K2023/03",
    "bidEhmYield": "6,44",
    "askYield": "",
    "currency": "HUF",
    "maturityInDays_val": 51,
    "issueDate": "2022.01.18",
    "longName": "K230118"
}