{
    "askPrice": "",
    "green": 0,
    "coupon": "3,50 %",
    "accruedInterest": "1,6549",
    "settleDate": "2023.11.20",
    "askEhmYield": "",
    "bidYield": "5,20",
    "rawName": "N2028/22",
    "bidPrice": "99,5000",
    "coupon_val": 3.5,
    "maturityInDays": "1653 nap",
    "securityType": "MÁP Plusz",
    "maturityDate": "2028.05.30",
    "name": "N2028/22",
    "bidEhmYield": "",
    "askYield": "",
    "currency": "HUF",
    "maturityInDays_val": 1653,
    "issueDate": "2023.05.30",
    "longName": "N280530"
}