{
    "askPrice": "",
    "green": 0,
    "coupon": "3,50 %",
    "accruedInterest": "1,1603",
    "settleDate": "2023.09.29",
    "askEhmYield": "",
    "bidYield": "5,14",
    "rawName": "N2028/22",
    "bidPrice": "99,5000",
    "coupon_val": 3.5,
    "maturityInDays": "1705 nap",
    "securityType": "MÁP Plusz",
    "maturityDate": "2028.05.30",
    "name": "N2028/22",
    "bidEhmYield": "",
    "askYield": "",
    "currency": "HUF",
    "maturityInDays_val": 1705,
    "issueDate": "2023.05.30",
    "longName": "N280530"
}