{
    "askPrice": "",
    "green": 0,
    "coupon": null,
    "accruedInterest": "2,16",
    "settleDate": "2022.06.28",
    "askEhmYield": "",
    "bidYield": "",
    "rawName": "2025/X_EUR",
    "bidPrice": "99,00",
    "maturityInDays": "1150 nap",
    "securityType": "PEMÁP",
    "maturityDate": "2025.08.21",
    "name": "2025/X_EUR",
    "bidEhmYield": "",
    "askYield": "",
    "currency": "EUR",
    "maturityInDays_val": 1150,
    "longName": "C250821X20"
}