{
    "askPrice": "",
    "green": 0,
    "coupon": null,
    "accruedInterest": "2,18",
    "settleDate": "2022.11.14",
    "askEhmYield": "",
    "bidYield": "",
    "rawName": "2025/X_EUR",
    "bidPrice": "99,00",
    "maturityInDays": "1011 nap",
    "securityType": "PEMÁP",
    "maturityDate": "2025.08.21",
    "name": "2025/X_EUR",
    "bidEhmYield": "",
    "askYield": "",
    "currency": "EUR",
    "maturityInDays_val": 1011,
    "issueDate": "2020-06-05",
    "longName": "C250821X20"
}