{
    "askPrice": "",
    "green": 0,
    "coupon": "3,50 %",
    "accruedInterest": "0,61",
    "settleDate": "2022.08.30",
    "askEhmYield": "",
    "bidYield": "",
    "rawName": "N2027/26",
    "bidPrice": "99,50",
    "coupon_val": 3.5,
    "maturityInDays": "1762 nap",
    "securityType": "MÁP Plusz",
    "maturityDate": "2027.06.27",
    "name": "N2027/26",
    "bidEhmYield": "",
    "askYield": "",
    "currency": "HUF",
    "maturityInDays_val": 1762,
    "longName": "N270627"
}