{
    "askPrice": "",
    "green": 0,
    "coupon": "3,50 %",
    "accruedInterest": "1,4057",
    "settleDate": "2022.11.21",
    "askEhmYield": "",
    "bidYield": "5,16",
    "rawName": "N2027/26",
    "bidPrice": "99,5000",
    "coupon_val": 3.5,
    "maturityInDays": "1679 nap",
    "securityType": "MÁP Plusz",
    "maturityDate": "2027.06.27",
    "name": "N2027/26",
    "bidEhmYield": "",
    "askYield": "",
    "currency": "HUF",
    "maturityInDays_val": 1679,
    "issueDate": "2022.06.27",
    "longName": "N270627"
}