{
    "askPrice": "",
    "green": 0,
    "coupon": "3,50 %",
    "accruedInterest": "1,27",
    "settleDate": "2022.11.07",
    "askEhmYield": "",
    "bidYield": "5,15",
    "rawName": "N2027/26",
    "bidPrice": "99,50",
    "coupon_val": 3.5,
    "maturityInDays": "1693 nap",
    "securityType": "MÁP Plusz",
    "maturityDate": "2027.06.27",
    "name": "N2027/26",
    "bidEhmYield": "",
    "askYield": "",
    "currency": "HUF",
    "maturityInDays_val": 1693,
    "issueDate": "2022-06-27",
    "longName": "N270627"
}