{
    "askPrice": "",
    "green": 0,
    "coupon": "3,50 %",
    "accruedInterest": "0,3736",
    "settleDate": "2023.01.30",
    "askEhmYield": "",
    "bidYield": "5,23",
    "rawName": "N2027/26",
    "bidPrice": "99,5000",
    "coupon_val": 3.5,
    "maturityInDays": "1609 nap",
    "securityType": "MÁP Plusz",
    "maturityDate": "2027.06.27",
    "name": "N2027/26",
    "bidEhmYield": "",
    "askYield": "",
    "currency": "HUF",
    "maturityInDays_val": 1609,
    "issueDate": "2022.06.27",
    "longName": "N270627"
}