{
    "askPrice": "",
    "green": 0,
    "coupon": "3,50 %",
    "accruedInterest": "3,0984",
    "settleDate": "2024.03.05",
    "askEhmYield": "",
    "bidYield": "5,54",
    "rawName": "N2027/26",
    "bidPrice": "99,5000",
    "coupon_val": 3.5,
    "maturityInDays": "1209 nap",
    "securityType": "MÁP Plusz",
    "maturityDate": "2027.06.27",
    "name": "N2027/26",
    "bidEhmYield": "",
    "askYield": "",
    "currency": "HUF",
    "maturityInDays_val": 1209,
    "issueDate": "2022.06.27",
    "longName": "N270627"
}