{
    "askPrice": "",
    "green": 0,
    "coupon": "2,50 %",
    "accruedInterest": "2,40",
    "settleDate": "2022.06.29",
    "askEhmYield": "",
    "bidYield": "",
    "rawName": "K2022/28",
    "bidPrice": "99,80",
    "coupon_val": 2.5,
    "maturityInDays": "14 nap",
    "securityType": "1MÁP",
    "maturityDate": "2022.07.13",
    "name": "K2022/28",
    "bidEhmYield": "7,55",
    "askYield": "",
    "currency": "HUF",
    "maturityInDays_val": 14,
    "longName": "K220713"
}