{
    "askPrice": "",
    "green": 0,
    "coupon": "2,50 %",
    "accruedInterest": "2,44",
    "settleDate": "2022.07.04",
    "askEhmYield": "",
    "bidYield": "",
    "rawName": "K2022/28",
    "bidPrice": "99,90",
    "coupon_val": 2.5,
    "maturityInDays": "9 nap",
    "securityType": "1MÁP",
    "maturityDate": "2022.07.13",
    "name": "K2022/28",
    "bidEhmYield": "6,40",
    "askYield": "",
    "currency": "HUF",
    "maturityInDays_val": 9,
    "longName": "K220713"
}