{
    "askPrice": "100,00",
    "green": 0,
    "coupon": null,
    "accruedInterest": "5,35",
    "settleDate": "2022.09.30",
    "askEhmYield": "",
    "bidYield": "",
    "rawName": "2039/S_BABA",
    "bidPrice": "100,00",
    "maturityInDays": "5968 nap",
    "securityType": "BABA",
    "maturityDate": "2039.02.01",
    "name": "2039/S_BABA",
    "bidEhmYield": "",
    "askYield": "",
    "currency": "HUF",
    "maturityInDays_val": 5968,
    "longName": "A390201S20"
}