{
    "askPrice": "100,0000",
    "green": 0,
    "coupon": null,
    "accruedInterest": "6,9016",
    "settleDate": "2022.12.09",
    "askEhmYield": "",
    "bidYield": "",
    "rawName": "2039/S_BABA",
    "bidPrice": "100,0000",
    "maturityInDays": "5898 nap",
    "securityType": "BABA",
    "maturityDate": "2039.02.01",
    "name": "2039/S_BABA",
    "bidEhmYield": "",
    "askYield": "",
    "currency": "HUF",
    "maturityInDays_val": 5898,
    "issueDate": "2020.02.03",
    "longName": "A390201S20"
}