{
    "askPrice": "100,00",
    "green": 0,
    "coupon": null,
    "accruedInterest": "4,64",
    "settleDate": "2022.08.29",
    "askEhmYield": "",
    "bidYield": "",
    "rawName": "2039/S_BABA",
    "bidPrice": "100,00",
    "maturityInDays": "6000 nap",
    "securityType": "BABA",
    "maturityDate": "2039.02.01",
    "name": "2039/S_BABA",
    "bidEhmYield": "",
    "askYield": "",
    "currency": "HUF",
    "maturityInDays_val": 6000,
    "longName": "A390201S20"
}