{
    "askPrice": "100,0000",
    "green": 0,
    "coupon": null,
    "accruedInterest": "0,2251",
    "settleDate": "2024.02.05",
    "askEhmYield": "",
    "bidYield": "",
    "rawName": "2039/S_BABA",
    "bidPrice": "100,0000",
    "maturityInDays": "5475 nap",
    "securityType": "BABA",
    "maturityDate": "2039.02.01",
    "name": "2039/S_BABA",
    "bidEhmYield": "",
    "askYield": "",
    "currency": "HUF",
    "maturityInDays_val": 5475,
    "issueDate": "2020.02.03",
    "longName": "A390201S20"
}