{
    "askPrice": "100,00",
    "green": 0,
    "coupon": null,
    "accruedInterest": "0,16",
    "settleDate": "2022.10.24",
    "askEhmYield": "",
    "bidYield": "",
    "rawName": "2029/J",
    "bidPrice": "99,00",
    "maturityInDays": "2340 nap",
    "securityType": "PMÁP",
    "maturityDate": "2029.03.21",
    "name": "2029/J",
    "bidEhmYield": "",
    "askYield": "",
    "currency": "HUF",
    "maturityInDays_val": 2340,
    "longName": "A290321J22"
}