{
    "askPrice": "100,0000",
    "green": 0,
    "coupon": null,
    "accruedInterest": "2,2200",
    "settleDate": "2022.12.27",
    "askEhmYield": "",
    "bidYield": "",
    "rawName": "2029/J",
    "bidPrice": "99,0000",
    "maturityInDays": "2276 nap",
    "securityType": "PMÁP",
    "maturityDate": "2029.03.21",
    "name": "2029/J",
    "bidEhmYield": "",
    "askYield": "",
    "currency": "HUF",
    "maturityInDays_val": 2276,
    "issueDate": "2022.10.19",
    "longName": "A290321J22"
}