{
    "askPrice": "",
    "green": 0,
    "coupon": null,
    "accruedInterest": "3,6055",
    "settleDate": "2023.02.08",
    "askEhmYield": "",
    "bidYield": "",
    "rawName": "2029/J",
    "bidPrice": "99,0000",
    "maturityInDays": "2233 nap",
    "securityType": "PMÁP",
    "maturityDate": "2029.03.21",
    "name": "2029/J",
    "bidEhmYield": "",
    "askYield": "",
    "currency": "HUF",
    "maturityInDays_val": 2233,
    "issueDate": "2022.10.19",
    "longName": "A290321J22"
}