{
    "askPrice": "",
    "green": 0,
    "coupon": null,
    "accruedInterest": "10,8415",
    "settleDate": "2023.11.24",
    "askEhmYield": "",
    "bidYield": "",
    "rawName": "2029/J",
    "bidPrice": "99,0000",
    "maturityInDays": "1944 nap",
    "securityType": "PMÁP",
    "maturityDate": "2029.03.21",
    "name": "2029/J",
    "bidEhmYield": "",
    "askYield": "",
    "currency": "HUF",
    "maturityInDays_val": 1944,
    "issueDate": "2022.10.19",
    "longName": "A290321J22"
}