{
    "askPrice": "",
    "green": 0,
    "coupon": "6,50 %",
    "accruedInterest": "1,6205",
    "settleDate": "2024.05.08",
    "askEhmYield": "",
    "bidYield": "7,86",
    "rawName": "K2025/06",
    "bidPrice": "99,0000",
    "coupon_val": 6.5,
    "maturityInDays": "274 nap",
    "securityType": "1MÁP",
    "maturityDate": "2025.02.06",
    "name": "K2025/06",
    "bidEhmYield": "7,76",
    "askYield": "",
    "currency": "HUF",
    "maturityInDays_val": 274,
    "issueDate": "2024.02.06",
    "longName": "K250206"
}