{
    "askPrice": "",
    "green": 0,
    "coupon": "6,50 %",
    "accruedInterest": "0,8370",
    "settleDate": "2024.03.25",
    "askEhmYield": "",
    "bidYield": "7,70",
    "rawName": "K2025/06",
    "bidPrice": "99,0000",
    "coupon_val": 6.5,
    "maturityInDays": "318 nap",
    "securityType": "1MÁP",
    "maturityDate": "2025.02.06",
    "name": "K2025/06",
    "bidEhmYield": "7,64",
    "askYield": "",
    "currency": "HUF",
    "maturityInDays_val": 318,
    "issueDate": "2024.02.06",
    "longName": "K250206"
}