{
    "askPrice": "",
    "green": 0,
    "coupon": "6,50 %",
    "accruedInterest": "1,4781",
    "settleDate": "2024.04.30",
    "askEhmYield": "",
    "bidYield": "7,82",
    "rawName": "K2025/06",
    "bidPrice": "99,0000",
    "coupon_val": 6.5,
    "maturityInDays": "282 nap",
    "securityType": "1MÁP",
    "maturityDate": "2025.02.06",
    "name": "K2025/06",
    "bidEhmYield": "7,73",
    "askYield": "",
    "currency": "HUF",
    "maturityInDays_val": 282,
    "issueDate": "2024.02.06",
    "longName": "K250206"
}