{
    "askPrice": "",
    "green": 0,
    "coupon": "6,50 %",
    "accruedInterest": "0,7479",
    "settleDate": "2024.03.19",
    "askEhmYield": "",
    "bidYield": "7,66",
    "rawName": "K2025/06",
    "bidPrice": "99,0000",
    "coupon_val": 6.5,
    "maturityInDays": "324 nap",
    "securityType": "1MÁP",
    "maturityDate": "2025.02.06",
    "name": "K2025/06",
    "bidEhmYield": "7,63",
    "askYield": "",
    "currency": "HUF",
    "maturityInDays_val": 324,
    "issueDate": "2024.02.06",
    "longName": "K250206"
}