{
    "askPrice": "",
    "green": 0,
    "coupon": "6,50 %",
    "accruedInterest": "0,3740",
    "settleDate": "2024.02.27",
    "askEhmYield": "",
    "bidYield": "7,60",
    "rawName": "K2025/06",
    "bidPrice": "99,0000",
    "coupon_val": 6.5,
    "maturityInDays": "345 nap",
    "securityType": "1MÁP",
    "maturityDate": "2025.02.06",
    "name": "K2025/06",
    "bidEhmYield": "7,59",
    "askYield": "",
    "currency": "HUF",
    "maturityInDays_val": 345,
    "issueDate": "2024.02.06",
    "longName": "K250206"
}