{
    "askPrice": "",
    "green": 0,
    "coupon": "3,50 %",
    "accruedInterest": "2,0712",
    "settleDate": "2022.12.27",
    "askEhmYield": "",
    "bidYield": "5,47",
    "rawName": "N2026/28",
    "bidPrice": "99,5000",
    "coupon_val": 3.5,
    "maturityInDays": "1293 nap",
    "securityType": "MÁP Plusz",
    "maturityDate": "2026.07.12",
    "name": "N2026/28",
    "bidEhmYield": "",
    "askYield": "",
    "currency": "HUF",
    "maturityInDays_val": 1293,
    "issueDate": "2021.07.12",
    "longName": "N260712"
}