{
    "askPrice": "",
    "green": 0,
    "coupon": "3,50 %",
    "accruedInterest": "1,55",
    "settleDate": "2022.11.15",
    "askEhmYield": "",
    "bidYield": "5,44",
    "rawName": "N2026/28",
    "bidPrice": "99,50",
    "coupon_val": 3.5,
    "maturityInDays": "1335 nap",
    "securityType": "MÁP Plusz",
    "maturityDate": "2026.07.12",
    "name": "N2026/28",
    "bidEhmYield": "",
    "askYield": "",
    "currency": "HUF",
    "maturityInDays_val": 1335,
    "issueDate": "2021-07-12",
    "longName": "N260712"
}