{
    "askPrice": "",
    "green": 0,
    "coupon": "3,50 %",
    "accruedInterest": "0,04",
    "settleDate": "2022.07.15",
    "askEhmYield": "",
    "bidYield": "",
    "rawName": "N2026/28",
    "bidPrice": "100,00",
    "coupon_val": 3.5,
    "maturityInDays": "1458 nap",
    "securityType": "MÁP Plusz",
    "maturityDate": "2026.07.12",
    "name": "N2026/28",
    "bidEhmYield": "",
    "askYield": "",
    "currency": "HUF",
    "maturityInDays_val": 1458,
    "longName": "N260712"
}