{
    "askPrice": "",
    "green": 0,
    "coupon": "3,50 %",
    "accruedInterest": "3,3658",
    "settleDate": "2023.04.11",
    "askEhmYield": "",
    "bidYield": "5,56",
    "rawName": "N2026/28",
    "bidPrice": "99,5000",
    "coupon_val": 3.5,
    "maturityInDays": "1188 nap",
    "securityType": "MÁP Plusz",
    "maturityDate": "2026.07.12",
    "name": "N2026/28",
    "bidEhmYield": "",
    "askYield": "",
    "currency": "HUF",
    "maturityInDays_val": 1188,
    "issueDate": "2021.07.12",
    "longName": "N260712"
}