{
    "askPrice": "",
    "green": 0,
    "coupon": "3,50 %",
    "accruedInterest": "3,6370",
    "settleDate": "2023.05.03",
    "askEhmYield": "",
    "bidYield": "5,59",
    "rawName": "N2026/28",
    "bidPrice": "99,5000",
    "coupon_val": 3.5,
    "maturityInDays": "1166 nap",
    "securityType": "MÁP Plusz",
    "maturityDate": "2026.07.12",
    "name": "N2026/28",
    "bidEhmYield": "",
    "askYield": "",
    "currency": "HUF",
    "maturityInDays_val": 1166,
    "issueDate": "2021.07.12",
    "longName": "N260712"
}