{
    "askPrice": "",
    "green": 0,
    "coupon": "3,50 %",
    "accruedInterest": "0,2404",
    "settleDate": "2024.02.02",
    "askEhmYield": "",
    "bidYield": "5,04",
    "rawName": "N2029/02",
    "bidPrice": "99,5000",
    "coupon_val": 3.5,
    "maturityInDays": "1802 nap",
    "securityType": "MÁP Plusz",
    "maturityDate": "2029.01.08",
    "name": "N2029/02",
    "bidEhmYield": "",
    "askYield": "",
    "currency": "HUF",
    "maturityInDays_val": 1802,
    "issueDate": "2024.01.08",
    "longName": "N290108"
}