{
    "askPrice": "",
    "green": 0,
    "coupon": "3,50 %",
    "accruedInterest": "1,0096",
    "settleDate": "2024.04.22",
    "askEhmYield": "",
    "bidYield": "5,12",
    "rawName": "N2029/02",
    "bidPrice": "99,5000",
    "coupon_val": 3.5,
    "maturityInDays": "1722 nap",
    "securityType": "MÁP Plusz",
    "maturityDate": "2029.01.08",
    "name": "N2029/02",
    "bidEhmYield": "",
    "askYield": "",
    "currency": "HUF",
    "maturityInDays_val": 1722,
    "issueDate": "2024.01.08",
    "longName": "N290108"
}