{
    "askPrice": "95,7602",
    "green": 0,
    "coupon": 0,
    "accruedInterest": 0,
    "settleDate": "2023.07.19",
    "askEhmYield": "10,04",
    "bidYield": "10,68",
    "rawName": "D231227",
    "bidPrice": "95,4414",
    "maturityInDays": "161 nap",
    "securityType": "DKJ",
    "maturityDate": "2023.12.27",
    "name": "D231227",
    "bidEhmYield": "10,83",
    "askYield": "9,90",
    "currency": "HUF",
    "maturityInDays_val": 161,
    "issueDate": "2022.12.28",
    "longName": "D231227"
}