{
    "askPrice": "93,5983",
    "green": 0,
    "coupon": 0,
    "accruedInterest": 0,
    "settleDate": "2023.06.09",
    "askEhmYield": "12,42",
    "bidYield": "12,97",
    "rawName": "D231227",
    "bidPrice": "93,2474",
    "maturityInDays": "201 nap",
    "securityType": "DKJ",
    "maturityDate": "2023.12.27",
    "name": "D231227",
    "bidEhmYield": "13,15",
    "askYield": "12,25",
    "currency": "HUF",
    "maturityInDays_val": 201,
    "issueDate": "2022.12.28",
    "longName": "D231227"
}