{
    "askPrice": "89,4248",
    "green": 0,
    "coupon": 0,
    "accruedInterest": 0,
    "settleDate": "2023.02.13",
    "askEhmYield": "13,62",
    "bidYield": "14,28",
    "rawName": "D231227",
    "bidPrice": "88,8302",
    "maturityInDays": "317 nap",
    "securityType": "DKJ",
    "maturityDate": "2023.12.27",
    "name": "D231227",
    "bidEhmYield": "14,48",
    "askYield": "13,43",
    "currency": "HUF",
    "maturityInDays_val": 317,
    "issueDate": "2022.12.28",
    "longName": "D231227"
}