{
    "askPrice": "99,1542",
    "green": 0,
    "coupon": 0,
    "accruedInterest": 0,
    "settleDate": "2023.11.16",
    "askEhmYield": "7,59",
    "bidYield": "8,88",
    "rawName": "D231227",
    "bidPrice": "98,9988",
    "maturityInDays": "41 nap",
    "securityType": "DKJ",
    "maturityDate": "2023.12.27",
    "name": "D231227",
    "bidEhmYield": "9,00",
    "askYield": "7,49",
    "currency": "HUF",
    "maturityInDays_val": 41,
    "issueDate": "2022.12.28",
    "longName": "D231227"
}