{
    "askPrice": "90,1427",
    "green": 0,
    "coupon": 0,
    "accruedInterest": 0,
    "settleDate": "2023.03.23",
    "askEhmYield": "14,31",
    "bidYield": "14,95",
    "rawName": "D231227",
    "bidPrice": "89,6168",
    "maturityInDays": "279 nap",
    "securityType": "DKJ",
    "maturityDate": "2023.12.27",
    "name": "D231227",
    "bidEhmYield": "15,16",
    "askYield": "14,11",
    "currency": "HUF",
    "maturityInDays_val": 279,
    "issueDate": "2022.12.28",
    "longName": "D231227"
}