{
    "askPrice": "98,9968",
    "green": 0,
    "coupon": 0,
    "accruedInterest": 0,
    "settleDate": "2023.11.09",
    "askEhmYield": "7,71",
    "bidYield": "8,95",
    "rawName": "D231227",
    "bidPrice": "98,8207",
    "maturityInDays": "48 nap",
    "securityType": "DKJ",
    "maturityDate": "2023.12.27",
    "name": "D231227",
    "bidEhmYield": "9,07",
    "askYield": "7,60",
    "currency": "HUF",
    "maturityInDays_val": 48,
    "issueDate": "2022.12.28",
    "longName": "D231227"
}