{
    "askPrice": "99,0677",
    "green": 0,
    "coupon": 0,
    "accruedInterest": 0,
    "settleDate": "2023.11.13",
    "askEhmYield": "7,81",
    "bidYield": "8,83",
    "rawName": "D231227",
    "bidPrice": "98,9323",
    "maturityInDays": "44 nap",
    "securityType": "DKJ",
    "maturityDate": "2023.12.27",
    "name": "D231227",
    "bidEhmYield": "8,95",
    "askYield": "7,70",
    "currency": "HUF",
    "maturityInDays_val": 44,
    "issueDate": "2022.12.28",
    "longName": "D231227"
}