{
    "askPrice": "95,5640",
    "green": 0,
    "coupon": 0,
    "accruedInterest": 0,
    "settleDate": "2023.07.10",
    "askEhmYield": "9,97",
    "bidYield": "10,55",
    "rawName": "D231227",
    "bidPrice": "95,2545",
    "maturityInDays": "170 nap",
    "securityType": "DKJ",
    "maturityDate": "2023.12.27",
    "name": "D231227",
    "bidEhmYield": "10,70",
    "askYield": "9,83",
    "currency": "HUF",
    "maturityInDays_val": 170,
    "issueDate": "2022.12.28",
    "longName": "D231227"
}