{
    "askPrice": "98,1938",
    "green": 0,
    "coupon": 0,
    "accruedInterest": 0,
    "settleDate": "2023.10.02",
    "askEhmYield": "7,81",
    "bidYield": "8,90",
    "rawName": "D231227",
    "bidPrice": "97,9182",
    "maturityInDays": "86 nap",
    "securityType": "DKJ",
    "maturityDate": "2023.12.27",
    "name": "D231227",
    "bidEhmYield": "9,02",
    "askYield": "7,70",
    "currency": "HUF",
    "maturityInDays_val": 86,
    "issueDate": "2022.12.28",
    "longName": "D231227"
}