{
    "askPrice": "89,1989",
    "green": 0,
    "coupon": 0,
    "accruedInterest": 0,
    "settleDate": "2023.02.01",
    "askEhmYield": "13,43",
    "bidYield": "13,95",
    "rawName": "D231227",
    "bidPrice": "88,6928",
    "maturityInDays": "329 nap",
    "securityType": "DKJ",
    "maturityDate": "2023.12.27",
    "name": "D231227",
    "bidEhmYield": "14,14",
    "askYield": "13,25",
    "currency": "HUF",
    "maturityInDays_val": 329,
    "issueDate": "2022.12.28",
    "longName": "D231227"
}