{
    "askPrice": "98,5999",
    "green": 0,
    "coupon": 0,
    "accruedInterest": 0,
    "settleDate": "2023.10.17",
    "askEhmYield": "7,30",
    "bidYield": "8,48",
    "rawName": "D231227",
    "bidPrice": "98,3551",
    "maturityInDays": "71 nap",
    "securityType": "DKJ",
    "maturityDate": "2023.12.27",
    "name": "D231227",
    "bidEhmYield": "8,60",
    "askYield": "7,20",
    "currency": "HUF",
    "maturityInDays_val": 71,
    "issueDate": "2022.12.28",
    "longName": "D231227"
}