{
    "askPrice": "88,7225",
    "green": 0,
    "coupon": 0,
    "accruedInterest": 0,
    "settleDate": "2023.01.19",
    "askEhmYield": "13,57",
    "bidYield": "14,10",
    "rawName": "D231227",
    "bidPrice": "88,1873",
    "maturityInDays": "342 nap",
    "securityType": "DKJ",
    "maturityDate": "2023.12.27",
    "name": "D231227",
    "bidEhmYield": "14,30",
    "askYield": "13,38",
    "currency": "HUF",
    "maturityInDays_val": 342,
    "issueDate": "2022.12.28",
    "longName": "D231227"
}