{
    "askPrice": "97,7775",
    "green": 0,
    "coupon": 0,
    "accruedInterest": 0,
    "settleDate": "2023.09.20",
    "askEhmYield": "8,47",
    "bidYield": "9,17",
    "rawName": "D231227",
    "bidPrice": "97,5645",
    "maturityInDays": "98 nap",
    "securityType": "DKJ",
    "maturityDate": "2023.12.27",
    "name": "D231227",
    "bidEhmYield": "9,30",
    "askYield": "8,35",
    "currency": "HUF",
    "maturityInDays_val": 98,
    "issueDate": "2022.12.28",
    "longName": "D231227"
}