{
    "askPrice": "93,2310",
    "green": 0,
    "coupon": 0,
    "accruedInterest": 0,
    "settleDate": "2023.06.05",
    "askEhmYield": "12,93",
    "bidYield": "13,58",
    "rawName": "D231227",
    "bidPrice": "92,8220",
    "maturityInDays": "205 nap",
    "securityType": "DKJ",
    "maturityDate": "2023.12.27",
    "name": "D231227",
    "bidEhmYield": "13,77",
    "askYield": "12,75",
    "currency": "HUF",
    "maturityInDays_val": 205,
    "issueDate": "2022.12.28",
    "longName": "D231227"
}