{
    "askPrice": "",
    "green": 0,
    "coupon": 0,
    "accruedInterest": 0,
    "settleDate": "2023.12.19",
    "askEhmYield": "",
    "bidYield": "7,48",
    "rawName": "D231227",
    "bidPrice": "99,8341",
    "maturityInDays": "8 nap",
    "securityType": "DKJ",
    "maturityDate": "2023.12.27",
    "name": "D231227",
    "bidEhmYield": "7,58",
    "askYield": "",
    "currency": "HUF",
    "maturityInDays_val": 8,
    "issueDate": "2022.12.28",
    "longName": "D231227"
}