{
    "askPrice": "93,9816",
    "green": 0,
    "coupon": 0,
    "accruedInterest": 0,
    "settleDate": "2023.06.19",
    "askEhmYield": "12,24",
    "bidYield": "12,79",
    "rawName": "D231227",
    "bidPrice": "93,6454",
    "maturityInDays": "191 nap",
    "securityType": "DKJ",
    "maturityDate": "2023.12.27",
    "name": "D231227",
    "bidEhmYield": "12,97",
    "askYield": "12,07",
    "currency": "HUF",
    "maturityInDays_val": 191,
    "issueDate": "2022.12.28",
    "longName": "D231227"
}