{
    "askPrice": "88,6499",
    "green": 0,
    "coupon": 0,
    "accruedInterest": 0,
    "settleDate": "2023.01.16",
    "askEhmYield": "13,55",
    "bidYield": "14,20",
    "rawName": "D231227",
    "bidPrice": "88,0217",
    "maturityInDays": "345 nap",
    "securityType": "DKJ",
    "maturityDate": "2023.12.27",
    "name": "D231227",
    "bidEhmYield": "14,40",
    "askYield": "13,36",
    "currency": "HUF",
    "maturityInDays_val": 345,
    "issueDate": "2022.12.28",
    "longName": "D231227"
}