{
    "askPrice": "90,3589",
    "green": 0,
    "coupon": 0,
    "accruedInterest": 0,
    "settleDate": "2023.03.29",
    "askEhmYield": "14,27",
    "bidYield": "14,80",
    "rawName": "D231227",
    "bidPrice": "89,9092",
    "maturityInDays": "273 nap",
    "securityType": "DKJ",
    "maturityDate": "2023.12.27",
    "name": "D231227",
    "bidEhmYield": "15,01",
    "askYield": "14,07",
    "currency": "HUF",
    "maturityInDays_val": 273,
    "issueDate": "2022.12.28",
    "longName": "D231227"
}