{
    "askPrice": "97,3919",
    "green": 0,
    "coupon": 0,
    "accruedInterest": 0,
    "settleDate": "2023.09.11",
    "askEhmYield": "9,14",
    "bidYield": "9,78",
    "rawName": "D231227",
    "bidPrice": "97,1753",
    "maturityInDays": "107 nap",
    "securityType": "DKJ",
    "maturityDate": "2023.12.27",
    "name": "D231227",
    "bidEhmYield": "9,92",
    "askYield": "9,01",
    "currency": "HUF",
    "maturityInDays_val": 107,
    "issueDate": "2022.12.28",
    "longName": "D231227"
}