{
    "askPrice": "92,4687",
    "green": 0,
    "coupon": 0,
    "accruedInterest": 0,
    "settleDate": "2023.05.23",
    "askEhmYield": "13,64",
    "bidYield": "14,28",
    "rawName": "D231227",
    "bidPrice": "92,0409",
    "maturityInDays": "218 nap",
    "securityType": "DKJ",
    "maturityDate": "2023.12.27",
    "name": "D231227",
    "bidEhmYield": "14,48",
    "askYield": "13,45",
    "currency": "HUF",
    "maturityInDays_val": 218,
    "issueDate": "2022.12.28",
    "longName": "D231227"
}