{
    "askPrice": "93,7225",
    "green": 0,
    "coupon": 0,
    "accruedInterest": 0,
    "settleDate": "2023.06.13",
    "askEhmYield": "12,41",
    "bidYield": "12,95",
    "rawName": "D231227",
    "bidPrice": "93,3824",
    "maturityInDays": "197 nap",
    "securityType": "DKJ",
    "maturityDate": "2023.12.27",
    "name": "D231227",
    "bidEhmYield": "13,13",
    "askYield": "12,24",
    "currency": "HUF",
    "maturityInDays_val": 197,
    "issueDate": "2022.12.28",
    "longName": "D231227"
}