{
    "askPrice": "95,9371",
    "green": 0,
    "coupon": 0,
    "accruedInterest": 0,
    "settleDate": "2023.07.26",
    "askEhmYield": "10,04",
    "bidYield": "10,62",
    "rawName": "D231227",
    "bidPrice": "95,6544",
    "maturityInDays": "154 nap",
    "securityType": "DKJ",
    "maturityDate": "2023.12.27",
    "name": "D231227",
    "bidEhmYield": "10,77",
    "askYield": "9,90",
    "currency": "HUF",
    "maturityInDays_val": 154,
    "issueDate": "2022.12.28",
    "longName": "D231227"
}