{
    "askPrice": "",
    "green": 0,
    "coupon": 0,
    "accruedInterest": 0,
    "settleDate": "2023.12.15",
    "askEhmYield": "",
    "bidYield": "7,65",
    "rawName": "D231227",
    "bidPrice": "99,7456",
    "maturityInDays": "12 nap",
    "securityType": "DKJ",
    "maturityDate": "2023.12.27",
    "name": "D231227",
    "bidEhmYield": "7,76",
    "askYield": "",
    "currency": "HUF",
    "maturityInDays_val": 12,
    "issueDate": "2022.12.28",
    "longName": "D231227"
}