{
    "askPrice": "91,7734",
    "green": 0,
    "coupon": 0,
    "accruedInterest": 0,
    "settleDate": "2023.05.08",
    "askEhmYield": "14,04",
    "bidYield": "14,50",
    "rawName": "D231227",
    "bidPrice": "91,4204",
    "maturityInDays": "233 nap",
    "securityType": "DKJ",
    "maturityDate": "2023.12.27",
    "name": "D231227",
    "bidEhmYield": "14,70",
    "askYield": "13,85",
    "currency": "HUF",
    "maturityInDays_val": 233,
    "issueDate": "2022.12.28",
    "longName": "D231227"
}