{
    "askPrice": "97,2733",
    "green": 0,
    "coupon": 0,
    "accruedInterest": 0,
    "settleDate": "2023.09.06",
    "askEhmYield": "9,14",
    "bidYield": "9,80",
    "rawName": "D231227",
    "bidPrice": "97,0413",
    "maturityInDays": "112 nap",
    "securityType": "DKJ",
    "maturityDate": "2023.12.27",
    "name": "D231227",
    "bidEhmYield": "9,94",
    "askYield": "9,01",
    "currency": "HUF",
    "maturityInDays_val": 112,
    "issueDate": "2022.12.28",
    "longName": "D231227"
}