{
    "askPrice": "90,8960",
    "green": 0,
    "coupon": 0,
    "accruedInterest": 0,
    "settleDate": "2023.04.14",
    "askEhmYield": "14,22",
    "bidYield": "14,80",
    "rawName": "D231227",
    "bidPrice": "90,4441",
    "maturityInDays": "257 nap",
    "securityType": "DKJ",
    "maturityDate": "2023.12.27",
    "name": "D231227",
    "bidEhmYield": "15,01",
    "askYield": "14,03",
    "currency": "HUF",
    "maturityInDays_val": 257,
    "issueDate": "2022.12.28",
    "longName": "D231227"
}