{
    "askPrice": "96,3726",
    "green": 0,
    "coupon": 0,
    "accruedInterest": 0,
    "settleDate": "2023.08.08",
    "askEhmYield": "9,74",
    "bidYield": "10,36",
    "rawName": "D231227",
    "bidPrice": "96,1006",
    "maturityInDays": "141 nap",
    "securityType": "DKJ",
    "maturityDate": "2023.12.27",
    "name": "D231227",
    "bidEhmYield": "10,50",
    "askYield": "9,61",
    "currency": "HUF",
    "maturityInDays_val": 141,
    "issueDate": "2022.12.28",
    "longName": "D231227"
}