{
    "askPrice": "",
    "green": 0,
    "coupon": "3,50 %",
    "accruedInterest": "3,3699",
    "settleDate": "2022.12.16",
    "askEhmYield": "",
    "bidYield": "5,85",
    "rawName": "N2025/15",
    "bidPrice": "99,5000",
    "coupon_val": 3.5,
    "maturityInDays": "850 nap",
    "securityType": "MÁP Plusz",
    "maturityDate": "2025.04.14",
    "name": "N2025/15",
    "bidEhmYield": "",
    "askYield": "",
    "currency": "HUF",
    "maturityInDays_val": 850,
    "issueDate": "2020.04.14",
    "longName": "N250414"
}