{
    "askPrice": "",
    "green": 0,
    "coupon": "3,50 %",
    "accruedInterest": "2,32",
    "settleDate": "2022.09.30",
    "askEhmYield": "",
    "bidYield": "",
    "rawName": "N2025/15",
    "bidPrice": "99,50",
    "coupon_val": 3.5,
    "maturityInDays": "927 nap",
    "securityType": "MÁP Plusz",
    "maturityDate": "2025.04.14",
    "name": "N2025/15",
    "bidEhmYield": "",
    "askYield": "",
    "currency": "HUF",
    "maturityInDays_val": 927,
    "longName": "N250414"
}