{
    "askPrice": "",
    "green": 0,
    "coupon": "3,50 %",
    "accruedInterest": "2,97",
    "settleDate": "2022.11.17",
    "askEhmYield": "",
    "bidYield": "5,82",
    "rawName": "N2025/15",
    "bidPrice": "99,50",
    "coupon_val": 3.5,
    "maturityInDays": "879 nap",
    "securityType": "MÁP Plusz",
    "maturityDate": "2025.04.14",
    "name": "N2025/15",
    "bidEhmYield": "",
    "askYield": "",
    "currency": "HUF",
    "maturityInDays_val": 879,
    "issueDate": "2020-04-14",
    "longName": "N250414"
}