{
    "askPrice": "",
    "green": 0,
    "coupon": "3,50 %",
    "accruedInterest": "3,1233",
    "settleDate": "2022.11.28",
    "askEhmYield": "",
    "bidYield": "5,84",
    "rawName": "N2025/15",
    "bidPrice": "99,5000",
    "coupon_val": 3.5,
    "maturityInDays": "868 nap",
    "securityType": "MÁP Plusz",
    "maturityDate": "2025.04.14",
    "name": "N2025/15",
    "bidEhmYield": "",
    "askYield": "",
    "currency": "HUF",
    "maturityInDays_val": 868,
    "issueDate": "2020.04.14",
    "longName": "N250414"
}