{
    "askPrice": "",
    "green": 0,
    "coupon": "3,50 %",
    "accruedInterest": "4,6575",
    "settleDate": "2023.03.20",
    "askEhmYield": "",
    "bidYield": "5,98",
    "rawName": "N2025/15",
    "bidPrice": "99,5000",
    "coupon_val": 3.5,
    "maturityInDays": "756 nap",
    "securityType": "MÁP Plusz",
    "maturityDate": "2025.04.14",
    "name": "N2025/15",
    "bidEhmYield": "",
    "askYield": "",
    "currency": "HUF",
    "maturityInDays_val": 756,
    "issueDate": "2020.04.14",
    "longName": "N250414"
}