{
    "askPrice": "",
    "green": 0,
    "coupon": "3,50 %",
    "accruedInterest": "5,4549",
    "settleDate": "2024.04.11",
    "askEhmYield": "",
    "bidYield": "",
    "rawName": "N2025/15",
    "bidPrice": "",
    "coupon_val": 3.5,
    "maturityInDays": "368 nap",
    "securityType": "MÁP Plusz",
    "maturityDate": "2025.04.14",
    "name": "N2025/15",
    "bidEhmYield": "",
    "askYield": "",
    "currency": "HUF",
    "maturityInDays_val": 368,
    "issueDate": "2020.04.14",
    "longName": "N250414"
}