{
    "askPrice": "",
    "green": 0,
    "coupon": "3,50 %",
    "accruedInterest": "4,7787",
    "settleDate": "2024.02.26",
    "askEhmYield": "",
    "bidYield": "6,39",
    "rawName": "N2025/15",
    "bidPrice": "99,5000",
    "coupon_val": 3.5,
    "maturityInDays": "413 nap",
    "securityType": "MÁP Plusz",
    "maturityDate": "2025.04.14",
    "name": "N2025/15",
    "bidEhmYield": "",
    "askYield": "",
    "currency": "HUF",
    "maturityInDays_val": 413,
    "issueDate": "2020.04.14",
    "longName": "N250414"
}