{
    "askPrice": "99,39",
    "green": 0,
    "coupon": null,
    "accruedInterest": "1,21",
    "settleDate": "2022.06.27",
    "askEhmYield": "",
    "bidYield": "",
    "rawName": "2027/B",
    "bidPrice": "97,92",
    "maturityInDays": "1760 nap",
    "securityType": "KTV",
    "maturityDate": "2027.04.22",
    "name": "2027/B",
    "bidEhmYield": "",
    "askYield": "",
    "currency": "HUF",
    "maturityInDays_val": 1760,
    "longName": "A270422B20"
}