{
    "askPrice": "98,00",
    "green": 0,
    "coupon": null,
    "accruedInterest": "1,41",
    "settleDate": "2022.07.08",
    "askEhmYield": "",
    "bidYield": "",
    "rawName": "2027/B",
    "bidPrice": "98,40",
    "maturityInDays": "1749 nap",
    "securityType": "KTV",
    "maturityDate": "2027.04.22",
    "name": "2027/B",
    "bidEhmYield": "",
    "askYield": "",
    "currency": "HUF",
    "maturityInDays_val": 1749,
    "longName": "A270422B20"
}