{
    "askPrice": "100,50",
    "green": 0,
    "coupon": null,
    "accruedInterest": "1,60",
    "settleDate": "2022.07.18",
    "askEhmYield": "",
    "bidYield": "",
    "rawName": "2027/B",
    "bidPrice": "99,20",
    "maturityInDays": "1739 nap",
    "securityType": "KTV",
    "maturityDate": "2027.04.22",
    "name": "2027/B",
    "bidEhmYield": "",
    "askYield": "",
    "currency": "HUF",
    "maturityInDays_val": 1739,
    "longName": "A270422B20"
}