{
    "askPrice": "101,30",
    "green": 0,
    "coupon": null,
    "accruedInterest": "1,06",
    "settleDate": "2022.11.14",
    "askEhmYield": "",
    "bidYield": "",
    "rawName": "2027/B",
    "bidPrice": "99,62",
    "maturityInDays": "1620 nap",
    "securityType": "KTV",
    "maturityDate": "2027.04.22",
    "name": "2027/B",
    "bidEhmYield": "",
    "askYield": "",
    "currency": "HUF",
    "maturityInDays_val": 1620,
    "issueDate": "2020-01-15",
    "longName": "A270422B20"
}