{
    "askPrice": "101,00",
    "green": 0,
    "coupon": null,
    "accruedInterest": "1,89",
    "settleDate": "2022.09.19",
    "askEhmYield": "",
    "bidYield": "",
    "rawName": "2027/B",
    "bidPrice": "99,77",
    "maturityInDays": "1676 nap",
    "securityType": "KTV",
    "maturityDate": "2027.04.22",
    "name": "2027/B",
    "bidEhmYield": "",
    "askYield": "",
    "currency": "HUF",
    "maturityInDays_val": 1676,
    "longName": "A270422B20"
}