{
    "askPrice": "100,72",
    "green": 0,
    "coupon": null,
    "accruedInterest": "2,57",
    "settleDate": "2022.10.10",
    "askEhmYield": "",
    "bidYield": "",
    "rawName": "2027/B",
    "bidPrice": "99,45",
    "maturityInDays": "1655 nap",
    "securityType": "KTV",
    "maturityDate": "2027.04.22",
    "name": "2027/B",
    "bidEhmYield": "",
    "askYield": "",
    "currency": "HUF",
    "maturityInDays_val": 1655,
    "longName": "A270422B20"
}