{
    "askPrice": "101,45",
    "green": 0,
    "coupon": null,
    "accruedInterest": "1,45",
    "settleDate": "2022.09.05",
    "askEhmYield": "",
    "bidYield": "",
    "rawName": "2027/B",
    "bidPrice": "100,11",
    "maturityInDays": "1690 nap",
    "securityType": "KTV",
    "maturityDate": "2027.04.22",
    "name": "2027/B",
    "bidEhmYield": "",
    "askYield": "",
    "currency": "HUF",
    "maturityInDays_val": 1690,
    "longName": "A270422B20"
}