{
    "askPrice": "99,40",
    "green": 0,
    "coupon": null,
    "accruedInterest": "1,25",
    "settleDate": "2022.06.29",
    "askEhmYield": "",
    "bidYield": "",
    "rawName": "2027/B",
    "bidPrice": "97,94",
    "maturityInDays": "1758 nap",
    "securityType": "KTV",
    "maturityDate": "2027.04.22",
    "name": "2027/B",
    "bidEhmYield": "",
    "askYield": "",
    "currency": "HUF",
    "maturityInDays_val": 1758,
    "longName": "A270422B20"
}