{
    "askPrice": "101,7500",
    "green": 0,
    "coupon": null,
    "accruedInterest": "2,3602",
    "settleDate": "2022.12.12",
    "askEhmYield": "",
    "bidYield": "",
    "rawName": "2027/B",
    "bidPrice": "99,6500",
    "maturityInDays": "1592 nap",
    "securityType": "KTV",
    "maturityDate": "2027.04.22",
    "name": "2027/B",
    "bidEhmYield": "",
    "askYield": "",
    "currency": "HUF",
    "maturityInDays_val": 1592,
    "issueDate": "2020.01.15",
    "longName": "A270422B20"
}