{
    "askPrice": "101,9000",
    "green": 0,
    "coupon": null,
    "accruedInterest": "3,0543",
    "settleDate": "2022.12.27",
    "askEhmYield": "",
    "bidYield": "",
    "rawName": "2027/B",
    "bidPrice": "99,8000",
    "maturityInDays": "1577 nap",
    "securityType": "KTV",
    "maturityDate": "2027.04.22",
    "name": "2027/B",
    "bidEhmYield": "",
    "askYield": "",
    "currency": "HUF",
    "maturityInDays_val": 1577,
    "issueDate": "2020.01.15",
    "longName": "A270422B20"
}