{
    "askPrice": "101,30",
    "green": 0,
    "coupon": null,
    "accruedInterest": "0,23",
    "settleDate": "2022.10.27",
    "askEhmYield": "",
    "bidYield": "",
    "rawName": "2027/B",
    "bidPrice": "99,60",
    "maturityInDays": "1638 nap",
    "securityType": "KTV",
    "maturityDate": "2027.04.22",
    "name": "2027/B",
    "bidEhmYield": "",
    "askYield": "",
    "currency": "HUF",
    "maturityInDays_val": 1638,
    "longName": "A270422B20"
}