{
    "askPrice": "101,4500",
    "green": 0,
    "coupon": null,
    "accruedInterest": "1,7123",
    "settleDate": "2022.11.28",
    "askEhmYield": "",
    "bidYield": "",
    "rawName": "2027/B",
    "bidPrice": "99,7500",
    "maturityInDays": "1606 nap",
    "securityType": "KTV",
    "maturityDate": "2027.04.22",
    "name": "2027/B",
    "bidEhmYield": "",
    "askYield": "",
    "currency": "HUF",
    "maturityInDays_val": 1606,
    "issueDate": "2020.01.15",
    "longName": "A270422B20"
}