{
    "askPrice": "99,57",
    "green": 0,
    "coupon": null,
    "accruedInterest": "1,28",
    "settleDate": "2022.07.01",
    "askEhmYield": "",
    "bidYield": "",
    "rawName": "2027/B",
    "bidPrice": "98,10",
    "maturityInDays": "1756 nap",
    "securityType": "KTV",
    "maturityDate": "2027.04.22",
    "name": "2027/B",
    "bidEhmYield": "",
    "askYield": "",
    "currency": "HUF",
    "maturityInDays_val": 1756,
    "longName": "A270422B20"
}