{
    "askPrice": "101,3900",
    "green": 0,
    "coupon": null,
    "accruedInterest": "2,3078",
    "settleDate": "2023.06.12",
    "askEhmYield": "",
    "bidYield": "",
    "rawName": "2027/B",
    "bidPrice": "99,3200",
    "maturityInDays": "1410 nap",
    "securityType": "KTV",
    "maturityDate": "2027.04.22",
    "name": "2027/B",
    "bidEhmYield": "",
    "askYield": "",
    "currency": "HUF",
    "maturityInDays_val": 1410,
    "issueDate": "2020.01.15",
    "longName": "A270422B20"
}