{
    "askPrice": "101,4000",
    "green": 0,
    "coupon": null,
    "accruedInterest": "1,3351",
    "settleDate": "2023.08.23",
    "askEhmYield": "",
    "bidYield": "",
    "rawName": "2027/B",
    "bidPrice": "99,5000",
    "maturityInDays": "1338 nap",
    "securityType": "KTV",
    "maturityDate": "2027.04.22",
    "name": "2027/B",
    "bidEhmYield": "",
    "askYield": "",
    "currency": "HUF",
    "maturityInDays_val": 1338,
    "issueDate": "2020.01.15",
    "longName": "A270422B20"
}