{
    "askPrice": "99,5000",
    "green": 0,
    "coupon": null,
    "accruedInterest": "0,4525",
    "settleDate": "2023.05.02",
    "askEhmYield": "",
    "bidYield": "",
    "rawName": "2027/B",
    "bidPrice": "97,5500",
    "maturityInDays": "1451 nap",
    "securityType": "KTV",
    "maturityDate": "2027.04.22",
    "name": "2027/B",
    "bidEhmYield": "",
    "askYield": "",
    "currency": "HUF",
    "maturityInDays_val": 1451,
    "issueDate": "2020.01.15",
    "longName": "A270422B20"
}