{
    "askPrice": "101,9400",
    "green": 0,
    "coupon": null,
    "accruedInterest": "0,4992",
    "settleDate": "2023.11.06",
    "askEhmYield": "",
    "bidYield": "",
    "rawName": "2027/B",
    "bidPrice": "100,1000",
    "maturityInDays": "1263 nap",
    "securityType": "KTV",
    "maturityDate": "2027.04.22",
    "name": "2027/B",
    "bidEhmYield": "",
    "askYield": "",
    "currency": "HUF",
    "maturityInDays_val": 1263,
    "issueDate": "2020.01.15",
    "longName": "A270422B20"
}