{
    "askPrice": "101,2900",
    "green": 0,
    "coupon": null,
    "accruedInterest": "3,2580",
    "settleDate": "2023.07.03",
    "askEhmYield": "",
    "bidYield": "",
    "rawName": "2027/B",
    "bidPrice": "99,4000",
    "maturityInDays": "1389 nap",
    "securityType": "KTV",
    "maturityDate": "2027.04.22",
    "name": "2027/B",
    "bidEhmYield": "",
    "askYield": "",
    "currency": "HUF",
    "maturityInDays_val": 1389,
    "issueDate": "2020.01.15",
    "longName": "A270422B20"
}