{
    "askPrice": "101,2500",
    "green": 0,
    "coupon": null,
    "accruedInterest": "0,3755",
    "settleDate": "2023.07.31",
    "askEhmYield": "",
    "bidYield": "",
    "rawName": "2027/B",
    "bidPrice": "99,3000",
    "maturityInDays": "1361 nap",
    "securityType": "KTV",
    "maturityDate": "2027.04.22",
    "name": "2027/B",
    "bidEhmYield": "",
    "askYield": "",
    "currency": "HUF",
    "maturityInDays_val": 1361,
    "issueDate": "2020.01.15",
    "longName": "A270422B20"
}