{
    "askPrice": "100,9900",
    "green": 0,
    "coupon": null,
    "accruedInterest": "1,2913",
    "settleDate": "2023.02.20",
    "askEhmYield": "",
    "bidYield": "",
    "rawName": "2027/B",
    "bidPrice": "98,9300",
    "maturityInDays": "1522 nap",
    "securityType": "KTV",
    "maturityDate": "2027.04.22",
    "name": "2027/B",
    "bidEhmYield": "",
    "askYield": "",
    "currency": "HUF",
    "maturityInDays_val": 1522,
    "issueDate": "2020.01.15",
    "longName": "A270422B20"
}