{
    "askPrice": "100,8700",
    "green": 0,
    "coupon": null,
    "accruedInterest": "1,6030",
    "settleDate": "2023.02.27",
    "askEhmYield": "",
    "bidYield": "",
    "rawName": "2027/B",
    "bidPrice": "98,6600",
    "maturityInDays": "1515 nap",
    "securityType": "KTV",
    "maturityDate": "2027.04.22",
    "name": "2027/B",
    "bidEhmYield": "",
    "askYield": "",
    "currency": "HUF",
    "maturityInDays_val": 1515,
    "issueDate": "2020.01.15",
    "longName": "A270422B20"
}