{
    "askPrice": "101,0200",
    "green": 0,
    "coupon": null,
    "accruedInterest": "2,7954",
    "settleDate": "2023.09.27",
    "askEhmYield": "",
    "bidYield": "",
    "rawName": "2027/B",
    "bidPrice": "99,2000",
    "maturityInDays": "1303 nap",
    "securityType": "KTV",
    "maturityDate": "2027.04.22",
    "name": "2027/B",
    "bidEhmYield": "",
    "askYield": "",
    "currency": "HUF",
    "maturityInDays_val": 1303,
    "issueDate": "2020.01.15",
    "longName": "A270422B20"
}