{
    "askPrice": "101,9500",
    "green": 0,
    "coupon": null,
    "accruedInterest": "0,2995",
    "settleDate": "2023.10.31",
    "askEhmYield": "",
    "bidYield": "",
    "rawName": "2027/B",
    "bidPrice": "100,0000",
    "maturityInDays": "1269 nap",
    "securityType": "KTV",
    "maturityDate": "2027.04.22",
    "name": "2027/B",
    "bidEhmYield": "",
    "askYield": "",
    "currency": "HUF",
    "maturityInDays_val": 1269,
    "issueDate": "2020.01.15",
    "longName": "A270422B20"
}