{
    "askPrice": "99,5000",
    "green": 0,
    "coupon": null,
    "accruedInterest": "0,0905",
    "settleDate": "2023.04.24",
    "askEhmYield": "",
    "bidYield": "",
    "rawName": "2027/B",
    "bidPrice": "97,3500",
    "maturityInDays": "1459 nap",
    "securityType": "KTV",
    "maturityDate": "2027.04.22",
    "name": "2027/B",
    "bidEhmYield": "",
    "askYield": "",
    "currency": "HUF",
    "maturityInDays_val": 1459,
    "issueDate": "2020.01.15",
    "longName": "A270422B20"
}