{
    "askPrice": "101,8500",
    "green": 0,
    "coupon": null,
    "accruedInterest": "0,5990",
    "settleDate": "2023.11.09",
    "askEhmYield": "",
    "bidYield": "",
    "rawName": "2027/B",
    "bidPrice": "99,9500",
    "maturityInDays": "1260 nap",
    "securityType": "KTV",
    "maturityDate": "2027.04.22",
    "name": "2027/B",
    "bidEhmYield": "",
    "askYield": "",
    "currency": "HUF",
    "maturityInDays_val": 1260,
    "issueDate": "2020.01.15",
    "longName": "A270422B20"
}