{
    "askPrice": "101,9000",
    "green": 0,
    "coupon": null,
    "accruedInterest": "0,3562",
    "settleDate": "2023.01.30",
    "askEhmYield": "",
    "bidYield": "",
    "rawName": "2027/B",
    "bidPrice": "99,9500",
    "maturityInDays": "1543 nap",
    "securityType": "KTV",
    "maturityDate": "2027.04.22",
    "name": "2027/B",
    "bidEhmYield": "",
    "askYield": "",
    "currency": "HUF",
    "maturityInDays_val": 1543,
    "issueDate": "2020.01.15",
    "longName": "A270422B20"
}