{
    "askPrice": "99,4500",
    "green": 0,
    "coupon": null,
    "accruedInterest": "3,1615",
    "settleDate": "2023.04.03",
    "askEhmYield": "",
    "bidYield": "",
    "rawName": "2027/B",
    "bidPrice": "97,4000",
    "maturityInDays": "1480 nap",
    "securityType": "KTV",
    "maturityDate": "2027.04.22",
    "name": "2027/B",
    "bidEhmYield": "",
    "askYield": "",
    "currency": "HUF",
    "maturityInDays_val": 1480,
    "issueDate": "2020.01.15",
    "longName": "A270422B20"
}