{
    "askPrice": "101,3500",
    "green": 0,
    "coupon": null,
    "accruedInterest": "2,2947",
    "settleDate": "2023.09.15",
    "askEhmYield": "",
    "bidYield": "",
    "rawName": "2027/B",
    "bidPrice": "99,4500",
    "maturityInDays": "1315 nap",
    "securityType": "KTV",
    "maturityDate": "2027.04.22",
    "name": "2027/B",
    "bidEhmYield": "",
    "askYield": "",
    "currency": "HUF",
    "maturityInDays_val": 1315,
    "issueDate": "2020.01.15",
    "longName": "A270422B20"
}