{
    "askPrice": "101,5500",
    "green": 0,
    "coupon": null,
    "accruedInterest": "3,2961",
    "settleDate": "2023.10.09",
    "askEhmYield": "",
    "bidYield": "",
    "rawName": "2027/B",
    "bidPrice": "99,5500",
    "maturityInDays": "1291 nap",
    "securityType": "KTV",
    "maturityDate": "2027.04.22",
    "name": "2027/B",
    "bidEhmYield": "",
    "askYield": "",
    "currency": "HUF",
    "maturityInDays_val": 1291,
    "issueDate": "2020.01.15",
    "longName": "A270422B20"
}