{
    "askPrice": "99,2900",
    "green": 0,
    "coupon": null,
    "accruedInterest": "1,1765",
    "settleDate": "2023.05.18",
    "askEhmYield": "",
    "bidYield": "",
    "rawName": "2027/B",
    "bidPrice": "97,2000",
    "maturityInDays": "1435 nap",
    "securityType": "KTV",
    "maturityDate": "2027.04.22",
    "name": "2027/B",
    "bidEhmYield": "",
    "askYield": "",
    "currency": "HUF",
    "maturityInDays_val": 1435,
    "issueDate": "2020.01.15",
    "longName": "A270422B20"
}