{
    "askPrice": "101,8500",
    "green": 0,
    "coupon": null,
    "accruedInterest": "2,1176",
    "settleDate": "2024.04.10",
    "askEhmYield": "",
    "bidYield": "",
    "rawName": "2027/B",
    "bidPrice": "99,8500",
    "maturityInDays": "1107 nap",
    "securityType": "KTV",
    "maturityDate": "2027.04.22",
    "name": "2027/B",
    "bidEhmYield": "",
    "askYield": "",
    "currency": "HUF",
    "maturityInDays_val": 1107,
    "issueDate": "2020.01.15",
    "longName": "A270422B20"
}