{
    "askPrice": "101,9450",
    "green": 0,
    "coupon": null,
    "accruedInterest": "0,0804",
    "settleDate": "2024.01.25",
    "askEhmYield": "",
    "bidYield": "",
    "rawName": "2027/B",
    "bidPrice": "99,9000",
    "maturityInDays": "1183 nap",
    "securityType": "KTV",
    "maturityDate": "2027.04.22",
    "name": "2027/B",
    "bidEhmYield": "",
    "askYield": "",
    "currency": "HUF",
    "maturityInDays_val": 1183,
    "issueDate": "2020.01.15",
    "longName": "A270422B20"
}