{
    "askPrice": "101,9500",
    "green": 0,
    "coupon": null,
    "accruedInterest": "1,3939",
    "settleDate": "2024.03.14",
    "askEhmYield": "",
    "bidYield": "",
    "rawName": "2027/B",
    "bidPrice": "100,0000",
    "maturityInDays": "1134 nap",
    "securityType": "KTV",
    "maturityDate": "2027.04.22",
    "name": "2027/B",
    "bidEhmYield": "",
    "askYield": "",
    "currency": "HUF",
    "maturityInDays_val": 1134,
    "issueDate": "2020.01.15",
    "longName": "A270422B20"
}