{
    "askPrice": "102,2000",
    "green": 0,
    "coupon": null,
    "accruedInterest": "2,8619",
    "settleDate": "2024.01.16",
    "askEhmYield": "",
    "bidYield": "",
    "rawName": "2027/B",
    "bidPrice": "100,1800",
    "maturityInDays": "1192 nap",
    "securityType": "KTV",
    "maturityDate": "2027.04.22",
    "name": "2027/B",
    "bidEhmYield": "",
    "askYield": "",
    "currency": "HUF",
    "maturityInDays_val": 1192,
    "issueDate": "2020.01.15",
    "longName": "A270422B20"
}