{
    "askPrice": "101,8000",
    "green": 0,
    "coupon": null,
    "accruedInterest": "1,9568",
    "settleDate": "2024.04.04",
    "askEhmYield": "",
    "bidYield": "",
    "rawName": "2027/B",
    "bidPrice": "99,9000",
    "maturityInDays": "1113 nap",
    "securityType": "KTV",
    "maturityDate": "2027.04.22",
    "name": "2027/B",
    "bidEhmYield": "",
    "askYield": "",
    "currency": "HUF",
    "maturityInDays_val": 1113,
    "issueDate": "2020.01.15",
    "longName": "A270422B20"
}