{
    "askPrice": "",
    "green": 0,
    "coupon": null,
    "accruedInterest": "2,3321",
    "settleDate": "2024.04.18",
    "askEhmYield": "",
    "bidYield": "",
    "rawName": "2027/B",
    "bidPrice": "",
    "maturityInDays": "1099 nap",
    "securityType": "KTV",
    "maturityDate": "2027.04.22",
    "name": "2027/B",
    "bidEhmYield": "",
    "askYield": "",
    "currency": "HUF",
    "maturityInDays_val": 1099,
    "issueDate": "2020.01.15",
    "longName": "A270422B20"
}