{
    "askPrice": "101,7000",
    "green": 0,
    "coupon": null,
    "accruedInterest": "0,0214",
    "settleDate": "2024.04.23",
    "askEhmYield": "",
    "bidYield": "",
    "rawName": "2027/B",
    "bidPrice": "99,8000",
    "maturityInDays": "1094 nap",
    "securityType": "KTV",
    "maturityDate": "2027.04.22",
    "name": "2027/B",
    "bidEhmYield": "",
    "askYield": "",
    "currency": "HUF",
    "maturityInDays_val": 1094,
    "issueDate": "2020.01.15",
    "longName": "A270422B20"
}