{
    "askPrice": "102,0000",
    "green": 0,
    "coupon": null,
    "accruedInterest": "1,5815",
    "settleDate": "2024.03.21",
    "askEhmYield": "",
    "bidYield": "",
    "rawName": "2027/B",
    "bidPrice": "99,9500",
    "maturityInDays": "1127 nap",
    "securityType": "KTV",
    "maturityDate": "2027.04.22",
    "name": "2027/B",
    "bidEhmYield": "",
    "askYield": "",
    "currency": "HUF",
    "maturityInDays_val": 1127,
    "issueDate": "2020.01.15",
    "longName": "A270422B20"
}