{
    "askPrice": "",
    "green": 0,
    "coupon": 0,
    "accruedInterest": 0,
    "settleDate": "2023.11.02",
    "askEhmYield": "",
    "bidYield": "8,91",
    "rawName": "D231115",
    "bidPrice": "99,6793",
    "maturityInDays": "13 nap",
    "securityType": "DKJ",
    "maturityDate": "2023.11.15",
    "name": "D231115",
    "bidEhmYield": "9,03",
    "askYield": "",
    "currency": "HUF",
    "maturityInDays_val": 13,
    "issueDate": "2023.08.16",
    "longName": "D231115"
}