{
    "askPrice": "",
    "green": 0,
    "coupon": 0,
    "accruedInterest": 0,
    "settleDate": "2023.11.06",
    "askEhmYield": "",
    "bidYield": "8,99",
    "rawName": "D231115",
    "bidPrice": "99,7758",
    "maturityInDays": "9 nap",
    "securityType": "DKJ",
    "maturityDate": "2023.11.15",
    "name": "D231115",
    "bidEhmYield": "9,11",
    "askYield": "",
    "currency": "HUF",
    "maturityInDays_val": 9,
    "issueDate": "2023.08.16",
    "longName": "D231115"
}