{
    "askPrice": "",
    "green": 0,
    "coupon": 0,
    "accruedInterest": 0,
    "settleDate": "2023.01.16",
    "askEhmYield": "",
    "bidYield": "13,90",
    "rawName": "D230208",
    "bidPrice": "99,1198",
    "maturityInDays": "23 nap",
    "securityType": "DKJ",
    "maturityDate": "2023.02.08",
    "name": "D230208",
    "bidEhmYield": "14,09",
    "askYield": "",
    "currency": "HUF",
    "maturityInDays_val": 23,
    "issueDate": "2022.11.09",
    "longName": "D230208"
}