{
    "askPrice": "97,7444",
    "green": 0,
    "coupon": 0,
    "accruedInterest": 0,
    "settleDate": "2023.07.03",
    "askEhmYield": "9,79",
    "bidYield": "10,99",
    "rawName": "D230927",
    "bidPrice": "97,4418",
    "maturityInDays": "86 nap",
    "securityType": "DKJ",
    "maturityDate": "2023.09.27",
    "name": "D230927",
    "bidEhmYield": "11,14",
    "askYield": "9,66",
    "currency": "HUF",
    "maturityInDays_val": 86,
    "issueDate": "2023.06.28",
    "longName": "D230927"
}