{
    "askPrice": "",
    "green": 0,
    "coupon": 0,
    "accruedInterest": 0,
    "settleDate": "2023.09.13",
    "askEhmYield": "",
    "bidYield": "10,25",
    "rawName": "D230927",
    "bidPrice": "99,6030",
    "maturityInDays": "14 nap",
    "securityType": "DKJ",
    "maturityDate": "2023.09.27",
    "name": "D230927",
    "bidEhmYield": "10,39",
    "askYield": "",
    "currency": "HUF",
    "maturityInDays_val": 14,
    "issueDate": "2023.06.28",
    "longName": "D230927"
}