{
    "askPrice": "98,1862",
    "green": 0,
    "coupon": 0,
    "accruedInterest": 0,
    "settleDate": "2023.07.21",
    "askEhmYield": "9,92",
    "bidYield": "11,08",
    "rawName": "D230927",
    "bidPrice": "97,9500",
    "maturityInDays": "68 nap",
    "securityType": "DKJ",
    "maturityDate": "2023.09.27",
    "name": "D230927",
    "bidEhmYield": "11,23",
    "askYield": "9,78",
    "currency": "HUF",
    "maturityInDays_val": 68,
    "issueDate": "2023.06.28",
    "longName": "D230927"
}