{
    "askPrice": "99,1218",
    "green": 0,
    "coupon": 0,
    "accruedInterest": 0,
    "settleDate": "2023.08.22",
    "askEhmYield": "8,98",
    "bidYield": "10,20",
    "rawName": "D230927",
    "bidPrice": "98,9903",
    "maturityInDays": "36 nap",
    "securityType": "DKJ",
    "maturityDate": "2023.09.27",
    "name": "D230927",
    "bidEhmYield": "10,34",
    "askYield": "8,86",
    "currency": "HUF",
    "maturityInDays_val": 36,
    "issueDate": "2023.06.28",
    "longName": "D230927"
}