{
    "askPrice": "97,5923",
    "green": 0,
    "coupon": 0,
    "accruedInterest": 0,
    "settleDate": "2023.06.28",
    "askEhmYield": "9,90",
    "bidYield": "10,96",
    "rawName": "D230927",
    "bidPrice": "97,3042",
    "maturityInDays": "91 nap",
    "securityType": "DKJ",
    "maturityDate": "2023.09.27",
    "name": "D230927",
    "bidEhmYield": "11,11",
    "askYield": "9,76",
    "currency": "HUF",
    "maturityInDays_val": 91,
    "issueDate": "2023.06.28",
    "longName": "D230927"
}