{
    "askPrice": "98,7045",
    "green": 0,
    "coupon": 0,
    "accruedInterest": 0,
    "settleDate": "2023.08.08",
    "askEhmYield": "9,58",
    "bidYield": "10,75",
    "rawName": "D230927",
    "bidPrice": "98,5289",
    "maturityInDays": "50 nap",
    "securityType": "DKJ",
    "maturityDate": "2023.09.27",
    "name": "D230927",
    "bidEhmYield": "10,90",
    "askYield": "9,45",
    "currency": "HUF",
    "maturityInDays_val": 50,
    "issueDate": "2023.06.28",
    "longName": "D230927"
}