{
    "askPrice": "98,8630",
    "green": 0,
    "coupon": 0,
    "accruedInterest": 0,
    "settleDate": "2023.08.14",
    "askEhmYield": "9,54",
    "bidYield": "10,67",
    "rawName": "D230927",
    "bidPrice": "98,7127",
    "maturityInDays": "44 nap",
    "securityType": "DKJ",
    "maturityDate": "2023.09.27",
    "name": "D230927",
    "bidEhmYield": "10,82",
    "askYield": "9,41",
    "currency": "HUF",
    "maturityInDays_val": 44,
    "issueDate": "2023.06.28",
    "longName": "D230927"
}