{
    "askPrice": "98,6534",
    "green": 0,
    "coupon": 0,
    "accruedInterest": 0,
    "settleDate": "2023.12.27",
    "askEhmYield": "5,47",
    "bidYield": "6,65",
    "rawName": "D240327",
    "bidPrice": "98,3468",
    "maturityInDays": "91 nap",
    "securityType": "DKJ",
    "maturityDate": "2024.03.27",
    "name": "D240327",
    "bidEhmYield": "6,74",
    "askYield": "5,40",
    "currency": "HUF",
    "maturityInDays_val": 91,
    "issueDate": "2023.12.27",
    "longName": "D240327"
}