{
    "askPrice": "98,6491",
    "green": 0,
    "coupon": 0,
    "accruedInterest": 0,
    "settleDate": "2024.01.02",
    "askEhmYield": "5,88",
    "bidYield": "7,15",
    "rawName": "D240327",
    "bidPrice": "98,3398",
    "maturityInDays": "85 nap",
    "securityType": "DKJ",
    "maturityDate": "2024.03.27",
    "name": "D240327",
    "bidEhmYield": "7,25",
    "askYield": "5,80",
    "currency": "HUF",
    "maturityInDays_val": 85,
    "issueDate": "2023.12.27",
    "longName": "D240327"
}