{
    "askPrice": "99,0418",
    "green": 0,
    "coupon": 0,
    "accruedInterest": 0,
    "settleDate": "2024.02.02",
    "askEhmYield": "6,54",
    "bidYield": "7,79",
    "rawName": "D240327",
    "bidPrice": "98,8450",
    "maturityInDays": "54 nap",
    "securityType": "DKJ",
    "maturityDate": "2024.03.27",
    "name": "D240327",
    "bidEhmYield": "7,90",
    "askYield": "6,45",
    "currency": "HUF",
    "maturityInDays_val": 54,
    "issueDate": "2023.12.27",
    "longName": "D240327"
}