{
    "askPrice": "98,5723",
    "green": 0,
    "coupon": 0,
    "accruedInterest": 0,
    "settleDate": "2024.01.08",
    "askEhmYield": "6,69",
    "bidYield": "7,90",
    "rawName": "D240327",
    "bidPrice": "98,2959",
    "maturityInDays": "79 nap",
    "securityType": "DKJ",
    "maturityDate": "2024.03.27",
    "name": "D240327",
    "bidEhmYield": "8,01",
    "askYield": "6,60",
    "currency": "HUF",
    "maturityInDays_val": 79,
    "issueDate": "2023.12.27",
    "longName": "D240327"
}