{
    "askPrice": "99,0143",
    "green": 0,
    "coupon": 0,
    "accruedInterest": 0,
    "settleDate": "2024.01.31",
    "askEhmYield": "6,49",
    "bidYield": "7,77",
    "rawName": "D240327",
    "bidPrice": "98,8058",
    "maturityInDays": "56 nap",
    "securityType": "DKJ",
    "maturityDate": "2024.03.27",
    "name": "D240327",
    "bidEhmYield": "7,88",
    "askYield": "6,40",
    "currency": "HUF",
    "maturityInDays_val": 56,
    "issueDate": "2023.12.27",
    "longName": "D240327"
}