{
    "askPrice": "",
    "green": 0,
    "coupon": 0,
    "accruedInterest": 0,
    "settleDate": "2024.03.12",
    "askEhmYield": "",
    "bidYield": "7,52",
    "rawName": "D240327",
    "bidPrice": "99,6876",
    "maturityInDays": "15 nap",
    "securityType": "DKJ",
    "maturityDate": "2024.03.27",
    "name": "D240327",
    "bidEhmYield": "7,63",
    "askYield": "",
    "currency": "HUF",
    "maturityInDays_val": 15,
    "issueDate": "2023.12.27",
    "longName": "D240327"
}