{
    "askPrice": "99,3485",
    "green": 0,
    "coupon": 0,
    "accruedInterest": 0,
    "settleDate": "2024.02.19",
    "askEhmYield": "6,47",
    "bidYield": "7,75",
    "rawName": "D240327",
    "bidPrice": "99,2098",
    "maturityInDays": "37 nap",
    "securityType": "DKJ",
    "maturityDate": "2024.03.27",
    "name": "D240327",
    "bidEhmYield": "7,86",
    "askYield": "6,38",
    "currency": "HUF",
    "maturityInDays_val": 37,
    "issueDate": "2023.12.27",
    "longName": "D240327"
}