{
    "askPrice": "",
    "green": 0,
    "coupon": 0,
    "accruedInterest": 0,
    "settleDate": "2024.03.18",
    "askEhmYield": "",
    "bidYield": "7,54",
    "rawName": "D240327",
    "bidPrice": "99,8119",
    "maturityInDays": "9 nap",
    "securityType": "DKJ",
    "maturityDate": "2024.03.27",
    "name": "D240327",
    "bidEhmYield": "7,64",
    "askYield": "",
    "currency": "HUF",
    "maturityInDays_val": 9,
    "issueDate": "2023.12.27",
    "longName": "D240327"
}