{
    "askPrice": "99,4039",
    "green": 0,
    "coupon": 0,
    "accruedInterest": 0,
    "settleDate": "2024.02.22",
    "askEhmYield": "6,44",
    "bidYield": "7,68",
    "rawName": "D240327",
    "bidPrice": "99,2799",
    "maturityInDays": "34 nap",
    "securityType": "DKJ",
    "maturityDate": "2024.03.27",
    "name": "D240327",
    "bidEhmYield": "7,79",
    "askYield": "6,35",
    "currency": "HUF",
    "maturityInDays_val": 34,
    "issueDate": "2023.12.27",
    "longName": "D240327"
}