{
    "askPrice": "100,0000",
    "green": 0,
    "coupon": null,
    "accruedInterest": "4,1623",
    "settleDate": "2023.11.13",
    "askEhmYield": "",
    "bidYield": "",
    "rawName": "2033/I",
    "bidPrice": "99,0000",
    "maturityInDays": "3356 nap",
    "securityType": "PMÁP",
    "maturityDate": "2033.01.20",
    "name": "2033/I",
    "bidEhmYield": "",
    "askYield": "",
    "currency": "HUF",
    "maturityInDays_val": 3356,
    "issueDate": "2023.08.02",
    "longName": "A330120I23"
}