{
    "askPrice": "",
    "green": 0,
    "coupon": null,
    "accruedInterest": "5,4151",
    "settleDate": "2023.12.14",
    "askEhmYield": "",
    "bidYield": "",
    "rawName": "2033/I",
    "bidPrice": "99,0000",
    "maturityInDays": "3325 nap",
    "securityType": "PMÁP",
    "maturityDate": "2033.01.20",
    "name": "2033/I",
    "bidEhmYield": "",
    "askYield": "",
    "currency": "HUF",
    "maturityInDays_val": 3325,
    "issueDate": "2023.08.02",
    "longName": "A330120I23"
}