{
    "askPrice": "",
    "green": 0,
    "coupon": null,
    "accruedInterest": "6,2637",
    "settleDate": "2024.01.04",
    "askEhmYield": "",
    "bidYield": "",
    "rawName": "2033/I",
    "bidPrice": "99,0000",
    "maturityInDays": "3304 nap",
    "securityType": "PMÁP",
    "maturityDate": "2033.01.20",
    "name": "2033/I",
    "bidEhmYield": "",
    "askYield": "",
    "currency": "HUF",
    "maturityInDays_val": 3304,
    "issueDate": "2023.08.02",
    "longName": "A330120I23"
}