{
    "askPrice": "",
    "green": 0,
    "coupon": null,
    "accruedInterest": "1,4631",
    "settleDate": "2024.02.19",
    "askEhmYield": "",
    "bidYield": "",
    "rawName": "2033/I",
    "bidPrice": "99,0000",
    "maturityInDays": "3258 nap",
    "securityType": "PMÁP",
    "maturityDate": "2033.01.20",
    "name": "2033/I",
    "bidEhmYield": "",
    "askYield": "",
    "currency": "HUF",
    "maturityInDays_val": 3258,
    "issueDate": "2023.08.02",
    "longName": "A330120I23"
}