{
    "askPrice": "98,2258",
    "green": 0,
    "coupon": 0,
    "accruedInterest": 0,
    "settleDate": "2023.11.14",
    "askEhmYield": "7,76",
    "bidYield": "9,00",
    "rawName": "D240207",
    "bidPrice": "97,9192",
    "maturityInDays": "85 nap",
    "securityType": "DKJ",
    "maturityDate": "2024.02.07",
    "name": "D240207",
    "bidEhmYield": "9,13",
    "askYield": "7,65",
    "currency": "HUF",
    "maturityInDays_val": 85,
    "issueDate": "2023.11.08",
    "longName": "D240207"
}