{
    "askPrice": "98,7607",
    "green": 0,
    "coupon": 0,
    "accruedInterest": 0,
    "settleDate": "2023.12.04",
    "askEhmYield": "7,05",
    "bidYield": "8,34",
    "rawName": "D240207",
    "bidPrice": "98,5165",
    "maturityInDays": "65 nap",
    "securityType": "DKJ",
    "maturityDate": "2024.02.07",
    "name": "D240207",
    "bidEhmYield": "8,46",
    "askYield": "6,95",
    "currency": "HUF",
    "maturityInDays_val": 65,
    "issueDate": "2023.11.08",
    "longName": "D240207"
}