{
    "askPrice": "98,5396",
    "green": 0,
    "coupon": 0,
    "accruedInterest": 0,
    "settleDate": "2023.11.27",
    "askEhmYield": "7,51",
    "bidYield": "8,75",
    "rawName": "D240207",
    "bidPrice": "98,2801",
    "maturityInDays": "72 nap",
    "securityType": "DKJ",
    "maturityDate": "2024.02.07",
    "name": "D240207",
    "bidEhmYield": "8,87",
    "askYield": "7,41",
    "currency": "HUF",
    "maturityInDays_val": 72,
    "issueDate": "2023.11.08",
    "longName": "D240207"
}