{
    "askPrice": "99,4233",
    "green": 0,
    "coupon": 0,
    "accruedInterest": 0,
    "settleDate": "2024.01.02",
    "askEhmYield": "5,88",
    "bidYield": "7,15",
    "rawName": "D240207",
    "bidPrice": "99,2901",
    "maturityInDays": "36 nap",
    "securityType": "DKJ",
    "maturityDate": "2024.02.07",
    "name": "D240207",
    "bidEhmYield": "7,25",
    "askYield": "5,80",
    "currency": "HUF",
    "maturityInDays_val": 36,
    "issueDate": "2023.11.08",
    "longName": "D240207"
}