{
    "askPrice": "99,6194",
    "green": 0,
    "coupon": 0,
    "accruedInterest": 0,
    "settleDate": "2024.01.17",
    "askEhmYield": "6,64",
    "bidYield": "7,88",
    "rawName": "D240207",
    "bidPrice": "99,5424",
    "maturityInDays": "21 nap",
    "securityType": "DKJ",
    "maturityDate": "2024.02.07",
    "name": "D240207",
    "bidEhmYield": "7,99",
    "askYield": "6,55",
    "currency": "HUF",
    "maturityInDays_val": 21,
    "issueDate": "2023.11.08",
    "longName": "D240207"
}