{
    "askPrice": "",
    "green": 0,
    "coupon": 0,
    "accruedInterest": 0,
    "settleDate": "2024.01.30",
    "askEhmYield": "",
    "bidYield": "7,78",
    "rawName": "D240207",
    "bidPrice": "99,8274",
    "maturityInDays": "8 nap",
    "securityType": "DKJ",
    "maturityDate": "2024.02.07",
    "name": "D240207",
    "bidEhmYield": "7,89",
    "askYield": "",
    "currency": "HUF",
    "maturityInDays_val": 8,
    "issueDate": "2023.11.08",
    "longName": "D240207"
}