{
    "askPrice": "99,7320",
    "green": 0,
    "coupon": 0,
    "accruedInterest": 0,
    "settleDate": "2024.01.23",
    "askEhmYield": "6,54",
    "bidYield": "7,80",
    "rawName": "D240207",
    "bidPrice": "99,6761",
    "maturityInDays": "15 nap",
    "securityType": "DKJ",
    "maturityDate": "2024.02.07",
    "name": "D240207",
    "bidEhmYield": "7,91",
    "askYield": "6,45",
    "currency": "HUF",
    "maturityInDays_val": 15,
    "issueDate": "2023.11.08",
    "longName": "D240207"
}