{
    "askPrice": "99,4854",
    "green": 0,
    "coupon": 0,
    "accruedInterest": 0,
    "settleDate": "2024.01.10",
    "askEhmYield": "6,74",
    "bidYield": "7,90",
    "rawName": "D240207",
    "bidPrice": "99,3893",
    "maturityInDays": "28 nap",
    "securityType": "DKJ",
    "maturityDate": "2024.02.07",
    "name": "D240207",
    "bidEhmYield": "8,01",
    "askYield": "6,65",
    "currency": "HUF",
    "maturityInDays_val": 28,
    "issueDate": "2023.11.08",
    "longName": "D240207"
}