{
    "askPrice": "",
    "green": 0,
    "coupon": "3,50 %",
    "accruedInterest": "1,42",
    "settleDate": "2022.11.11",
    "askEhmYield": "",
    "bidYield": "5,43",
    "rawName": "N2026/29",
    "bidPrice": "99,50",
    "coupon_val": 3.5,
    "maturityInDays": "1346 nap",
    "securityType": "MÁP Plusz",
    "maturityDate": "2026.07.19",
    "name": "N2026/29",
    "bidEhmYield": "",
    "askYield": "",
    "currency": "HUF",
    "maturityInDays_val": 1346,
    "issueDate": "2021-07-19",
    "longName": "N260719"
}