{
    "askPrice": "",
    "green": 0,
    "coupon": "3,50 %",
    "accruedInterest": "2,0219",
    "settleDate": "2022.12.30",
    "askEhmYield": "",
    "bidYield": "5,47",
    "rawName": "N2026/29",
    "bidPrice": "99,5000",
    "coupon_val": 3.5,
    "maturityInDays": "1297 nap",
    "securityType": "MÁP Plusz",
    "maturityDate": "2026.07.19",
    "name": "N2026/29",
    "bidEhmYield": "",
    "askYield": "",
    "currency": "HUF",
    "maturityInDays_val": 1297,
    "issueDate": "2021.07.19",
    "longName": "N260719"
}