{
    "askPrice": "",
    "green": 0,
    "coupon": "3,50 %",
    "accruedInterest": "1,92",
    "settleDate": "2022.07.12",
    "askEhmYield": "",
    "bidYield": "",
    "rawName": "N2026/29",
    "bidPrice": "99,50",
    "coupon_val": 3.5,
    "maturityInDays": "1468 nap",
    "securityType": "MÁP Plusz",
    "maturityDate": "2026.07.19",
    "name": "N2026/29",
    "bidEhmYield": "",
    "askYield": "",
    "currency": "HUF",
    "maturityInDays_val": 1468,
    "longName": "N260719"
}