{
    "askPrice": "",
    "green": 0,
    "coupon": "3,50 %",
    "accruedInterest": "3,3470",
    "settleDate": "2024.03.20",
    "askEhmYield": "",
    "bidYield": "5,85",
    "rawName": "N2026/29",
    "bidPrice": "99,5000",
    "coupon_val": 3.5,
    "maturityInDays": "851 nap",
    "securityType": "MÁP Plusz",
    "maturityDate": "2026.07.19",
    "name": "N2026/29",
    "bidEhmYield": "",
    "askYield": "",
    "currency": "HUF",
    "maturityInDays_val": 851,
    "issueDate": "2021.07.19",
    "longName": "N260719"
}