{
    "askPrice": "",
    "green": 0,
    "coupon": "3,50 %",
    "accruedInterest": 0,
    "settleDate": "2022.12.12",
    "askEhmYield": "",
    "bidYield": "",
    "rawName": "N2027/24",
    "bidPrice": "",
    "coupon_val": 3.5,
    "maturityInDays": "1644 nap",
    "securityType": "MÁP Plusz",
    "maturityDate": "2027.06.13",
    "name": "N2027/24",
    "bidEhmYield": "",
    "askYield": "",
    "currency": "HUF",
    "maturityInDays_val": 1644,
    "issueDate": "2022.06.13",
    "longName": "N270613"
}