{
    "askPrice": "",
    "green": 0,
    "coupon": "3,50 %",
    "accruedInterest": "0,69",
    "settleDate": "2022.08.24",
    "askEhmYield": "",
    "bidYield": "",
    "rawName": "N2027/24",
    "bidPrice": "99,50",
    "coupon_val": 3.5,
    "maturityInDays": "1754 nap",
    "securityType": "MÁP Plusz",
    "maturityDate": "2027.06.13",
    "name": "N2027/24",
    "bidEhmYield": "",
    "askYield": "",
    "currency": "HUF",
    "maturityInDays_val": 1754,
    "longName": "N270613"
}