{
    "askPrice": "",
    "green": 0,
    "coupon": "3,50 %",
    "accruedInterest": "1,5587",
    "settleDate": "2022.11.23",
    "askEhmYield": "",
    "bidYield": "5,18",
    "rawName": "N2027/24",
    "bidPrice": "99,5000",
    "coupon_val": 3.5,
    "maturityInDays": "1663 nap",
    "securityType": "MÁP Plusz",
    "maturityDate": "2027.06.13",
    "name": "N2027/24",
    "bidEhmYield": "",
    "askYield": "",
    "currency": "HUF",
    "maturityInDays_val": 1663,
    "issueDate": "2022.06.13",
    "longName": "N270613"
}