{
    "askPrice": "",
    "green": 0,
    "coupon": "3,50 %",
    "accruedInterest": "1,28",
    "settleDate": "2022.10.25",
    "askEhmYield": "",
    "bidYield": "5,15",
    "rawName": "N2027/24",
    "bidPrice": "99,50",
    "coupon_val": 3.5,
    "maturityInDays": "1692 nap",
    "securityType": "MÁP Plusz",
    "maturityDate": "2027.06.13",
    "name": "N2027/24",
    "bidEhmYield": "",
    "askYield": "",
    "currency": "HUF",
    "maturityInDays_val": 1692,
    "longName": "N270613"
}