{
    "askPrice": "",
    "green": 0,
    "coupon": "3,50 %",
    "accruedInterest": "2,3115",
    "settleDate": "2023.12.18",
    "askEhmYield": "",
    "bidYield": "5,49",
    "rawName": "N2027/24",
    "bidPrice": "99,5000",
    "coupon_val": 3.5,
    "maturityInDays": "1273 nap",
    "securityType": "MÁP Plusz",
    "maturityDate": "2027.06.13",
    "name": "N2027/24",
    "bidEhmYield": "",
    "askYield": "",
    "currency": "HUF",
    "maturityInDays_val": 1273,
    "issueDate": "2022.06.13",
    "longName": "N270613"
}