{
    "askPrice": "",
    "green": 0,
    "coupon": "3,50 %",
    "accruedInterest": "0,0861",
    "settleDate": "2023.06.20",
    "askEhmYield": "",
    "bidYield": "5,22",
    "rawName": "N2027/24",
    "bidPrice": "100,0000",
    "coupon_val": 3.5,
    "maturityInDays": "1454 nap",
    "securityType": "MÁP Plusz",
    "maturityDate": "2027.06.13",
    "name": "N2027/24",
    "bidEhmYield": "",
    "askYield": "",
    "currency": "HUF",
    "maturityInDays_val": 1454,
    "issueDate": "2022.06.13",
    "longName": "N270613"
}