{
    "askPrice": "",
    "green": 0,
    "coupon": "3,50 %",
    "accruedInterest": "1,8462",
    "settleDate": "2023.05.30",
    "askEhmYield": "",
    "bidYield": "5,35",
    "rawName": "N2027/24",
    "bidPrice": "99,5000",
    "coupon_val": 3.5,
    "maturityInDays": "1475 nap",
    "securityType": "MÁP Plusz",
    "maturityDate": "2027.06.13",
    "name": "N2027/24",
    "bidEhmYield": "",
    "askYield": "",
    "currency": "HUF",
    "maturityInDays_val": 1475,
    "issueDate": "2022.06.13",
    "longName": "N270613"
}