{
    "askPrice": "",
    "green": 0,
    "coupon": "3,50 %",
    "accruedInterest": "2,7787",
    "settleDate": "2024.01.25",
    "askEhmYield": "",
    "bidYield": "5,52",
    "rawName": "N2027/24",
    "bidPrice": "99,5000",
    "coupon_val": 3.5,
    "maturityInDays": "1235 nap",
    "securityType": "MÁP Plusz",
    "maturityDate": "2027.06.13",
    "name": "N2027/24",
    "bidEhmYield": "",
    "askYield": "",
    "currency": "HUF",
    "maturityInDays_val": 1235,
    "issueDate": "2022.06.13",
    "longName": "N270613"
}