{
    "askPrice": "",
    "green": 0,
    "coupon": "3,50 %",
    "accruedInterest": "0,64",
    "settleDate": "2022.11.04",
    "askEhmYield": "",
    "bidYield": "5,25",
    "rawName": "N2027/10",
    "bidPrice": "99,50",
    "coupon_val": 3.5,
    "maturityInDays": "1584 nap",
    "securityType": "MÁP Plusz",
    "maturityDate": "2027.03.07",
    "name": "N2027/10",
    "bidEhmYield": "",
    "askYield": "",
    "currency": "HUF",
    "maturityInDays_val": 1584,
    "issueDate": "2022-03-07",
    "longName": "N270307"
}