{
    "askPrice": "",
    "green": 0,
    "coupon": "3,50 %",
    "accruedInterest": "0,08",
    "settleDate": "2022.09.14",
    "askEhmYield": "",
    "bidYield": "",
    "rawName": "N2027/10",
    "bidPrice": "100,00",
    "coupon_val": 3.5,
    "maturityInDays": "1635 nap",
    "securityType": "MÁP Plusz",
    "maturityDate": "2027.03.07",
    "name": "N2027/10",
    "bidEhmYield": "",
    "askYield": "",
    "currency": "HUF",
    "maturityInDays_val": 1635,
    "longName": "N270307"
}