{
    "askPrice": "",
    "green": 0,
    "coupon": "3,50 %",
    "accruedInterest": "0,15",
    "settleDate": "2022.09.21",
    "askEhmYield": "",
    "bidYield": "",
    "rawName": "N2027/10",
    "bidPrice": "99,50",
    "coupon_val": 3.5,
    "maturityInDays": "1628 nap",
    "securityType": "MÁP Plusz",
    "maturityDate": "2027.03.07",
    "name": "N2027/10",
    "bidEhmYield": "",
    "askYield": "",
    "currency": "HUF",
    "maturityInDays_val": 1628,
    "longName": "N270307"
}