{
    "askPrice": "",
    "green": 0,
    "coupon": "3,50 %",
    "accruedInterest": "1,0166",
    "settleDate": "2022.12.08",
    "askEhmYield": "",
    "bidYield": "5,28",
    "rawName": "N2027/10",
    "bidPrice": "99,5000",
    "coupon_val": 3.5,
    "maturityInDays": "1550 nap",
    "securityType": "MÁP Plusz",
    "maturityDate": "2027.03.07",
    "name": "N2027/10",
    "bidEhmYield": "",
    "askYield": "",
    "currency": "HUF",
    "maturityInDays_val": 1550,
    "issueDate": "2022.03.07",
    "longName": "N270307"
}