{
    "askPrice": "",
    "green": 0,
    "coupon": "3,50 %",
    "accruedInterest": "1,10",
    "settleDate": "2022.07.01",
    "askEhmYield": "",
    "bidYield": "",
    "rawName": "N2027/10",
    "bidPrice": "99,50",
    "coupon_val": 3.5,
    "maturityInDays": "1710 nap",
    "securityType": "MÁP Plusz",
    "maturityDate": "2027.03.07",
    "name": "N2027/10",
    "bidEhmYield": "",
    "askYield": "",
    "currency": "HUF",
    "maturityInDays_val": 1710,
    "longName": "N270307"
}