{
    "askPrice": "",
    "green": 0,
    "coupon": "3,50 %",
    "accruedInterest": "0,1598",
    "settleDate": "2023.03.20",
    "askEhmYield": "",
    "bidYield": "5,37",
    "rawName": "N2027/10",
    "bidPrice": "99,5000",
    "coupon_val": 3.5,
    "maturityInDays": "1448 nap",
    "securityType": "MÁP Plusz",
    "maturityDate": "2027.03.07",
    "name": "N2027/10",
    "bidEhmYield": "",
    "askYield": "",
    "currency": "HUF",
    "maturityInDays_val": 1448,
    "issueDate": "2022.03.07",
    "longName": "N270307"
}