{
    "askPrice": "",
    "green": 0,
    "coupon": "3,50 %",
    "accruedInterest": "4,4754",
    "settleDate": "2024.03.05",
    "askEhmYield": "",
    "bidYield": "",
    "rawName": "N2027/10",
    "bidPrice": "",
    "coupon_val": 3.5,
    "maturityInDays": "1097 nap",
    "securityType": "MÁP Plusz",
    "maturityDate": "2027.03.07",
    "name": "N2027/10",
    "bidEhmYield": "",
    "askYield": "",
    "currency": "HUF",
    "maturityInDays_val": 1097,
    "issueDate": "2022.03.07",
    "longName": "N270307"
}