{
    "askPrice": "98,9794",
    "green": 0,
    "coupon": 0,
    "accruedInterest": 0,
    "settleDate": "2024.01.02",
    "askEhmYield": "5,88",
    "bidYield": "7,15",
    "rawName": "D240306",
    "bidPrice": "98,7448",
    "maturityInDays": "64 nap",
    "securityType": "DKJ",
    "maturityDate": "2024.03.06",
    "name": "D240306",
    "bidEhmYield": "7,25",
    "askYield": "5,80",
    "currency": "HUF",
    "maturityInDays_val": 64,
    "issueDate": "2023.12.06",
    "longName": "D240306"
}