{
    "askPrice": "",
    "green": 0,
    "coupon": 0,
    "accruedInterest": 0,
    "settleDate": "2024.03.01",
    "askEhmYield": "",
    "bidYield": "7,52",
    "rawName": "D240306",
    "bidPrice": "99,8957",
    "maturityInDays": "5 nap",
    "securityType": "DKJ",
    "maturityDate": "2024.03.06",
    "name": "D240306",
    "bidEhmYield": "7,62",
    "askYield": "",
    "currency": "HUF",
    "maturityInDays_val": 5,
    "issueDate": "2023.12.06",
    "longName": "D240306"
}