{
    "askPrice": "99,0806",
    "green": 0,
    "coupon": 0,
    "accruedInterest": 0,
    "settleDate": "2024.01.15",
    "askEhmYield": "6,64",
    "bidYield": "7,88",
    "rawName": "D240306",
    "bidPrice": "98,8960",
    "maturityInDays": "51 nap",
    "securityType": "DKJ",
    "maturityDate": "2024.03.06",
    "name": "D240306",
    "bidEhmYield": "7,99",
    "askYield": "6,55",
    "currency": "HUF",
    "maturityInDays_val": 51,
    "issueDate": "2023.12.06",
    "longName": "D240306"
}