{
    "askPrice": "",
    "green": 0,
    "coupon": 0,
    "accruedInterest": 0,
    "settleDate": "2024.02.21",
    "askEhmYield": "",
    "bidYield": "7,68",
    "rawName": "D240306",
    "bidPrice": "99,7022",
    "maturityInDays": "14 nap",
    "securityType": "DKJ",
    "maturityDate": "2024.03.06",
    "name": "D240306",
    "bidEhmYield": "7,79",
    "askYield": "",
    "currency": "HUF",
    "maturityInDays_val": 14,
    "issueDate": "2023.12.06",
    "longName": "D240306"
}