{
    "askPrice": "",
    "green": 0,
    "coupon": 0,
    "accruedInterest": 0,
    "settleDate": "2024.02.28",
    "askEhmYield": "",
    "bidYield": "7,40",
    "rawName": "D240306",
    "bidPrice": "99,8563",
    "maturityInDays": "7 nap",
    "securityType": "DKJ",
    "maturityDate": "2024.03.06",
    "name": "D240306",
    "bidEhmYield": "7,50",
    "askYield": "",
    "currency": "HUF",
    "maturityInDays_val": 7,
    "issueDate": "2023.12.06",
    "longName": "D240306"
}