{
    "askPrice": "",
    "green": 0,
    "coupon": "3,50 %",
    "accruedInterest": "2,1548",
    "settleDate": "2022.11.21",
    "askEhmYield": "",
    "bidYield": "6,12",
    "rawName": "N2024/04",
    "bidPrice": "99,5000",
    "coupon_val": 3.5,
    "maturityInDays": "588 nap",
    "securityType": "MÁP Plusz",
    "maturityDate": "2024.07.01",
    "name": "N2024/04",
    "bidEhmYield": "",
    "askYield": "",
    "currency": "HUF",
    "maturityInDays_val": 588,
    "issueDate": "2019.07.01",
    "longName": "N240701"
}