{
    "askPrice": "",
    "green": 0,
    "coupon": "3,50 %",
    "accruedInterest": "0,80",
    "settleDate": "2022.08.23",
    "askEhmYield": "",
    "bidYield": "",
    "rawName": "N2024/04",
    "bidPrice": "99,50",
    "coupon_val": 3.5,
    "maturityInDays": "678 nap",
    "securityType": "MÁP Plusz",
    "maturityDate": "2024.07.01",
    "name": "N2024/04",
    "bidEhmYield": "",
    "askYield": "",
    "currency": "HUF",
    "maturityInDays_val": 678,
    "longName": "N240701"
}