{
    "askPrice": "",
    "green": 0,
    "coupon": "3,50 %",
    "accruedInterest": "1,96",
    "settleDate": "2022.11.08",
    "askEhmYield": "",
    "bidYield": "6,10",
    "rawName": "N2024/04",
    "bidPrice": "99,50",
    "coupon_val": 3.5,
    "maturityInDays": "601 nap",
    "securityType": "MÁP Plusz",
    "maturityDate": "2024.07.01",
    "name": "N2024/04",
    "bidEhmYield": "",
    "askYield": "",
    "currency": "HUF",
    "maturityInDays_val": 601,
    "issueDate": "2019-07-01",
    "longName": "N240701"
}