{
    "askPrice": "",
    "green": 0,
    "coupon": "3,50 %",
    "accruedInterest": "1,5246",
    "settleDate": "2023.10.02",
    "askEhmYield": "",
    "bidYield": "6,66",
    "rawName": "N2024/04",
    "bidPrice": "99,5000",
    "coupon_val": 3.5,
    "maturityInDays": "273 nap",
    "securityType": "MÁP Plusz",
    "maturityDate": "2024.07.01",
    "name": "N2024/04",
    "bidEhmYield": "",
    "askYield": "",
    "currency": "HUF",
    "maturityInDays_val": 273,
    "issueDate": "2019.07.01",
    "longName": "N240701"
}