{
    "askPrice": "",
    "green": 0,
    "coupon": "3,50 %",
    "accruedInterest": 0,
    "settleDate": "2023.06.30",
    "askEhmYield": "",
    "bidYield": "",
    "rawName": "N2024/04",
    "bidPrice": "",
    "coupon_val": 3.5,
    "maturityInDays": "367 nap",
    "securityType": "MÁP Plusz",
    "maturityDate": "2024.07.01",
    "name": "N2024/04",
    "bidEhmYield": "",
    "askYield": "",
    "currency": "HUF",
    "maturityInDays_val": 367,
    "issueDate": "2019.07.01",
    "longName": "N240701"
}