{
    "askPrice": "",
    "green": 0,
    "coupon": "3,50 %",
    "accruedInterest": "3,1644",
    "settleDate": "2023.01.27",
    "askEhmYield": "",
    "bidYield": "6,19",
    "rawName": "N2024/04",
    "bidPrice": "99,5000",
    "coupon_val": 3.5,
    "maturityInDays": "521 nap",
    "securityType": "MÁP Plusz",
    "maturityDate": "2024.07.01",
    "name": "N2024/04",
    "bidEhmYield": "",
    "askYield": "",
    "currency": "HUF",
    "maturityInDays_val": 521,
    "issueDate": "2019.07.01",
    "longName": "N240701"
}