{
    "askPrice": "",
    "green": 0,
    "coupon": "3,50 %",
    "accruedInterest": "3,1967",
    "settleDate": "2024.01.12",
    "askEhmYield": "",
    "bidYield": "7,01",
    "rawName": "N2024/04",
    "bidPrice": "99,5000",
    "coupon_val": 3.5,
    "maturityInDays": "171 nap",
    "securityType": "MÁP Plusz",
    "maturityDate": "2024.07.01",
    "name": "N2024/04",
    "bidEhmYield": "",
    "askYield": "",
    "currency": "HUF",
    "maturityInDays_val": 171,
    "issueDate": "2019.07.01",
    "longName": "N240701"
}