{
    "askPrice": "",
    "green": 0,
    "coupon": "3,50 %",
    "accruedInterest": "0,87",
    "settleDate": "2022.08.22",
    "askEhmYield": "",
    "bidYield": "",
    "rawName": "N2027/21",
    "bidPrice": "99,50",
    "coupon_val": 3.5,
    "maturityInDays": "1735 nap",
    "securityType": "MÁP Plusz",
    "maturityDate": "2027.05.23",
    "name": "N2027/21",
    "bidEhmYield": "",
    "askYield": "",
    "currency": "HUF",
    "maturityInDays_val": 1735,
    "longName": "N270523"
}