{
    "askPrice": "",
    "green": 0,
    "coupon": "3,50 %",
    "accruedInterest": "1,42",
    "settleDate": "2022.10.19",
    "askEhmYield": "",
    "bidYield": "5,17",
    "rawName": "N2027/21",
    "bidPrice": "99,50",
    "coupon_val": 3.5,
    "maturityInDays": "1677 nap",
    "securityType": "MÁP Plusz",
    "maturityDate": "2027.05.23",
    "name": "N2027/21",
    "bidEhmYield": "",
    "askYield": "",
    "currency": "HUF",
    "maturityInDays_val": 1677,
    "longName": "N270523"
}