{
    "askPrice": "",
    "green": 0,
    "coupon": "3,50 %",
    "accruedInterest": "0,0552",
    "settleDate": "2022.11.28",
    "askEhmYield": "",
    "bidYield": "5,08",
    "rawName": "N2027/21",
    "bidPrice": "100,0000",
    "coupon_val": 3.5,
    "maturityInDays": "1637 nap",
    "securityType": "MÁP Plusz",
    "maturityDate": "2027.05.23",
    "name": "N2027/21",
    "bidEhmYield": "",
    "askYield": "",
    "currency": "HUF",
    "maturityInDays_val": 1637,
    "issueDate": "2022.05.23",
    "longName": "N270523"
}