{
    "askPrice": "",
    "green": 0,
    "coupon": "3,50 %",
    "accruedInterest": "1,64",
    "settleDate": "2022.11.11",
    "askEhmYield": "",
    "bidYield": "5,19",
    "rawName": "N2027/21",
    "bidPrice": "99,50",
    "coupon_val": 3.5,
    "maturityInDays": "1654 nap",
    "securityType": "MÁP Plusz",
    "maturityDate": "2027.05.23",
    "name": "N2027/21",
    "bidEhmYield": "",
    "askYield": "",
    "currency": "HUF",
    "maturityInDays_val": 1654,
    "issueDate": "2022-05-23",
    "longName": "N270523"
}