{
    "askPrice": "",
    "green": 0,
    "coupon": "3,50 %",
    "accruedInterest": "0,5533",
    "settleDate": "2023.07.07",
    "askEhmYield": "",
    "bidYield": "5,39",
    "rawName": "N2027/21",
    "bidPrice": "99,5000",
    "coupon_val": 3.5,
    "maturityInDays": "1416 nap",
    "securityType": "MÁP Plusz",
    "maturityDate": "2027.05.23",
    "name": "N2027/21",
    "bidEhmYield": "",
    "askYield": "",
    "currency": "HUF",
    "maturityInDays_val": 1416,
    "issueDate": "2022.05.23",
    "longName": "N270523"
}