{
    "askPrice": "88,84",
    "green": 0,
    "coupon": "3,00 %",
    "accruedInterest": "0,12",
    "settleDate": "2022.07.11",
    "askEhmYield": "9,51",
    "bidYield": "10,11",
    "rawName": "2024/B",
    "bidPrice": "87,90",
    "coupon_val": 3,
    "maturityInDays": "716 nap",
    "securityType": "KTV",
    "maturityDate": "2024.06.26",
    "name": "2024/B",
    "bidEhmYield": "10,11",
    "askYield": "9,51",
    "currency": "HUF",
    "maturityInDays_val": 716,
    "longName": "A240626B15"
}