{
    "askPrice": "88,4995",
    "green": 0,
    "coupon": "3,00 %",
    "accruedInterest": "1,3890",
    "settleDate": "2022.12.12",
    "askEhmYield": "11,54",
    "bidYield": "12,38",
    "rawName": "2024/B",
    "bidPrice": "87,5140",
    "coupon_val": 3,
    "maturityInDays": "562 nap",
    "securityType": "KTV",
    "maturityDate": "2024.06.26",
    "name": "2024/B",
    "bidEhmYield": "12,36",
    "askYield": "11,56",
    "currency": "HUF",
    "maturityInDays_val": 562,
    "issueDate": "2015.03.18",
    "longName": "A240626B15"
}