{
    "askPrice": "88,6185",
    "green": 0,
    "coupon": "3,00 %",
    "accruedInterest": "1,5288",
    "settleDate": "2022.12.29",
    "askEhmYield": "11,71",
    "bidYield": "12,54",
    "rawName": "2024/B",
    "bidPrice": "87,6735",
    "coupon_val": 3,
    "maturityInDays": "545 nap",
    "securityType": "KTV",
    "maturityDate": "2024.06.26",
    "name": "2024/B",
    "bidEhmYield": "12,52",
    "askYield": "11,73",
    "currency": "HUF",
    "maturityInDays_val": 545,
    "issueDate": "2015.03.18",
    "longName": "A240626B15"
}