{
    "askPrice": "88,25",
    "green": 0,
    "coupon": "3,00 %",
    "accruedInterest": "0,31",
    "settleDate": "2022.08.03",
    "askEhmYield": "10,11",
    "bidYield": "10,72",
    "rawName": "2024/B",
    "bidPrice": "87,34",
    "coupon_val": 3,
    "maturityInDays": "693 nap",
    "securityType": "KTV",
    "maturityDate": "2024.06.26",
    "name": "2024/B",
    "bidEhmYield": "10,72",
    "askYield": "10,11",
    "currency": "HUF",
    "maturityInDays_val": 693,
    "longName": "A240626B15"
}