{
    "askPrice": "85,95",
    "green": 0,
    "coupon": "3,00 %",
    "accruedInterest": "0,71",
    "settleDate": "2022.09.20",
    "askEhmYield": "12,32",
    "bidYield": "12,97",
    "rawName": "2024/B",
    "bidPrice": "85,09",
    "coupon_val": 3,
    "maturityInDays": "645 nap",
    "securityType": "KTV",
    "maturityDate": "2024.06.26",
    "name": "2024/B",
    "bidEhmYield": "12,97",
    "askYield": "12,32",
    "currency": "HUF",
    "maturityInDays_val": 645,
    "longName": "A240626B15"
}