{
    "askPrice": "89,0164",
    "green": 0,
    "coupon": "3,00 %",
    "accruedInterest": "1,4630",
    "settleDate": "2022.12.21",
    "askEhmYield": "11,25",
    "bidYield": "12,08",
    "rawName": "2024/B",
    "bidPrice": "88,0498",
    "coupon_val": 3,
    "maturityInDays": "553 nap",
    "securityType": "KTV",
    "maturityDate": "2024.06.26",
    "name": "2024/B",
    "bidEhmYield": "12,06",
    "askYield": "11,27",
    "currency": "HUF",
    "maturityInDays_val": 553,
    "issueDate": "2015.03.18",
    "longName": "A240626B15"
}