{
    "askPrice": "90,3030",
    "green": 0,
    "coupon": "3,00 %",
    "accruedInterest": "1,3315",
    "settleDate": "2022.12.05",
    "askEhmYield": "9,99",
    "bidYield": "10,82",
    "rawName": "2024/B",
    "bidPrice": "89,2836",
    "coupon_val": 3,
    "maturityInDays": "569 nap",
    "securityType": "KTV",
    "maturityDate": "2024.06.26",
    "name": "2024/B",
    "bidEhmYield": "10,80",
    "askYield": "10,01",
    "currency": "HUF",
    "maturityInDays_val": 569,
    "issueDate": "2015.03.18",
    "longName": "A240626B15"
}