{
    "askPrice": "88,80",
    "green": 0,
    "coupon": "3,00 %",
    "accruedInterest": "0,41",
    "settleDate": "2022.08.15",
    "askEhmYield": "9,86",
    "bidYield": "10,49",
    "rawName": "2024/B",
    "bidPrice": "87,88",
    "coupon_val": 3,
    "maturityInDays": "681 nap",
    "securityType": "KTV",
    "maturityDate": "2024.06.26",
    "name": "2024/B",
    "bidEhmYield": "10,49",
    "askYield": "9,86",
    "currency": "HUF",
    "maturityInDays_val": 681,
    "longName": "A240626B15"
}