{
    "askPrice": "83,88",
    "green": 0,
    "coupon": "3,00 %",
    "accruedInterest": "1,00",
    "settleDate": "2022.10.26",
    "askEhmYield": "14,52",
    "bidYield": "15,31",
    "rawName": "2024/B",
    "bidPrice": "82,97",
    "coupon_val": 3,
    "maturityInDays": "609 nap",
    "securityType": "KTV",
    "maturityDate": "2024.06.26",
    "name": "2024/B",
    "bidEhmYield": "15,28",
    "askYield": "14,55",
    "currency": "HUF",
    "maturityInDays_val": 609,
    "longName": "A240626B15"
}