{
    "askPrice": "85,69",
    "green": 0,
    "coupon": "3,00 %",
    "accruedInterest": "1,06",
    "settleDate": "2022.11.02",
    "askEhmYield": "13,18",
    "bidYield": "13,94",
    "rawName": "2024/B",
    "bidPrice": "84,78",
    "coupon_val": 3,
    "maturityInDays": "602 nap",
    "securityType": "KTV",
    "maturityDate": "2024.06.26",
    "name": "2024/B",
    "bidEhmYield": "13,92",
    "askYield": "13,20",
    "currency": "HUF",
    "maturityInDays_val": 602,
    "issueDate": "2015-03-18",
    "longName": "A240626B15"
}