{
    "askPrice": "88,6485",
    "green": 0,
    "coupon": "3,00 %",
    "accruedInterest": "1,5616",
    "settleDate": "2023.01.02",
    "askEhmYield": "11,75",
    "bidYield": "12,54",
    "rawName": "2024/B",
    "bidPrice": "87,7562",
    "coupon_val": 3,
    "maturityInDays": "541 nap",
    "securityType": "KTV",
    "maturityDate": "2024.06.26",
    "name": "2024/B",
    "bidEhmYield": "12,52",
    "askYield": "11,77",
    "currency": "HUF",
    "maturityInDays_val": 541,
    "issueDate": "2015.03.18",
    "longName": "A240626B15"
}