{
    "askPrice": "85,83",
    "green": 0,
    "coupon": "3,00 %",
    "accruedInterest": "0,81",
    "settleDate": "2022.10.03",
    "askEhmYield": "12,60",
    "bidYield": "13,25",
    "rawName": "2024/B",
    "bidPrice": "84,99",
    "coupon_val": 3,
    "maturityInDays": "632 nap",
    "securityType": "KTV",
    "maturityDate": "2024.06.26",
    "name": "2024/B",
    "bidEhmYield": "13,25",
    "askYield": "12,60",
    "currency": "HUF",
    "maturityInDays_val": 632,
    "longName": "A240626B15"
}