{
    "askPrice": "90,2313",
    "green": 0,
    "coupon": "3,00 %",
    "accruedInterest": "1,2329",
    "settleDate": "2022.11.23",
    "askEhmYield": "9,90",
    "bidYield": "10,67",
    "rawName": "2024/B",
    "bidPrice": "89,2674",
    "coupon_val": 3,
    "maturityInDays": "581 nap",
    "securityType": "KTV",
    "maturityDate": "2024.06.26",
    "name": "2024/B",
    "bidEhmYield": "10,65",
    "askYield": "9,92",
    "currency": "HUF",
    "maturityInDays_val": 581,
    "issueDate": "2015.03.18",
    "longName": "A240626B15"
}