{
    "askPrice": "88,63",
    "green": 0,
    "coupon": "3,00 %",
    "accruedInterest": "0,44",
    "settleDate": "2022.08.19",
    "askEhmYield": "10,02",
    "bidYield": "10,65",
    "rawName": "2024/B",
    "bidPrice": "87,71",
    "coupon_val": 3,
    "maturityInDays": "677 nap",
    "securityType": "KTV",
    "maturityDate": "2024.06.26",
    "name": "2024/B",
    "bidEhmYield": "10,65",
    "askYield": "10,02",
    "currency": "HUF",
    "maturityInDays_val": 677,
    "longName": "A240626B15"
}