{
    "askPrice": "88,34",
    "green": 0,
    "coupon": "3,00 %",
    "accruedInterest": "1,19",
    "settleDate": "2022.11.18",
    "askEhmYield": "11,31",
    "bidYield": "12,11",
    "rawName": "2024/B",
    "bidPrice": "87,37",
    "coupon_val": 3,
    "maturityInDays": "586 nap",
    "securityType": "KTV",
    "maturityDate": "2024.06.26",
    "name": "2024/B",
    "bidEhmYield": "12,09",
    "askYield": "11,33",
    "currency": "HUF",
    "maturityInDays_val": 586,
    "issueDate": "2015-03-18",
    "longName": "A240626B15"
}