{
    "askPrice": "87,90",
    "green": 0,
    "coupon": "3,00 %",
    "accruedInterest": "0,30",
    "settleDate": "2022.08.01",
    "askEhmYield": "10,32",
    "bidYield": "10,93",
    "rawName": "2024/B",
    "bidPrice": "87,00",
    "coupon_val": 3,
    "maturityInDays": "695 nap",
    "securityType": "KTV",
    "maturityDate": "2024.06.26",
    "name": "2024/B",
    "bidEhmYield": "10,93",
    "askYield": "10,32",
    "currency": "HUF",
    "maturityInDays_val": 695,
    "longName": "A240626B15"
}