{
    "askPrice": "86,76",
    "green": 0,
    "coupon": "3,00 %",
    "accruedInterest": "1,12",
    "settleDate": "2022.11.09",
    "askEhmYield": "12,43",
    "bidYield": "13,24",
    "rawName": "2024/B",
    "bidPrice": "85,79",
    "coupon_val": 3,
    "maturityInDays": "595 nap",
    "securityType": "KTV",
    "maturityDate": "2024.06.26",
    "name": "2024/B",
    "bidEhmYield": "13,22",
    "askYield": "12,45",
    "currency": "HUF",
    "maturityInDays_val": 595,
    "issueDate": "2015-03-18",
    "longName": "A240626B15"
}