{
    "askPrice": "88,89",
    "green": 0,
    "coupon": "3,00 %",
    "accruedInterest": "0,10",
    "settleDate": "2022.07.08",
    "askEhmYield": "9,45",
    "bidYield": "10,05",
    "rawName": "2024/B",
    "bidPrice": "87,95",
    "coupon_val": 3,
    "maturityInDays": "719 nap",
    "securityType": "KTV",
    "maturityDate": "2024.06.26",
    "name": "2024/B",
    "bidEhmYield": "10,05",
    "askYield": "9,45",
    "currency": "HUF",
    "maturityInDays_val": 719,
    "longName": "A240626B15"
}