{
    "askPrice": "89,9270",
    "green": 0,
    "coupon": "3,00 %",
    "accruedInterest": "1,3397",
    "settleDate": "2022.12.06",
    "askEhmYield": "10,30",
    "bidYield": "11,12",
    "rawName": "2024/B",
    "bidPrice": "88,9287",
    "coupon_val": 3,
    "maturityInDays": "568 nap",
    "securityType": "KTV",
    "maturityDate": "2024.06.26",
    "name": "2024/B",
    "bidEhmYield": "11,10",
    "askYield": "10,32",
    "currency": "HUF",
    "maturityInDays_val": 568,
    "issueDate": "2015.03.18",
    "longName": "A240626B15"
}