{
    "askPrice": "90,1598",
    "green": 0,
    "coupon": "3,00 %",
    "accruedInterest": "2,5479",
    "settleDate": "2023.05.02",
    "askEhmYield": "12,67",
    "bidYield": "13,50",
    "rawName": "2024/B",
    "bidPrice": "89,4290",
    "coupon_val": 3,
    "maturityInDays": "421 nap",
    "securityType": "KTV",
    "maturityDate": "2024.06.26",
    "name": "2024/B",
    "bidEhmYield": "13,47",
    "askYield": "12,70",
    "currency": "HUF",
    "maturityInDays_val": 421,
    "issueDate": "2015.03.18",
    "longName": "A240626B15"
}