{
    "askPrice": "95,8925",
    "green": 0,
    "coupon": "3,00 %",
    "accruedInterest": "0,6885",
    "settleDate": "2023.09.18",
    "askEhmYield": "8,68",
    "bidYield": "9,35",
    "rawName": "2024/B",
    "bidPrice": "95,4567",
    "coupon_val": 3,
    "maturityInDays": "282 nap",
    "securityType": "KTV",
    "maturityDate": "2024.06.26",
    "name": "2024/B",
    "bidEhmYield": "9,32",
    "askYield": "8,71",
    "currency": "HUF",
    "maturityInDays_val": 282,
    "issueDate": "2015.03.18",
    "longName": "A240626B15"
}