{
    "askPrice": "95,6350",
    "green": 0,
    "coupon": "3,00 %",
    "accruedInterest": "0,6311",
    "settleDate": "2023.09.11",
    "askEhmYield": "8,91",
    "bidYield": "9,57",
    "rawName": "2024/B",
    "bidPrice": "95,1976",
    "coupon_val": 3,
    "maturityInDays": "289 nap",
    "securityType": "KTV",
    "maturityDate": "2024.06.26",
    "name": "2024/B",
    "bidEhmYield": "9,54",
    "askYield": "8,94",
    "currency": "HUF",
    "maturityInDays_val": 289,
    "issueDate": "2015.03.18",
    "longName": "A240626B15"
}