{
    "askPrice": "96,9800",
    "green": 0,
    "coupon": "3,00 %",
    "accruedInterest": "1,2787",
    "settleDate": "2023.11.29",
    "askEhmYield": "8,53",
    "bidYield": "9,23",
    "rawName": "2024/B",
    "bidPrice": "96,6337",
    "coupon_val": 3,
    "maturityInDays": "210 nap",
    "securityType": "KTV",
    "maturityDate": "2024.06.26",
    "name": "2024/B",
    "bidEhmYield": "9,20",
    "askYield": "8,56",
    "currency": "HUF",
    "maturityInDays_val": 210,
    "issueDate": "2015.03.18",
    "longName": "A240626B15"
}