{
    "askPrice": "89,2713",
    "green": 0,
    "coupon": "3,00 %",
    "accruedInterest": "1,6192",
    "settleDate": "2023.01.09",
    "askEhmYield": "11,33",
    "bidYield": "12,19",
    "rawName": "2024/B",
    "bidPrice": "88,3005",
    "coupon_val": 3,
    "maturityInDays": "534 nap",
    "securityType": "KTV",
    "maturityDate": "2024.06.26",
    "name": "2024/B",
    "bidEhmYield": "12,17",
    "askYield": "11,35",
    "currency": "HUF",
    "maturityInDays_val": 534,
    "issueDate": "2015.03.18",
    "longName": "A240626B15"
}