{
    "askPrice": "96,6707",
    "green": 0,
    "coupon": "3,00 %",
    "accruedInterest": "1,0984",
    "settleDate": "2023.11.07",
    "askEhmYield": "8,54",
    "bidYield": "9,23",
    "rawName": "2024/B",
    "bidPrice": "96,2958",
    "coupon_val": 3,
    "maturityInDays": "232 nap",
    "securityType": "KTV",
    "maturityDate": "2024.06.26",
    "name": "2024/B",
    "bidEhmYield": "9,20",
    "askYield": "8,57",
    "currency": "HUF",
    "maturityInDays_val": 232,
    "issueDate": "2015.03.18",
    "longName": "A240626B15"
}