{
    "askPrice": "97,0094",
    "green": 0,
    "coupon": "3,00 %",
    "accruedInterest": "1,2869",
    "settleDate": "2023.11.30",
    "askEhmYield": "8,50",
    "bidYield": "9,15",
    "rawName": "2024/B",
    "bidPrice": "96,6901",
    "coupon_val": 3,
    "maturityInDays": "209 nap",
    "securityType": "KTV",
    "maturityDate": "2024.06.26",
    "name": "2024/B",
    "bidEhmYield": "9,12",
    "askYield": "8,53",
    "currency": "HUF",
    "maturityInDays_val": 209,
    "issueDate": "2015.03.18",
    "longName": "A240626B15"
}