{
    "askPrice": "95,1643",
    "green": 0,
    "coupon": "3,00 %",
    "accruedInterest": "0,4590",
    "settleDate": "2023.08.21",
    "askEhmYield": "9,14",
    "bidYield": "9,85",
    "rawName": "2024/B",
    "bidPrice": "94,6627",
    "coupon_val": 3,
    "maturityInDays": "310 nap",
    "securityType": "KTV",
    "maturityDate": "2024.06.26",
    "name": "2024/B",
    "bidEhmYield": "9,82",
    "askYield": "9,17",
    "currency": "HUF",
    "maturityInDays_val": 310,
    "issueDate": "2015.03.18",
    "longName": "A240626B15"
}