{
    "askPrice": "89,2487",
    "green": 0,
    "coupon": "3,00 %",
    "accruedInterest": "1,7589",
    "settleDate": "2023.01.26",
    "askEhmYield": "11,63",
    "bidYield": "12,43",
    "rawName": "2024/B",
    "bidPrice": "88,3772",
    "coupon_val": 3,
    "maturityInDays": "517 nap",
    "securityType": "KTV",
    "maturityDate": "2024.06.26",
    "name": "2024/B",
    "bidEhmYield": "12,40",
    "askYield": "11,65",
    "currency": "HUF",
    "maturityInDays_val": 517,
    "issueDate": "2015.03.18",
    "longName": "A240626B15"
}