{
    "askPrice": "89,1369",
    "green": 0,
    "coupon": "3,00 %",
    "accruedInterest": "1,8247",
    "settleDate": "2023.02.03",
    "askEhmYield": "11,87",
    "bidYield": "12,73",
    "rawName": "2024/B",
    "bidPrice": "88,2163",
    "coupon_val": 3,
    "maturityInDays": "509 nap",
    "securityType": "KTV",
    "maturityDate": "2024.06.26",
    "name": "2024/B",
    "bidEhmYield": "12,70",
    "askYield": "11,89",
    "currency": "HUF",
    "maturityInDays_val": 509,
    "issueDate": "2015.03.18",
    "longName": "A240626B15"
}