{
    "askPrice": "91,9889",
    "green": 0,
    "coupon": "3,00 %",
    "accruedInterest": 0,
    "settleDate": "2023.06.26",
    "askEhmYield": "11,94",
    "bidYield": "12,80",
    "rawName": "2024/B",
    "bidPrice": "91,3121",
    "coupon_val": 3,
    "maturityInDays": "366 nap",
    "securityType": "KTV",
    "maturityDate": "2024.06.26",
    "name": "2024/B",
    "bidEhmYield": "12,76",
    "askYield": "11,97",
    "currency": "HUF",
    "maturityInDays_val": 366,
    "issueDate": "2015.03.18",
    "longName": "A240626B15"
}