{
    "askPrice": "89,4041",
    "green": 0,
    "coupon": "3,00 %",
    "accruedInterest": "1,6932",
    "settleDate": "2023.01.18",
    "askEhmYield": "11,36",
    "bidYield": "12,20",
    "rawName": "2024/B",
    "bidPrice": "88,4707",
    "coupon_val": 3,
    "maturityInDays": "525 nap",
    "securityType": "KTV",
    "maturityDate": "2024.06.26",
    "name": "2024/B",
    "bidEhmYield": "12,18",
    "askYield": "11,38",
    "currency": "HUF",
    "maturityInDays_val": 525,
    "issueDate": "2015.03.18",
    "longName": "A240626B15"
}