{
    "askPrice": "93,2677",
    "green": 0,
    "coupon": "3,00 %",
    "accruedInterest": "0,1148",
    "settleDate": "2023.07.10",
    "askEhmYield": "10,70",
    "bidYield": "11,50",
    "rawName": "2024/B",
    "bidPrice": "92,6474",
    "coupon_val": 3,
    "maturityInDays": "352 nap",
    "securityType": "KTV",
    "maturityDate": "2024.06.26",
    "name": "2024/B",
    "bidEhmYield": "11,47",
    "askYield": "10,73",
    "currency": "HUF",
    "maturityInDays_val": 352,
    "issueDate": "2015.03.18",
    "longName": "A240626B15"
}