{
    "askPrice": "95,8303",
    "green": 0,
    "coupon": "3,00 %",
    "accruedInterest": "0,6639",
    "settleDate": "2023.09.15",
    "askEhmYield": "8,71",
    "bidYield": "9,42",
    "rawName": "2024/B",
    "bidPrice": "95,3630",
    "coupon_val": 3,
    "maturityInDays": "285 nap",
    "securityType": "KTV",
    "maturityDate": "2024.06.26",
    "name": "2024/B",
    "bidEhmYield": "9,39",
    "askYield": "8,74",
    "currency": "HUF",
    "maturityInDays_val": 285,
    "issueDate": "2015.03.18",
    "longName": "A240626B15"
}