{
    "askPrice": "",
    "green": 0,
    "coupon": "3,00 %",
    "accruedInterest": 0,
    "settleDate": "2023.06.23",
    "askEhmYield": "",
    "bidYield": "",
    "rawName": "2024/B",
    "bidPrice": "",
    "coupon_val": 3,
    "maturityInDays": "369 nap",
    "securityType": "KTV",
    "maturityDate": "2024.06.26",
    "name": "2024/B",
    "bidEhmYield": "",
    "askYield": "",
    "currency": "HUF",
    "maturityInDays_val": 369,
    "issueDate": "2015.03.18",
    "longName": "A240626B15"
}