{
    "askPrice": "94,2609",
    "green": 0,
    "coupon": "3,00 %",
    "accruedInterest": "0,3443",
    "settleDate": "2023.08.07",
    "askEhmYield": "10,05",
    "bidYield": "10,79",
    "rawName": "2024/B",
    "bidPrice": "93,7240",
    "coupon_val": 3,
    "maturityInDays": "324 nap",
    "securityType": "KTV",
    "maturityDate": "2024.06.26",
    "name": "2024/B",
    "bidEhmYield": "10,76",
    "askYield": "10,08",
    "currency": "HUF",
    "maturityInDays_val": 324,
    "issueDate": "2015.03.18",
    "longName": "A240626B15"
}