{
    "askPrice": "98,3193",
    "green": 0,
    "coupon": "3,00 %",
    "accruedInterest": "1,4672",
    "settleDate": "2023.12.22",
    "askEhmYield": "6,28",
    "bidYield": "7,05",
    "rawName": "2024/B",
    "bidPrice": "98,0093",
    "coupon_val": 3,
    "maturityInDays": "187 nap",
    "securityType": "KTV",
    "maturityDate": "2024.06.26",
    "name": "2024/B",
    "bidEhmYield": "6,91",
    "askYield": "6,40",
    "currency": "HUF",
    "maturityInDays_val": 187,
    "issueDate": "2015.03.18",
    "longName": "A240626B15"
}