{
    "askPrice": "98,3432",
    "green": 0,
    "coupon": "3,00 %",
    "accruedInterest": "1,5574",
    "settleDate": "2024.01.02",
    "askEhmYield": "6,43",
    "bidYield": "7,22",
    "rawName": "2024/B",
    "bidPrice": "98,0470",
    "coupon_val": 3,
    "maturityInDays": "176 nap",
    "securityType": "KTV",
    "maturityDate": "2024.06.26",
    "name": "2024/B",
    "bidEhmYield": "7,06",
    "askYield": "6,56",
    "currency": "HUF",
    "maturityInDays_val": 176,
    "issueDate": "2015.03.18",
    "longName": "A240626B15"
}