{
    "askPrice": "90,8419",
    "green": 0,
    "coupon": "3,00 %",
    "accruedInterest": "2,8274",
    "settleDate": "2023.06.05",
    "askEhmYield": "12,75",
    "bidYield": "13,50",
    "rawName": "2024/B",
    "bidPrice": "90,2410",
    "coupon_val": 3,
    "maturityInDays": "387 nap",
    "securityType": "KTV",
    "maturityDate": "2024.06.26",
    "name": "2024/B",
    "bidEhmYield": "13,46",
    "askYield": "12,79",
    "currency": "HUF",
    "maturityInDays_val": 387,
    "issueDate": "2015.03.18",
    "longName": "A240626B15"
}