{
    "askPrice": "88,9934",
    "green": 0,
    "coupon": "3,00 %",
    "accruedInterest": "2,2192",
    "settleDate": "2023.03.23",
    "askEhmYield": "12,96",
    "bidYield": "13,81",
    "rawName": "2024/B",
    "bidPrice": "88,1868",
    "coupon_val": 3,
    "maturityInDays": "461 nap",
    "securityType": "KTV",
    "maturityDate": "2024.06.26",
    "name": "2024/B",
    "bidEhmYield": "13,78",
    "askYield": "12,99",
    "currency": "HUF",
    "maturityInDays_val": 461,
    "issueDate": "2015.03.18",
    "longName": "A240626B15"
}