{
    "askPrice": "97,5705",
    "green": 0,
    "coupon": "3,00 %",
    "accruedInterest": "1,3934",
    "settleDate": "2023.12.13",
    "askEhmYield": "7,59",
    "bidYield": "8,40",
    "rawName": "2024/B",
    "bidPrice": "97,2523",
    "coupon_val": 3,
    "maturityInDays": "196 nap",
    "securityType": "KTV",
    "maturityDate": "2024.06.26",
    "name": "2024/B",
    "bidEhmYield": "8,21",
    "askYield": "7,75",
    "currency": "HUF",
    "maturityInDays_val": 196,
    "issueDate": "2015.03.18",
    "longName": "A240626B15"
}