{
    "askPrice": "90,5514",
    "green": 0,
    "coupon": "3,00 %",
    "accruedInterest": "2,8027",
    "settleDate": "2023.06.02",
    "askEhmYield": "13,01",
    "bidYield": "13,85",
    "rawName": "2024/B",
    "bidPrice": "89,8734",
    "coupon_val": 3,
    "maturityInDays": "390 nap",
    "securityType": "KTV",
    "maturityDate": "2024.06.26",
    "name": "2024/B",
    "bidEhmYield": "13,81",
    "askYield": "13,05",
    "currency": "HUF",
    "maturityInDays_val": 390,
    "issueDate": "2015.03.18",
    "longName": "A240626B15"
}