{
    "askPrice": "89,4598",
    "green": 0,
    "coupon": "3,00 %",
    "accruedInterest": "2,4247",
    "settleDate": "2023.04.17",
    "askEhmYield": "13,06",
    "bidYield": "13,92",
    "rawName": "2024/B",
    "bidPrice": "88,6838",
    "coupon_val": 3,
    "maturityInDays": "436 nap",
    "securityType": "KTV",
    "maturityDate": "2024.06.26",
    "name": "2024/B",
    "bidEhmYield": "13,89",
    "askYield": "13,09",
    "currency": "HUF",
    "maturityInDays_val": 436,
    "issueDate": "2015.03.18",
    "longName": "A240626B15"
}