{
    "askPrice": "93,3749",
    "green": 0,
    "coupon": "3,00 %",
    "accruedInterest": "0,0574",
    "settleDate": "2023.07.03",
    "askEhmYield": "10,42",
    "bidYield": "11,25",
    "rawName": "2024/B",
    "bidPrice": "92,7159",
    "coupon_val": 3,
    "maturityInDays": "359 nap",
    "securityType": "KTV",
    "maturityDate": "2024.06.26",
    "name": "2024/B",
    "bidEhmYield": "11,22",
    "askYield": "10,45",
    "currency": "HUF",
    "maturityInDays_val": 359,
    "issueDate": "2015.03.18",
    "longName": "A240626B15"
}