{
    "askPrice": "91,5232",
    "green": 0,
    "coupon": "3,00 %",
    "accruedInterest": "2,8849",
    "settleDate": "2023.06.12",
    "askEhmYield": "12,14",
    "bidYield": "12,99",
    "rawName": "2024/B",
    "bidPrice": "90,8335",
    "coupon_val": 3,
    "maturityInDays": "380 nap",
    "securityType": "KTV",
    "maturityDate": "2024.06.26",
    "name": "2024/B",
    "bidEhmYield": "12,95",
    "askYield": "12,17",
    "currency": "HUF",
    "maturityInDays_val": 380,
    "issueDate": "2015.03.18",
    "longName": "A240626B15"
}