{
    "askPrice": "96,6938",
    "green": 0,
    "coupon": "3,00 %",
    "accruedInterest": "1,1803",
    "settleDate": "2023.11.17",
    "askEhmYield": "8,75",
    "bidYield": "9,44",
    "rawName": "2024/B",
    "bidPrice": "96,3354",
    "coupon_val": 3,
    "maturityInDays": "222 nap",
    "securityType": "KTV",
    "maturityDate": "2024.06.26",
    "name": "2024/B",
    "bidEhmYield": "9,41",
    "askYield": "8,78",
    "currency": "HUF",
    "maturityInDays_val": 222,
    "issueDate": "2015.03.18",
    "longName": "A240626B15"
}