{
    "askPrice": "89,7373",
    "green": 0,
    "coupon": "3,00 %",
    "accruedInterest": "1,7342",
    "settleDate": "2023.01.23",
    "askEhmYield": "11,15",
    "bidYield": "12,01",
    "rawName": "2024/B",
    "bidPrice": "88,7849",
    "coupon_val": 3,
    "maturityInDays": "520 nap",
    "securityType": "KTV",
    "maturityDate": "2024.06.26",
    "name": "2024/B",
    "bidEhmYield": "11,99",
    "askYield": "11,17",
    "currency": "HUF",
    "maturityInDays_val": 520,
    "issueDate": "2015.03.18",
    "longName": "A240626B15"
}