{
    "askPrice": "94,1845",
    "green": 0,
    "coupon": "3,00 %",
    "accruedInterest": "0,2951",
    "settleDate": "2023.08.01",
    "askEhmYield": "10,02",
    "bidYield": "10,80",
    "rawName": "2024/B",
    "bidPrice": "93,6077",
    "coupon_val": 3,
    "maturityInDays": "330 nap",
    "securityType": "KTV",
    "maturityDate": "2024.06.26",
    "name": "2024/B",
    "bidEhmYield": "10,77",
    "askYield": "10,05",
    "currency": "HUF",
    "maturityInDays_val": 330,
    "issueDate": "2015.03.18",
    "longName": "A240626B15"
}