{
    "askPrice": "89,0435",
    "green": 0,
    "coupon": "3,00 %",
    "accruedInterest": "1,7671",
    "settleDate": "2023.01.27",
    "askEhmYield": "11,83",
    "bidYield": "12,53",
    "rawName": "2024/B",
    "bidPrice": "88,2874",
    "coupon_val": 3,
    "maturityInDays": "516 nap",
    "securityType": "KTV",
    "maturityDate": "2024.06.26",
    "name": "2024/B",
    "bidEhmYield": "12,50",
    "askYield": "11,85",
    "currency": "HUF",
    "maturityInDays_val": 516,
    "issueDate": "2015.03.18",
    "longName": "A240626B15"
}