{
    "askPrice": "90,3404",
    "green": 0,
    "coupon": "3,00 %",
    "accruedInterest": "2,7370",
    "settleDate": "2023.05.25",
    "askEhmYield": "13,05",
    "bidYield": "13,90",
    "rawName": "2024/B",
    "bidPrice": "89,6332",
    "coupon_val": 3,
    "maturityInDays": "398 nap",
    "securityType": "KTV",
    "maturityDate": "2024.06.26",
    "name": "2024/B",
    "bidEhmYield": "13,86",
    "askYield": "13,08",
    "currency": "HUF",
    "maturityInDays_val": 398,
    "issueDate": "2015.03.18",
    "longName": "A240626B15"
}