{
    "askPrice": "96,6811",
    "green": 0,
    "coupon": "3,00 %",
    "accruedInterest": "1,1475",
    "settleDate": "2023.11.13",
    "askEhmYield": "8,67",
    "bidYield": "9,37",
    "rawName": "2024/B",
    "bidPrice": "96,3106",
    "coupon_val": 3,
    "maturityInDays": "226 nap",
    "securityType": "KTV",
    "maturityDate": "2024.06.26",
    "name": "2024/B",
    "bidEhmYield": "9,34",
    "askYield": "8,70",
    "currency": "HUF",
    "maturityInDays_val": 226,
    "issueDate": "2015.03.18",
    "longName": "A240626B15"
}