{
    "askPrice": "94,4847",
    "green": 0,
    "coupon": "3,00 %",
    "accruedInterest": "0,3689",
    "settleDate": "2023.08.10",
    "askEhmYield": "9,82",
    "bidYield": "10,58",
    "rawName": "2024/B",
    "bidPrice": "93,9353",
    "coupon_val": 3,
    "maturityInDays": "321 nap",
    "securityType": "KTV",
    "maturityDate": "2024.06.26",
    "name": "2024/B",
    "bidEhmYield": "10,55",
    "askYield": "9,85",
    "currency": "HUF",
    "maturityInDays_val": 321,
    "issueDate": "2015.03.18",
    "longName": "A240626B15"
}