{
    "askPrice": "96,9296",
    "green": 0,
    "coupon": "3,00 %",
    "accruedInterest": "1,2705",
    "settleDate": "2023.11.28",
    "askEhmYield": "8,60",
    "bidYield": "9,29",
    "rawName": "2024/B",
    "bidPrice": "96,5873",
    "coupon_val": 3,
    "maturityInDays": "211 nap",
    "securityType": "KTV",
    "maturityDate": "2024.06.26",
    "name": "2024/B",
    "bidEhmYield": "9,26",
    "askYield": "8,63",
    "currency": "HUF",
    "maturityInDays_val": 211,
    "issueDate": "2015.03.18",
    "longName": "A240626B15"
}