{
    "askPrice": "",
    "green": 0,
    "coupon": "3,00 %",
    "accruedInterest": "2,0164",
    "settleDate": "2024.02.27",
    "askEhmYield": "",
    "bidYield": "7,40",
    "rawName": "2024/B",
    "bidPrice": "98,6007",
    "coupon_val": 3,
    "maturityInDays": "120 nap",
    "securityType": "KTV",
    "maturityDate": "2024.06.26",
    "name": "2024/B",
    "bidEhmYield": "7,19",
    "askYield": "",
    "currency": "HUF",
    "maturityInDays_val": 120,
    "issueDate": "2015.03.18",
    "longName": "A240626B15"
}