{
    "askPrice": "",
    "green": 0,
    "coupon": "3,00 %",
    "accruedInterest": "2,0738",
    "settleDate": "2024.03.05",
    "askEhmYield": "",
    "bidYield": "7,46",
    "rawName": "2024/B",
    "bidPrice": "98,6635",
    "coupon_val": 3,
    "maturityInDays": "113 nap",
    "securityType": "KTV",
    "maturityDate": "2024.06.26",
    "name": "2024/B",
    "bidEhmYield": "7,24",
    "askYield": "",
    "currency": "HUF",
    "maturityInDays_val": 113,
    "issueDate": "2015.03.18",
    "longName": "A240626B15"
}