{
    "askPrice": "",
    "green": 0,
    "coupon": "3,00 %",
    "accruedInterest": "2,3607",
    "settleDate": "2024.04.09",
    "askEhmYield": "",
    "bidYield": "7,44",
    "rawName": "2024/B",
    "bidPrice": "99,0761",
    "coupon_val": 3,
    "maturityInDays": "78 nap",
    "securityType": "KTV",
    "maturityDate": "2024.06.26",
    "name": "2024/B",
    "bidEhmYield": "7,18",
    "askYield": "",
    "currency": "HUF",
    "maturityInDays_val": 78,
    "issueDate": "2015.03.18",
    "longName": "A240626B15"
}