{
    "askPrice": "",
    "green": 0,
    "coupon": "3,00 %",
    "accruedInterest": "1,8115",
    "settleDate": "2024.02.02",
    "askEhmYield": "",
    "bidYield": "7,09",
    "rawName": "2024/B",
    "bidPrice": "98,4309",
    "coupon_val": 3,
    "maturityInDays": "145 nap",
    "securityType": "KTV",
    "maturityDate": "2024.06.26",
    "name": "2024/B",
    "bidEhmYield": "6,91",
    "askYield": "",
    "currency": "HUF",
    "maturityInDays_val": 145,
    "issueDate": "2015.03.18",
    "longName": "A240626B15"
}