{
    "askPrice": "",
    "green": 0,
    "coupon": "3,00 %",
    "accruedInterest": "2,5492",
    "settleDate": "2024.05.02",
    "askEhmYield": "",
    "bidYield": "7,78",
    "rawName": "2024/B",
    "bidPrice": "99,2977",
    "coupon_val": 3,
    "maturityInDays": "55 nap",
    "securityType": "KTV",
    "maturityDate": "2024.06.26",
    "name": "2024/B",
    "bidEhmYield": "7,47",
    "askYield": "",
    "currency": "HUF",
    "maturityInDays_val": 55,
    "issueDate": "2015.03.18",
    "longName": "A240626B15"
}