{
    "askPrice": "",
    "green": 0,
    "coupon": "3,00 %",
    "accruedInterest": "2,4262",
    "settleDate": "2024.04.17",
    "askEhmYield": "",
    "bidYield": "7,54",
    "rawName": "2024/B",
    "bidPrice": "99,1517",
    "coupon_val": 3,
    "maturityInDays": "70 nap",
    "securityType": "KTV",
    "maturityDate": "2024.06.26",
    "name": "2024/B",
    "bidEhmYield": "7,27",
    "askYield": "",
    "currency": "HUF",
    "maturityInDays_val": 70,
    "issueDate": "2015.03.18",
    "longName": "A240626B15"
}