{
    "askPrice": "",
    "green": 0,
    "coupon": "3,00 %",
    "accruedInterest": "1,8361",
    "settleDate": "2024.02.05",
    "askEhmYield": "",
    "bidYield": "7,13",
    "rawName": "2024/B",
    "bidPrice": "98,4481",
    "coupon_val": 3,
    "maturityInDays": "142 nap",
    "securityType": "KTV",
    "maturityDate": "2024.06.26",
    "name": "2024/B",
    "bidEhmYield": "6,95",
    "askYield": "",
    "currency": "HUF",
    "maturityInDays_val": 142,
    "issueDate": "2015.03.18",
    "longName": "A240626B15"
}