{
    "askPrice": "",
    "green": 0,
    "coupon": "3,00 %",
    "accruedInterest": "2,2377",
    "settleDate": "2024.03.25",
    "askEhmYield": "",
    "bidYield": "7,40",
    "rawName": "2024/B",
    "bidPrice": "98,9107",
    "coupon_val": 3,
    "maturityInDays": "93 nap",
    "securityType": "KTV",
    "maturityDate": "2024.06.26",
    "name": "2024/B",
    "bidEhmYield": "7,16",
    "askYield": "",
    "currency": "HUF",
    "maturityInDays_val": 93,
    "issueDate": "2015.03.18",
    "longName": "A240626B15"
}