{
    "askPrice": "",
    "green": 0,
    "coupon": "3,00 %",
    "accruedInterest": "1,7787",
    "settleDate": "2024.01.29",
    "askEhmYield": "",
    "bidYield": "7,05",
    "rawName": "2024/B",
    "bidPrice": "98,4039",
    "coupon_val": 3,
    "maturityInDays": "149 nap",
    "securityType": "KTV",
    "maturityDate": "2024.06.26",
    "name": "2024/B",
    "bidEhmYield": "6,88",
    "askYield": "",
    "currency": "HUF",
    "maturityInDays_val": 149,
    "issueDate": "2015.03.18",
    "longName": "A240626B15"
}