{
    "askPrice": "",
    "green": 0,
    "coupon": "3,00 %",
    "accruedInterest": "1,6393",
    "settleDate": "2024.01.12",
    "askEhmYield": "",
    "bidYield": "7,16",
    "rawName": "2024/B",
    "bidPrice": "98,1803",
    "coupon_val": 3,
    "maturityInDays": "166 nap",
    "securityType": "KTV",
    "maturityDate": "2024.06.26",
    "name": "2024/B",
    "bidEhmYield": "7,00",
    "askYield": "",
    "currency": "HUF",
    "maturityInDays_val": 166,
    "issueDate": "2015.03.18",
    "longName": "A240626B15"
}