{
    "askPrice": "",
    "green": 0,
    "coupon": "3,00 %",
    "accruedInterest": "2,4672",
    "settleDate": "2024.04.22",
    "askEhmYield": "",
    "bidYield": "7,61",
    "rawName": "2024/B",
    "bidPrice": "99,1999",
    "coupon_val": 3,
    "maturityInDays": "65 nap",
    "securityType": "KTV",
    "maturityDate": "2024.06.26",
    "name": "2024/B",
    "bidEhmYield": "7,32",
    "askYield": "",
    "currency": "HUF",
    "maturityInDays_val": 65,
    "issueDate": "2015.03.18",
    "longName": "A240626B15"
}