{
    "askPrice": "",
    "green": 0,
    "coupon": "3,00 %",
    "accruedInterest": "2,3033",
    "settleDate": "2024.04.02",
    "askEhmYield": "",
    "bidYield": "7,53",
    "rawName": "2024/B",
    "bidPrice": "98,9746",
    "coupon_val": 3,
    "maturityInDays": "85 nap",
    "securityType": "KTV",
    "maturityDate": "2024.06.26",
    "name": "2024/B",
    "bidEhmYield": "7,27",
    "askYield": "",
    "currency": "HUF",
    "maturityInDays_val": 85,
    "issueDate": "2015.03.18",
    "longName": "A240626B15"
}