{
    "askPrice": "",
    "green": 0,
    "coupon": "3,00 %",
    "accruedInterest": "1,9508",
    "settleDate": "2024.02.19",
    "askEhmYield": "",
    "bidYield": "7,37",
    "rawName": "2024/B",
    "bidPrice": "98,5192",
    "coupon_val": 3,
    "maturityInDays": "128 nap",
    "securityType": "KTV",
    "maturityDate": "2024.06.26",
    "name": "2024/B",
    "bidEhmYield": "7,17",
    "askYield": "",
    "currency": "HUF",
    "maturityInDays_val": 128,
    "issueDate": "2015.03.18",
    "longName": "A240626B15"
}