{
    "askPrice": "",
    "green": 0,
    "coupon": "3,50 %",
    "accruedInterest": "0,26",
    "settleDate": "2022.10.25",
    "askEhmYield": "",
    "bidYield": "5,37",
    "rawName": "N2026/40",
    "bidPrice": "99,50",
    "coupon_val": 3.5,
    "maturityInDays": "1440 nap",
    "securityType": "MÁP Plusz",
    "maturityDate": "2026.10.04",
    "name": "N2026/40",
    "bidEhmYield": "",
    "askYield": "",
    "currency": "HUF",
    "maturityInDays_val": 1440,
    "longName": "N261004"
}