{
    "askPrice": "",
    "green": 0,
    "coupon": "3,50 %",
    "accruedInterest": "0,8137",
    "settleDate": "2022.12.09",
    "askEhmYield": "",
    "bidYield": "5,40",
    "rawName": "N2026/40",
    "bidPrice": "99,5000",
    "coupon_val": 3.5,
    "maturityInDays": "1395 nap",
    "securityType": "MÁP Plusz",
    "maturityDate": "2026.10.04",
    "name": "N2026/40",
    "bidEhmYield": "",
    "askYield": "",
    "currency": "HUF",
    "maturityInDays_val": 1395,
    "issueDate": "2021.10.04",
    "longName": "N261004"
}