{
    "askPrice": "",
    "green": 0,
    "coupon": "3,50 %",
    "accruedInterest": "1,53",
    "settleDate": "2022.08.22",
    "askEhmYield": "",
    "bidYield": "",
    "rawName": "N2026/40",
    "bidPrice": "99,50",
    "coupon_val": 3.5,
    "maturityInDays": "1504 nap",
    "securityType": "MÁP Plusz",
    "maturityDate": "2026.10.04",
    "name": "N2026/40",
    "bidEhmYield": "",
    "askYield": "",
    "currency": "HUF",
    "maturityInDays_val": 1504,
    "longName": "N261004"
}