{
    "askPrice": "",
    "green": 0,
    "coupon": "3,50 %",
    "accruedInterest": "0,51",
    "settleDate": "2022.11.14",
    "askEhmYield": "",
    "bidYield": "5,38",
    "rawName": "N2026/40",
    "bidPrice": "99,50",
    "coupon_val": 3.5,
    "maturityInDays": "1420 nap",
    "securityType": "MÁP Plusz",
    "maturityDate": "2026.10.04",
    "name": "N2026/40",
    "bidEhmYield": "",
    "askYield": "",
    "currency": "HUF",
    "maturityInDays_val": 1420,
    "issueDate": "2021-10-04",
    "longName": "N261004"
}