{
    "askPrice": "",
    "green": 0,
    "coupon": "3,50 %",
    "accruedInterest": "1,0246",
    "settleDate": "2023.12.18",
    "askEhmYield": "",
    "bidYield": "5,71",
    "rawName": "N2026/40",
    "bidPrice": "99,5000",
    "coupon_val": 3.5,
    "maturityInDays": "1021 nap",
    "securityType": "MÁP Plusz",
    "maturityDate": "2026.10.04",
    "name": "N2026/40",
    "bidEhmYield": "",
    "askYield": "",
    "currency": "HUF",
    "maturityInDays_val": 1021,
    "issueDate": "2021.10.04",
    "longName": "N261004"
}