{
    "askPrice": "",
    "green": 0,
    "coupon": "3,50 %",
    "accruedInterest": "2,8005",
    "settleDate": "2024.04.26",
    "askEhmYield": "",
    "bidYield": "5,81",
    "rawName": "N2026/40",
    "bidPrice": "99,5000",
    "coupon_val": 3.5,
    "maturityInDays": "891 nap",
    "securityType": "MÁP Plusz",
    "maturityDate": "2026.10.04",
    "name": "N2026/40",
    "bidEhmYield": "",
    "askYield": "",
    "currency": "HUF",
    "maturityInDays_val": 891,
    "issueDate": "2021.10.04",
    "longName": "N261004"
}