{
    "askPrice": "",
    "green": 0,
    "coupon": null,
    "accruedInterest": "1,44",
    "settleDate": "2022.08.25",
    "askEhmYield": "",
    "bidYield": "",
    "rawName": "2023/L",
    "bidPrice": "99,00",
    "maturityInDays": "279 nap",
    "securityType": "PMÁP",
    "maturityDate": "2023.05.31",
    "name": "2023/L",
    "bidEhmYield": "",
    "askYield": "",
    "currency": "HUF",
    "maturityInDays_val": 279,
    "longName": "A230531L20"
}