{
    "askPrice": "",
    "green": 0,
    "coupon": null,
    "accruedInterest": "2,61",
    "settleDate": "2022.11.03",
    "askEhmYield": "",
    "bidYield": "",
    "rawName": "2023/L",
    "bidPrice": "99,00",
    "maturityInDays": "209 nap",
    "securityType": "PMÁP",
    "maturityDate": "2023.05.31",
    "name": "2023/L",
    "bidEhmYield": "",
    "askYield": "",
    "currency": "HUF",
    "maturityInDays_val": 209,
    "issueDate": "2020-04-21",
    "longName": "A230531L20"
}