{
    "askPrice": "",
    "green": 0,
    "coupon": null,
    "accruedInterest": "3,8400",
    "settleDate": "2023.01.16",
    "askEhmYield": "",
    "bidYield": "",
    "rawName": "2023/L",
    "bidPrice": "99,0000",
    "maturityInDays": "135 nap",
    "securityType": "PMÁP",
    "maturityDate": "2023.05.31",
    "name": "2023/L",
    "bidEhmYield": "",
    "askYield": "",
    "currency": "HUF",
    "maturityInDays_val": 135,
    "issueDate": "2020.04.21",
    "longName": "A230531L20"
}