{
    "askPrice": "",
    "green": 0,
    "coupon": null,
    "accruedInterest": "4,5959",
    "settleDate": "2023.03.02",
    "askEhmYield": "",
    "bidYield": "",
    "rawName": "2023/L",
    "bidPrice": "99,0000",
    "maturityInDays": "90 nap",
    "securityType": "PMÁP",
    "maturityDate": "2023.05.31",
    "name": "2023/L",
    "bidEhmYield": "",
    "askYield": "",
    "currency": "HUF",
    "maturityInDays_val": 90,
    "issueDate": "2020.04.21",
    "longName": "A230531L20"
}