{
    "askPrice": "",
    "green": 0,
    "coupon": "3,50 %",
    "accruedInterest": "0,0951",
    "settleDate": "2023.05.25",
    "askEhmYield": "",
    "bidYield": "5,03",
    "rawName": "N2028/20",
    "bidPrice": "99,5000",
    "coupon_val": 3.5,
    "maturityInDays": "1817 nap",
    "securityType": "MÁP Plusz",
    "maturityDate": "2028.05.15",
    "name": "N2028/20",
    "bidEhmYield": "",
    "askYield": "",
    "currency": "HUF",
    "maturityInDays_val": 1817,
    "issueDate": "2023.05.15",
    "longName": "N280515"
}