{
    "askPrice": "",
    "green": 0,
    "coupon": "3,50 %",
    "accruedInterest": "0,9780",
    "settleDate": "2024.02.12",
    "askEhmYield": "",
    "bidYield": "5,27",
    "rawName": "N2028/20",
    "bidPrice": "99,5000",
    "coupon_val": 3.5,
    "maturityInDays": "1554 nap",
    "securityType": "MÁP Plusz",
    "maturityDate": "2028.05.15",
    "name": "N2028/20",
    "bidEhmYield": "",
    "askYield": "",
    "currency": "HUF",
    "maturityInDays_val": 1554,
    "issueDate": "2023.05.15",
    "longName": "N280515"
}