{
    "askPrice": "",
    "green": 0,
    "coupon": "3,50 %",
    "accruedInterest": "1,01",
    "settleDate": "2022.08.15",
    "askEhmYield": "",
    "bidYield": "",
    "rawName": "N2026/21",
    "bidPrice": "99,50",
    "coupon_val": 3.5,
    "maturityInDays": "1379 nap",
    "securityType": "MÁP Plusz",
    "maturityDate": "2026.05.25",
    "name": "N2026/21",
    "bidEhmYield": "",
    "askYield": "",
    "currency": "HUF",
    "maturityInDays_val": 1379,
    "longName": "N260525"
}