{
    "askPrice": "",
    "green": 0,
    "coupon": "3,50 %",
    "accruedInterest": "0,6284",
    "settleDate": "2023.07.10",
    "askEhmYield": "",
    "bidYield": "5,69",
    "rawName": "N2026/21",
    "bidPrice": "99,5000",
    "coupon_val": 3.5,
    "maturityInDays": "1050 nap",
    "securityType": "MÁP Plusz",
    "maturityDate": "2026.05.25",
    "name": "N2026/21",
    "bidEhmYield": "",
    "askYield": "",
    "currency": "HUF",
    "maturityInDays_val": 1050,
    "issueDate": "2021.05.25",
    "longName": "N260525"
}