{
    "askPrice": "",
    "green": 0,
    "coupon": "3,50 %",
    "accruedInterest": "3,2104",
    "settleDate": "2024.01.15",
    "askEhmYield": "",
    "bidYield": "5,84",
    "rawName": "N2026/21",
    "bidPrice": "99,5000",
    "coupon_val": 3.5,
    "maturityInDays": "861 nap",
    "securityType": "MÁP Plusz",
    "maturityDate": "2026.05.25",
    "name": "N2026/21",
    "bidEhmYield": "",
    "askYield": "",
    "currency": "HUF",
    "maturityInDays_val": 861,
    "issueDate": "2021.05.25",
    "longName": "N260525"
}