{
    "askPrice": "",
    "green": 0,
    "coupon": "8,00 %",
    "accruedInterest": "0,8986",
    "settleDate": "2023.11.20",
    "askEhmYield": "",
    "bidYield": "9,15",
    "rawName": "K2024/41",
    "bidPrice": "99,0000",
    "coupon_val": 8,
    "maturityInDays": "325 nap",
    "securityType": "1MÁP",
    "maturityDate": "2024.10.10",
    "name": "K2024/41",
    "bidEhmYield": "9,11",
    "askYield": "",
    "currency": "HUF",
    "maturityInDays_val": 325,
    "issueDate": "2023.10.10",
    "longName": "K241010"
}