{
    "askPrice": "",
    "green": 0,
    "coupon": "8,00 %",
    "accruedInterest": "1,3589",
    "settleDate": "2023.12.11",
    "askEhmYield": "",
    "bidYield": "9,21",
    "rawName": "K2024/41",
    "bidPrice": "99,0000",
    "coupon_val": 8,
    "maturityInDays": "304 nap",
    "securityType": "1MÁP",
    "maturityDate": "2024.10.10",
    "name": "K2024/41",
    "bidEhmYield": "9,14",
    "askYield": "",
    "currency": "HUF",
    "maturityInDays_val": 304,
    "issueDate": "2023.10.10",
    "longName": "K241010"
}