{
    "askPrice": "",
    "green": 0,
    "coupon": "8,00 %",
    "accruedInterest": "3,5068",
    "settleDate": "2024.03.18",
    "askEhmYield": "",
    "bidYield": "9,69",
    "rawName": "K2024/41",
    "bidPrice": "99,0000",
    "coupon_val": 8,
    "maturityInDays": "206 nap",
    "securityType": "1MÁP",
    "maturityDate": "2024.10.10",
    "name": "K2024/41",
    "bidEhmYield": "9,49",
    "askYield": "",
    "currency": "HUF",
    "maturityInDays_val": 206,
    "issueDate": "2023.10.10",
    "longName": "K241010"
}