{
    "askPrice": "",
    "green": 0,
    "coupon": "8,00 %",
    "accruedInterest": "4,4712",
    "settleDate": "2024.05.02",
    "askEhmYield": "",
    "bidYield": "10,20",
    "rawName": "K2024/41",
    "bidPrice": "99,0000",
    "coupon_val": 8,
    "maturityInDays": "161 nap",
    "securityType": "1MÁP",
    "maturityDate": "2024.10.10",
    "name": "K2024/41",
    "bidEhmYield": "9,87",
    "askYield": "",
    "currency": "HUF",
    "maturityInDays_val": 161,
    "issueDate": "2023.10.10",
    "longName": "K241010"
}