{
    "askPrice": "",
    "green": 0,
    "coupon": "8,00 %",
    "accruedInterest": "3,9452",
    "settleDate": "2024.04.08",
    "askEhmYield": "",
    "bidYield": "9,92",
    "rawName": "K2024/41",
    "bidPrice": "99,0000",
    "coupon_val": 8,
    "maturityInDays": "185 nap",
    "securityType": "1MÁP",
    "maturityDate": "2024.10.10",
    "name": "K2024/41",
    "bidEhmYield": "9,64",
    "askYield": "",
    "currency": "HUF",
    "maturityInDays_val": 185,
    "issueDate": "2023.10.10",
    "longName": "K241010"
}