{
    "askPrice": "",
    "green": 0,
    "coupon": "8,00 %",
    "accruedInterest": "2,9808",
    "settleDate": "2024.02.23",
    "askEhmYield": "",
    "bidYield": "9,53",
    "rawName": "K2024/41",
    "bidPrice": "99,0000",
    "coupon_val": 8,
    "maturityInDays": "230 nap",
    "securityType": "1MÁP",
    "maturityDate": "2024.10.10",
    "name": "K2024/41",
    "bidEhmYield": "9,37",
    "askYield": "",
    "currency": "HUF",
    "maturityInDays_val": 230,
    "issueDate": "2023.10.10",
    "longName": "K241010"
}