{
    "askPrice": "",
    "green": 0,
    "coupon": "8,00 %",
    "accruedInterest": "2,2795",
    "settleDate": "2024.01.22",
    "askEhmYield": "",
    "bidYield": "9,36",
    "rawName": "K2024/41",
    "bidPrice": "99,0000",
    "coupon_val": 8,
    "maturityInDays": "262 nap",
    "securityType": "1MÁP",
    "maturityDate": "2024.10.10",
    "name": "K2024/41",
    "bidEhmYield": "9,24",
    "askYield": "",
    "currency": "HUF",
    "maturityInDays_val": 262,
    "issueDate": "2023.10.10",
    "longName": "K241010"
}