{
    "askPrice": "",
    "green": 0,
    "coupon": "3,50 %",
    "accruedInterest": "2,77",
    "settleDate": "2022.11.09",
    "askEhmYield": "",
    "bidYield": "5,52",
    "rawName": "N2026/13",
    "bidPrice": "99,50",
    "coupon_val": 3.5,
    "maturityInDays": "1236 nap",
    "securityType": "MÁP Plusz",
    "maturityDate": "2026.03.29",
    "name": "N2026/13",
    "bidEhmYield": "",
    "askYield": "",
    "currency": "HUF",
    "maturityInDays_val": 1236,
    "issueDate": "2021-03-29",
    "longName": "N260329"
}