{
    "askPrice": "",
    "green": 0,
    "coupon": "3,50 %",
    "accruedInterest": "2,58",
    "settleDate": "2022.10.24",
    "askEhmYield": "",
    "bidYield": "5,50",
    "rawName": "N2026/13",
    "bidPrice": "99,50",
    "coupon_val": 3.5,
    "maturityInDays": "1252 nap",
    "securityType": "MÁP Plusz",
    "maturityDate": "2026.03.29",
    "name": "N2026/13",
    "bidEhmYield": "",
    "askYield": "",
    "currency": "HUF",
    "maturityInDays_val": 1252,
    "longName": "N260329"
}