{
    "askPrice": "",
    "green": 0,
    "coupon": "3,50 %",
    "accruedInterest": "3,2650",
    "settleDate": "2023.11.23",
    "askEhmYield": "",
    "bidYield": "5,85",
    "rawName": "N2026/13",
    "bidPrice": "99,5000",
    "coupon_val": 3.5,
    "maturityInDays": "857 nap",
    "securityType": "MÁP Plusz",
    "maturityDate": "2026.03.29",
    "name": "N2026/13",
    "bidEhmYield": "",
    "askYield": "",
    "currency": "HUF",
    "maturityInDays_val": 857,
    "issueDate": "2021.03.29",
    "longName": "N260329"
}