{
    "askPrice": "",
    "green": 0,
    "coupon": "3,50 %",
    "accruedInterest": "3,1284",
    "settleDate": "2023.11.13",
    "askEhmYield": "",
    "bidYield": "5,84",
    "rawName": "N2026/13",
    "bidPrice": "99,5000",
    "coupon_val": 3.5,
    "maturityInDays": "867 nap",
    "securityType": "MÁP Plusz",
    "maturityDate": "2026.03.29",
    "name": "N2026/13",
    "bidEhmYield": "",
    "askYield": "",
    "currency": "HUF",
    "maturityInDays_val": 867,
    "issueDate": "2021.03.29",
    "longName": "N260329"
}