{
    "askPrice": "",
    "green": 0,
    "coupon": "3,50 %",
    "accruedInterest": "0,0603",
    "settleDate": "2024.04.02",
    "askEhmYield": "",
    "bidYield": "6,02",
    "rawName": "N2026/13",
    "bidPrice": "99,5000",
    "coupon_val": 3.5,
    "maturityInDays": "726 nap",
    "securityType": "MÁP Plusz",
    "maturityDate": "2026.03.29",
    "name": "N2026/13",
    "bidEhmYield": "",
    "askYield": "",
    "currency": "HUF",
    "maturityInDays_val": 726,
    "issueDate": "2021.03.29",
    "longName": "N260329"
}