{
    "askPrice": "",
    "green": 0,
    "coupon": "3,50 %",
    "accruedInterest": "4,3852",
    "settleDate": "2024.02.13",
    "askEhmYield": "",
    "bidYield": "5,95",
    "rawName": "N2026/13",
    "bidPrice": "99,5000",
    "coupon_val": 3.5,
    "maturityInDays": "775 nap",
    "securityType": "MÁP Plusz",
    "maturityDate": "2026.03.29",
    "name": "N2026/13",
    "bidEhmYield": "",
    "askYield": "",
    "currency": "HUF",
    "maturityInDays_val": 775,
    "issueDate": "2021.03.29",
    "longName": "N260329"
}