{
    "askPrice": "",
    "green": 0,
    "coupon": "9,00 %",
    "accruedInterest": "2,6630",
    "settleDate": "2023.10.27",
    "askEhmYield": "",
    "bidYield": "10,36",
    "rawName": "K2024/28",
    "bidPrice": "99,0000",
    "coupon_val": 9,
    "maturityInDays": "258 nap",
    "securityType": "1MÁP",
    "maturityDate": "2024.07.11",
    "name": "K2024/28",
    "bidEhmYield": "10,21",
    "askYield": "",
    "currency": "HUF",
    "maturityInDays_val": 258,
    "issueDate": "2023.07.11",
    "longName": "K240711"
}