{
    "askPrice": "",
    "green": 0,
    "coupon": "9,00 %",
    "accruedInterest": "4,0438",
    "settleDate": "2023.12.22",
    "askEhmYield": "",
    "bidYield": "10,69",
    "rawName": "K2024/28",
    "bidPrice": "99,0000",
    "coupon_val": 9,
    "maturityInDays": "202 nap",
    "securityType": "1MÁP",
    "maturityDate": "2024.07.11",
    "name": "K2024/28",
    "bidEhmYield": "10,44",
    "askYield": "",
    "currency": "HUF",
    "maturityInDays_val": 202,
    "issueDate": "2023.07.11",
    "longName": "K240711"
}