{
    "askPrice": "",
    "green": 0,
    "coupon": "9,00 %",
    "accruedInterest": "2,3918",
    "settleDate": "2023.10.16",
    "askEhmYield": "",
    "bidYield": "10,32",
    "rawName": "K2024/28",
    "bidPrice": "99,0000",
    "coupon_val": 9,
    "maturityInDays": "269 nap",
    "securityType": "1MÁP",
    "maturityDate": "2024.07.11",
    "name": "K2024/28",
    "bidEhmYield": "10,18",
    "askYield": "",
    "currency": "HUF",
    "maturityInDays_val": 269,
    "issueDate": "2023.07.11",
    "longName": "K240711"
}