{
    "askPrice": "",
    "green": 0,
    "coupon": "9,00 %",
    "accruedInterest": "1,3808",
    "settleDate": "2023.09.05",
    "askEhmYield": "",
    "bidYield": "10,19",
    "rawName": "K2024/28",
    "bidPrice": "99,0000",
    "coupon_val": 9,
    "maturityInDays": "310 nap",
    "securityType": "1MÁP",
    "maturityDate": "2024.07.11",
    "name": "K2024/28",
    "bidEhmYield": "10,11",
    "askYield": "",
    "currency": "HUF",
    "maturityInDays_val": 310,
    "issueDate": "2023.07.11",
    "longName": "K240711"
}