{
    "askPrice": "",
    "green": 0,
    "coupon": "9,00 %",
    "accruedInterest": "3,7726",
    "settleDate": "2023.12.11",
    "askEhmYield": "",
    "bidYield": "10,61",
    "rawName": "K2024/28",
    "bidPrice": "99,0000",
    "coupon_val": 9,
    "maturityInDays": "213 nap",
    "securityType": "1MÁP",
    "maturityDate": "2024.07.11",
    "name": "K2024/28",
    "bidEhmYield": "10,38",
    "askYield": "",
    "currency": "HUF",
    "maturityInDays_val": 213,
    "issueDate": "2023.07.11",
    "longName": "K240711"
}