{
    "askPrice": "",
    "green": 0,
    "coupon": "9,00 %",
    "accruedInterest": "2,8110",
    "settleDate": "2023.11.02",
    "askEhmYield": "",
    "bidYield": "10,39",
    "rawName": "K2024/28",
    "bidPrice": "99,0000",
    "coupon_val": 9,
    "maturityInDays": "252 nap",
    "securityType": "1MÁP",
    "maturityDate": "2024.07.11",
    "name": "K2024/28",
    "bidEhmYield": "10,23",
    "askYield": "",
    "currency": "HUF",
    "maturityInDays_val": 252,
    "issueDate": "2023.07.11",
    "longName": "K240711"
}