{
    "askPrice": "",
    "green": 0,
    "coupon": "9,00 %",
    "accruedInterest": "4,8822",
    "settleDate": "2024.01.25",
    "askEhmYield": "",
    "bidYield": "11,01",
    "rawName": "K2024/28",
    "bidPrice": "99,0000",
    "coupon_val": 9,
    "maturityInDays": "168 nap",
    "securityType": "1MÁP",
    "maturityDate": "2024.07.11",
    "name": "K2024/28",
    "bidEhmYield": "10,70",
    "askYield": "",
    "currency": "HUF",
    "maturityInDays_val": 168,
    "issueDate": "2023.07.11",
    "longName": "K240711"
}