{
    "askPrice": "",
    "green": 0,
    "coupon": 0,
    "accruedInterest": 0,
    "settleDate": "2023.01.10",
    "askEhmYield": "",
    "bidYield": "13,55",
    "rawName": "D230118",
    "bidPrice": "99,6998",
    "maturityInDays": "8 nap",
    "securityType": "DKJ",
    "maturityDate": "2023.01.18",
    "name": "D230118",
    "bidEhmYield": "13,74",
    "askYield": "",
    "currency": "HUF",
    "maturityInDays_val": 8,
    "issueDate": "2022.10.19",
    "longName": "D230118"
}