{
    "askPrice": "59,66",
    "green": 0,
    "coupon": "2,25 %",
    "accruedInterest": "0,44",
    "settleDate": "2022.06.30",
    "askEhmYield": "7,95",
    "bidYield": "8,45",
    "rawName": "2033/A",
    "bidPrice": "57,15",
    "coupon_val": 2.25,
    "maturityInDays": "3947 nap",
    "securityType": "KTV",
    "maturityDate": "2033.04.20",
    "name": "2033/A",
    "bidEhmYield": "8,45",
    "askYield": "7,95",
    "currency": "HUF",
    "maturityInDays_val": 3947,
    "longName": "A330420A20"
}