{
    "askPrice": "61,31",
    "green": 0,
    "coupon": "2,25 %",
    "accruedInterest": "0,42",
    "settleDate": "2022.06.27",
    "askEhmYield": "7,63",
    "bidYield": "8,13",
    "rawName": "2033/A",
    "bidPrice": "58,72",
    "coupon_val": 2.25,
    "maturityInDays": "3950 nap",
    "securityType": "KTV",
    "maturityDate": "2033.04.20",
    "name": "2033/A",
    "bidEhmYield": "8,13",
    "askYield": "7,63",
    "currency": "HUF",
    "maturityInDays_val": 3950,
    "longName": "A330420A20"
}