{
    "askPrice": "61,8043",
    "green": 0,
    "coupon": "2,25 %",
    "accruedInterest": "1,4301",
    "settleDate": "2022.12.08",
    "askEhmYield": "7,73",
    "bidYield": "8,57",
    "rawName": "2033/A",
    "bidPrice": "57,6832",
    "coupon_val": 2.25,
    "maturityInDays": "3786 nap",
    "securityType": "KTV",
    "maturityDate": "2033.04.20",
    "name": "2033/A",
    "bidEhmYield": "8,56",
    "askYield": "7,74",
    "currency": "HUF",
    "maturityInDays_val": 3786,
    "issueDate": "2020.10.28",
    "longName": "A330420A20"
}