{
    "askPrice": "53,39",
    "green": 0,
    "coupon": "2,25 %",
    "accruedInterest": "1,05",
    "settleDate": "2022.10.07",
    "askEhmYield": "9,41",
    "bidYield": "9,91",
    "rawName": "2033/A",
    "bidPrice": "51,24",
    "coupon_val": 2.25,
    "maturityInDays": "3848 nap",
    "securityType": "KTV",
    "maturityDate": "2033.04.20",
    "name": "2033/A",
    "bidEhmYield": "9,91",
    "askYield": "9,41",
    "currency": "HUF",
    "maturityInDays_val": 3848,
    "longName": "A330420A20"
}