{
    "askPrice": "50,85",
    "green": 0,
    "coupon": "2,25 %",
    "accruedInterest": "1,24",
    "settleDate": "2022.11.07",
    "askEhmYield": "10,05",
    "bidYield": "10,73",
    "rawName": "2033/A",
    "bidPrice": "48,18",
    "coupon_val": 2.25,
    "maturityInDays": "3817 nap",
    "securityType": "KTV",
    "maturityDate": "2033.04.20",
    "name": "2033/A",
    "bidEhmYield": "10,72",
    "askYield": "10,06",
    "currency": "HUF",
    "maturityInDays_val": 3817,
    "issueDate": "2020-10-28",
    "longName": "A330420A20"
}