{
    "askPrice": "52,55",
    "green": 0,
    "coupon": "2,25 %",
    "accruedInterest": "1,25",
    "settleDate": "2022.11.09",
    "askEhmYield": "9,65",
    "bidYield": "10,33",
    "rawName": "2033/A",
    "bidPrice": "49,77",
    "coupon_val": 2.25,
    "maturityInDays": "3815 nap",
    "securityType": "KTV",
    "maturityDate": "2033.04.20",
    "name": "2033/A",
    "bidEhmYield": "10,32",
    "askYield": "9,66",
    "currency": "HUF",
    "maturityInDays_val": 3815,
    "issueDate": "2020-10-28",
    "longName": "A330420A20"
}