{
    "askPrice": "59,7523",
    "green": 0,
    "coupon": "2,25 %",
    "accruedInterest": "1,5842",
    "settleDate": "2023.01.02",
    "askEhmYield": "8,17",
    "bidYield": "8,91",
    "rawName": "2033/A",
    "bidPrice": "56,2745",
    "coupon_val": 2.25,
    "maturityInDays": "3761 nap",
    "securityType": "KTV",
    "maturityDate": "2033.04.20",
    "name": "2033/A",
    "bidEhmYield": "8,90",
    "askYield": "8,18",
    "currency": "HUF",
    "maturityInDays_val": 3761,
    "issueDate": "2020.10.28",
    "longName": "A330420A20"
}