{
    "askPrice": "53,63",
    "green": 0,
    "coupon": "2,25 %",
    "accruedInterest": "1,02",
    "settleDate": "2022.10.03",
    "askEhmYield": "9,35",
    "bidYield": "9,85",
    "rawName": "2033/A",
    "bidPrice": "51,47",
    "coupon_val": 2.25,
    "maturityInDays": "3852 nap",
    "securityType": "KTV",
    "maturityDate": "2033.04.20",
    "name": "2033/A",
    "bidEhmYield": "9,85",
    "askYield": "9,35",
    "currency": "HUF",
    "maturityInDays_val": 3852,
    "longName": "A330420A20"
}