{
    "askPrice": "58,00",
    "green": 0,
    "coupon": "2,25 %",
    "accruedInterest": "0,76",
    "settleDate": "2022.08.22",
    "askEhmYield": "8,35",
    "bidYield": "8,85",
    "rawName": "2033/A",
    "bidPrice": "55,60",
    "coupon_val": 2.25,
    "maturityInDays": "3894 nap",
    "securityType": "KTV",
    "maturityDate": "2033.04.20",
    "name": "2033/A",
    "bidEhmYield": "8,85",
    "askYield": "8,35",
    "currency": "HUF",
    "maturityInDays_val": 3894,
    "longName": "A330420A20"
}