{
    "askPrice": "59,4567",
    "green": 0,
    "coupon": "2,25 %",
    "accruedInterest": "1,4548",
    "settleDate": "2022.12.12",
    "askEhmYield": "8,20",
    "bidYield": "9,04",
    "rawName": "2033/A",
    "bidPrice": "55,5261",
    "coupon_val": 2.25,
    "maturityInDays": "3782 nap",
    "securityType": "KTV",
    "maturityDate": "2033.04.20",
    "name": "2033/A",
    "bidEhmYield": "9,03",
    "askYield": "8,21",
    "currency": "HUF",
    "maturityInDays_val": 3782,
    "issueDate": "2020.10.28",
    "longName": "A330420A20"
}