{
    "askPrice": "53,37",
    "green": 0,
    "coupon": "2,25 %",
    "accruedInterest": "1,07",
    "settleDate": "2022.10.10",
    "askEhmYield": "9,42",
    "bidYield": "9,92",
    "rawName": "2033/A",
    "bidPrice": "51,22",
    "coupon_val": 2.25,
    "maturityInDays": "3845 nap",
    "securityType": "KTV",
    "maturityDate": "2033.04.20",
    "name": "2033/A",
    "bidEhmYield": "9,92",
    "askYield": "9,42",
    "currency": "HUF",
    "maturityInDays_val": 3845,
    "longName": "A330420A20"
}