{
    "askPrice": "57,44",
    "green": 0,
    "coupon": "2,25 %",
    "accruedInterest": "0,83",
    "settleDate": "2022.09.02",
    "askEhmYield": "8,48",
    "bidYield": "8,98",
    "rawName": "2033/A",
    "bidPrice": "55,08",
    "coupon_val": 2.25,
    "maturityInDays": "3883 nap",
    "securityType": "KTV",
    "maturityDate": "2033.04.20",
    "name": "2033/A",
    "bidEhmYield": "8,98",
    "askYield": "8,48",
    "currency": "HUF",
    "maturityInDays_val": 3883,
    "longName": "A330420A20"
}