{
    "askPrice": "53,68",
    "green": 0,
    "coupon": "2,25 %",
    "accruedInterest": "1,03",
    "settleDate": "2022.10.04",
    "askEhmYield": "9,34",
    "bidYield": "9,84",
    "rawName": "2033/A",
    "bidPrice": "51,52",
    "coupon_val": 2.25,
    "maturityInDays": "3851 nap",
    "securityType": "KTV",
    "maturityDate": "2033.04.20",
    "name": "2033/A",
    "bidEhmYield": "9,84",
    "askYield": "9,34",
    "currency": "HUF",
    "maturityInDays_val": 3851,
    "longName": "A330420A20"
}