{
    "askPrice": "58,70",
    "green": 0,
    "coupon": "2,25 %",
    "accruedInterest": "0,59",
    "settleDate": "2022.07.25",
    "askEhmYield": "8,17",
    "bidYield": "8,67",
    "rawName": "2033/A",
    "bidPrice": "56,26",
    "coupon_val": 2.25,
    "maturityInDays": "3922 nap",
    "securityType": "KTV",
    "maturityDate": "2033.04.20",
    "name": "2033/A",
    "bidEhmYield": "8,67",
    "askYield": "8,17",
    "currency": "HUF",
    "maturityInDays_val": 3922,
    "longName": "A330420A20"
}