{
    "askPrice": "62,3623",
    "green": 0,
    "coupon": "2,25 %",
    "accruedInterest": "1,3685",
    "settleDate": "2022.11.28",
    "askEhmYield": "7,61",
    "bidYield": "8,30",
    "rawName": "2033/A",
    "bidPrice": "58,9162",
    "coupon_val": 2.25,
    "maturityInDays": "3796 nap",
    "securityType": "KTV",
    "maturityDate": "2033.04.20",
    "name": "2033/A",
    "bidEhmYield": "8,29",
    "askYield": "7,62",
    "currency": "HUF",
    "maturityInDays_val": 3796,
    "issueDate": "2020.10.28",
    "longName": "A330420A20"
}