{
    "askPrice": "66,0556",
    "green": 0,
    "coupon": "2,25 %",
    "accruedInterest": "0,1230",
    "settleDate": "2023.05.10",
    "askEhmYield": "7,12",
    "bidYield": "7,98",
    "rawName": "2033/A",
    "bidPrice": "61,6522",
    "coupon_val": 2.25,
    "maturityInDays": "3633 nap",
    "securityType": "KTV",
    "maturityDate": "2033.04.20",
    "name": "2033/A",
    "bidEhmYield": "7,97",
    "askYield": "7,13",
    "currency": "HUF",
    "maturityInDays_val": 3633,
    "issueDate": "2020.10.28",
    "longName": "A330420A20"
}