{
    "askPrice": "60,9772",
    "green": 0,
    "coupon": "2,25 %",
    "accruedInterest": "2,2130",
    "settleDate": "2023.04.14",
    "askEhmYield": "8,07",
    "bidYield": "8,87",
    "rawName": "2033/A",
    "bidPrice": "57,2248",
    "coupon_val": 2.25,
    "maturityInDays": "3659 nap",
    "securityType": "KTV",
    "maturityDate": "2033.04.20",
    "name": "2033/A",
    "bidEhmYield": "8,86",
    "askYield": "8,08",
    "currency": "HUF",
    "maturityInDays_val": 3659,
    "issueDate": "2020.10.28",
    "longName": "A330420A20"
}