{
    "askPrice": "70,6122",
    "green": 0,
    "coupon": "2,25 %",
    "accruedInterest": "1,2480",
    "settleDate": "2023.11.09",
    "askEhmYield": "6,50",
    "bidYield": "7,25",
    "rawName": "2033/A",
    "bidPrice": "66,6206",
    "coupon_val": 2.25,
    "maturityInDays": "3450 nap",
    "securityType": "KTV",
    "maturityDate": "2033.04.20",
    "name": "2033/A",
    "bidEhmYield": "7,24",
    "askYield": "6,51",
    "currency": "HUF",
    "maturityInDays_val": 3450,
    "issueDate": "2020.10.28",
    "longName": "A330420A20"
}