{
    "askPrice": "70,2705",
    "green": 0,
    "coupon": "2,25 %",
    "accruedInterest": "1,0758",
    "settleDate": "2023.10.12",
    "askEhmYield": "6,53",
    "bidYield": "7,28",
    "rawName": "2033/A",
    "bidPrice": "66,2737",
    "coupon_val": 2.25,
    "maturityInDays": "3478 nap",
    "securityType": "KTV",
    "maturityDate": "2033.04.20",
    "name": "2033/A",
    "bidEhmYield": "7,27",
    "askYield": "6,54",
    "currency": "HUF",
    "maturityInDays_val": 3478,
    "issueDate": "2020.10.28",
    "longName": "A330420A20"
}