{
    "askPrice": "62,9945",
    "green": 0,
    "coupon": "2,25 %",
    "accruedInterest": "2,1267",
    "settleDate": "2023.03.31",
    "askEhmYield": "7,65",
    "bidYield": "8,49",
    "rawName": "2033/A",
    "bidPrice": "58,8892",
    "coupon_val": 2.25,
    "maturityInDays": "3673 nap",
    "securityType": "KTV",
    "maturityDate": "2033.04.20",
    "name": "2033/A",
    "bidEhmYield": "8,48",
    "askYield": "7,66",
    "currency": "HUF",
    "maturityInDays_val": 3673,
    "issueDate": "2020.10.28",
    "longName": "A330420A20"
}