{
    "askPrice": "70,6721",
    "green": 0,
    "coupon": "2,25 %",
    "accruedInterest": "0,9713",
    "settleDate": "2023.09.25",
    "askEhmYield": "6,44",
    "bidYield": "7,18",
    "rawName": "2033/A",
    "bidPrice": "66,6839",
    "coupon_val": 2.25,
    "maturityInDays": "3495 nap",
    "securityType": "KTV",
    "maturityDate": "2033.04.20",
    "name": "2033/A",
    "bidEhmYield": "7,17",
    "askYield": "6,45",
    "currency": "HUF",
    "maturityInDays_val": 3495,
    "issueDate": "2020.10.28",
    "longName": "A330420A20"
}