{
    "askPrice": "66,1222",
    "green": 0,
    "coupon": "2,25 %",
    "accruedInterest": "0,1352",
    "settleDate": "2023.05.12",
    "askEhmYield": "7,11",
    "bidYield": "7,97",
    "rawName": "2033/A",
    "bidPrice": "61,7155",
    "coupon_val": 2.25,
    "maturityInDays": "3631 nap",
    "securityType": "KTV",
    "maturityDate": "2033.04.20",
    "name": "2033/A",
    "bidEhmYield": "7,96",
    "askYield": "7,12",
    "currency": "HUF",
    "maturityInDays_val": 3631,
    "issueDate": "2020.10.28",
    "longName": "A330420A20"
}