{
    "askPrice": "61,9461",
    "green": 0,
    "coupon": "2,25 %",
    "accruedInterest": "2,1021",
    "settleDate": "2023.03.27",
    "askEhmYield": "7,85",
    "bidYield": "8,66",
    "rawName": "2033/A",
    "bidPrice": "58,0585",
    "coupon_val": 2.25,
    "maturityInDays": "3677 nap",
    "securityType": "KTV",
    "maturityDate": "2033.04.20",
    "name": "2033/A",
    "bidEhmYield": "8,65",
    "askYield": "7,86",
    "currency": "HUF",
    "maturityInDays_val": 3677,
    "issueDate": "2020.10.28",
    "longName": "A330420A20"
}