{
    "askPrice": "68,1049",
    "green": 0,
    "coupon": "2,25 %",
    "accruedInterest": "0,6885",
    "settleDate": "2023.08.10",
    "askEhmYield": "6,85",
    "bidYield": "7,59",
    "rawName": "2033/A",
    "bidPrice": "64,2450",
    "coupon_val": 2.25,
    "maturityInDays": "3541 nap",
    "securityType": "KTV",
    "maturityDate": "2033.04.20",
    "name": "2033/A",
    "bidEhmYield": "7,58",
    "askYield": "6,86",
    "currency": "HUF",
    "maturityInDays_val": 3541,
    "issueDate": "2020.10.28",
    "longName": "A330420A20"
}