{
    "askPrice": "71,8261",
    "green": 0,
    "coupon": "2,25 %",
    "accruedInterest": "0,5533",
    "settleDate": "2023.07.19",
    "askEhmYield": "6,17",
    "bidYield": "7,01",
    "rawName": "2033/A",
    "bidPrice": "67,1485",
    "coupon_val": 2.25,
    "maturityInDays": "3563 nap",
    "securityType": "KTV",
    "maturityDate": "2033.04.20",
    "name": "2033/A",
    "bidEhmYield": "7,00",
    "askYield": "6,18",
    "currency": "HUF",
    "maturityInDays_val": 3563,
    "issueDate": "2020.10.28",
    "longName": "A330420A20"
}