{
    "askPrice": "66,3679",
    "green": 0,
    "coupon": "2,25 %",
    "accruedInterest": "0,1107",
    "settleDate": "2023.05.08",
    "askEhmYield": "7,06",
    "bidYield": "7,92",
    "rawName": "2033/A",
    "bidPrice": "61,9377",
    "coupon_val": 2.25,
    "maturityInDays": "3635 nap",
    "securityType": "KTV",
    "maturityDate": "2033.04.20",
    "name": "2033/A",
    "bidEhmYield": "7,91",
    "askYield": "7,07",
    "currency": "HUF",
    "maturityInDays_val": 3635,
    "issueDate": "2020.10.28",
    "longName": "A330420A20"
}