{
    "askPrice": "68,4724",
    "green": 0,
    "coupon": "2,25 %",
    "accruedInterest": "1,6767",
    "settleDate": "2023.01.17",
    "askEhmYield": "6,56",
    "bidYield": "7,40",
    "rawName": "2033/A",
    "bidPrice": "63,8583",
    "coupon_val": 2.25,
    "maturityInDays": "3746 nap",
    "securityType": "KTV",
    "maturityDate": "2033.04.20",
    "name": "2033/A",
    "bidEhmYield": "7,39",
    "askYield": "6,57",
    "currency": "HUF",
    "maturityInDays_val": 3746,
    "issueDate": "2020.10.28",
    "longName": "A330420A20"
}