{
    "askPrice": "71,1785",
    "green": 0,
    "coupon": "2,25 %",
    "accruedInterest": "0,5471",
    "settleDate": "2023.07.18",
    "askEhmYield": "6,28",
    "bidYield": "7,12",
    "rawName": "2033/A",
    "bidPrice": "66,5498",
    "coupon_val": 2.25,
    "maturityInDays": "3564 nap",
    "securityType": "KTV",
    "maturityDate": "2033.04.20",
    "name": "2033/A",
    "bidEhmYield": "7,11",
    "askYield": "6,29",
    "currency": "HUF",
    "maturityInDays_val": 3564,
    "issueDate": "2020.10.28",
    "longName": "A330420A20"
}