{
    "askPrice": "69,0759",
    "green": 0,
    "coupon": "2,25 %",
    "accruedInterest": "0,3258",
    "settleDate": "2023.06.12",
    "askEhmYield": "6,61",
    "bidYield": "7,49",
    "rawName": "2033/A",
    "bidPrice": "64,3630",
    "coupon_val": 2.25,
    "maturityInDays": "3600 nap",
    "securityType": "KTV",
    "maturityDate": "2033.04.20",
    "name": "2033/A",
    "bidEhmYield": "7,48",
    "askYield": "6,62",
    "currency": "HUF",
    "maturityInDays_val": 3600,
    "issueDate": "2020.10.28",
    "longName": "A330420A20"
}