{
    "askPrice": "71,2771",
    "green": 0,
    "coupon": "2,25 %",
    "accruedInterest": "0,8914",
    "settleDate": "2023.09.12",
    "askEhmYield": "6,32",
    "bidYield": "7,04",
    "rawName": "2033/A",
    "bidPrice": "67,3423",
    "coupon_val": 2.25,
    "maturityInDays": "3508 nap",
    "securityType": "KTV",
    "maturityDate": "2033.04.20",
    "name": "2033/A",
    "bidEhmYield": "7,03",
    "askYield": "6,33",
    "currency": "HUF",
    "maturityInDays_val": 3508,
    "issueDate": "2020.10.28",
    "longName": "A330420A20"
}