{
    "askPrice": "60,1063",
    "green": 0,
    "coupon": "2,25 %",
    "accruedInterest": "1,5904",
    "settleDate": "2023.01.03",
    "askEhmYield": "8,10",
    "bidYield": "8,95",
    "rawName": "2033/A",
    "bidPrice": "56,0985",
    "coupon_val": 2.25,
    "maturityInDays": "3760 nap",
    "securityType": "KTV",
    "maturityDate": "2033.04.20",
    "name": "2033/A",
    "bidEhmYield": "8,94",
    "askYield": "8,11",
    "currency": "HUF",
    "maturityInDays_val": 3760,
    "issueDate": "2020.10.28",
    "longName": "A330420A20"
}