{
    "askPrice": "67,6602",
    "green": 0,
    "coupon": "2,25 %",
    "accruedInterest": "1,0389",
    "settleDate": "2023.10.06",
    "askEhmYield": "7,00",
    "bidYield": "7,74",
    "rawName": "2033/A",
    "bidPrice": "63,8836",
    "coupon_val": 2.25,
    "maturityInDays": "3484 nap",
    "securityType": "KTV",
    "maturityDate": "2033.04.20",
    "name": "2033/A",
    "bidEhmYield": "7,73",
    "askYield": "7,01",
    "currency": "HUF",
    "maturityInDays_val": 3484,
    "issueDate": "2020.10.28",
    "longName": "A330420A20"
}