{
    "askPrice": "75,3520",
    "green": 0,
    "coupon": "2,25 %",
    "accruedInterest": "1,4262",
    "settleDate": "2023.12.08",
    "askEhmYield": "5,72",
    "bidYield": "6,44",
    "rawName": "2033/A",
    "bidPrice": "71,1843",
    "coupon_val": 2.25,
    "maturityInDays": "3421 nap",
    "securityType": "KTV",
    "maturityDate": "2033.04.20",
    "name": "2033/A",
    "bidEhmYield": "6,43",
    "askYield": "5,72",
    "currency": "HUF",
    "maturityInDays_val": 3421,
    "issueDate": "2020.10.28",
    "longName": "A330420A20"
}