{
    "askPrice": "61,4236",
    "green": 0,
    "coupon": "2,25 %",
    "accruedInterest": "1,9110",
    "settleDate": "2023.02.24",
    "askEhmYield": "7,91",
    "bidYield": "8,75",
    "rawName": "2033/A",
    "bidPrice": "57,4068",
    "coupon_val": 2.25,
    "maturityInDays": "3708 nap",
    "securityType": "KTV",
    "maturityDate": "2033.04.20",
    "name": "2033/A",
    "bidEhmYield": "8,74",
    "askYield": "7,92",
    "currency": "HUF",
    "maturityInDays_val": 3708,
    "issueDate": "2020.10.28",
    "longName": "A330420A20"
}