{
    "askPrice": "67,7120",
    "green": 0,
    "coupon": "2,25 %",
    "accruedInterest": "1,1865",
    "settleDate": "2023.10.30",
    "askEhmYield": "7,02",
    "bidYield": "7,75",
    "rawName": "2033/A",
    "bidPrice": "64,0044",
    "coupon_val": 2.25,
    "maturityInDays": "3460 nap",
    "securityType": "KTV",
    "maturityDate": "2033.04.20",
    "name": "2033/A",
    "bidEhmYield": "7,74",
    "askYield": "7,03",
    "currency": "HUF",
    "maturityInDays_val": 3460,
    "issueDate": "2020.10.28",
    "longName": "A330420A20"
}