{
    "askPrice": "68,5735",
    "green": 0,
    "coupon": "2,25 %",
    "accruedInterest": "0,4980",
    "settleDate": "2023.07.10",
    "askEhmYield": "6,73",
    "bidYield": "7,56",
    "rawName": "2033/A",
    "bidPrice": "64,1884",
    "coupon_val": 2.25,
    "maturityInDays": "3572 nap",
    "securityType": "KTV",
    "maturityDate": "2033.04.20",
    "name": "2033/A",
    "bidEhmYield": "7,55",
    "askYield": "6,74",
    "currency": "HUF",
    "maturityInDays_val": 3572,
    "issueDate": "2020.10.28",
    "longName": "A330420A20"
}