{
    "askPrice": "73,5464",
    "green": 0,
    "coupon": "2,25 %",
    "accruedInterest": "1,3279",
    "settleDate": "2023.11.22",
    "askEhmYield": "6,01",
    "bidYield": "6,74",
    "rawName": "2033/A",
    "bidPrice": "69,4255",
    "coupon_val": 2.25,
    "maturityInDays": "3437 nap",
    "securityType": "KTV",
    "maturityDate": "2033.04.20",
    "name": "2033/A",
    "bidEhmYield": "6,73",
    "askYield": "6,01",
    "currency": "HUF",
    "maturityInDays_val": 3437,
    "issueDate": "2020.10.28",
    "longName": "A330420A20"
}