{
    "askPrice": "67,3624",
    "green": 0,
    "coupon": "2,25 %",
    "accruedInterest": "1,7137",
    "settleDate": "2023.01.23",
    "askEhmYield": "6,76",
    "bidYield": "7,61",
    "rawName": "2033/A",
    "bidPrice": "62,7913",
    "coupon_val": 2.25,
    "maturityInDays": "3740 nap",
    "securityType": "KTV",
    "maturityDate": "2033.04.20",
    "name": "2033/A",
    "bidEhmYield": "7,60",
    "askYield": "6,77",
    "currency": "HUF",
    "maturityInDays_val": 3740,
    "issueDate": "2020.10.28",
    "longName": "A330420A20"
}