{
    "askPrice": "65,5398",
    "green": 0,
    "coupon": "2,25 %",
    "accruedInterest": "0,2459",
    "settleDate": "2023.05.30",
    "askEhmYield": "7,24",
    "bidYield": "8,13",
    "rawName": "2033/A",
    "bidPrice": "61,0505",
    "coupon_val": 2.25,
    "maturityInDays": "3613 nap",
    "securityType": "KTV",
    "maturityDate": "2033.04.20",
    "name": "2033/A",
    "bidEhmYield": "8,12",
    "askYield": "7,25",
    "currency": "HUF",
    "maturityInDays_val": 3613,
    "issueDate": "2020.10.28",
    "longName": "A330420A20"
}