{
    "askPrice": "71,1745",
    "green": 0,
    "coupon": "2,25 %",
    "accruedInterest": "0,9037",
    "settleDate": "2023.09.14",
    "askEhmYield": "6,34",
    "bidYield": "7,08",
    "rawName": "2033/A",
    "bidPrice": "67,1416",
    "coupon_val": 2.25,
    "maturityInDays": "3506 nap",
    "securityType": "KTV",
    "maturityDate": "2033.04.20",
    "name": "2033/A",
    "bidEhmYield": "7,07",
    "askYield": "6,35",
    "currency": "HUF",
    "maturityInDays_val": 3506,
    "issueDate": "2020.10.28",
    "longName": "A330420A20"
}