{
    "askPrice": "77,8581",
    "green": 0,
    "coupon": "2,25 %",
    "accruedInterest": "1,5799",
    "settleDate": "2024.01.02",
    "askEhmYield": "5,33",
    "bidYield": "6,06",
    "rawName": "2033/A",
    "bidPrice": "73,4961",
    "coupon_val": 2.25,
    "maturityInDays": "3396 nap",
    "securityType": "KTV",
    "maturityDate": "2033.04.20",
    "name": "2033/A",
    "bidEhmYield": "6,06",
    "askYield": "5,33",
    "currency": "HUF",
    "maturityInDays_val": 3396,
    "issueDate": "2020.10.28",
    "longName": "A330420A20"
}