{
    "askPrice": "60,0636",
    "green": 0,
    "coupon": "2,25 %",
    "accruedInterest": "1,5966",
    "settleDate": "2023.01.04",
    "askEhmYield": "8,11",
    "bidYield": "8,95",
    "rawName": "2033/A",
    "bidPrice": "56,1059",
    "coupon_val": 2.25,
    "maturityInDays": "3759 nap",
    "securityType": "KTV",
    "maturityDate": "2033.04.20",
    "name": "2033/A",
    "bidEhmYield": "8,94",
    "askYield": "8,12",
    "currency": "HUF",
    "maturityInDays_val": 3759,
    "issueDate": "2020.10.28",
    "longName": "A330420A20"
}