{
    "askPrice": "70,8594",
    "green": 0,
    "coupon": "2,25 %",
    "accruedInterest": "0,4549",
    "settleDate": "2023.07.03",
    "askEhmYield": "6,32",
    "bidYield": "7,20",
    "rawName": "2033/A",
    "bidPrice": "66,0255",
    "coupon_val": 2.25,
    "maturityInDays": "3579 nap",
    "securityType": "KTV",
    "maturityDate": "2033.04.20",
    "name": "2033/A",
    "bidEhmYield": "7,19",
    "askYield": "6,33",
    "currency": "HUF",
    "maturityInDays_val": 3579,
    "issueDate": "2020.10.28",
    "longName": "A330420A20"
}