{
    "askPrice": "63,1614",
    "green": 0,
    "coupon": "2,25 %",
    "accruedInterest": "1,8123",
    "settleDate": "2023.02.08",
    "askEhmYield": "7,55",
    "bidYield": "8,35",
    "rawName": "2033/A",
    "bidPrice": "59,1855",
    "coupon_val": 2.25,
    "maturityInDays": "3724 nap",
    "securityType": "KTV",
    "maturityDate": "2033.04.20",
    "name": "2033/A",
    "bidEhmYield": "8,34",
    "askYield": "7,56",
    "currency": "HUF",
    "maturityInDays_val": 3724,
    "issueDate": "2020.10.28",
    "longName": "A330420A20"
}