{
    "askPrice": "63,4189",
    "green": 0,
    "coupon": "2,25 %",
    "accruedInterest": "0,0246",
    "settleDate": "2023.04.24",
    "askEhmYield": "7,60",
    "bidYield": "8,47",
    "rawName": "2033/A",
    "bidPrice": "59,1618",
    "coupon_val": 2.25,
    "maturityInDays": "3649 nap",
    "securityType": "KTV",
    "maturityDate": "2033.04.20",
    "name": "2033/A",
    "bidEhmYield": "8,46",
    "askYield": "7,61",
    "currency": "HUF",
    "maturityInDays_val": 3649,
    "issueDate": "2020.10.28",
    "longName": "A330420A20"
}