{
    "askPrice": "69,1550",
    "green": 0,
    "coupon": "2,25 %",
    "accruedInterest": "0,7992",
    "settleDate": "2023.08.28",
    "askEhmYield": "6,68",
    "bidYield": "7,47",
    "rawName": "2033/A",
    "bidPrice": "64,9831",
    "coupon_val": 2.25,
    "maturityInDays": "3523 nap",
    "securityType": "KTV",
    "maturityDate": "2033.04.20",
    "name": "2033/A",
    "bidEhmYield": "7,46",
    "askYield": "6,69",
    "currency": "HUF",
    "maturityInDays_val": 3523,
    "issueDate": "2020.10.28",
    "longName": "A330420A20"
}