{
    "askPrice": "69,4289",
    "green": 0,
    "coupon": "2,25 %",
    "accruedInterest": "0,6270",
    "settleDate": "2023.07.31",
    "askEhmYield": "6,60",
    "bidYield": "7,44",
    "rawName": "2033/A",
    "bidPrice": "64,9490",
    "coupon_val": 2.25,
    "maturityInDays": "3551 nap",
    "securityType": "KTV",
    "maturityDate": "2033.04.20",
    "name": "2033/A",
    "bidEhmYield": "7,43",
    "askYield": "6,61",
    "currency": "HUF",
    "maturityInDays_val": 3551,
    "issueDate": "2020.10.28",
    "longName": "A330420A20"
}