{
    "askPrice": "72,1152",
    "green": 0,
    "coupon": "2,25 %",
    "accruedInterest": "1,3402",
    "settleDate": "2023.11.24",
    "askEhmYield": "6,25",
    "bidYield": "6,97",
    "rawName": "2033/A",
    "bidPrice": "68,1980",
    "coupon_val": 2.25,
    "maturityInDays": "3435 nap",
    "securityType": "KTV",
    "maturityDate": "2033.04.20",
    "name": "2033/A",
    "bidEhmYield": "6,96",
    "askYield": "6,26",
    "currency": "HUF",
    "maturityInDays_val": 3435,
    "issueDate": "2020.10.28",
    "longName": "A330420A20"
}