{
    "askPrice": "72,9041",
    "green": 0,
    "coupon": "2,25 %",
    "accruedInterest": "2,0717",
    "settleDate": "2024.03.22",
    "askEhmYield": "6,25",
    "bidYield": "6,95",
    "rawName": "2033/A",
    "bidPrice": "69,1115",
    "coupon_val": 2.25,
    "maturityInDays": "3316 nap",
    "securityType": "KTV",
    "maturityDate": "2033.04.20",
    "name": "2033/A",
    "bidEhmYield": "6,94",
    "askYield": "6,25",
    "currency": "HUF",
    "maturityInDays_val": 3316,
    "issueDate": "2020.10.28",
    "longName": "A330420A20"
}