{
    "askPrice": "75,4063",
    "green": 0,
    "coupon": "2,25 %",
    "accruedInterest": "1,8750",
    "settleDate": "2024.02.19",
    "askEhmYield": "5,78",
    "bidYield": "6,51",
    "rawName": "2033/A",
    "bidPrice": "71,2594",
    "coupon_val": 2.25,
    "maturityInDays": "3348 nap",
    "securityType": "KTV",
    "maturityDate": "2033.04.20",
    "name": "2033/A",
    "bidEhmYield": "6,50",
    "askYield": "5,78",
    "currency": "HUF",
    "maturityInDays_val": 3348,
    "issueDate": "2020.10.28",
    "longName": "A330420A20"
}