{
    "askPrice": "80,2470",
    "green": 0,
    "coupon": "2,25 %",
    "accruedInterest": "1,6598",
    "settleDate": "2024.01.15",
    "askEhmYield": "4,96",
    "bidYield": "5,68",
    "rawName": "2033/A",
    "bidPrice": "75,8013",
    "coupon_val": 2.25,
    "maturityInDays": "3383 nap",
    "securityType": "KTV",
    "maturityDate": "2033.04.20",
    "name": "2033/A",
    "bidEhmYield": "5,68",
    "askYield": "4,96",
    "currency": "HUF",
    "maturityInDays_val": 3383,
    "issueDate": "2020.10.28",
    "longName": "A330420A20"
}