{
    "askPrice": "74,6715",
    "green": 0,
    "coupon": "2,25 %",
    "accruedInterest": "1,9611",
    "settleDate": "2024.03.04",
    "askEhmYield": "5,92",
    "bidYield": "6,66",
    "rawName": "2033/A",
    "bidPrice": "70,5338",
    "coupon_val": 2.25,
    "maturityInDays": "3334 nap",
    "securityType": "KTV",
    "maturityDate": "2033.04.20",
    "name": "2033/A",
    "bidEhmYield": "6,65",
    "askYield": "5,92",
    "currency": "HUF",
    "maturityInDays_val": 3334,
    "issueDate": "2020.10.28",
    "longName": "A330420A20"
}