{
    "askPrice": "71,7484",
    "green": 0,
    "coupon": "2,25 %",
    "accruedInterest": "2,1824",
    "settleDate": "2024.04.09",
    "askEhmYield": "6,47",
    "bidYield": "7,21",
    "rawName": "2033/A",
    "bidPrice": "67,8920",
    "coupon_val": 2.25,
    "maturityInDays": "3298 nap",
    "securityType": "KTV",
    "maturityDate": "2033.04.20",
    "name": "2033/A",
    "bidEhmYield": "7,20",
    "askYield": "6,48",
    "currency": "HUF",
    "maturityInDays_val": 3298,
    "issueDate": "2020.10.28",
    "longName": "A330420A20"
}