{
    "askPrice": "71,3249",
    "green": 0,
    "coupon": "2,25 %",
    "accruedInterest": "0,0986",
    "settleDate": "2024.05.06",
    "askEhmYield": "6,59",
    "bidYield": "7,33",
    "rawName": "2033/A",
    "bidPrice": "67,4729",
    "coupon_val": 2.25,
    "maturityInDays": "3271 nap",
    "securityType": "KTV",
    "maturityDate": "2033.04.20",
    "name": "2033/A",
    "bidEhmYield": "7,33",
    "askYield": "6,59",
    "currency": "HUF",
    "maturityInDays_val": 3271,
    "issueDate": "2020.10.28",
    "longName": "A330420A20"
}