{
    "askPrice": "75,0312",
    "green": 0,
    "coupon": "2,25 %",
    "accruedInterest": "1,9734",
    "settleDate": "2024.03.06",
    "askEhmYield": "5,86",
    "bidYield": "6,56",
    "rawName": "2033/A",
    "bidPrice": "71,0897",
    "coupon_val": 2.25,
    "maturityInDays": "3332 nap",
    "securityType": "KTV",
    "maturityDate": "2033.04.20",
    "name": "2033/A",
    "bidEhmYield": "6,55",
    "askYield": "5,86",
    "currency": "HUF",
    "maturityInDays_val": 3332,
    "issueDate": "2020.10.28",
    "longName": "A330420A20"
}