{
    "askPrice": "76,3738",
    "green": 0,
    "coupon": "2,25 %",
    "accruedInterest": "1,6291",
    "settleDate": "2024.01.10",
    "askEhmYield": "5,58",
    "bidYield": "6,30",
    "rawName": "2033/A",
    "bidPrice": "72,1753",
    "coupon_val": 2.25,
    "maturityInDays": "3388 nap",
    "securityType": "KTV",
    "maturityDate": "2033.04.20",
    "name": "2033/A",
    "bidEhmYield": "6,29",
    "askYield": "5,58",
    "currency": "HUF",
    "maturityInDays_val": 3388,
    "issueDate": "2020.10.28",
    "longName": "A330420A20"
}