{
    "askPrice": "74,2944",
    "green": 0,
    "coupon": "2,25 %",
    "accruedInterest": "2,0471",
    "settleDate": "2024.03.18",
    "askEhmYield": "6,00",
    "bidYield": "6,72",
    "rawName": "2033/A",
    "bidPrice": "70,3042",
    "coupon_val": 2.25,
    "maturityInDays": "3320 nap",
    "securityType": "KTV",
    "maturityDate": "2033.04.20",
    "name": "2033/A",
    "bidEhmYield": "6,71",
    "askYield": "6,00",
    "currency": "HUF",
    "maturityInDays_val": 3320,
    "issueDate": "2020.10.28",
    "longName": "A330420A20"
}