{
    "askPrice": "76,9811",
    "green": 0,
    "coupon": "2,25 %",
    "accruedInterest": "1,7705",
    "settleDate": "2024.02.02",
    "askEhmYield": "5,50",
    "bidYield": "6,23",
    "rawName": "2033/A",
    "bidPrice": "72,7122",
    "coupon_val": 2.25,
    "maturityInDays": "3365 nap",
    "securityType": "KTV",
    "maturityDate": "2033.04.20",
    "name": "2033/A",
    "bidEhmYield": "6,22",
    "askYield": "5,50",
    "currency": "HUF",
    "maturityInDays_val": 3365,
    "issueDate": "2020.10.28",
    "longName": "A330420A20"
}