{
    "askPrice": "75,5509",
    "green": 0,
    "coupon": "2,25 %",
    "accruedInterest": "1,9672",
    "settleDate": "2024.03.05",
    "askEhmYield": "5,77",
    "bidYield": "6,51",
    "rawName": "2033/A",
    "bidPrice": "71,3565",
    "coupon_val": 2.25,
    "maturityInDays": "3333 nap",
    "securityType": "KTV",
    "maturityDate": "2033.04.20",
    "name": "2033/A",
    "bidEhmYield": "6,50",
    "askYield": "5,77",
    "currency": "HUF",
    "maturityInDays_val": 3333,
    "issueDate": "2020.10.28",
    "longName": "A330420A20"
}