{
    "askPrice": "74,8332",
    "green": 0,
    "coupon": "2,25 %",
    "accruedInterest": "1,8873",
    "settleDate": "2024.02.21",
    "askEhmYield": "5,88",
    "bidYield": "6,60",
    "rawName": "2033/A",
    "bidPrice": "70,7803",
    "coupon_val": 2.25,
    "maturityInDays": "3346 nap",
    "securityType": "KTV",
    "maturityDate": "2033.04.20",
    "name": "2033/A",
    "bidEhmYield": "6,59",
    "askYield": "5,88",
    "currency": "HUF",
    "maturityInDays_val": 3346,
    "issueDate": "2020.10.28",
    "longName": "A330420A20"
}