{
    "askPrice": "",
    "green": 0,
    "coupon": "6,50 %",
    "accruedInterest": "0,1068",
    "settleDate": "2024.03.04",
    "askEhmYield": "",
    "bidYield": "7,57",
    "rawName": "K2025/09",
    "bidPrice": "99,0000",
    "coupon_val": 6.5,
    "maturityInDays": "360 nap",
    "securityType": "1MÁP",
    "maturityDate": "2025.02.27",
    "name": "K2025/09",
    "bidEhmYield": "7,56",
    "askYield": "",
    "currency": "HUF",
    "maturityInDays_val": 360,
    "issueDate": "2024.02.27",
    "longName": "K250227"
}