{
    "askPrice": "",
    "green": 0,
    "coupon": "6,50 %",
    "accruedInterest": "0,7836",
    "settleDate": "2024.04.12",
    "askEhmYield": "",
    "bidYield": "7,69",
    "rawName": "K2025/09",
    "bidPrice": "99,0000",
    "coupon_val": 6.5,
    "maturityInDays": "321 nap",
    "securityType": "1MÁP",
    "maturityDate": "2025.02.27",
    "name": "K2025/09",
    "bidEhmYield": "7,63",
    "askYield": "",
    "currency": "HUF",
    "maturityInDays_val": 321,
    "issueDate": "2024.02.27",
    "longName": "K250227"
}