{
    "askPrice": "94,3274",
    "green": 0,
    "coupon": 0,
    "accruedInterest": 0,
    "settleDate": "2023.02.23",
    "askEhmYield": "14,35",
    "bidYield": "14,93",
    "rawName": "D230726",
    "bidPrice": "94,0333",
    "maturityInDays": "153 nap",
    "securityType": "DKJ",
    "maturityDate": "2023.07.26",
    "name": "D230726",
    "bidEhmYield": "15,14",
    "askYield": "14,15",
    "currency": "HUF",
    "maturityInDays_val": 153,
    "issueDate": "2022.12.14",
    "longName": "D230726"
}