{
    "askPrice": "93,9946",
    "green": 0,
    "coupon": 0,
    "accruedInterest": 0,
    "settleDate": "2023.02.07",
    "askEhmYield": "13,80",
    "bidYield": "14,45",
    "rawName": "D230726",
    "bidPrice": "93,6475",
    "maturityInDays": "169 nap",
    "securityType": "DKJ",
    "maturityDate": "2023.07.26",
    "name": "D230726",
    "bidEhmYield": "14,65",
    "askYield": "13,61",
    "currency": "HUF",
    "maturityInDays_val": 169,
    "issueDate": "2022.12.14",
    "longName": "D230726"
}