{
    "askPrice": "93,9653",
    "green": 0,
    "coupon": 0,
    "accruedInterest": 0,
    "settleDate": "2023.02.06",
    "askEhmYield": "13,79",
    "bidYield": "14,42",
    "rawName": "D230726",
    "bidPrice": "93,6247",
    "maturityInDays": "170 nap",
    "securityType": "DKJ",
    "maturityDate": "2023.07.26",
    "name": "D230726",
    "bidEhmYield": "14,62",
    "askYield": "13,60",
    "currency": "HUF",
    "maturityInDays_val": 170,
    "issueDate": "2022.12.14",
    "longName": "D230726"
}