{
    "askPrice": "97,0317",
    "green": 0,
    "coupon": 0,
    "accruedInterest": 0,
    "settleDate": "2023.05.08",
    "askEhmYield": "14,13",
    "bidYield": "15,25",
    "rawName": "D230726",
    "bidPrice": "96,7618",
    "maturityInDays": "79 nap",
    "securityType": "DKJ",
    "maturityDate": "2023.07.26",
    "name": "D230726",
    "bidEhmYield": "15,46",
    "askYield": "13,94",
    "currency": "HUF",
    "maturityInDays_val": 79,
    "issueDate": "2022.12.14",
    "longName": "D230726"
}