{
    "askPrice": "99,2247",
    "green": 0,
    "coupon": 0,
    "accruedInterest": 0,
    "settleDate": "2023.06.27",
    "askEhmYield": "9,83",
    "bidYield": "10,97",
    "rawName": "D230726",
    "bidPrice": "99,1240",
    "maturityInDays": "29 nap",
    "securityType": "DKJ",
    "maturityDate": "2023.07.26",
    "name": "D230726",
    "bidEhmYield": "11,12",
    "askYield": "9,70",
    "currency": "HUF",
    "maturityInDays_val": 29,
    "issueDate": "2022.12.14",
    "longName": "D230726"
}