{
    "askPrice": "93,6896",
    "green": 0,
    "coupon": 0,
    "accruedInterest": 0,
    "settleDate": "2023.01.24",
    "askEhmYield": "13,43",
    "bidYield": "14,08",
    "rawName": "D230726",
    "bidPrice": "93,3207",
    "maturityInDays": "183 nap",
    "securityType": "DKJ",
    "maturityDate": "2023.07.26",
    "name": "D230726",
    "bidEhmYield": "14,28",
    "askYield": "13,25",
    "currency": "HUF",
    "maturityInDays_val": 183,
    "issueDate": "2022.12.14",
    "longName": "D230726"
}