{
    "askPrice": "96,8312",
    "green": 0,
    "coupon": 0,
    "accruedInterest": 0,
    "settleDate": "2023.05.02",
    "askEhmYield": "14,05",
    "bidYield": "15,20",
    "rawName": "D230726",
    "bidPrice": "96,5354",
    "maturityInDays": "85 nap",
    "securityType": "DKJ",
    "maturityDate": "2023.07.26",
    "name": "D230726",
    "bidEhmYield": "15,41",
    "askYield": "13,86",
    "currency": "HUF",
    "maturityInDays_val": 85,
    "issueDate": "2022.12.14",
    "longName": "D230726"
}