{
    "askPrice": "95,4806",
    "green": 0,
    "coupon": 0,
    "accruedInterest": 0,
    "settleDate": "2023.03.28",
    "askEhmYield": "14,40",
    "bidYield": "14,99",
    "rawName": "D230726",
    "bidPrice": "95,2411",
    "maturityInDays": "120 nap",
    "securityType": "DKJ",
    "maturityDate": "2023.07.26",
    "name": "D230726",
    "bidEhmYield": "15,20",
    "askYield": "14,20",
    "currency": "HUF",
    "maturityInDays_val": 120,
    "issueDate": "2022.12.14",
    "longName": "D230726"
}