{
    "askPrice": "96,0138",
    "green": 0,
    "coupon": 0,
    "accruedInterest": 0,
    "settleDate": "2023.04.11",
    "askEhmYield": "14,30",
    "bidYield": "14,92",
    "rawName": "D230726",
    "bidPrice": "95,7918",
    "maturityInDays": "106 nap",
    "securityType": "DKJ",
    "maturityDate": "2023.07.26",
    "name": "D230726",
    "bidEhmYield": "15,13",
    "askYield": "14,10",
    "currency": "HUF",
    "maturityInDays_val": 106,
    "issueDate": "2022.12.14",
    "longName": "D230726"
}