{
    "askPrice": "97,2838",
    "green": 0,
    "coupon": 0,
    "accruedInterest": 0,
    "settleDate": "2023.05.15",
    "askEhmYield": "14,15",
    "bidYield": "15,25",
    "rawName": "D230726",
    "bidPrice": "97,0403",
    "maturityInDays": "72 nap",
    "securityType": "DKJ",
    "maturityDate": "2023.07.26",
    "name": "D230726",
    "bidEhmYield": "15,46",
    "askYield": "13,96",
    "currency": "HUF",
    "maturityInDays_val": 72,
    "issueDate": "2022.12.14",
    "longName": "D230726"
}