{
    "askPrice": "99,5668",
    "green": 0,
    "coupon": 0,
    "accruedInterest": 0,
    "settleDate": "2023.07.10",
    "askEhmYield": "9,93",
    "bidYield": "11,00",
    "rawName": "D230726",
    "bidPrice": "99,5135",
    "maturityInDays": "16 nap",
    "securityType": "DKJ",
    "maturityDate": "2023.07.26",
    "name": "D230726",
    "bidEhmYield": "11,15",
    "askYield": "9,79",
    "currency": "HUF",
    "maturityInDays_val": 16,
    "issueDate": "2022.12.14",
    "longName": "D230726"
}