{
    "askPrice": "95,1326",
    "green": 0,
    "coupon": 0,
    "accruedInterest": 0,
    "settleDate": "2023.03.20",
    "askEhmYield": "14,59",
    "bidYield": "15,19",
    "rawName": "D230726",
    "bidPrice": "94,8759",
    "maturityInDays": "128 nap",
    "securityType": "DKJ",
    "maturityDate": "2023.07.26",
    "name": "D230726",
    "bidEhmYield": "15,40",
    "askYield": "14,39",
    "currency": "HUF",
    "maturityInDays_val": 128,
    "issueDate": "2022.12.14",
    "longName": "D230726"
}