{
    "askPrice": "97,5943",
    "green": 0,
    "coupon": 0,
    "accruedInterest": 0,
    "settleDate": "2023.05.19",
    "askEhmYield": "13,23",
    "bidYield": "14,37",
    "rawName": "D230726",
    "bidPrice": "97,3574",
    "maturityInDays": "68 nap",
    "securityType": "DKJ",
    "maturityDate": "2023.07.26",
    "name": "D230726",
    "bidEhmYield": "14,57",
    "askYield": "13,05",
    "currency": "HUF",
    "maturityInDays_val": 68,
    "issueDate": "2022.12.14",
    "longName": "D230726"
}