{
    "askPrice": "98,3542",
    "green": 0,
    "coupon": 0,
    "accruedInterest": 0,
    "settleDate": "2023.06.08",
    "askEhmYield": "12,72",
    "bidYield": "13,72",
    "rawName": "D230726",
    "bidPrice": "98,2035",
    "maturityInDays": "48 nap",
    "securityType": "DKJ",
    "maturityDate": "2023.07.26",
    "name": "D230726",
    "bidEhmYield": "13,91",
    "askYield": "12,55",
    "currency": "HUF",
    "maturityInDays_val": 48,
    "issueDate": "2022.12.14",
    "longName": "D230726"
}