{
    "askPrice": "97,8479",
    "green": 0,
    "coupon": 0,
    "accruedInterest": 0,
    "settleDate": "2023.05.26",
    "askEhmYield": "13,16",
    "bidYield": "14,28",
    "rawName": "D230726",
    "bidPrice": "97,6375",
    "maturityInDays": "61 nap",
    "securityType": "DKJ",
    "maturityDate": "2023.07.26",
    "name": "D230726",
    "bidEhmYield": "14,48",
    "askYield": "12,98",
    "currency": "HUF",
    "maturityInDays_val": 61,
    "issueDate": "2022.12.14",
    "longName": "D230726"
}