{
    "askPrice": "",
    "green": 0,
    "coupon": 0,
    "accruedInterest": 0,
    "settleDate": "2023.07.13",
    "askEhmYield": "",
    "bidYield": "11,11",
    "rawName": "D230726",
    "bidPrice": "99,6004",
    "maturityInDays": "13 nap",
    "securityType": "DKJ",
    "maturityDate": "2023.07.26",
    "name": "D230726",
    "bidEhmYield": "11,26",
    "askYield": "",
    "currency": "HUF",
    "maturityInDays_val": 13,
    "issueDate": "2022.12.14",
    "longName": "D230726"
}