{
    "askPrice": "",
    "green": 0,
    "coupon": null,
    "accruedInterest": "1,50",
    "settleDate": "2022.08.24",
    "askEhmYield": "",
    "bidYield": "",
    "rawName": "2022/X_EUR",
    "bidPrice": "99,00",
    "maturityInDays": "119 nap",
    "securityType": "PEMÁP",
    "maturityDate": "2022.12.21",
    "name": "2022/X_EUR",
    "bidEhmYield": "",
    "askYield": "",
    "currency": "EUR",
    "maturityInDays_val": 119,
    "longName": "C221221X19"
}