{
    "askPrice": "",
    "green": 0,
    "coupon": null,
    "accruedInterest": "3,27",
    "settleDate": "2022.11.07",
    "askEhmYield": "",
    "bidYield": "",
    "rawName": "2022/X_EUR",
    "bidPrice": "99,00",
    "maturityInDays": "44 nap",
    "securityType": "PEMÁP",
    "maturityDate": "2022.12.21",
    "name": "2022/X_EUR",
    "bidEhmYield": "",
    "askYield": "",
    "currency": "EUR",
    "maturityInDays_val": 44,
    "issueDate": "2019-06-04",
    "longName": "C221221X19"
}