{
    "askPrice": "",
    "green": 0,
    "coupon": null,
    "accruedInterest": "2,82",
    "settleDate": "2022.10.19",
    "askEhmYield": "",
    "bidYield": "15,01",
    "rawName": "2022/X_EUR",
    "bidPrice": "99,00",
    "maturityInDays": "63 nap",
    "securityType": "PEMÁP",
    "maturityDate": "2022.12.21",
    "name": "2022/X_EUR",
    "bidEhmYield": "",
    "askYield": "",
    "currency": "EUR",
    "maturityInDays_val": 63,
    "longName": "C221221X19"
}