{
    "askPrice": "",
    "green": 0,
    "coupon": null,
    "accruedInterest": "1,38",
    "settleDate": "2022.11.10",
    "askEhmYield": "",
    "bidYield": "",
    "rawName": "2023/X_EUR",
    "bidPrice": "99,00",
    "maturityInDays": "314 nap",
    "securityType": "PEMÁP",
    "maturityDate": "2023.09.20",
    "name": "2023/X_EUR",
    "bidEhmYield": "",
    "askYield": "",
    "currency": "EUR",
    "maturityInDays_val": 314,
    "issueDate": "2020-06-05",
    "longName": "C230920X20"
}