{
    "askPrice": "",
    "green": 0,
    "coupon": null,
    "accruedInterest": "2,64",
    "settleDate": "2022.08.29",
    "askEhmYield": "",
    "bidYield": "",
    "rawName": "2023/X_EUR",
    "bidPrice": "99,00",
    "maturityInDays": "387 nap",
    "securityType": "PEMÁP",
    "maturityDate": "2023.09.20",
    "name": "2023/X_EUR",
    "bidEhmYield": "",
    "askYield": "",
    "currency": "EUR",
    "maturityInDays_val": 387,
    "longName": "C230920X20"
}