{
    "askPrice": "",
    "green": 0,
    "coupon": null,
    "accruedInterest": "2,69",
    "settleDate": "2022.09.01",
    "askEhmYield": "",
    "bidYield": "",
    "rawName": "2023/X_EUR",
    "bidPrice": "99,00",
    "maturityInDays": "384 nap",
    "securityType": "PEMÁP",
    "maturityDate": "2023.09.20",
    "name": "2023/X_EUR",
    "bidEhmYield": "",
    "askYield": "",
    "currency": "EUR",
    "maturityInDays_val": 384,
    "longName": "C230920X20"
}