{
    "askPrice": "",
    "green": 0,
    "coupon": null,
    "accruedInterest": "3,0320",
    "settleDate": "2023.01.10",
    "askEhmYield": "",
    "bidYield": "",
    "rawName": "2023/X_EUR",
    "bidPrice": "99,0000",
    "maturityInDays": "253 nap",
    "securityType": "PEMÁP",
    "maturityDate": "2023.09.20",
    "name": "2023/X_EUR",
    "bidEhmYield": "",
    "askYield": "",
    "currency": "EUR",
    "maturityInDays_val": 253,
    "issueDate": "2020.06.05",
    "longName": "C230920X20"
}