{
    "askPrice": "",
    "green": 0,
    "coupon": "3,50 %",
    "accruedInterest": "3,2466",
    "settleDate": "2022.12.13",
    "askEhmYield": "",
    "bidYield": "5,84",
    "rawName": "N2025/16",
    "bidPrice": "99,5000",
    "coupon_val": 3.5,
    "maturityInDays": "859 nap",
    "securityType": "MÁP Plusz",
    "maturityDate": "2025.04.20",
    "name": "N2025/16",
    "bidEhmYield": "",
    "askYield": "",
    "currency": "HUF",
    "maturityInDays_val": 859,
    "issueDate": "2020.04.20",
    "longName": "N250420"
}