{
    "askPrice": "",
    "green": 0,
    "coupon": "3,50 %",
    "accruedInterest": "2,58",
    "settleDate": "2022.10.25",
    "askEhmYield": "",
    "bidYield": "5,80",
    "rawName": "N2025/16",
    "bidPrice": "99,50",
    "coupon_val": 3.5,
    "maturityInDays": "908 nap",
    "securityType": "MÁP Plusz",
    "maturityDate": "2025.04.20",
    "name": "N2025/16",
    "bidEhmYield": "",
    "askYield": "",
    "currency": "HUF",
    "maturityInDays_val": 908,
    "longName": "N250420"
}