{
    "askPrice": "",
    "green": 0,
    "coupon": "3,50 %",
    "accruedInterest": "2,88",
    "settleDate": "2022.11.16",
    "askEhmYield": "",
    "bidYield": "5,82",
    "rawName": "N2025/16",
    "bidPrice": "99,50",
    "coupon_val": 3.5,
    "maturityInDays": "886 nap",
    "securityType": "MÁP Plusz",
    "maturityDate": "2025.04.20",
    "name": "N2025/16",
    "bidEhmYield": "",
    "askYield": "",
    "currency": "HUF",
    "maturityInDays_val": 886,
    "issueDate": "2020-04-20",
    "longName": "N250420"
}