{
    "askPrice": "",
    "green": 0,
    "coupon": "3,50 %",
    "accruedInterest": "2,18",
    "settleDate": "2022.09.26",
    "askEhmYield": "",
    "bidYield": "",
    "rawName": "N2025/16",
    "bidPrice": "99,50",
    "coupon_val": 3.5,
    "maturityInDays": "937 nap",
    "securityType": "MÁP Plusz",
    "maturityDate": "2025.04.20",
    "name": "N2025/16",
    "bidEhmYield": "",
    "askYield": "",
    "currency": "HUF",
    "maturityInDays_val": 937,
    "longName": "N250420"
}