{
    "askPrice": "",
    "green": 0,
    "coupon": "3,50 %",
    "accruedInterest": "3,6575",
    "settleDate": "2023.01.12",
    "askEhmYield": "",
    "bidYield": "5,88",
    "rawName": "N2025/16",
    "bidPrice": "99,5000",
    "coupon_val": 3.5,
    "maturityInDays": "829 nap",
    "securityType": "MÁP Plusz",
    "maturityDate": "2025.04.20",
    "name": "N2025/16",
    "bidEhmYield": "",
    "askYield": "",
    "currency": "HUF",
    "maturityInDays_val": 829,
    "issueDate": "2020.04.20",
    "longName": "N250420"
}