{
    "askPrice": "",
    "green": 0,
    "coupon": "3,50 %",
    "accruedInterest": "4,0574",
    "settleDate": "2024.01.15",
    "askEhmYield": "",
    "bidYield": "6,29",
    "rawName": "N2025/16",
    "bidPrice": "99,5000",
    "coupon_val": 3.5,
    "maturityInDays": "461 nap",
    "securityType": "MÁP Plusz",
    "maturityDate": "2025.04.20",
    "name": "N2025/16",
    "bidEhmYield": "",
    "askYield": "",
    "currency": "HUF",
    "maturityInDays_val": 461,
    "issueDate": "2020.04.20",
    "longName": "N250420"
}