{
    "askPrice": "",
    "green": 0,
    "coupon": "3,50 %",
    "accruedInterest": "4,5833",
    "settleDate": "2024.02.19",
    "askEhmYield": "",
    "bidYield": "6,36",
    "rawName": "N2025/16",
    "bidPrice": "99,5000",
    "coupon_val": 3.5,
    "maturityInDays": "426 nap",
    "securityType": "MÁP Plusz",
    "maturityDate": "2025.04.20",
    "name": "N2025/16",
    "bidEhmYield": "",
    "askYield": "",
    "currency": "HUF",
    "maturityInDays_val": 426,
    "issueDate": "2020.04.20",
    "longName": "N250420"
}