{
    "askPrice": "",
    "green": 0,
    "coupon": "3,50 %",
    "accruedInterest": "1,6027",
    "settleDate": "2022.11.21",
    "askEhmYield": "",
    "bidYield": "5,74",
    "rawName": "N2025/30",
    "bidPrice": "99,5000",
    "coupon_val": 3.5,
    "maturityInDays": "979 nap",
    "securityType": "MÁP Plusz",
    "maturityDate": "2025.07.27",
    "name": "N2025/30",
    "bidEhmYield": "",
    "askYield": "",
    "currency": "HUF",
    "maturityInDays_val": 979,
    "issueDate": "2020.07.27",
    "longName": "N250727"
}