{
    "askPrice": "",
    "green": 0,
    "coupon": "3,50 %",
    "accruedInterest": "4,43",
    "settleDate": "2022.07.21",
    "askEhmYield": "",
    "bidYield": "",
    "rawName": "N2025/30",
    "bidPrice": "99,50",
    "coupon_val": 3.5,
    "maturityInDays": "1102 nap",
    "securityType": "MÁP Plusz",
    "maturityDate": "2025.07.27",
    "name": "N2025/30",
    "bidEhmYield": "",
    "askYield": "",
    "currency": "HUF",
    "maturityInDays_val": 1102,
    "longName": "N250727"
}