{
    "askPrice": "",
    "green": 0,
    "coupon": "3,50 %",
    "accruedInterest": "1,41",
    "settleDate": "2022.11.07",
    "askEhmYield": "",
    "bidYield": "5,73",
    "rawName": "N2025/30",
    "bidPrice": "99,50",
    "coupon_val": 3.5,
    "maturityInDays": "993 nap",
    "securityType": "MÁP Plusz",
    "maturityDate": "2025.07.27",
    "name": "N2025/30",
    "bidEhmYield": "",
    "askYield": "",
    "currency": "HUF",
    "maturityInDays_val": 993,
    "issueDate": "2020-07-27",
    "longName": "N250727"
}