{
    "askPrice": "",
    "green": 0,
    "coupon": "3,50 %",
    "accruedInterest": "1,16",
    "settleDate": "2022.10.20",
    "askEhmYield": "",
    "bidYield": "5,72",
    "rawName": "N2025/30",
    "bidPrice": "99,50",
    "coupon_val": 3.5,
    "maturityInDays": "1011 nap",
    "securityType": "MÁP Plusz",
    "maturityDate": "2025.07.27",
    "name": "N2025/30",
    "bidEhmYield": "",
    "askYield": "",
    "currency": "HUF",
    "maturityInDays_val": 1011,
    "longName": "N250727"
}