{
    "askPrice": "",
    "green": 0,
    "coupon": "3,50 %",
    "accruedInterest": "2,9452",
    "settleDate": "2023.02.27",
    "askEhmYield": "",
    "bidYield": "5,82",
    "rawName": "N2025/30",
    "bidPrice": "99,5000",
    "coupon_val": 3.5,
    "maturityInDays": "881 nap",
    "securityType": "MÁP Plusz",
    "maturityDate": "2025.07.27",
    "name": "N2025/30",
    "bidEhmYield": "",
    "askYield": "",
    "currency": "HUF",
    "maturityInDays_val": 881,
    "issueDate": "2020.07.27",
    "longName": "N250727"
}