{
    "askPrice": "",
    "green": 0,
    "coupon": "3,50 %",
    "accruedInterest": "3,8921",
    "settleDate": "2024.04.11",
    "askEhmYield": "",
    "bidYield": "6,27",
    "rawName": "N2025/30",
    "bidPrice": "99,5000",
    "coupon_val": 3.5,
    "maturityInDays": "472 nap",
    "securityType": "MÁP Plusz",
    "maturityDate": "2025.07.27",
    "name": "N2025/30",
    "bidEhmYield": "",
    "askYield": "",
    "currency": "HUF",
    "maturityInDays_val": 472,
    "issueDate": "2020.07.27",
    "longName": "N250727"
}