{
    "askPrice": "",
    "green": 0,
    "coupon": "3,50 %",
    "accruedInterest": "0,8846",
    "settleDate": "2023.12.19",
    "askEhmYield": "",
    "bidYield": "5,10",
    "rawName": "N2028/38",
    "bidPrice": "99,5000",
    "coupon_val": 3.5,
    "maturityInDays": "1735 nap",
    "securityType": "MÁP Plusz",
    "maturityDate": "2028.09.18",
    "name": "N2028/38",
    "bidEhmYield": "",
    "askYield": "",
    "currency": "HUF",
    "maturityInDays_val": 1735,
    "issueDate": "2023.09.18",
    "longName": "N280918"
}