{
    "askPrice": "",
    "green": 0,
    "coupon": "3,50 %",
    "accruedInterest": "1,2788",
    "settleDate": "2024.01.29",
    "askEhmYield": "",
    "bidYield": "5,14",
    "rawName": "N2028/38",
    "bidPrice": "99,5000",
    "coupon_val": 3.5,
    "maturityInDays": "1694 nap",
    "securityType": "MÁP Plusz",
    "maturityDate": "2028.09.18",
    "name": "N2028/38",
    "bidEhmYield": "",
    "askYield": "",
    "currency": "HUF",
    "maturityInDays_val": 1694,
    "issueDate": "2023.09.18",
    "longName": "N280918"
}