{
    "askPrice": "",
    "green": 0,
    "coupon": "3,50 %",
    "accruedInterest": "0,5652",
    "settleDate": "2024.05.09",
    "askEhmYield": "",
    "bidYield": "5,24",
    "rawName": "N2028/38",
    "bidPrice": "99,5000",
    "coupon_val": 3.5,
    "maturityInDays": "1593 nap",
    "securityType": "MÁP Plusz",
    "maturityDate": "2028.09.18",
    "name": "N2028/38",
    "bidEhmYield": "",
    "askYield": "",
    "currency": "HUF",
    "maturityInDays_val": 1593,
    "issueDate": "2023.09.18",
    "longName": "N280918"
}