{
    "askPrice": "",
    "green": 0,
    "coupon": "3,50 %",
    "accruedInterest": "0,22",
    "settleDate": "2022.09.23",
    "askEhmYield": "",
    "bidYield": "",
    "rawName": "N2025/36",
    "bidPrice": "99,50",
    "coupon_val": 3.5,
    "maturityInDays": "1080 nap",
    "securityType": "MÁP Plusz",
    "maturityDate": "2025.09.07",
    "name": "N2025/36",
    "bidEhmYield": "",
    "askYield": "",
    "currency": "HUF",
    "maturityInDays_val": 1080,
    "longName": "N250907"
}