{
    "askPrice": "",
    "green": 0,
    "coupon": "3,50 %",
    "accruedInterest": "2,0000",
    "settleDate": "2023.01.31",
    "askEhmYield": "",
    "bidYield": "5,76",
    "rawName": "N2025/36",
    "bidPrice": "99,5000",
    "coupon_val": 3.5,
    "maturityInDays": "950 nap",
    "securityType": "MÁP Plusz",
    "maturityDate": "2025.09.07",
    "name": "N2025/36",
    "bidEhmYield": "",
    "askYield": "",
    "currency": "HUF",
    "maturityInDays_val": 950,
    "issueDate": "2020.09.07",
    "longName": "N250907"
}