{
    "askPrice": "",
    "green": 0,
    "coupon": "3,50 %",
    "accruedInterest": "3,8219",
    "settleDate": "2023.06.13",
    "askEhmYield": "",
    "bidYield": "5,89",
    "rawName": "N2025/36",
    "bidPrice": "99,5000",
    "coupon_val": 3.5,
    "maturityInDays": "817 nap",
    "securityType": "MÁP Plusz",
    "maturityDate": "2025.09.07",
    "name": "N2025/36",
    "bidEhmYield": "",
    "askYield": "",
    "currency": "HUF",
    "maturityInDays_val": 817,
    "issueDate": "2020.09.07",
    "longName": "N250907"
}