{
    "askPrice": "",
    "green": 0,
    "coupon": "3,50 %",
    "accruedInterest": "1,8484",
    "settleDate": "2024.01.08",
    "askEhmYield": "",
    "bidYield": "6,10",
    "rawName": "N2025/36",
    "bidPrice": "99,5000",
    "coupon_val": 3.5,
    "maturityInDays": "608 nap",
    "securityType": "MÁP Plusz",
    "maturityDate": "2025.09.07",
    "name": "N2025/36",
    "bidEhmYield": "",
    "askYield": "",
    "currency": "HUF",
    "maturityInDays_val": 608,
    "issueDate": "2020.09.07",
    "longName": "N250907"
}