{
    "askPrice": "",
    "green": 0,
    "coupon": "3,50 %",
    "accruedInterest": "2,9003",
    "settleDate": "2024.03.18",
    "askEhmYield": "",
    "bidYield": "6,17",
    "rawName": "N2025/36",
    "bidPrice": "99,5000",
    "coupon_val": 3.5,
    "maturityInDays": "538 nap",
    "securityType": "MÁP Plusz",
    "maturityDate": "2025.09.07",
    "name": "N2025/36",
    "bidEhmYield": "",
    "askYield": "",
    "currency": "HUF",
    "maturityInDays_val": 538,
    "issueDate": "2020.09.07",
    "longName": "N250907"
}