{
    "askPrice": "",
    "green": 0,
    "coupon": 0,
    "accruedInterest": 0,
    "settleDate": "2023.10.09",
    "askEhmYield": "",
    "bidYield": "9,00",
    "rawName": "D231025",
    "bidPrice": "99,6016",
    "maturityInDays": "16 nap",
    "securityType": "DKJ",
    "maturityDate": "2023.10.25",
    "name": "D231025",
    "bidEhmYield": "9,12",
    "askYield": "",
    "currency": "HUF",
    "maturityInDays_val": 16,
    "issueDate": "2023.07.26",
    "longName": "D231025"
}