{
    "askPrice": "",
    "green": 0,
    "coupon": 0,
    "accruedInterest": 0,
    "settleDate": "2023.10.02",
    "askEhmYield": "",
    "bidYield": "8,90",
    "rawName": "D231025",
    "bidPrice": "99,4346",
    "maturityInDays": "23 nap",
    "securityType": "DKJ",
    "maturityDate": "2023.10.25",
    "name": "D231025",
    "bidEhmYield": "9,02",
    "askYield": "",
    "currency": "HUF",
    "maturityInDays_val": 23,
    "issueDate": "2023.07.26",
    "longName": "D231025"
}