{
    "askPrice": "98,9168",
    "green": 0,
    "coupon": 0,
    "accruedInterest": 0,
    "settleDate": "2023.09.11",
    "askEhmYield": "9,08",
    "bidYield": "10,23",
    "rawName": "D231025",
    "bidPrice": "98,7651",
    "maturityInDays": "44 nap",
    "securityType": "DKJ",
    "maturityDate": "2023.10.25",
    "name": "D231025",
    "bidEhmYield": "10,37",
    "askYield": "8,96",
    "currency": "HUF",
    "maturityInDays_val": 44,
    "issueDate": "2023.07.26",
    "longName": "D231025"
}