{
    "askPrice": "98,6089",
    "green": 0,
    "coupon": 0,
    "accruedInterest": 0,
    "settleDate": "2023.08.29",
    "askEhmYield": "9,03",
    "bidYield": "10,17",
    "rawName": "D231025",
    "bidPrice": "98,4153",
    "maturityInDays": "57 nap",
    "securityType": "DKJ",
    "maturityDate": "2023.10.25",
    "name": "D231025",
    "bidEhmYield": "10,31",
    "askYield": "8,91",
    "currency": "HUF",
    "maturityInDays_val": 57,
    "issueDate": "2023.07.26",
    "longName": "D231025"
}