{
    "askPrice": "97,9663",
    "green": 0,
    "coupon": 0,
    "accruedInterest": 0,
    "settleDate": "2023.08.07",
    "askEhmYield": "9,59",
    "bidYield": "10,75",
    "rawName": "D231025",
    "bidPrice": "97,6953",
    "maturityInDays": "79 nap",
    "securityType": "DKJ",
    "maturityDate": "2023.10.25",
    "name": "D231025",
    "bidEhmYield": "10,90",
    "askYield": "9,46",
    "currency": "HUF",
    "maturityInDays_val": 79,
    "issueDate": "2023.07.26",
    "longName": "D231025"
}