{
    "askPrice": "97,9016",
    "green": 0,
    "coupon": 0,
    "accruedInterest": 0,
    "settleDate": "2023.08.04",
    "askEhmYield": "9,54",
    "bidYield": "10,73",
    "rawName": "D231025",
    "bidPrice": "97,6143",
    "maturityInDays": "82 nap",
    "securityType": "DKJ",
    "maturityDate": "2023.10.25",
    "name": "D231025",
    "bidEhmYield": "10,88",
    "askYield": "9,41",
    "currency": "HUF",
    "maturityInDays_val": 82,
    "issueDate": "2023.07.26",
    "longName": "D231025"
}