{
    "askPrice": "98,7480",
    "green": 0,
    "coupon": 0,
    "accruedInterest": 0,
    "settleDate": "2023.09.04",
    "askEhmYield": "9,07",
    "bidYield": "10,25",
    "rawName": "D231025",
    "bidPrice": "98,5687",
    "maturityInDays": "51 nap",
    "securityType": "DKJ",
    "maturityDate": "2023.10.25",
    "name": "D231025",
    "bidEhmYield": "10,39",
    "askYield": "8,95",
    "currency": "HUF",
    "maturityInDays_val": 51,
    "issueDate": "2023.07.26",
    "longName": "D231025"
}