{
    "askPrice": "",
    "green": 0,
    "coupon": "2,50 %",
    "accruedInterest": "1,96",
    "settleDate": "2022.09.05",
    "askEhmYield": "",
    "bidYield": "",
    "rawName": "K2022/47",
    "bidPrice": "99,50",
    "coupon_val": 2.5,
    "maturityInDays": "79 nap",
    "securityType": "1MÁP",
    "maturityDate": "2022.11.23",
    "name": "K2022/47",
    "bidEhmYield": "4,74",
    "askYield": "",
    "currency": "HUF",
    "maturityInDays_val": 79,
    "longName": "K221123"
}