{
    "askPrice": "",
    "green": 0,
    "coupon": "2,50 %",
    "accruedInterest": "2,11",
    "settleDate": "2022.09.27",
    "askEhmYield": "",
    "bidYield": "",
    "rawName": "K2022/47",
    "bidPrice": "99,50",
    "coupon_val": 2.5,
    "maturityInDays": "57 nap",
    "securityType": "1MÁP",
    "maturityDate": "2022.11.23",
    "name": "K2022/47",
    "bidEhmYield": "5,61",
    "askYield": "",
    "currency": "HUF",
    "maturityInDays_val": 57,
    "longName": "K221123"
}