{
    "askPrice": "",
    "green": 0,
    "coupon": "2,50 %",
    "accruedInterest": "2,36",
    "settleDate": "2022.11.02",
    "askEhmYield": "",
    "bidYield": "7,83",
    "rawName": "K2022/47",
    "bidPrice": "99,70",
    "coupon_val": 2.5,
    "maturityInDays": "21 nap",
    "securityType": "1MÁP",
    "maturityDate": "2022.11.23",
    "name": "K2022/47",
    "bidEhmYield": "7,56",
    "askYield": "",
    "currency": "HUF",
    "maturityInDays_val": 21,
    "issueDate": "2021-11-23",
    "longName": "K221123"
}