{
    "askPrice": "",
    "green": 0,
    "coupon": "4,25 %",
    "accruedInterest": "1,7000",
    "settleDate": "2022.11.28",
    "askEhmYield": "",
    "bidYield": "5,07",
    "rawName": "K2023/27",
    "bidPrice": "99,5000",
    "coupon_val": 4.25,
    "maturityInDays": "219 nap",
    "securityType": "1MÁP",
    "maturityDate": "2023.07.05",
    "name": "K2023/27",
    "bidEhmYield": "5,02",
    "askYield": "",
    "currency": "HUF",
    "maturityInDays_val": 219,
    "issueDate": "2022.07.05",
    "longName": "K230705"
}