{
    "askPrice": "",
    "green": 0,
    "coupon": "4,25 %",
    "accruedInterest": "0,27",
    "settleDate": "2022.07.28",
    "askEhmYield": "",
    "bidYield": "",
    "rawName": "K2023/27",
    "bidPrice": "99,50",
    "coupon_val": 4.25,
    "maturityInDays": "342 nap",
    "securityType": "1MÁP",
    "maturityDate": "2023.07.05",
    "name": "K2023/27",
    "bidEhmYield": "4,79",
    "askYield": "",
    "currency": "HUF",
    "maturityInDays_val": 342,
    "longName": "K230705"
}