{
    "askPrice": "",
    "green": 0,
    "coupon": "4,25 %",
    "accruedInterest": "1,7349",
    "settleDate": "2022.12.01",
    "askEhmYield": "",
    "bidYield": "5,08",
    "rawName": "K2023/27",
    "bidPrice": "99,5000",
    "coupon_val": 4.25,
    "maturityInDays": "216 nap",
    "securityType": "1MÁP",
    "maturityDate": "2023.07.05",
    "name": "K2023/27",
    "bidEhmYield": "5,03",
    "askYield": "",
    "currency": "HUF",
    "maturityInDays_val": 216,
    "issueDate": "2022.07.05",
    "longName": "K230705"
}