{
    "askPrice": "",
    "green": 0,
    "coupon": "4,25 %",
    "accruedInterest": "1,9445",
    "settleDate": "2022.12.19",
    "askEhmYield": "",
    "bidYield": "6,12",
    "rawName": "K2023/27",
    "bidPrice": "99,0000",
    "coupon_val": 4.25,
    "maturityInDays": "198 nap",
    "securityType": "1MÁP",
    "maturityDate": "2023.07.05",
    "name": "K2023/27",
    "bidEhmYield": "6,04",
    "askYield": "",
    "currency": "HUF",
    "maturityInDays_val": 198,
    "issueDate": "2022.07.05",
    "longName": "K230705"
}