{
    "askPrice": "",
    "green": 0,
    "coupon": "4,25 %",
    "accruedInterest": "1,7815",
    "settleDate": "2022.12.05",
    "askEhmYield": "",
    "bidYield": "5,10",
    "rawName": "K2023/27",
    "bidPrice": "99,5000",
    "coupon_val": 4.25,
    "maturityInDays": "212 nap",
    "securityType": "1MÁP",
    "maturityDate": "2023.07.05",
    "name": "K2023/27",
    "bidEhmYield": "5,05",
    "askYield": "",
    "currency": "HUF",
    "maturityInDays_val": 212,
    "issueDate": "2022.07.05",
    "longName": "K230705"
}