{
    "askPrice": "",
    "green": 0,
    "coupon": "4,25 %",
    "accruedInterest": "3,3534",
    "settleDate": "2023.04.19",
    "askEhmYield": "",
    "bidYield": "9,09",
    "rawName": "K2023/27",
    "bidPrice": "99,0000",
    "coupon_val": 4.25,
    "maturityInDays": "77 nap",
    "securityType": "1MÁP",
    "maturityDate": "2023.07.05",
    "name": "K2023/27",
    "bidEhmYield": "8,78",
    "askYield": "",
    "currency": "HUF",
    "maturityInDays_val": 77,
    "issueDate": "2022.07.05",
    "longName": "K230705"
}