{
    "askPrice": "",
    "green": 0,
    "coupon": "4,25 %",
    "accruedInterest": "2,8760",
    "settleDate": "2023.03.09",
    "askEhmYield": "",
    "bidYield": "7,39",
    "rawName": "K2023/27",
    "bidPrice": "99,0000",
    "coupon_val": 4.25,
    "maturityInDays": "118 nap",
    "securityType": "1MÁP",
    "maturityDate": "2023.07.05",
    "name": "K2023/27",
    "bidEhmYield": "7,21",
    "askYield": "",
    "currency": "HUF",
    "maturityInDays_val": 118,
    "issueDate": "2022.07.05",
    "longName": "K230705"
}