{
    "askPrice": "",
    "green": 0,
    "coupon": "4,25 %",
    "accruedInterest": "3,6795",
    "settleDate": "2023.05.17",
    "askEhmYield": "",
    "bidYield": "11,97",
    "rawName": "K2023/27",
    "bidPrice": "99,0000",
    "coupon_val": 4.25,
    "maturityInDays": "49 nap",
    "securityType": "1MÁP",
    "maturityDate": "2023.07.05",
    "name": "K2023/27",
    "bidEhmYield": "11,39",
    "askYield": "",
    "currency": "HUF",
    "maturityInDays_val": 49,
    "issueDate": "2022.07.05",
    "longName": "K230705"
}