{
    "askPrice": "",
    "green": 0,
    "coupon": "4,25 %",
    "accruedInterest": "3,0973",
    "settleDate": "2023.03.28",
    "askEhmYield": "",
    "bidYield": "8,00",
    "rawName": "K2023/27",
    "bidPrice": "99,0000",
    "coupon_val": 4.25,
    "maturityInDays": "99 nap",
    "securityType": "1MÁP",
    "maturityDate": "2023.07.05",
    "name": "K2023/27",
    "bidEhmYield": "7,77",
    "askYield": "",
    "currency": "HUF",
    "maturityInDays_val": 99,
    "issueDate": "2022.07.05",
    "longName": "K230705"
}