{
    "askPrice": "49,05",
    "green": "1,00",
    "coupon": "4,00 %",
    "accruedInterest": "1,96",
    "settleDate": "2022.10.24",
    "askEhmYield": "9,01",
    "bidYield": "9,65",
    "rawName": "2051/G",
    "bidPrice": "45,64",
    "coupon_val": 4,
    "maturityInDays": "10413 nap",
    "securityType": "KTV",
    "maturityDate": "2051.04.28",
    "name": "2051/G",
    "bidEhmYield": "9,64",
    "askYield": "9,02",
    "currency": "HUF",
    "maturityInDays_val": 10413,
    "longName": "A510428G21"
}