{
    "askPrice": "56,34",
    "green": "1,00",
    "coupon": "4,00 %",
    "accruedInterest": "2,19",
    "settleDate": "2022.11.14",
    "askEhmYield": "7,88",
    "bidYield": "8,58",
    "rawName": "2051/G",
    "bidPrice": "51,71",
    "coupon_val": 4,
    "maturityInDays": "10392 nap",
    "securityType": "KTV",
    "maturityDate": "2051.04.28",
    "name": "2051/G",
    "bidEhmYield": "8,57",
    "askYield": "7,89",
    "currency": "HUF",
    "maturityInDays_val": 10392,
    "issueDate": "2021-04-28",
    "longName": "A510428G21"
}