{
    "askPrice": "62,23",
    "green": "1,00",
    "coupon": "4,00 %",
    "accruedInterest": "1,07",
    "settleDate": "2022.08.04",
    "askEhmYield": "7,12",
    "bidYield": "7,62",
    "rawName": "2051/G",
    "bidPrice": "58,22",
    "coupon_val": 4,
    "maturityInDays": "10494 nap",
    "securityType": "KTV",
    "maturityDate": "2051.04.28",
    "name": "2051/G",
    "bidEhmYield": "7,62",
    "askYield": "7,12",
    "currency": "HUF",
    "maturityInDays_val": 10494,
    "longName": "A510428G21"
}