{
    "askPrice": "58,6600",
    "green": "1,0000",
    "coupon": "4,00 %",
    "accruedInterest": "2,3562",
    "settleDate": "2022.11.29",
    "askEhmYield": "7,57",
    "bidYield": "8,26",
    "rawName": "2051/G",
    "bidPrice": "53,7972",
    "coupon_val": 4,
    "maturityInDays": "10377 nap",
    "securityType": "KTV",
    "maturityDate": "2051.04.28",
    "name": "2051/G",
    "bidEhmYield": "8,25",
    "askYield": "7,58",
    "currency": "HUF",
    "maturityInDays_val": 10377,
    "issueDate": "2021.04.28",
    "longName": "A510428G21"
}