{
    "askPrice": "56,49",
    "green": "1,00",
    "coupon": "4,00 %",
    "accruedInterest": "0,69",
    "settleDate": "2022.06.30",
    "askEhmYield": "7,85",
    "bidYield": "8,35",
    "rawName": "2051/G",
    "bidPrice": "53,04",
    "coupon_val": 4,
    "maturityInDays": "10529 nap",
    "securityType": "KTV",
    "maturityDate": "2051.04.28",
    "name": "2051/G",
    "bidEhmYield": "8,35",
    "askYield": "7,85",
    "currency": "HUF",
    "maturityInDays_val": 10529,
    "longName": "A510428G21"
}