{
    "askPrice": "54,64",
    "green": "1,00",
    "coupon": "4,00 %",
    "accruedInterest": "1,36",
    "settleDate": "2022.08.30",
    "askEhmYield": "8,12",
    "bidYield": "8,62",
    "rawName": "2051/G",
    "bidPrice": "51,38",
    "coupon_val": 4,
    "maturityInDays": "10468 nap",
    "securityType": "KTV",
    "maturityDate": "2051.04.28",
    "name": "2051/G",
    "bidEhmYield": "8,62",
    "askYield": "8,12",
    "currency": "HUF",
    "maturityInDays_val": 10468,
    "longName": "A510428G21"
}