{
    "askPrice": "57,9382",
    "green": "1,0000",
    "coupon": "4,00 %",
    "accruedInterest": "2,6630",
    "settleDate": "2022.12.27",
    "askEhmYield": "7,67",
    "bidYield": "8,49",
    "rawName": "2051/G",
    "bidPrice": "52,3331",
    "coupon_val": 4,
    "maturityInDays": "10349 nap",
    "securityType": "KTV",
    "maturityDate": "2051.04.28",
    "name": "2051/G",
    "bidEhmYield": "8,48",
    "askYield": "7,68",
    "currency": "HUF",
    "maturityInDays_val": 10349,
    "issueDate": "2021.04.28",
    "longName": "A510428G21"
}