{
    "askPrice": "60,0731",
    "green": "1,0000",
    "coupon": "4,00 %",
    "accruedInterest": "2,4329",
    "settleDate": "2022.12.06",
    "askEhmYield": "7,39",
    "bidYield": "8,24",
    "rawName": "2051/G",
    "bidPrice": "53,9397",
    "coupon_val": 4,
    "maturityInDays": "10370 nap",
    "securityType": "KTV",
    "maturityDate": "2051.04.28",
    "name": "2051/G",
    "bidEhmYield": "8,23",
    "askYield": "7,40",
    "currency": "HUF",
    "maturityInDays_val": 10370,
    "issueDate": "2021.04.28",
    "longName": "A510428G21"
}