{
    "askPrice": "56,42",
    "green": "1,00",
    "coupon": "4,00 %",
    "accruedInterest": "2,21",
    "settleDate": "2022.11.16",
    "askEhmYield": "7,87",
    "bidYield": "8,55",
    "rawName": "2051/G",
    "bidPrice": "51,90",
    "coupon_val": 4,
    "maturityInDays": "10390 nap",
    "securityType": "KTV",
    "maturityDate": "2051.04.28",
    "name": "2051/G",
    "bidEhmYield": "8,54",
    "askYield": "7,88",
    "currency": "HUF",
    "maturityInDays_val": 10390,
    "issueDate": "2021-04-28",
    "longName": "A510428G21"
}