{
    "askPrice": "57,61",
    "green": "1,00",
    "coupon": "4,00 %",
    "accruedInterest": "0,96",
    "settleDate": "2022.07.25",
    "askEhmYield": "7,70",
    "bidYield": "8,20",
    "rawName": "2051/G",
    "bidPrice": "54,06",
    "coupon_val": 4,
    "maturityInDays": "10504 nap",
    "securityType": "KTV",
    "maturityDate": "2051.04.28",
    "name": "2051/G",
    "bidEhmYield": "8,20",
    "askYield": "7,70",
    "currency": "HUF",
    "maturityInDays_val": 10504,
    "longName": "A510428G21"
}