{
    "askPrice": "48,58",
    "green": "1,00",
    "coupon": "4,00 %",
    "accruedInterest": "1,81",
    "settleDate": "2022.10.10",
    "askEhmYield": "9,10",
    "bidYield": "9,60",
    "rawName": "2051/G",
    "bidPrice": "45,88",
    "coupon_val": 4,
    "maturityInDays": "10427 nap",
    "securityType": "KTV",
    "maturityDate": "2051.04.28",
    "name": "2051/G",
    "bidEhmYield": "9,60",
    "askYield": "9,10",
    "currency": "HUF",
    "maturityInDays_val": 10427,
    "longName": "A510428G21"
}