{
    "askPrice": "73,2096",
    "green": "1,0000",
    "coupon": "4,00 %",
    "accruedInterest": "2,6776",
    "settleDate": "2023.12.29",
    "askEhmYield": "6,02",
    "bidYield": "6,70",
    "rawName": "2051/G",
    "bidPrice": "66,5203",
    "coupon_val": 4,
    "maturityInDays": "9982 nap",
    "securityType": "KTV",
    "maturityDate": "2051.04.28",
    "name": "2051/G",
    "bidEhmYield": "6,69",
    "askYield": "6,02",
    "currency": "HUF",
    "maturityInDays_val": 9982,
    "issueDate": "2021.04.28",
    "longName": "A510428G21"
}