{
    "askPrice": "63,9634",
    "green": "1,0000",
    "coupon": "4,00 %",
    "accruedInterest": "0,3607",
    "settleDate": "2023.05.31",
    "askEhmYield": "6,95",
    "bidYield": "7,80",
    "rawName": "2051/G",
    "bidPrice": "57,2582",
    "coupon_val": 4,
    "maturityInDays": "10194 nap",
    "securityType": "KTV",
    "maturityDate": "2051.04.28",
    "name": "2051/G",
    "bidEhmYield": "7,79",
    "askYield": "6,96",
    "currency": "HUF",
    "maturityInDays_val": 10194,
    "issueDate": "2021.04.28",
    "longName": "A510428G21"
}