{
    "askPrice": "73,2143",
    "green": "1,0000",
    "coupon": "4,00 %",
    "accruedInterest": "2,7213",
    "settleDate": "2024.01.02",
    "askEhmYield": "6,02",
    "bidYield": "6,70",
    "rawName": "2051/G",
    "bidPrice": "66,5256",
    "coupon_val": 4,
    "maturityInDays": "9978 nap",
    "securityType": "KTV",
    "maturityDate": "2051.04.28",
    "name": "2051/G",
    "bidEhmYield": "6,69",
    "askYield": "6,02",
    "currency": "HUF",
    "maturityInDays_val": 9978,
    "issueDate": "2021.04.28",
    "longName": "A510428G21"
}