{
    "askPrice": "67,0455",
    "green": "1,0000",
    "coupon": "4,00 %",
    "accruedInterest": "1,5956",
    "settleDate": "2023.09.21",
    "askEhmYield": "6,62",
    "bidYield": "7,28",
    "rawName": "2051/G",
    "bidPrice": "61,3887",
    "coupon_val": 4,
    "maturityInDays": "10081 nap",
    "securityType": "KTV",
    "maturityDate": "2051.04.28",
    "name": "2051/G",
    "bidEhmYield": "7,27",
    "askYield": "6,63",
    "currency": "HUF",
    "maturityInDays_val": 10081,
    "issueDate": "2021.04.28",
    "longName": "A510428G21"
}