{
    "askPrice": "61,7077",
    "green": "1,0000",
    "coupon": "4,00 %",
    "accruedInterest": "3,8137",
    "settleDate": "2023.04.11",
    "askEhmYield": "7,21",
    "bidYield": "7,98",
    "rawName": "2051/G",
    "bidPrice": "55,9089",
    "coupon_val": 4,
    "maturityInDays": "10244 nap",
    "securityType": "KTV",
    "maturityDate": "2051.04.28",
    "name": "2051/G",
    "bidEhmYield": "7,97",
    "askYield": "7,22",
    "currency": "HUF",
    "maturityInDays_val": 10244,
    "issueDate": "2021.04.28",
    "longName": "A510428G21"
}