{
    "askPrice": "70,4200",
    "green": "1,0000",
    "coupon": "4,00 %",
    "accruedInterest": "2,5137",
    "settleDate": "2023.12.14",
    "askEhmYield": "6,29",
    "bidYield": "6,96",
    "rawName": "2051/G",
    "bidPrice": "64,1827",
    "coupon_val": 4,
    "maturityInDays": "9997 nap",
    "securityType": "KTV",
    "maturityDate": "2051.04.28",
    "name": "2051/G",
    "bidEhmYield": "6,95",
    "askYield": "6,29",
    "currency": "HUF",
    "maturityInDays_val": 9997,
    "issueDate": "2021.04.28",
    "longName": "A510428G21"
}