{
    "askPrice": "67,7938",
    "green": "1,0000",
    "coupon": "4,00 %",
    "accruedInterest": "1,5738",
    "settleDate": "2023.09.19",
    "askEhmYield": "6,54",
    "bidYield": "7,21",
    "rawName": "2051/G",
    "bidPrice": "61,9598",
    "coupon_val": 4,
    "maturityInDays": "10083 nap",
    "securityType": "KTV",
    "maturityDate": "2051.04.28",
    "name": "2051/G",
    "bidEhmYield": "7,20",
    "askYield": "6,55",
    "currency": "HUF",
    "maturityInDays_val": 10083,
    "issueDate": "2021.04.28",
    "longName": "A510428G21"
}