{
    "askPrice": "62,0218",
    "green": "1,0000",
    "coupon": "4,00 %",
    "accruedInterest": "3,0685",
    "settleDate": "2023.02.02",
    "askEhmYield": "7,16",
    "bidYield": "7,95",
    "rawName": "2051/G",
    "bidPrice": "56,0183",
    "coupon_val": 4,
    "maturityInDays": "10312 nap",
    "securityType": "KTV",
    "maturityDate": "2051.04.28",
    "name": "2051/G",
    "bidEhmYield": "7,94",
    "askYield": "7,17",
    "currency": "HUF",
    "maturityInDays_val": 10312,
    "issueDate": "2021.04.28",
    "longName": "A510428G21"
}