{
    "askPrice": "66,6783",
    "green": "1,0000",
    "coupon": "4,00 %",
    "accruedInterest": "0,6448",
    "settleDate": "2023.06.26",
    "askEhmYield": "6,65",
    "bidYield": "7,46",
    "rawName": "2051/G",
    "bidPrice": "59,8584",
    "coupon_val": 4,
    "maturityInDays": "10168 nap",
    "securityType": "KTV",
    "maturityDate": "2051.04.28",
    "name": "2051/G",
    "bidEhmYield": "7,45",
    "askYield": "6,66",
    "currency": "HUF",
    "maturityInDays_val": 10168,
    "issueDate": "2021.04.28",
    "longName": "A510428G21"
}