{
    "askPrice": "",
    "green": "1,0000",
    "coupon": "4,00 %",
    "accruedInterest": "0,7650",
    "settleDate": "2023.07.07",
    "askEhmYield": "",
    "bidYield": "7,44",
    "rawName": "2051/G",
    "bidPrice": "60,0263",
    "coupon_val": 4,
    "maturityInDays": "10157 nap",
    "securityType": "KTV",
    "maturityDate": "2051.04.28",
    "name": "2051/G",
    "bidEhmYield": "7,43",
    "askYield": "",
    "currency": "HUF",
    "maturityInDays_val": 10157,
    "issueDate": "2021.04.28",
    "longName": "A510428G21"
}