{
    "askPrice": "67,8818",
    "green": "1,0000",
    "coupon": "4,00 %",
    "accruedInterest": "0,4481",
    "settleDate": "2023.06.08",
    "askEhmYield": "6,52",
    "bidYield": "7,35",
    "rawName": "2051/G",
    "bidPrice": "60,7137",
    "coupon_val": 4,
    "maturityInDays": "10186 nap",
    "securityType": "KTV",
    "maturityDate": "2051.04.28",
    "name": "2051/G",
    "bidEhmYield": "7,34",
    "askYield": "6,53",
    "currency": "HUF",
    "maturityInDays_val": 10186,
    "issueDate": "2021.04.28",
    "longName": "A510428G21"
}