{
    "askPrice": "63,6208",
    "green": "1,0000",
    "coupon": "4,00 %",
    "accruedInterest": "1,3443",
    "settleDate": "2023.08.29",
    "askEhmYield": "7,00",
    "bidYield": "7,68",
    "rawName": "2051/G",
    "bidPrice": "58,2378",
    "coupon_val": 4,
    "maturityInDays": "10104 nap",
    "securityType": "KTV",
    "maturityDate": "2051.04.28",
    "name": "2051/G",
    "bidEhmYield": "7,67",
    "askYield": "7,01",
    "currency": "HUF",
    "maturityInDays_val": 10104,
    "issueDate": "2021.04.28",
    "longName": "A510428G21"
}