{
    "askPrice": "65,4563",
    "green": "1,0000",
    "coupon": "4,00 %",
    "accruedInterest": "2,0984",
    "settleDate": "2023.11.06",
    "askEhmYield": "6,80",
    "bidYield": "7,49",
    "rawName": "2051/G",
    "bidPrice": "59,7731",
    "coupon_val": 4,
    "maturityInDays": "10035 nap",
    "securityType": "KTV",
    "maturityDate": "2051.04.28",
    "name": "2051/G",
    "bidEhmYield": "7,48",
    "askYield": "6,81",
    "currency": "HUF",
    "maturityInDays_val": 10035,
    "issueDate": "2021.04.28",
    "longName": "A510428G21"
}