{
    "askPrice": "63,7622",
    "green": "1,0000",
    "coupon": "4,00 %",
    "accruedInterest": "1,0273",
    "settleDate": "2023.07.31",
    "askEhmYield": "6,98",
    "bidYield": "7,76",
    "rawName": "2051/G",
    "bidPrice": "57,6113",
    "coupon_val": 4,
    "maturityInDays": "10133 nap",
    "securityType": "KTV",
    "maturityDate": "2051.04.28",
    "name": "2051/G",
    "bidEhmYield": "7,75",
    "askYield": "6,99",
    "currency": "HUF",
    "maturityInDays_val": 10133,
    "issueDate": "2021.04.28",
    "longName": "A510428G21"
}