{
    "askPrice": "",
    "green": "1,0000",
    "coupon": "4,00 %",
    "accruedInterest": "0,7978",
    "settleDate": "2023.07.10",
    "askEhmYield": "",
    "bidYield": "7,85",
    "rawName": "2051/G",
    "bidPrice": "56,9318",
    "coupon_val": 4,
    "maturityInDays": "10154 nap",
    "securityType": "KTV",
    "maturityDate": "2051.04.28",
    "name": "2051/G",
    "bidEhmYield": "7,84",
    "askYield": "",
    "currency": "HUF",
    "maturityInDays_val": 10154,
    "issueDate": "2021.04.28",
    "longName": "A510428G21"
}