{
    "askPrice": "",
    "green": "1,0000",
    "coupon": "4,00 %",
    "accruedInterest": "0,9508",
    "settleDate": "2023.07.24",
    "askEhmYield": "",
    "bidYield": "7,63",
    "rawName": "2051/G",
    "bidPrice": "58,5760",
    "coupon_val": 4,
    "maturityInDays": "10140 nap",
    "securityType": "KTV",
    "maturityDate": "2051.04.28",
    "name": "2051/G",
    "bidEhmYield": "7,62",
    "askYield": "",
    "currency": "HUF",
    "maturityInDays_val": 10140,
    "issueDate": "2021.04.28",
    "longName": "A510428G21"
}