{
    "askPrice": "64,0253",
    "green": "1,0000",
    "coupon": "4,00 %",
    "accruedInterest": "0,0437",
    "settleDate": "2023.05.02",
    "askEhmYield": "6,94",
    "bidYield": "7,74",
    "rawName": "2051/G",
    "bidPrice": "57,6749",
    "coupon_val": 4,
    "maturityInDays": "10223 nap",
    "securityType": "KTV",
    "maturityDate": "2051.04.28",
    "name": "2051/G",
    "bidEhmYield": "7,73",
    "askYield": "6,95",
    "currency": "HUF",
    "maturityInDays_val": 10223,
    "issueDate": "2021.04.28",
    "longName": "A510428G21"
}