{
    "askPrice": "62,8326",
    "green": "1,0000",
    "coupon": "4,00 %",
    "accruedInterest": "2,8164",
    "settleDate": "2023.01.10",
    "askEhmYield": "7,06",
    "bidYield": "7,89",
    "rawName": "2051/G",
    "bidPrice": "56,4149",
    "coupon_val": 4,
    "maturityInDays": "10335 nap",
    "securityType": "KTV",
    "maturityDate": "2051.04.28",
    "name": "2051/G",
    "bidEhmYield": "7,88",
    "askYield": "7,07",
    "currency": "HUF",
    "maturityInDays_val": 10335,
    "issueDate": "2021.04.28",
    "longName": "A510428G21"
}