{
    "askPrice": "60,3889",
    "green": "1,0000",
    "coupon": "4,00 %",
    "accruedInterest": "1,9891",
    "settleDate": "2023.10.27",
    "askEhmYield": "7,40",
    "bidYield": "8,08",
    "rawName": "2051/G",
    "bidPrice": "55,4249",
    "coupon_val": 4,
    "maturityInDays": "10045 nap",
    "securityType": "KTV",
    "maturityDate": "2051.04.28",
    "name": "2051/G",
    "bidEhmYield": "8,07",
    "askYield": "7,41",
    "currency": "HUF",
    "maturityInDays_val": 10045,
    "issueDate": "2021.04.28",
    "longName": "A510428G21"
}