{
    "askPrice": "73,4539",
    "green": "1,0000",
    "coupon": "4,00 %",
    "accruedInterest": "2,9727",
    "settleDate": "2024.01.25",
    "askEhmYield": "6,00",
    "bidYield": "6,68",
    "rawName": "2051/G",
    "bidPrice": "66,7404",
    "coupon_val": 4,
    "maturityInDays": "9955 nap",
    "securityType": "KTV",
    "maturityDate": "2051.04.28",
    "name": "2051/G",
    "bidEhmYield": "6,67",
    "askYield": "6,00",
    "currency": "HUF",
    "maturityInDays_val": 9955,
    "issueDate": "2021.04.28",
    "longName": "A510428G21"
}