{
    "askPrice": "72,6223",
    "green": "1,0000",
    "coupon": "4,00 %",
    "accruedInterest": "3,0492",
    "settleDate": "2024.02.01",
    "askEhmYield": "6,08",
    "bidYield": "6,76",
    "rawName": "2051/G",
    "bidPrice": "66,0213",
    "coupon_val": 4,
    "maturityInDays": "9948 nap",
    "securityType": "KTV",
    "maturityDate": "2051.04.28",
    "name": "2051/G",
    "bidEhmYield": "6,75",
    "askYield": "6,08",
    "currency": "HUF",
    "maturityInDays_val": 9948,
    "issueDate": "2021.04.28",
    "longName": "A510428G21"
}