{
    "askPrice": "69,2793",
    "green": "1,0000",
    "coupon": "4,00 %",
    "accruedInterest": "3,6284",
    "settleDate": "2024.03.25",
    "askEhmYield": "6,41",
    "bidYield": "7,07",
    "rawName": "2051/G",
    "bidPrice": "63,3878",
    "coupon_val": 4,
    "maturityInDays": "9895 nap",
    "securityType": "KTV",
    "maturityDate": "2051.04.28",
    "name": "2051/G",
    "bidEhmYield": "7,06",
    "askYield": "6,42",
    "currency": "HUF",
    "maturityInDays_val": 9895,
    "issueDate": "2021.04.28",
    "longName": "A510428G21"
}