{
    "askPrice": "71,2310",
    "green": "1,0000",
    "coupon": "4,00 %",
    "accruedInterest": "3,4208",
    "settleDate": "2024.03.06",
    "askEhmYield": "6,22",
    "bidYield": "6,87",
    "rawName": "2051/G",
    "bidPrice": "65,0884",
    "coupon_val": 4,
    "maturityInDays": "9914 nap",
    "securityType": "KTV",
    "maturityDate": "2051.04.28",
    "name": "2051/G",
    "bidEhmYield": "6,86",
    "askYield": "6,22",
    "currency": "HUF",
    "maturityInDays_val": 9914,
    "issueDate": "2021.04.28",
    "longName": "A510428G21"
}