{
    "askPrice": "69,0060",
    "green": "1,0000",
    "coupon": "4,00 %",
    "accruedInterest": "3,7486",
    "settleDate": "2024.04.05",
    "askEhmYield": "6,44",
    "bidYield": "7,09",
    "rawName": "2051/G",
    "bidPrice": "63,2362",
    "coupon_val": 4,
    "maturityInDays": "9884 nap",
    "securityType": "KTV",
    "maturityDate": "2051.04.28",
    "name": "2051/G",
    "bidEhmYield": "7,08",
    "askYield": "6,45",
    "currency": "HUF",
    "maturityInDays_val": 9884,
    "issueDate": "2021.04.28",
    "longName": "A510428G21"
}