{
    "askPrice": "73,8759",
    "green": "1,0000",
    "coupon": "4,00 %",
    "accruedInterest": "2,9399",
    "settleDate": "2024.01.22",
    "askEhmYield": "5,96",
    "bidYield": "6,62",
    "rawName": "2051/G",
    "bidPrice": "67,2911",
    "coupon_val": 4,
    "maturityInDays": "9958 nap",
    "securityType": "KTV",
    "maturityDate": "2051.04.28",
    "name": "2051/G",
    "bidEhmYield": "6,61",
    "askYield": "5,96",
    "currency": "HUF",
    "maturityInDays_val": 9958,
    "issueDate": "2021.04.28",
    "longName": "A510428G21"
}