{
    "askPrice": "70,2524",
    "green": "1,0000",
    "coupon": "4,00 %",
    "accruedInterest": "2,7869",
    "settleDate": "2024.01.08",
    "askEhmYield": "6,31",
    "bidYield": "6,98",
    "rawName": "2051/G",
    "bidPrice": "64,0435",
    "coupon_val": 4,
    "maturityInDays": "9972 nap",
    "securityType": "KTV",
    "maturityDate": "2051.04.28",
    "name": "2051/G",
    "bidEhmYield": "6,97",
    "askYield": "6,31",
    "currency": "HUF",
    "maturityInDays_val": 9972,
    "issueDate": "2021.04.28",
    "longName": "A510428G21"
}