{
    "askPrice": "66,9550",
    "green": "1,0000",
    "coupon": "4,00 %",
    "accruedInterest": "3,8798",
    "settleDate": "2024.04.17",
    "askEhmYield": "6,66",
    "bidYield": "7,31",
    "rawName": "2051/G",
    "bidPrice": "61,4406",
    "coupon_val": 4,
    "maturityInDays": "9872 nap",
    "securityType": "KTV",
    "maturityDate": "2051.04.28",
    "name": "2051/G",
    "bidEhmYield": "7,30",
    "askYield": "6,67",
    "currency": "HUF",
    "maturityInDays_val": 9872,
    "issueDate": "2021.04.28",
    "longName": "A510428G21"
}