{
    "askPrice": "69,0816",
    "green": "1,0000",
    "coupon": "4,00 %",
    "accruedInterest": "3,5956",
    "settleDate": "2024.03.22",
    "askEhmYield": "6,43",
    "bidYield": "7,08",
    "rawName": "2051/G",
    "bidPrice": "63,2984",
    "coupon_val": 4,
    "maturityInDays": "9898 nap",
    "securityType": "KTV",
    "maturityDate": "2051.04.28",
    "name": "2051/G",
    "bidEhmYield": "7,07",
    "askYield": "6,44",
    "currency": "HUF",
    "maturityInDays_val": 9898,
    "issueDate": "2021.04.28",
    "longName": "A510428G21"
}