{
    "askPrice": "72,0116",
    "green": "1,0000",
    "coupon": "4,00 %",
    "accruedInterest": "3,1366",
    "settleDate": "2024.02.09",
    "askEhmYield": "6,14",
    "bidYield": "6,78",
    "rawName": "2051/G",
    "bidPrice": "65,8523",
    "coupon_val": 4,
    "maturityInDays": "9940 nap",
    "securityType": "KTV",
    "maturityDate": "2051.04.28",
    "name": "2051/G",
    "bidEhmYield": "6,77",
    "askYield": "6,14",
    "currency": "HUF",
    "maturityInDays_val": 9940,
    "issueDate": "2021.04.28",
    "longName": "A510428G21"
}