{
    "askPrice": "66,0636",
    "green": "1,0000",
    "coupon": "4,00 %",
    "accruedInterest": "0,0110",
    "settleDate": "2024.04.29",
    "askEhmYield": "6,77",
    "bidYield": "7,42",
    "rawName": "2051/G",
    "bidPrice": "60,5823",
    "coupon_val": 4,
    "maturityInDays": "9860 nap",
    "securityType": "KTV",
    "maturityDate": "2051.04.28",
    "name": "2051/G",
    "bidEhmYield": "7,42",
    "askYield": "6,77",
    "currency": "HUF",
    "maturityInDays_val": 9860,
    "issueDate": "2021.04.28",
    "longName": "A510428G21"
}