{
    "askPrice": "73,6888",
    "green": "1,0000",
    "coupon": "4,00 %",
    "accruedInterest": "3,1694",
    "settleDate": "2024.02.12",
    "askEhmYield": "5,98",
    "bidYield": "6,64",
    "rawName": "2051/G",
    "bidPrice": "67,1347",
    "coupon_val": 4,
    "maturityInDays": "9937 nap",
    "securityType": "KTV",
    "maturityDate": "2051.04.28",
    "name": "2051/G",
    "bidEhmYield": "6,63",
    "askYield": "5,98",
    "currency": "HUF",
    "maturityInDays_val": 9937,
    "issueDate": "2021.04.28",
    "longName": "A510428G21"
}