{
    "askPrice": "71,2338",
    "green": "1,0000",
    "coupon": "4,00 %",
    "accruedInterest": "3,4426",
    "settleDate": "2024.03.08",
    "askEhmYield": "6,22",
    "bidYield": "6,88",
    "rawName": "2051/G",
    "bidPrice": "65,0032",
    "coupon_val": 4,
    "maturityInDays": "9912 nap",
    "securityType": "KTV",
    "maturityDate": "2051.04.28",
    "name": "2051/G",
    "bidEhmYield": "6,87",
    "askYield": "6,22",
    "currency": "HUF",
    "maturityInDays_val": 9912,
    "issueDate": "2021.04.28",
    "longName": "A510428G21"
}