{
    "askPrice": "75,1916",
    "green": "1,0000",
    "coupon": "4,00 %",
    "accruedInterest": "3,0929",
    "settleDate": "2024.02.05",
    "askEhmYield": "5,84",
    "bidYield": "6,52",
    "rawName": "2051/G",
    "bidPrice": "68,2504",
    "coupon_val": 4,
    "maturityInDays": "9944 nap",
    "securityType": "KTV",
    "maturityDate": "2051.04.28",
    "name": "2051/G",
    "bidEhmYield": "6,51",
    "askYield": "5,84",
    "currency": "HUF",
    "maturityInDays_val": 9944,
    "issueDate": "2021.04.28",
    "longName": "A510428G21"
}