{
    "askPrice": "",
    "green": 0,
    "coupon": "6,50 %",
    "accruedInterest": "0,2315",
    "settleDate": "2024.03.18",
    "askEhmYield": "",
    "bidYield": "7,61",
    "rawName": "K2025/10",
    "bidPrice": "99,0000",
    "coupon_val": 6.5,
    "maturityInDays": "352 nap",
    "securityType": "1MÁP",
    "maturityDate": "2025.03.05",
    "name": "K2025/10",
    "bidEhmYield": "7,60",
    "askYield": "",
    "currency": "HUF",
    "maturityInDays_val": 352,
    "issueDate": "2024.03.05",
    "longName": "K250305"
}