{
    "askPrice": "",
    "green": 0,
    "coupon": "3,50 %",
    "accruedInterest": "0,2092",
    "settleDate": "2023.03.28",
    "askEhmYield": "",
    "bidYield": "5,04",
    "rawName": "N2028/10",
    "bidPrice": "99,5000",
    "coupon_val": 3.5,
    "maturityInDays": "1805 nap",
    "securityType": "MÁP Plusz",
    "maturityDate": "2028.03.06",
    "name": "N2028/10",
    "bidEhmYield": "",
    "askYield": "",
    "currency": "HUF",
    "maturityInDays_val": 1805,
    "issueDate": "2023.03.06",
    "longName": "N280306"
}