{
    "askPrice": "",
    "green": 0,
    "coupon": "3,50 %",
    "accruedInterest": "1,4266",
    "settleDate": "2023.08.03",
    "askEhmYield": "",
    "bidYield": "5,17",
    "rawName": "N2028/10",
    "bidPrice": "99,5000",
    "coupon_val": 3.5,
    "maturityInDays": "1677 nap",
    "securityType": "MÁP Plusz",
    "maturityDate": "2028.03.06",
    "name": "N2028/10",
    "bidEhmYield": "",
    "askYield": "",
    "currency": "HUF",
    "maturityInDays_val": 1677,
    "issueDate": "2023.03.06",
    "longName": "N280306"
}