{
    "askPrice": "",
    "green": 0,
    "coupon": "3,50 %",
    "accruedInterest": "1,6374",
    "settleDate": "2024.02.02",
    "askEhmYield": "",
    "bidYield": "5,33",
    "rawName": "N2028/10",
    "bidPrice": "99,5000",
    "coupon_val": 3.5,
    "maturityInDays": "1494 nap",
    "securityType": "MÁP Plusz",
    "maturityDate": "2028.03.06",
    "name": "N2028/10",
    "bidEhmYield": "",
    "askYield": "",
    "currency": "HUF",
    "maturityInDays_val": 1494,
    "issueDate": "2023.03.06",
    "longName": "N280306"
}