{
    "askPrice": "",
    "green": 0,
    "coupon": "4,25 %",
    "accruedInterest": "2,2705",
    "settleDate": "2022.12.12",
    "askEhmYield": "",
    "bidYield": "6,42",
    "rawName": "K2023/22",
    "bidPrice": "99,0000",
    "coupon_val": 4.25,
    "maturityInDays": "170 nap",
    "securityType": "1MÁP",
    "maturityDate": "2023.05.31",
    "name": "K2023/22",
    "bidEhmYield": "6,32",
    "askYield": "",
    "currency": "HUF",
    "maturityInDays_val": 170,
    "issueDate": "2022.05.31",
    "longName": "K230531"
}