{
    "askPrice": "",
    "green": 0,
    "coupon": "4,25 %",
    "accruedInterest": "1,42",
    "settleDate": "2022.09.30",
    "askEhmYield": "",
    "bidYield": "",
    "rawName": "K2023/22",
    "bidPrice": "99,50",
    "coupon_val": 4.25,
    "maturityInDays": "243 nap",
    "securityType": "1MÁP",
    "maturityDate": "2023.05.31",
    "name": "K2023/22",
    "bidEhmYield": "4,96",
    "askYield": "",
    "currency": "HUF",
    "maturityInDays_val": 243,
    "longName": "K230531"
}