{
    "askPrice": "",
    "green": 0,
    "coupon": "4,25 %",
    "accruedInterest": "1,80",
    "settleDate": "2022.11.02",
    "askEhmYield": "",
    "bidYield": "5,11",
    "rawName": "K2023/22",
    "bidPrice": "99,50",
    "coupon_val": 4.25,
    "maturityInDays": "210 nap",
    "securityType": "1MÁP",
    "maturityDate": "2023.05.31",
    "name": "K2023/22",
    "bidEhmYield": "5,05",
    "askYield": "",
    "currency": "HUF",
    "maturityInDays_val": 210,
    "issueDate": "2022-05-31",
    "longName": "K230531"
}