{
    "askPrice": "",
    "green": 0,
    "coupon": "4,25 %",
    "accruedInterest": "0,42",
    "settleDate": "2022.07.06",
    "askEhmYield": "",
    "bidYield": "",
    "rawName": "K2023/22",
    "bidPrice": "99,50",
    "coupon_val": 4.25,
    "maturityInDays": "329 nap",
    "securityType": "1MÁP",
    "maturityDate": "2023.05.31",
    "name": "K2023/22",
    "bidEhmYield": "4,81",
    "askYield": "",
    "currency": "HUF",
    "maturityInDays_val": 329,
    "longName": "K230531"
}