{
    "askPrice": "",
    "green": 0,
    "coupon": "4,25 %",
    "accruedInterest": "1,21",
    "settleDate": "2022.09.12",
    "askEhmYield": "",
    "bidYield": "",
    "rawName": "K2023/22",
    "bidPrice": "99,50",
    "coupon_val": 4.25,
    "maturityInDays": "261 nap",
    "securityType": "1MÁP",
    "maturityDate": "2023.05.31",
    "name": "K2023/22",
    "bidEhmYield": "4,91",
    "askYield": "",
    "currency": "HUF",
    "maturityInDays_val": 261,
    "longName": "K230531"
}