{
    "askPrice": "",
    "green": 0,
    "coupon": "4,25 %",
    "accruedInterest": "2,7829",
    "settleDate": "2023.01.25",
    "askEhmYield": "",
    "bidYield": "7,18",
    "rawName": "K2023/22",
    "bidPrice": "99,0000",
    "coupon_val": 4.25,
    "maturityInDays": "126 nap",
    "securityType": "1MÁP",
    "maturityDate": "2023.05.31",
    "name": "K2023/22",
    "bidEhmYield": "7,02",
    "askYield": "",
    "currency": "HUF",
    "maturityInDays_val": 126,
    "issueDate": "2022.05.31",
    "longName": "K230531"
}