{
    "askPrice": "",
    "green": 0,
    "coupon": "4,25 %",
    "accruedInterest": "2,9692",
    "settleDate": "2023.02.10",
    "askEhmYield": "",
    "bidYield": "7,62",
    "rawName": "K2023/22",
    "bidPrice": "99,0000",
    "coupon_val": 4.25,
    "maturityInDays": "110 nap",
    "securityType": "1MÁP",
    "maturityDate": "2023.05.31",
    "name": "K2023/22",
    "bidEhmYield": "7,42",
    "askYield": "",
    "currency": "HUF",
    "maturityInDays_val": 110,
    "issueDate": "2022.05.31",
    "longName": "K230531"
}