{
    "askPrice": "",
    "green": 0,
    "coupon": "4,25 %",
    "accruedInterest": "4,0753",
    "settleDate": "2023.05.16",
    "askEhmYield": "",
    "bidYield": "22,75",
    "rawName": "K2023/22",
    "bidPrice": "99,3000",
    "coupon_val": 4.25,
    "maturityInDays": "15 nap",
    "securityType": "1MÁP",
    "maturityDate": "2023.05.31",
    "name": "K2023/22",
    "bidEhmYield": "20,59",
    "askYield": "",
    "currency": "HUF",
    "maturityInDays_val": 15,
    "issueDate": "2022.05.31",
    "longName": "K230531"
}