{
    "askPrice": "",
    "green": 0,
    "coupon": "4,25 %",
    "accruedInterest": "2,6781",
    "settleDate": "2023.01.16",
    "askEhmYield": "",
    "bidYield": "6,99",
    "rawName": "K2023/22",
    "bidPrice": "99,0000",
    "coupon_val": 4.25,
    "maturityInDays": "135 nap",
    "securityType": "1MÁP",
    "maturityDate": "2023.05.31",
    "name": "K2023/22",
    "bidEhmYield": "6,84",
    "askYield": "",
    "currency": "HUF",
    "maturityInDays_val": 135,
    "issueDate": "2022.05.31",
    "longName": "K230531"
}