{
    "askPrice": "72,61",
    "green": 0,
    "coupon": "3,00 %",
    "accruedInterest": "2,86",
    "settleDate": "2022.10.10",
    "askEhmYield": "10,21",
    "bidYield": "10,81",
    "rawName": "2027/A",
    "bidPrice": "70,78",
    "coupon_val": 3,
    "maturityInDays": "1843 nap",
    "securityType": "KTV",
    "maturityDate": "2027.10.27",
    "name": "2027/A",
    "bidEhmYield": "10,81",
    "askYield": "10,21",
    "currency": "HUF",
    "maturityInDays_val": 1843,
    "longName": "A271027A16"
}