{
    "askPrice": "75,7920",
    "green": 0,
    "coupon": "3,00 %",
    "accruedInterest": "0,5096",
    "settleDate": "2022.12.28",
    "askEhmYield": "9,46",
    "bidYield": "10,24",
    "rawName": "2027/A",
    "bidPrice": "73,4269",
    "coupon_val": 3,
    "maturityInDays": "1764 nap",
    "securityType": "KTV",
    "maturityDate": "2027.10.27",
    "name": "2027/A",
    "bidEhmYield": "10,23",
    "askYield": "9,47",
    "currency": "HUF",
    "maturityInDays_val": 1764,
    "issueDate": "2016.01.13",
    "longName": "A271027A16"
}