{
    "askPrice": "77,47",
    "green": 0,
    "coupon": "3,00 %",
    "accruedInterest": "2,40",
    "settleDate": "2022.08.15",
    "askEhmYield": "8,54",
    "bidYield": "9,14",
    "rawName": "2027/A",
    "bidPrice": "75,43",
    "coupon_val": 3,
    "maturityInDays": "1899 nap",
    "securityType": "KTV",
    "maturityDate": "2027.10.27",
    "name": "2027/A",
    "bidEhmYield": "9,14",
    "askYield": "8,54",
    "currency": "HUF",
    "maturityInDays_val": 1899,
    "longName": "A271027A16"
}