{
    "askPrice": "78,39",
    "green": 0,
    "coupon": "3,00 %",
    "accruedInterest": "2,03",
    "settleDate": "2022.07.01",
    "askEhmYield": "8,16",
    "bidYield": "8,76",
    "rawName": "2027/A",
    "bidPrice": "76,27",
    "coupon_val": 3,
    "maturityInDays": "1944 nap",
    "securityType": "KTV",
    "maturityDate": "2027.10.27",
    "name": "2027/A",
    "bidEhmYield": "8,76",
    "askYield": "8,16",
    "currency": "HUF",
    "maturityInDays_val": 1944,
    "longName": "A271027A16"
}