{
    "askPrice": "76,44",
    "green": 0,
    "coupon": "3,00 %",
    "accruedInterest": "2,34",
    "settleDate": "2022.08.08",
    "askEhmYield": "8,82",
    "bidYield": "9,42",
    "rawName": "2027/A",
    "bidPrice": "74,43",
    "coupon_val": 3,
    "maturityInDays": "1906 nap",
    "securityType": "KTV",
    "maturityDate": "2027.10.27",
    "name": "2027/A",
    "bidEhmYield": "9,42",
    "askYield": "8,82",
    "currency": "HUF",
    "maturityInDays_val": 1906,
    "longName": "A271027A16"
}