{
    "askPrice": "72,61",
    "green": 0,
    "coupon": "3,00 %",
    "accruedInterest": "2,69",
    "settleDate": "2022.09.19",
    "askEhmYield": "10,13",
    "bidYield": "10,73",
    "rawName": "2027/A",
    "bidPrice": "70,76",
    "coupon_val": 3,
    "maturityInDays": "1864 nap",
    "securityType": "KTV",
    "maturityDate": "2027.10.27",
    "name": "2027/A",
    "bidEhmYield": "10,73",
    "askYield": "10,13",
    "currency": "HUF",
    "maturityInDays_val": 1864,
    "longName": "A271027A16"
}