{
    "askPrice": "75,14",
    "green": 0,
    "coupon": "3,00 %",
    "accruedInterest": "2,11",
    "settleDate": "2022.07.11",
    "askEhmYield": "9,12",
    "bidYield": "9,72",
    "rawName": "2027/A",
    "bidPrice": "73,14",
    "coupon_val": 3,
    "maturityInDays": "1934 nap",
    "securityType": "KTV",
    "maturityDate": "2027.10.27",
    "name": "2027/A",
    "bidEhmYield": "9,72",
    "askYield": "9,12",
    "currency": "HUF",
    "maturityInDays_val": 1934,
    "longName": "A271027A16"
}