{
    "askPrice": "75,24",
    "green": 0,
    "coupon": "3,00 %",
    "accruedInterest": "2,46",
    "settleDate": "2022.08.22",
    "askEhmYield": "9,22",
    "bidYield": "9,82",
    "rawName": "2027/A",
    "bidPrice": "73,28",
    "coupon_val": 3,
    "maturityInDays": "1892 nap",
    "securityType": "KTV",
    "maturityDate": "2027.10.27",
    "name": "2027/A",
    "bidEhmYield": "9,82",
    "askYield": "9,22",
    "currency": "HUF",
    "maturityInDays_val": 1892,
    "longName": "A271027A16"
}