{
    "askPrice": "76,7629",
    "green": 0,
    "coupon": "3,00 %",
    "accruedInterest": "0,4521",
    "settleDate": "2022.12.21",
    "askEhmYield": "9,13",
    "bidYield": "9,96",
    "rawName": "2027/A",
    "bidPrice": "74,1975",
    "coupon_val": 3,
    "maturityInDays": "1771 nap",
    "securityType": "KTV",
    "maturityDate": "2027.10.27",
    "name": "2027/A",
    "bidEhmYield": "9,95",
    "askYield": "9,14",
    "currency": "HUF",
    "maturityInDays_val": 1771,
    "issueDate": "2016.01.13",
    "longName": "A271027A16"
}