{
    "askPrice": "85,7422",
    "green": 0,
    "coupon": "3,00 %",
    "accruedInterest": "2,9096",
    "settleDate": "2023.10.16",
    "askEhmYield": "7,19",
    "bidYield": "7,88",
    "rawName": "2027/A",
    "bidPrice": "83,6858",
    "coupon_val": 3,
    "maturityInDays": "1472 nap",
    "securityType": "KTV",
    "maturityDate": "2027.10.27",
    "name": "2027/A",
    "bidEhmYield": "7,87",
    "askYield": "7,20",
    "currency": "HUF",
    "maturityInDays_val": 1472,
    "issueDate": "2016.01.13",
    "longName": "A271027A16"
}