{
    "askPrice": "89,8801",
    "green": 0,
    "coupon": "3,00 %",
    "accruedInterest": "0,3689",
    "settleDate": "2023.12.11",
    "askEhmYield": "6,00",
    "bidYield": "6,68",
    "rawName": "2027/A",
    "bidPrice": "87,7736",
    "coupon_val": 3,
    "maturityInDays": "1416 nap",
    "securityType": "KTV",
    "maturityDate": "2027.10.27",
    "name": "2027/A",
    "bidEhmYield": "6,68",
    "askYield": "6,00",
    "currency": "HUF",
    "maturityInDays_val": 1416,
    "issueDate": "2016.01.13",
    "longName": "A271027A16"
}