{
    "askPrice": "79,9537",
    "green": 0,
    "coupon": "3,00 %",
    "accruedInterest": "0,6411",
    "settleDate": "2023.01.13",
    "askEhmYield": "8,22",
    "bidYield": "9,05",
    "rawName": "2027/A",
    "bidPrice": "77,2865",
    "coupon_val": 3,
    "maturityInDays": "1748 nap",
    "securityType": "KTV",
    "maturityDate": "2027.10.27",
    "name": "2027/A",
    "bidEhmYield": "9,04",
    "askYield": "8,23",
    "currency": "HUF",
    "maturityInDays_val": 1748,
    "issueDate": "2016.01.13",
    "longName": "A271027A16"
}