{
    "askPrice": "78,7277",
    "green": 0,
    "coupon": "3,00 %",
    "accruedInterest": "0,7973",
    "settleDate": "2023.02.01",
    "askEhmYield": "8,65",
    "bidYield": "9,48",
    "rawName": "2027/A",
    "bidPrice": "76,1383",
    "coupon_val": 3,
    "maturityInDays": "1729 nap",
    "securityType": "KTV",
    "maturityDate": "2027.10.27",
    "name": "2027/A",
    "bidEhmYield": "9,47",
    "askYield": "8,66",
    "currency": "HUF",
    "maturityInDays_val": 1729,
    "issueDate": "2016.01.13",
    "longName": "A271027A16"
}