{
    "askPrice": "75,5350",
    "green": 0,
    "coupon": "3,00 %",
    "accruedInterest": "0,5753",
    "settleDate": "2023.01.05",
    "askEhmYield": "9,57",
    "bidYield": "10,35",
    "rawName": "2027/A",
    "bidPrice": "73,1899",
    "coupon_val": 3,
    "maturityInDays": "1756 nap",
    "securityType": "KTV",
    "maturityDate": "2027.10.27",
    "name": "2027/A",
    "bidEhmYield": "10,34",
    "askYield": "9,58",
    "currency": "HUF",
    "maturityInDays_val": 1756,
    "issueDate": "2016.01.13",
    "longName": "A271027A16"
}