{
    "askPrice": "84,9597",
    "green": 0,
    "coupon": "3,00 %",
    "accruedInterest": "2,1863",
    "settleDate": "2023.07.20",
    "askEhmYield": "7,20",
    "bidYield": "7,96",
    "rawName": "2027/A",
    "bidPrice": "82,5913",
    "coupon_val": 3,
    "maturityInDays": "1560 nap",
    "securityType": "KTV",
    "maturityDate": "2027.10.27",
    "name": "2027/A",
    "bidEhmYield": "7,95",
    "askYield": "7,21",
    "currency": "HUF",
    "maturityInDays_val": 1560,
    "issueDate": "2016.01.13",
    "longName": "A271027A16"
}