{
    "askPrice": "91,7322",
    "green": 0,
    "coupon": "3,00 %",
    "accruedInterest": "0,4262",
    "settleDate": "2023.12.18",
    "askEhmYield": "5,43",
    "bidYield": "6,12",
    "rawName": "2027/A",
    "bidPrice": "89,5484",
    "coupon_val": 3,
    "maturityInDays": "1409 nap",
    "securityType": "KTV",
    "maturityDate": "2027.10.27",
    "name": "2027/A",
    "bidEhmYield": "6,12",
    "askYield": "5,43",
    "currency": "HUF",
    "maturityInDays_val": 1409,
    "issueDate": "2016.01.13",
    "longName": "A271027A16"
}