{
    "askPrice": "79,9936",
    "green": 0,
    "coupon": "3,00 %",
    "accruedInterest": "1,6767",
    "settleDate": "2023.05.19",
    "askEhmYield": "8,59",
    "bidYield": "9,43",
    "rawName": "2027/A",
    "bidPrice": "77,4773",
    "coupon_val": 3,
    "maturityInDays": "1622 nap",
    "securityType": "KTV",
    "maturityDate": "2027.10.27",
    "name": "2027/A",
    "bidEhmYield": "9,42",
    "askYield": "8,60",
    "currency": "HUF",
    "maturityInDays_val": 1622,
    "issueDate": "2016.01.13",
    "longName": "A271027A16"
}