{
    "askPrice": "79,5928",
    "green": 0,
    "coupon": "3,00 %",
    "accruedInterest": "0,8712",
    "settleDate": "2023.02.10",
    "askEhmYield": "8,41",
    "bidYield": "9,24",
    "rawName": "2027/A",
    "bidPrice": "76,9804",
    "coupon_val": 3,
    "maturityInDays": "1720 nap",
    "securityType": "KTV",
    "maturityDate": "2027.10.27",
    "name": "2027/A",
    "bidEhmYield": "9,23",
    "askYield": "8,42",
    "currency": "HUF",
    "maturityInDays_val": 1720,
    "issueDate": "2016.01.13",
    "longName": "A271027A16"
}