{
    "askPrice": "84,9306",
    "green": 0,
    "coupon": "3,00 %",
    "accruedInterest": "2,9753",
    "settleDate": "2023.10.24",
    "askEhmYield": "7,48",
    "bidYield": "8,17",
    "rawName": "2027/A",
    "bidPrice": "82,9101",
    "coupon_val": 3,
    "maturityInDays": "1464 nap",
    "securityType": "KTV",
    "maturityDate": "2027.10.27",
    "name": "2027/A",
    "bidEhmYield": "8,16",
    "askYield": "7,49",
    "currency": "HUF",
    "maturityInDays_val": 1464,
    "issueDate": "2016.01.13",
    "longName": "A271027A16"
}