{
    "askPrice": "84,4084",
    "green": 0,
    "coupon": "3,00 %",
    "accruedInterest": "2,4740",
    "settleDate": "2023.08.24",
    "askEhmYield": "7,47",
    "bidYield": "8,07",
    "rawName": "2027/A",
    "bidPrice": "82,5941",
    "coupon_val": 3,
    "maturityInDays": "1525 nap",
    "securityType": "KTV",
    "maturityDate": "2027.10.27",
    "name": "2027/A",
    "bidEhmYield": "8,06",
    "askYield": "7,48",
    "currency": "HUF",
    "maturityInDays_val": 1525,
    "issueDate": "2016.01.13",
    "longName": "A271027A16"
}