{
    "askPrice": "77,2372",
    "green": 0,
    "coupon": "3,00 %",
    "accruedInterest": "1,3233",
    "settleDate": "2023.04.06",
    "askEhmYield": "9,34",
    "bidYield": "10,18",
    "rawName": "2027/A",
    "bidPrice": "74,7688",
    "coupon_val": 3,
    "maturityInDays": "1665 nap",
    "securityType": "KTV",
    "maturityDate": "2027.10.27",
    "name": "2027/A",
    "bidEhmYield": "10,17",
    "askYield": "9,35",
    "currency": "HUF",
    "maturityInDays_val": 1665,
    "issueDate": "2016.01.13",
    "longName": "A271027A16"
}