{
    "askPrice": "80,1642",
    "green": 0,
    "coupon": "3,00 %",
    "accruedInterest": "0,7397",
    "settleDate": "2023.01.25",
    "askEhmYield": "8,19",
    "bidYield": "9,03",
    "rawName": "2027/A",
    "bidPrice": "77,4736",
    "coupon_val": 3,
    "maturityInDays": "1736 nap",
    "securityType": "KTV",
    "maturityDate": "2027.10.27",
    "name": "2027/A",
    "bidEhmYield": "9,02",
    "askYield": "8,20",
    "currency": "HUF",
    "maturityInDays_val": 1736,
    "issueDate": "2016.01.13",
    "longName": "A271027A16"
}