{
    "askPrice": "74,9201",
    "green": 0,
    "coupon": "3,00 %",
    "accruedInterest": "0,9534",
    "settleDate": "2023.02.20",
    "askEhmYield": "9,94",
    "bidYield": "10,65",
    "rawName": "2027/A",
    "bidPrice": "72,8585",
    "coupon_val": 3,
    "maturityInDays": "1710 nap",
    "securityType": "KTV",
    "maturityDate": "2027.10.27",
    "name": "2027/A",
    "bidEhmYield": "10,64",
    "askYield": "9,95",
    "currency": "HUF",
    "maturityInDays_val": 1710,
    "issueDate": "2016.01.13",
    "longName": "A271027A16"
}