{
    "askPrice": "79,3543",
    "green": 0,
    "coupon": "3,00 %",
    "accruedInterest": "1,5370",
    "settleDate": "2023.05.02",
    "askEhmYield": "8,74",
    "bidYield": "9,56",
    "rawName": "2027/A",
    "bidPrice": "76,8978",
    "coupon_val": 3,
    "maturityInDays": "1639 nap",
    "securityType": "KTV",
    "maturityDate": "2027.10.27",
    "name": "2027/A",
    "bidEhmYield": "9,55",
    "askYield": "8,75",
    "currency": "HUF",
    "maturityInDays_val": 1639,
    "issueDate": "2016.01.13",
    "longName": "A271027A16"
}