{
    "askPrice": "87,2590",
    "green": 0,
    "coupon": "3,00 %",
    "accruedInterest": "0,1393",
    "settleDate": "2023.11.13",
    "askEhmYield": "6,78",
    "bidYield": "7,46",
    "rawName": "2027/A",
    "bidPrice": "85,1940",
    "coupon_val": 3,
    "maturityInDays": "1444 nap",
    "securityType": "KTV",
    "maturityDate": "2027.10.27",
    "name": "2027/A",
    "bidEhmYield": "7,45",
    "askYield": "6,78",
    "currency": "HUF",
    "maturityInDays_val": 1444,
    "issueDate": "2016.01.13",
    "longName": "A271027A16"
}