{
    "askPrice": "83,8232",
    "green": 0,
    "coupon": "3,00 %",
    "accruedInterest": "2,3671",
    "settleDate": "2023.08.11",
    "askEhmYield": "7,62",
    "bidYield": "8,35",
    "rawName": "2027/A",
    "bidPrice": "81,6172",
    "coupon_val": 3,
    "maturityInDays": "1538 nap",
    "securityType": "KTV",
    "maturityDate": "2027.10.27",
    "name": "2027/A",
    "bidEhmYield": "8,34",
    "askYield": "7,63",
    "currency": "HUF",
    "maturityInDays_val": 1538,
    "issueDate": "2016.01.13",
    "longName": "A271027A16"
}