{
    "askPrice": "85,1638",
    "green": 0,
    "coupon": "3,00 %",
    "accruedInterest": "2,5068",
    "settleDate": "2023.08.28",
    "askEhmYield": "7,24",
    "bidYield": "7,95",
    "rawName": "2027/A",
    "bidPrice": "82,9978",
    "coupon_val": 3,
    "maturityInDays": "1521 nap",
    "securityType": "KTV",
    "maturityDate": "2027.10.27",
    "name": "2027/A",
    "bidEhmYield": "7,94",
    "askYield": "7,25",
    "currency": "HUF",
    "maturityInDays_val": 1521,
    "issueDate": "2016.01.13",
    "longName": "A271027A16"
}