{
    "askPrice": "82,3314",
    "green": 0,
    "coupon": "3,00 %",
    "accruedInterest": "1,9890",
    "settleDate": "2023.06.26",
    "askEhmYield": "7,96",
    "bidYield": "8,75",
    "rawName": "2027/A",
    "bidPrice": "79,9312",
    "coupon_val": 3,
    "maturityInDays": "1584 nap",
    "securityType": "KTV",
    "maturityDate": "2027.10.27",
    "name": "2027/A",
    "bidEhmYield": "8,74",
    "askYield": "7,97",
    "currency": "HUF",
    "maturityInDays_val": 1584,
    "issueDate": "2016.01.13",
    "longName": "A271027A16"
}