{
    "askPrice": "84,1781",
    "green": 0,
    "coupon": "3,00 %",
    "accruedInterest": "2,0219",
    "settleDate": "2023.06.30",
    "askEhmYield": "7,39",
    "bidYield": "8,22",
    "rawName": "2027/A",
    "bidPrice": "81,5917",
    "coupon_val": 3,
    "maturityInDays": "1580 nap",
    "securityType": "KTV",
    "maturityDate": "2027.10.27",
    "name": "2027/A",
    "bidEhmYield": "8,21",
    "askYield": "7,40",
    "currency": "HUF",
    "maturityInDays_val": 1580,
    "issueDate": "2016.01.13",
    "longName": "A271027A16"
}