{
    "askPrice": "75,7765",
    "green": 0,
    "coupon": "3,00 %",
    "accruedInterest": "0,9616",
    "settleDate": "2023.02.21",
    "askEhmYield": "9,66",
    "bidYield": "10,49",
    "rawName": "2027/A",
    "bidPrice": "73,3354",
    "coupon_val": 3,
    "maturityInDays": "1709 nap",
    "securityType": "KTV",
    "maturityDate": "2027.10.27",
    "name": "2027/A",
    "bidEhmYield": "10,48",
    "askYield": "9,67",
    "currency": "HUF",
    "maturityInDays_val": 1709,
    "issueDate": "2016.01.13",
    "longName": "A271027A16"
}