{
    "askPrice": "84,1315",
    "green": 0,
    "coupon": "3,00 %",
    "accruedInterest": "2,2767",
    "settleDate": "2023.07.31",
    "askEhmYield": "7,49",
    "bidYield": "8,25",
    "rawName": "2027/A",
    "bidPrice": "81,8084",
    "coupon_val": 3,
    "maturityInDays": "1549 nap",
    "securityType": "KTV",
    "maturityDate": "2027.10.27",
    "name": "2027/A",
    "bidEhmYield": "8,24",
    "askYield": "7,50",
    "currency": "HUF",
    "maturityInDays_val": 1549,
    "issueDate": "2016.01.13",
    "longName": "A271027A16"
}