{
    "askPrice": "85,1892",
    "green": 0,
    "coupon": "3,00 %",
    "accruedInterest": "2,7945",
    "settleDate": "2023.10.02",
    "askEhmYield": "7,33",
    "bidYield": "8,00",
    "rawName": "2027/A",
    "bidPrice": "83,1904",
    "coupon_val": 3,
    "maturityInDays": "1486 nap",
    "securityType": "KTV",
    "maturityDate": "2027.10.27",
    "name": "2027/A",
    "bidEhmYield": "7,99",
    "askYield": "7,34",
    "currency": "HUF",
    "maturityInDays_val": 1486,
    "issueDate": "2016.01.13",
    "longName": "A271027A16"
}