{
    "askPrice": "79,2391",
    "green": 0,
    "coupon": "3,00 %",
    "accruedInterest": "0,8466",
    "settleDate": "2023.02.07",
    "askEhmYield": "8,51",
    "bidYield": "9,35",
    "rawName": "2027/A",
    "bidPrice": "76,6060",
    "coupon_val": 3,
    "maturityInDays": "1723 nap",
    "securityType": "KTV",
    "maturityDate": "2027.10.27",
    "name": "2027/A",
    "bidEhmYield": "9,34",
    "askYield": "8,52",
    "currency": "HUF",
    "maturityInDays_val": 1723,
    "issueDate": "2016.01.13",
    "longName": "A271027A16"
}