{
    "askPrice": "81,9921",
    "green": 0,
    "coupon": "3,00 %",
    "accruedInterest": "1,9397",
    "settleDate": "2023.06.20",
    "askEhmYield": "8,05",
    "bidYield": "8,88",
    "rawName": "2027/A",
    "bidPrice": "79,4753",
    "coupon_val": 3,
    "maturityInDays": "1590 nap",
    "securityType": "KTV",
    "maturityDate": "2027.10.27",
    "name": "2027/A",
    "bidEhmYield": "8,87",
    "askYield": "8,06",
    "currency": "HUF",
    "maturityInDays_val": 1590,
    "issueDate": "2016.01.13",
    "longName": "A271027A16"
}