{
    "askPrice": "79,7984",
    "green": 0,
    "coupon": "3,00 %",
    "accruedInterest": "1,7178",
    "settleDate": "2023.05.24",
    "askEhmYield": "8,67",
    "bidYield": "9,50",
    "rawName": "2027/A",
    "bidPrice": "77,3268",
    "coupon_val": 3,
    "maturityInDays": "1617 nap",
    "securityType": "KTV",
    "maturityDate": "2027.10.27",
    "name": "2027/A",
    "bidEhmYield": "9,49",
    "askYield": "8,68",
    "currency": "HUF",
    "maturityInDays_val": 1617,
    "issueDate": "2016.01.13",
    "longName": "A271027A16"
}