{
    "askPrice": "76,6078",
    "green": 0,
    "coupon": "3,00 %",
    "accruedInterest": "1,4137",
    "settleDate": "2023.04.17",
    "askEhmYield": "9,59",
    "bidYield": "10,42",
    "rawName": "2027/A",
    "bidPrice": "74,2089",
    "coupon_val": 3,
    "maturityInDays": "1654 nap",
    "securityType": "KTV",
    "maturityDate": "2027.10.27",
    "name": "2027/A",
    "bidEhmYield": "10,41",
    "askYield": "9,60",
    "currency": "HUF",
    "maturityInDays_val": 1654,
    "issueDate": "2016.01.13",
    "longName": "A271027A16"
}