{
    "askPrice": "84,0643",
    "green": 0,
    "coupon": "3,00 %",
    "accruedInterest": "2,2438",
    "settleDate": "2023.07.27",
    "askEhmYield": "7,50",
    "bidYield": "8,27",
    "rawName": "2027/A",
    "bidPrice": "81,7073",
    "coupon_val": 3,
    "maturityInDays": "1553 nap",
    "securityType": "KTV",
    "maturityDate": "2027.10.27",
    "name": "2027/A",
    "bidEhmYield": "8,26",
    "askYield": "7,51",
    "currency": "HUF",
    "maturityInDays_val": 1553,
    "issueDate": "2016.01.13",
    "longName": "A271027A16"
}