{
    "askPrice": "86,9900",
    "green": 0,
    "coupon": "3,00 %",
    "accruedInterest": "0,1148",
    "settleDate": "2023.11.10",
    "askEhmYield": "6,85",
    "bidYield": "7,53",
    "rawName": "2027/A",
    "bidPrice": "84,9589",
    "coupon_val": 3,
    "maturityInDays": "1447 nap",
    "securityType": "KTV",
    "maturityDate": "2027.10.27",
    "name": "2027/A",
    "bidEhmYield": "7,52",
    "askYield": "6,86",
    "currency": "HUF",
    "maturityInDays_val": 1447,
    "issueDate": "2016.01.13",
    "longName": "A271027A16"
}