{
    "askPrice": "91,9354",
    "green": 0,
    "coupon": "3,00 %",
    "accruedInterest": "0,4426",
    "settleDate": "2023.12.20",
    "askEhmYield": "5,37",
    "bidYield": "6,03",
    "rawName": "2027/A",
    "bidPrice": "89,8419",
    "coupon_val": 3,
    "maturityInDays": "1407 nap",
    "securityType": "KTV",
    "maturityDate": "2027.10.27",
    "name": "2027/A",
    "bidEhmYield": "6,03",
    "askYield": "5,37",
    "currency": "HUF",
    "maturityInDays_val": 1407,
    "issueDate": "2016.01.13",
    "longName": "A271027A16"
}