{
    "askPrice": "91,8845",
    "green": 0,
    "coupon": "3,00 %",
    "accruedInterest": "0,5164",
    "settleDate": "2023.12.29",
    "askEhmYield": "5,40",
    "bidYield": "6,03",
    "rawName": "2027/A",
    "bidPrice": "89,8982",
    "coupon_val": 3,
    "maturityInDays": "1398 nap",
    "securityType": "KTV",
    "maturityDate": "2027.10.27",
    "name": "2027/A",
    "bidEhmYield": "6,03",
    "askYield": "5,40",
    "currency": "HUF",
    "maturityInDays_val": 1398,
    "issueDate": "2016.01.13",
    "longName": "A271027A16"
}