{
    "askPrice": "79,3858",
    "green": 0,
    "coupon": "3,00 %",
    "accruedInterest": "1,5863",
    "settleDate": "2023.05.08",
    "askEhmYield": "8,75",
    "bidYield": "9,59",
    "rawName": "2027/A",
    "bidPrice": "76,8774",
    "coupon_val": 3,
    "maturityInDays": "1633 nap",
    "securityType": "KTV",
    "maturityDate": "2027.10.27",
    "name": "2027/A",
    "bidEhmYield": "9,58",
    "askYield": "8,76",
    "currency": "HUF",
    "maturityInDays_val": 1633,
    "issueDate": "2016.01.13",
    "longName": "A271027A16"
}