{
    "askPrice": "84,2782",
    "green": 0,
    "coupon": "3,00 %",
    "accruedInterest": "2,8521",
    "settleDate": "2023.10.09",
    "askEhmYield": "7,65",
    "bidYield": "8,33",
    "rawName": "2027/A",
    "bidPrice": "82,2866",
    "coupon_val": 3,
    "maturityInDays": "1479 nap",
    "securityType": "KTV",
    "maturityDate": "2027.10.27",
    "name": "2027/A",
    "bidEhmYield": "8,32",
    "askYield": "7,66",
    "currency": "HUF",
    "maturityInDays_val": 1479,
    "issueDate": "2016.01.13",
    "longName": "A271027A16"
}