{
    "askPrice": "88,5555",
    "green": 0,
    "coupon": "3,00 %",
    "accruedInterest": "1,4016",
    "settleDate": "2024.04.15",
    "askEhmYield": "6,74",
    "bidYield": "7,42",
    "rawName": "2027/A",
    "bidPrice": "86,6641",
    "coupon_val": 3,
    "maturityInDays": "1290 nap",
    "securityType": "KTV",
    "maturityDate": "2027.10.27",
    "name": "2027/A",
    "bidEhmYield": "7,42",
    "askYield": "6,74",
    "currency": "HUF",
    "maturityInDays_val": 1290,
    "issueDate": "2016.01.13",
    "longName": "A271027A16"
}