{
    "askPrice": "90,9770",
    "green": 0,
    "coupon": "3,00 %",
    "accruedInterest": "1,0574",
    "settleDate": "2024.03.04",
    "askEhmYield": "5,81",
    "bidYield": "6,49",
    "rawName": "2027/A",
    "bidPrice": "88,9569",
    "coupon_val": 3,
    "maturityInDays": "1332 nap",
    "securityType": "KTV",
    "maturityDate": "2027.10.27",
    "name": "2027/A",
    "bidEhmYield": "6,49",
    "askYield": "5,81",
    "currency": "HUF",
    "maturityInDays_val": 1332,
    "issueDate": "2016.01.13",
    "longName": "A271027A16"
}