{
    "askPrice": "91,7935",
    "green": 0,
    "coupon": "3,00 %",
    "accruedInterest": "1,0082",
    "settleDate": "2024.02.27",
    "askEhmYield": "5,53",
    "bidYield": "6,19",
    "rawName": "2027/A",
    "bidPrice": "89,8005",
    "coupon_val": 3,
    "maturityInDays": "1338 nap",
    "securityType": "KTV",
    "maturityDate": "2027.10.27",
    "name": "2027/A",
    "bidEhmYield": "6,19",
    "askYield": "5,53",
    "currency": "HUF",
    "maturityInDays_val": 1338,
    "issueDate": "2016.01.13",
    "longName": "A271027A16"
}