{
    "askPrice": "91,1767",
    "green": 0,
    "coupon": "3,00 %",
    "accruedInterest": "0,5984",
    "settleDate": "2024.01.08",
    "askEhmYield": "5,64",
    "bidYield": "6,32",
    "rawName": "2027/A",
    "bidPrice": "89,0707",
    "coupon_val": 3,
    "maturityInDays": "1388 nap",
    "securityType": "KTV",
    "maturityDate": "2027.10.27",
    "name": "2027/A",
    "bidEhmYield": "6,32",
    "askYield": "5,64",
    "currency": "HUF",
    "maturityInDays_val": 1388,
    "issueDate": "2016.01.13",
    "longName": "A271027A16"
}