{
    "askPrice": "89,9532",
    "green": 0,
    "coupon": "3,00 %",
    "accruedInterest": "1,2295",
    "settleDate": "2024.03.25",
    "askEhmYield": "6,20",
    "bidYield": "6,88",
    "rawName": "2027/A",
    "bidPrice": "87,9926",
    "coupon_val": 3,
    "maturityInDays": "1311 nap",
    "securityType": "KTV",
    "maturityDate": "2027.10.27",
    "name": "2027/A",
    "bidEhmYield": "6,88",
    "askYield": "6,20",
    "currency": "HUF",
    "maturityInDays_val": 1311,
    "issueDate": "2016.01.13",
    "longName": "A271027A16"
}