{
    "askPrice": "91,7512",
    "green": 0,
    "coupon": "3,00 %",
    "accruedInterest": "0,8033",
    "settleDate": "2024.02.02",
    "askEhmYield": "5,50",
    "bidYield": "6,18",
    "rawName": "2027/A",
    "bidPrice": "89,6639",
    "coupon_val": 3,
    "maturityInDays": "1363 nap",
    "securityType": "KTV",
    "maturityDate": "2027.10.27",
    "name": "2027/A",
    "bidEhmYield": "6,18",
    "askYield": "5,50",
    "currency": "HUF",
    "maturityInDays_val": 1363,
    "issueDate": "2016.01.13",
    "longName": "A271027A16"
}