{
    "askPrice": "93,2807",
    "green": 0,
    "coupon": "3,00 %",
    "accruedInterest": "0,6557",
    "settleDate": "2024.01.15",
    "askEhmYield": "4,99",
    "bidYield": "5,67",
    "rawName": "2027/A",
    "bidPrice": "91,1218",
    "coupon_val": 3,
    "maturityInDays": "1381 nap",
    "securityType": "KTV",
    "maturityDate": "2027.10.27",
    "name": "2027/A",
    "bidEhmYield": "5,67",
    "askYield": "4,99",
    "currency": "HUF",
    "maturityInDays_val": 1381,
    "issueDate": "2016.01.13",
    "longName": "A271027A16"
}