{
    "askPrice": "93,0278",
    "green": 0,
    "coupon": "3,00 %",
    "accruedInterest": "0,6639",
    "settleDate": "2024.01.16",
    "askEhmYield": "5,07",
    "bidYield": "5,75",
    "rawName": "2027/A",
    "bidPrice": "90,8779",
    "coupon_val": 3,
    "maturityInDays": "1380 nap",
    "securityType": "KTV",
    "maturityDate": "2027.10.27",
    "name": "2027/A",
    "bidEhmYield": "5,75",
    "askYield": "5,07",
    "currency": "HUF",
    "maturityInDays_val": 1380,
    "issueDate": "2016.01.13",
    "longName": "A271027A16"
}