{
    "askPrice": "89,3603",
    "green": 0,
    "coupon": "3,00 %",
    "accruedInterest": "1,6311",
    "settleDate": "2024.05.13",
    "askEhmYield": "6,53",
    "bidYield": "7,20",
    "rawName": "2027/A",
    "bidPrice": "87,5135",
    "coupon_val": 3,
    "maturityInDays": "1262 nap",
    "securityType": "KTV",
    "maturityDate": "2027.10.27",
    "name": "2027/A",
    "bidEhmYield": "7,20",
    "askYield": "6,53",
    "currency": "HUF",
    "maturityInDays_val": 1262,
    "issueDate": "2016.01.13",
    "longName": "A271027A16"
}