{
    "askPrice": "91,1691",
    "green": 0,
    "coupon": "3,00 %",
    "accruedInterest": "0,9016",
    "settleDate": "2024.02.14",
    "askEhmYield": "5,71",
    "bidYield": "6,37",
    "rawName": "2027/A",
    "bidPrice": "89,1756",
    "coupon_val": 3,
    "maturityInDays": "1351 nap",
    "securityType": "KTV",
    "maturityDate": "2027.10.27",
    "name": "2027/A",
    "bidEhmYield": "6,37",
    "askYield": "5,71",
    "currency": "HUF",
    "maturityInDays_val": 1351,
    "issueDate": "2016.01.13",
    "longName": "A271027A16"
}