{
    "askPrice": "89,2551",
    "green": 0,
    "coupon": "3,00 %",
    "accruedInterest": "1,2951",
    "settleDate": "2024.04.02",
    "askEhmYield": "6,46",
    "bidYield": "7,14",
    "rawName": "2027/A",
    "bidPrice": "87,3256",
    "coupon_val": 3,
    "maturityInDays": "1303 nap",
    "securityType": "KTV",
    "maturityDate": "2027.10.27",
    "name": "2027/A",
    "bidEhmYield": "7,14",
    "askYield": "6,46",
    "currency": "HUF",
    "maturityInDays_val": 1303,
    "issueDate": "2016.01.13",
    "longName": "A271027A16"
}