{
    "askPrice": "",
    "green": 0,
    "coupon": "3,50 %",
    "accruedInterest": "0,4877",
    "settleDate": "2023.11.29",
    "askEhmYield": "",
    "bidYield": "5,07",
    "rawName": "N2028/41",
    "bidPrice": "99,5000",
    "coupon_val": 3.5,
    "maturityInDays": "1776 nap",
    "securityType": "MÁP Plusz",
    "maturityDate": "2028.10.09",
    "name": "N2028/41",
    "bidEhmYield": "",
    "askYield": "",
    "currency": "HUF",
    "maturityInDays_val": 1776,
    "issueDate": "2023.10.09",
    "longName": "N281009"
}