{
    "askPrice": "",
    "green": 0,
    "coupon": "3,50 %",
    "accruedInterest": "0,3825",
    "settleDate": "2024.05.14",
    "askEhmYield": "",
    "bidYield": "5,23",
    "rawName": "N2028/41",
    "bidPrice": "99,5000",
    "coupon_val": 3.5,
    "maturityInDays": "1609 nap",
    "securityType": "MÁP Plusz",
    "maturityDate": "2028.10.09",
    "name": "N2028/41",
    "bidEhmYield": "",
    "askYield": "",
    "currency": "HUF",
    "maturityInDays_val": 1609,
    "issueDate": "2023.10.09",
    "longName": "N281009"
}