{
    "askPrice": "",
    "green": 0,
    "coupon": "3,50 %",
    "accruedInterest": "0,0328",
    "settleDate": "2024.04.12",
    "askEhmYield": "",
    "bidYield": "5,08",
    "rawName": "N2028/41",
    "bidPrice": "100,0000",
    "coupon_val": 3.5,
    "maturityInDays": "1641 nap",
    "securityType": "MÁP Plusz",
    "maturityDate": "2028.10.09",
    "name": "N2028/41",
    "bidEhmYield": "",
    "askYield": "",
    "currency": "HUF",
    "maturityInDays_val": 1641,
    "issueDate": "2023.10.09",
    "longName": "N281009"
}