{
    "askPrice": "",
    "green": 0,
    "coupon": "3,50 %",
    "accruedInterest": "1,4344",
    "settleDate": "2024.03.07",
    "askEhmYield": "",
    "bidYield": "5,16",
    "rawName": "N2028/41",
    "bidPrice": "99,5000",
    "coupon_val": 3.5,
    "maturityInDays": "1677 nap",
    "securityType": "MÁP Plusz",
    "maturityDate": "2028.10.09",
    "name": "N2028/41",
    "bidEhmYield": "",
    "askYield": "",
    "currency": "HUF",
    "maturityInDays_val": 1677,
    "issueDate": "2023.10.09",
    "longName": "N281009"
}