{
    "askPrice": "",
    "green": 0,
    "coupon": "3,50 %",
    "accruedInterest": "2,19",
    "settleDate": "2022.07.01",
    "askEhmYield": "",
    "bidYield": "",
    "rawName": "N2026/01",
    "bidPrice": "99,50",
    "coupon_val": 3.5,
    "maturityInDays": "1283 nap",
    "securityType": "MÁP Plusz",
    "maturityDate": "2026.01.04",
    "name": "N2026/01",
    "bidEhmYield": "",
    "askYield": "",
    "currency": "HUF",
    "maturityInDays_val": 1283,
    "longName": "N260104"
}