{
    "askPrice": "",
    "green": 0,
    "coupon": "3,50 %",
    "accruedInterest": "4,4137",
    "settleDate": "2022.12.28",
    "askEhmYield": "",
    "bidYield": "5,66",
    "rawName": "N2026/01",
    "bidPrice": "99,5000",
    "coupon_val": 3.5,
    "maturityInDays": "1103 nap",
    "securityType": "MÁP Plusz",
    "maturityDate": "2026.01.04",
    "name": "N2026/01",
    "bidEhmYield": "",
    "askYield": "",
    "currency": "HUF",
    "maturityInDays_val": 1103,
    "issueDate": "2021.01.04",
    "longName": "N260104"
}