{
    "askPrice": "",
    "green": 0,
    "coupon": "3,50 %",
    "accruedInterest": "4,0411",
    "settleDate": "2023.10.26",
    "askEhmYield": "",
    "bidYield": "5,91",
    "rawName": "N2026/01",
    "bidPrice": "99,5000",
    "coupon_val": 3.5,
    "maturityInDays": "801 nap",
    "securityType": "MÁP Plusz",
    "maturityDate": "2026.01.04",
    "name": "N2026/01",
    "bidEhmYield": "",
    "askYield": "",
    "currency": "HUF",
    "maturityInDays_val": 801,
    "issueDate": "2021.01.04",
    "longName": "N260104"
}