{
    "askPrice": "",
    "green": 0,
    "coupon": "3,50 %",
    "accruedInterest": "3,4658",
    "settleDate": "2023.09.14",
    "askEhmYield": "",
    "bidYield": "5,86",
    "rawName": "N2026/01",
    "bidPrice": "99,5000",
    "coupon_val": 3.5,
    "maturityInDays": "843 nap",
    "securityType": "MÁP Plusz",
    "maturityDate": "2026.01.04",
    "name": "N2026/01",
    "bidEhmYield": "",
    "askYield": "",
    "currency": "HUF",
    "maturityInDays_val": 843,
    "issueDate": "2021.01.04",
    "longName": "N260104"
}