{
    "askPrice": "",
    "green": 0,
    "coupon": "3,50 %",
    "accruedInterest": "0,0274",
    "settleDate": "2023.01.06",
    "askEhmYield": "",
    "bidYield": "5,48",
    "rawName": "N2026/01",
    "bidPrice": "100,0000",
    "coupon_val": 3.5,
    "maturityInDays": "1094 nap",
    "securityType": "MÁP Plusz",
    "maturityDate": "2026.01.04",
    "name": "N2026/01",
    "bidEhmYield": "",
    "askYield": "",
    "currency": "HUF",
    "maturityInDays_val": 1094,
    "issueDate": "2021.01.04",
    "longName": "N260104"
}