{
    "askPrice": "",
    "green": 0,
    "coupon": "3,50 %",
    "accruedInterest": "0,0601",
    "settleDate": "2024.01.08",
    "askEhmYield": "",
    "bidYield": "5,74",
    "rawName": "N2026/01",
    "bidPrice": "100,0000",
    "coupon_val": 3.5,
    "maturityInDays": "727 nap",
    "securityType": "MÁP Plusz",
    "maturityDate": "2026.01.04",
    "name": "N2026/01",
    "bidEhmYield": "",
    "askYield": "",
    "currency": "HUF",
    "maturityInDays_val": 727,
    "issueDate": "2021.01.04",
    "longName": "N260104"
}