{
    "askPrice": "",
    "green": 0,
    "coupon": "3,50 %",
    "accruedInterest": "0,5861",
    "settleDate": "2024.02.12",
    "askEhmYield": "",
    "bidYield": "6,04",
    "rawName": "N2026/01",
    "bidPrice": "99,5000",
    "coupon_val": 3.5,
    "maturityInDays": "692 nap",
    "securityType": "MÁP Plusz",
    "maturityDate": "2026.01.04",
    "name": "N2026/01",
    "bidEhmYield": "",
    "askYield": "",
    "currency": "HUF",
    "maturityInDays_val": 692,
    "issueDate": "2021.01.04",
    "longName": "N260104"
}