{
    "askPrice": "92,7211",
    "green": 0,
    "coupon": 0,
    "accruedInterest": 0,
    "settleDate": "2023.07.10",
    "askEhmYield": "9,71",
    "bidYield": "10,33",
    "rawName": "D240430",
    "bidPrice": "92,1958",
    "maturityInDays": "295 nap",
    "securityType": "DKJ",
    "maturityDate": "2024.04.30",
    "name": "D240430",
    "bidEhmYield": "10,47",
    "askYield": "9,58",
    "currency": "HUF",
    "maturityInDays_val": 295,
    "issueDate": "2023.05.03",
    "longName": "D240430"
}