{
    "askPrice": "96,2360",
    "green": 0,
    "coupon": 0,
    "accruedInterest": 0,
    "settleDate": "2023.10.24",
    "askEhmYield": "7,55",
    "bidYield": "8,19",
    "rawName": "D240430",
    "bidPrice": "95,8775",
    "maturityInDays": "189 nap",
    "securityType": "DKJ",
    "maturityDate": "2024.04.30",
    "name": "D240430",
    "bidEhmYield": "8,30",
    "askYield": "7,45",
    "currency": "HUF",
    "maturityInDays_val": 189,
    "issueDate": "2023.05.03",
    "longName": "D240430"
}