{
    "askPrice": "90,7258",
    "green": 0,
    "coupon": 0,
    "accruedInterest": 0,
    "settleDate": "2023.06.15",
    "askEhmYield": "11,66",
    "bidYield": "12,29",
    "rawName": "D240430",
    "bidPrice": "90,1515",
    "maturityInDays": "320 nap",
    "securityType": "DKJ",
    "maturityDate": "2024.04.30",
    "name": "D240430",
    "bidEhmYield": "12,46",
    "askYield": "11,50",
    "currency": "HUF",
    "maturityInDays_val": 320,
    "issueDate": "2023.05.03",
    "longName": "D240430"
}