{
    "askPrice": "94,0824",
    "green": 0,
    "coupon": 0,
    "accruedInterest": 0,
    "settleDate": "2023.08.21",
    "askEhmYield": "9,07",
    "bidYield": "9,74",
    "rawName": "D240430",
    "bidPrice": "93,5935",
    "maturityInDays": "253 nap",
    "securityType": "DKJ",
    "maturityDate": "2024.04.30",
    "name": "D240430",
    "bidEhmYield": "9,88",
    "askYield": "8,95",
    "currency": "HUF",
    "maturityInDays_val": 253,
    "issueDate": "2023.05.03",
    "longName": "D240430"
}