{
    "askPrice": "87,7475",
    "green": 0,
    "coupon": 0,
    "accruedInterest": 0,
    "settleDate": "2023.05.12",
    "askEhmYield": "14,40",
    "bidYield": "14,92",
    "rawName": "D240430",
    "bidPrice": "87,2058",
    "maturityInDays": "354 nap",
    "securityType": "DKJ",
    "maturityDate": "2024.04.30",
    "name": "D240430",
    "bidEhmYield": "15,13",
    "askYield": "14,20",
    "currency": "HUF",
    "maturityInDays_val": 354,
    "issueDate": "2023.05.03",
    "longName": "D240430"
}