{
    "askPrice": "90,9390",
    "green": 0,
    "coupon": 0,
    "accruedInterest": 0,
    "settleDate": "2023.06.22",
    "askEhmYield": "11,62",
    "bidYield": "12,25",
    "rawName": "D240430",
    "bidPrice": "90,3745",
    "maturityInDays": "313 nap",
    "securityType": "DKJ",
    "maturityDate": "2024.04.30",
    "name": "D240430",
    "bidEhmYield": "12,42",
    "askYield": "11,46",
    "currency": "HUF",
    "maturityInDays_val": 313,
    "issueDate": "2023.05.03",
    "longName": "D240430"
}