{
    "askPrice": "90,8166",
    "green": 0,
    "coupon": 0,
    "accruedInterest": 0,
    "settleDate": "2023.06.19",
    "askEhmYield": "11,68",
    "bidYield": "12,25",
    "rawName": "D240430",
    "bidPrice": "90,2912",
    "maturityInDays": "316 nap",
    "securityType": "DKJ",
    "maturityDate": "2024.04.30",
    "name": "D240430",
    "bidEhmYield": "12,42",
    "askYield": "11,52",
    "currency": "HUF",
    "maturityInDays_val": 316,
    "issueDate": "2023.05.03",
    "longName": "D240430"
}