{
    "askPrice": "94,1766",
    "green": 0,
    "coupon": 0,
    "accruedInterest": 0,
    "settleDate": "2023.08.25",
    "askEhmYield": "9,06",
    "bidYield": "9,70",
    "rawName": "D240430",
    "bidPrice": "93,7127",
    "maturityInDays": "249 nap",
    "securityType": "DKJ",
    "maturityDate": "2024.04.30",
    "name": "D240430",
    "bidEhmYield": "9,83",
    "askYield": "8,94",
    "currency": "HUF",
    "maturityInDays_val": 249,
    "issueDate": "2023.05.03",
    "longName": "D240430"
}