{
    "askPrice": "92,6612",
    "green": 0,
    "coupon": 0,
    "accruedInterest": 0,
    "settleDate": "2023.07.17",
    "askEhmYield": "10,04",
    "bidYield": "10,68",
    "rawName": "D240430",
    "bidPrice": "92,1285",
    "maturityInDays": "288 nap",
    "securityType": "DKJ",
    "maturityDate": "2024.04.30",
    "name": "D240430",
    "bidEhmYield": "10,83",
    "askYield": "9,90",
    "currency": "HUF",
    "maturityInDays_val": 288,
    "issueDate": "2023.05.03",
    "longName": "D240430"
}