{
    "askPrice": "93,3209",
    "green": 0,
    "coupon": 0,
    "accruedInterest": 0,
    "settleDate": "2023.08.07",
    "askEhmYield": "9,78",
    "bidYield": "10,35",
    "rawName": "D240430",
    "bidPrice": "92,8710",
    "maturityInDays": "267 nap",
    "securityType": "DKJ",
    "maturityDate": "2024.04.30",
    "name": "D240430",
    "bidEhmYield": "10,49",
    "askYield": "9,65",
    "currency": "HUF",
    "maturityInDays_val": 267,
    "issueDate": "2023.05.03",
    "longName": "D240430"
}