{
    "askPrice": "98,1261",
    "green": 0,
    "coupon": 0,
    "accruedInterest": 0,
    "settleDate": "2023.12.27",
    "askEhmYield": "5,58",
    "bidYield": "6,20",
    "rawName": "D240430",
    "bidPrice": "97,8926",
    "maturityInDays": "125 nap",
    "securityType": "DKJ",
    "maturityDate": "2024.04.30",
    "name": "D240430",
    "bidEhmYield": "6,29",
    "askYield": "5,50",
    "currency": "HUF",
    "maturityInDays_val": 125,
    "issueDate": "2023.05.03",
    "longName": "D240430"
}