{
    "askPrice": "96,4677",
    "green": 0,
    "coupon": 0,
    "accruedInterest": 0,
    "settleDate": "2023.11.13",
    "askEhmYield": "7,91",
    "bidYield": "8,47",
    "rawName": "D240430",
    "bidPrice": "96,1759",
    "maturityInDays": "169 nap",
    "securityType": "DKJ",
    "maturityDate": "2024.04.30",
    "name": "D240430",
    "bidEhmYield": "8,59",
    "askYield": "7,80",
    "currency": "HUF",
    "maturityInDays_val": 169,
    "issueDate": "2023.05.03",
    "longName": "D240430"
}