{
    "askPrice": "96,9305",
    "green": 0,
    "coupon": 0,
    "accruedInterest": 0,
    "settleDate": "2023.11.30",
    "askEhmYield": "7,60",
    "bidYield": "8,14",
    "rawName": "D240430",
    "bidPrice": "96,6773",
    "maturityInDays": "152 nap",
    "securityType": "DKJ",
    "maturityDate": "2024.04.30",
    "name": "D240430",
    "bidEhmYield": "8,25",
    "askYield": "7,50",
    "currency": "HUF",
    "maturityInDays_val": 152,
    "issueDate": "2023.05.03",
    "longName": "D240430"
}