{
    "askPrice": "94,7923",
    "green": 0,
    "coupon": 0,
    "accruedInterest": 0,
    "settleDate": "2023.09.18",
    "askEhmYield": "8,91",
    "bidYield": "9,54",
    "rawName": "D240430",
    "bidPrice": "94,3730",
    "maturityInDays": "225 nap",
    "securityType": "DKJ",
    "maturityDate": "2024.04.30",
    "name": "D240430",
    "bidEhmYield": "9,67",
    "askYield": "8,79",
    "currency": "HUF",
    "maturityInDays_val": 225,
    "issueDate": "2023.05.03",
    "longName": "D240430"
}