{
    "askPrice": "97,6549",
    "green": 0,
    "coupon": 0,
    "accruedInterest": 0,
    "settleDate": "2023.12.19",
    "askEhmYield": "6,59",
    "bidYield": "7,30",
    "rawName": "D240430",
    "bidPrice": "97,3739",
    "maturityInDays": "133 nap",
    "securityType": "DKJ",
    "maturityDate": "2024.04.30",
    "name": "D240430",
    "bidEhmYield": "7,40",
    "askYield": "6,50",
    "currency": "HUF",
    "maturityInDays_val": 133,
    "issueDate": "2023.05.03",
    "longName": "D240430"
}