{
    "askPrice": "97,0132",
    "green": 0,
    "coupon": 0,
    "accruedInterest": 0,
    "settleDate": "2023.12.01",
    "askEhmYield": "7,44",
    "bidYield": "8,14",
    "rawName": "D240430",
    "bidPrice": "96,6984",
    "maturityInDays": "151 nap",
    "securityType": "DKJ",
    "maturityDate": "2024.04.30",
    "name": "D240430",
    "bidEhmYield": "8,25",
    "askYield": "7,34",
    "currency": "HUF",
    "maturityInDays_val": 151,
    "issueDate": "2023.05.03",
    "longName": "D240430"
}