{
    "askPrice": "89,2525",
    "green": 0,
    "coupon": 0,
    "accruedInterest": 0,
    "settleDate": "2023.05.26",
    "askEhmYield": "12,93",
    "bidYield": "13,50",
    "rawName": "D240430",
    "bidPrice": "88,6918",
    "maturityInDays": "340 nap",
    "securityType": "DKJ",
    "maturityDate": "2024.04.30",
    "name": "D240430",
    "bidEhmYield": "13,69",
    "askYield": "12,75",
    "currency": "HUF",
    "maturityInDays_val": 340,
    "issueDate": "2023.05.03",
    "longName": "D240430"
}