{
    "askPrice": "95,6062",
    "green": 0,
    "coupon": 0,
    "accruedInterest": 0,
    "settleDate": "2023.10.10",
    "askEhmYield": "8,26",
    "bidYield": "8,86",
    "rawName": "D240430",
    "bidPrice": "95,2417",
    "maturityInDays": "203 nap",
    "securityType": "DKJ",
    "maturityDate": "2024.04.30",
    "name": "D240430",
    "bidEhmYield": "8,98",
    "askYield": "8,15",
    "currency": "HUF",
    "maturityInDays_val": 203,
    "issueDate": "2023.05.03",
    "longName": "D240430"
}