{
    "askPrice": "92,7321",
    "green": 0,
    "coupon": 0,
    "accruedInterest": 0,
    "settleDate": "2023.07.20",
    "askEhmYield": "10,04",
    "bidYield": "10,65",
    "rawName": "D240430",
    "bidPrice": "92,2243",
    "maturityInDays": "285 nap",
    "securityType": "DKJ",
    "maturityDate": "2024.04.30",
    "name": "D240430",
    "bidEhmYield": "10,80",
    "askYield": "9,90",
    "currency": "HUF",
    "maturityInDays_val": 285,
    "issueDate": "2023.05.03",
    "longName": "D240430"
}