{
    "askPrice": "",
    "green": 0,
    "coupon": 0,
    "accruedInterest": 0,
    "settleDate": "2024.04.08",
    "askEhmYield": "",
    "bidYield": "7,44",
    "rawName": "D240430",
    "bidPrice": "99,5474",
    "maturityInDays": "22 nap",
    "securityType": "DKJ",
    "maturityDate": "2024.04.30",
    "name": "D240430",
    "bidEhmYield": "7,54",
    "askYield": "",
    "currency": "HUF",
    "maturityInDays_val": 22,
    "issueDate": "2023.05.03",
    "longName": "D240430"
}