{
    "askPrice": "98,9815",
    "green": 0,
    "coupon": 0,
    "accruedInterest": 0,
    "settleDate": "2024.02.27",
    "askEhmYield": "5,96",
    "bidYield": "7,24",
    "rawName": "D240430",
    "bidPrice": "98,7489",
    "maturityInDays": "63 nap",
    "securityType": "DKJ",
    "maturityDate": "2024.04.30",
    "name": "D240430",
    "bidEhmYield": "7,34",
    "askYield": "5,88",
    "currency": "HUF",
    "maturityInDays_val": 63,
    "issueDate": "2023.05.03",
    "longName": "D240430"
}