{
    "askPrice": "99,1618",
    "green": 0,
    "coupon": 0,
    "accruedInterest": 0,
    "settleDate": "2024.03.12",
    "askEhmYield": "6,30",
    "bidYield": "7,52",
    "rawName": "D240430",
    "bidPrice": "98,9868",
    "maturityInDays": "49 nap",
    "securityType": "DKJ",
    "maturityDate": "2024.04.30",
    "name": "D240430",
    "bidEhmYield": "7,62",
    "askYield": "6,21",
    "currency": "HUF",
    "maturityInDays_val": 49,
    "issueDate": "2023.05.03",
    "longName": "D240430"
}