{
    "askPrice": "98,1151",
    "green": 0,
    "coupon": 0,
    "accruedInterest": 0,
    "settleDate": "2024.01.17",
    "askEhmYield": "6,74",
    "bidYield": "7,43",
    "rawName": "D240430",
    "bidPrice": "97,8987",
    "maturityInDays": "104 nap",
    "securityType": "DKJ",
    "maturityDate": "2024.04.30",
    "name": "D240430",
    "bidEhmYield": "7,53",
    "askYield": "6,65",
    "currency": "HUF",
    "maturityInDays_val": 104,
    "issueDate": "2023.05.03",
    "longName": "D240430"
}