{
    "askPrice": "98,8148",
    "green": 0,
    "coupon": 0,
    "accruedInterest": 0,
    "settleDate": "2024.02.22",
    "askEhmYield": "6,44",
    "bidYield": "7,68",
    "rawName": "D240430",
    "bidPrice": "98,5701",
    "maturityInDays": "68 nap",
    "securityType": "DKJ",
    "maturityDate": "2024.04.30",
    "name": "D240430",
    "bidEhmYield": "7,79",
    "askYield": "6,35",
    "currency": "HUF",
    "maturityInDays_val": 68,
    "issueDate": "2023.05.03",
    "longName": "D240430"
}