{
    "askPrice": "98,7055",
    "green": 0,
    "coupon": 0,
    "accruedInterest": 0,
    "settleDate": "2024.02.16",
    "askEhmYield": "6,47",
    "bidYield": "7,75",
    "rawName": "D240430",
    "bidPrice": "98,4319",
    "maturityInDays": "74 nap",
    "securityType": "DKJ",
    "maturityDate": "2024.04.30",
    "name": "D240430",
    "bidEhmYield": "7,86",
    "askYield": "6,38",
    "currency": "HUF",
    "maturityInDays_val": 74,
    "issueDate": "2023.05.03",
    "longName": "D240430"
}