{
    "askPrice": "99,1906",
    "green": 0,
    "coupon": 0,
    "accruedInterest": 0,
    "settleDate": "2024.03.14",
    "askEhmYield": "6,34",
    "bidYield": "7,55",
    "rawName": "D240430",
    "bidPrice": "99,0239",
    "maturityInDays": "47 nap",
    "securityType": "DKJ",
    "maturityDate": "2024.04.30",
    "name": "D240430",
    "bidEhmYield": "7,66",
    "askYield": "6,25",
    "currency": "HUF",
    "maturityInDays_val": 47,
    "issueDate": "2023.05.03",
    "longName": "D240430"
}