{
    "askPrice": "",
    "green": 0,
    "coupon": "3,50 %",
    "accruedInterest": "0,9457",
    "settleDate": "2023.11.08",
    "askEhmYield": "",
    "bidYield": "5,27",
    "rawName": "N2028/07",
    "bidPrice": "99,5000",
    "coupon_val": 3.5,
    "maturityInDays": "1558 nap",
    "securityType": "MÁP Plusz",
    "maturityDate": "2028.02.13",
    "name": "N2028/07",
    "bidEhmYield": "",
    "askYield": "",
    "currency": "HUF",
    "maturityInDays_val": 1558,
    "issueDate": "2023.02.13",
    "longName": "N280213"
}