{
    "askPrice": "",
    "green": 0,
    "coupon": "3,50 %",
    "accruedInterest": "1,4599",
    "settleDate": "2023.07.14",
    "askEhmYield": "",
    "bidYield": "5,17",
    "rawName": "N2028/07",
    "bidPrice": "99,5000",
    "coupon_val": 3.5,
    "maturityInDays": "1675 nap",
    "securityType": "MÁP Plusz",
    "maturityDate": "2028.02.13",
    "name": "N2028/07",
    "bidEhmYield": "",
    "askYield": "",
    "currency": "HUF",
    "maturityInDays_val": 1675,
    "issueDate": "2023.02.13",
    "longName": "N280213"
}