{
    "askPrice": "",
    "green": 0,
    "coupon": "3,50 %",
    "accruedInterest": "0,9713",
    "settleDate": "2024.05.02",
    "askEhmYield": "",
    "bidYield": "5,41",
    "rawName": "N2028/07",
    "bidPrice": "99,5000",
    "coupon_val": 3.5,
    "maturityInDays": "1382 nap",
    "securityType": "MÁP Plusz",
    "maturityDate": "2028.02.13",
    "name": "N2028/07",
    "bidEhmYield": "",
    "askYield": "",
    "currency": "HUF",
    "maturityInDays_val": 1382,
    "issueDate": "2023.02.13",
    "longName": "N280213"
}