{
    "askPrice": "",
    "green": 0,
    "coupon": "9,00 %",
    "accruedInterest": "3,6493",
    "settleDate": "2023.09.20",
    "askEhmYield": "",
    "bidYield": "10,57",
    "rawName": "K2024/17",
    "bidPrice": "99,0000",
    "coupon_val": 9,
    "maturityInDays": "218 nap",
    "securityType": "1MÁP",
    "maturityDate": "2024.04.25",
    "name": "K2024/17",
    "bidEhmYield": "10,36",
    "askYield": "",
    "currency": "HUF",
    "maturityInDays_val": 218,
    "issueDate": "2023.04.25",
    "longName": "K240425"
}