{
    "askPrice": "",
    "green": 0,
    "coupon": "9,00 %",
    "accruedInterest": "1,3562",
    "settleDate": "2023.06.19",
    "askEhmYield": "",
    "bidYield": "10,18",
    "rawName": "K2024/17",
    "bidPrice": "99,0000",
    "coupon_val": 9,
    "maturityInDays": "311 nap",
    "securityType": "1MÁP",
    "maturityDate": "2024.04.25",
    "name": "K2024/17",
    "bidEhmYield": "10,11",
    "askYield": "",
    "currency": "HUF",
    "maturityInDays_val": 311,
    "issueDate": "2023.04.25",
    "longName": "K240425"
}