{
    "askPrice": "",
    "green": 0,
    "coupon": "9,00 %",
    "accruedInterest": "3,9945",
    "settleDate": "2023.10.04",
    "askEhmYield": "",
    "bidYield": "10,67",
    "rawName": "K2024/17",
    "bidPrice": "99,0000",
    "coupon_val": 9,
    "maturityInDays": "204 nap",
    "securityType": "1MÁP",
    "maturityDate": "2024.04.25",
    "name": "K2024/17",
    "bidEhmYield": "10,43",
    "askYield": "",
    "currency": "HUF",
    "maturityInDays_val": 204,
    "issueDate": "2023.04.25",
    "longName": "K240425"
}