{
    "askPrice": "",
    "green": 0,
    "coupon": "9,00 %",
    "accruedInterest": "2,2192",
    "settleDate": "2023.07.24",
    "askEhmYield": "",
    "bidYield": "10,29",
    "rawName": "K2024/17",
    "bidPrice": "99,0000",
    "coupon_val": 9,
    "maturityInDays": "276 nap",
    "securityType": "1MÁP",
    "maturityDate": "2024.04.25",
    "name": "K2024/17",
    "bidEhmYield": "10,17",
    "askYield": "",
    "currency": "HUF",
    "maturityInDays_val": 276,
    "issueDate": "2023.04.25",
    "longName": "K240425"
}