{
    "askPrice": "",
    "green": 0,
    "coupon": "9,00 %",
    "accruedInterest": "8,6055",
    "settleDate": "2024.04.09",
    "askEhmYield": "",
    "bidYield": "28,58",
    "rawName": "K2024/17",
    "bidPrice": "99,2000",
    "coupon_val": 9,
    "maturityInDays": "16 nap",
    "securityType": "1MÁP",
    "maturityDate": "2024.04.25",
    "name": "K2024/17",
    "bidEhmYield": "24,75",
    "askYield": "",
    "currency": "HUF",
    "maturityInDays_val": 16,
    "issueDate": "2023.04.25",
    "longName": "K240425"
}