{
    "askPrice": "94,2774",
    "green": 0,
    "coupon": 0,
    "accruedInterest": 0,
    "settleDate": "2023.12.29",
    "askEhmYield": "6,15",
    "bidYield": "6,89",
    "rawName": "D241223",
    "bidPrice": "93,5541",
    "maturityInDays": "360 nap",
    "securityType": "DKJ",
    "maturityDate": "2024.12.23",
    "name": "D241223",
    "bidEhmYield": "6,99",
    "askYield": "6,07",
    "currency": "HUF",
    "maturityInDays_val": 360,
    "issueDate": "2023.12.27",
    "longName": "D241223"
}