{
    "askPrice": "96,1152",
    "green": 0,
    "coupon": 0,
    "accruedInterest": 0,
    "settleDate": "2024.05.10",
    "askEhmYield": "6,50",
    "bidYield": "7,20",
    "rawName": "D241223",
    "bidPrice": "95,6572",
    "maturityInDays": "227 nap",
    "securityType": "DKJ",
    "maturityDate": "2024.12.23",
    "name": "D241223",
    "bidEhmYield": "7,30",
    "askYield": "6,41",
    "currency": "HUF",
    "maturityInDays_val": 227,
    "issueDate": "2023.12.27",
    "longName": "D241223"
}