{
    "askPrice": "94,3792",
    "green": 0,
    "coupon": 0,
    "accruedInterest": 0,
    "settleDate": "2024.01.23",
    "askEhmYield": "6,49",
    "bidYield": "7,16",
    "rawName": "D241223",
    "bidPrice": "93,7534",
    "maturityInDays": "335 nap",
    "securityType": "DKJ",
    "maturityDate": "2024.12.23",
    "name": "D241223",
    "bidEhmYield": "7,26",
    "askYield": "6,40",
    "currency": "HUF",
    "maturityInDays_val": 335,
    "issueDate": "2023.12.27",
    "longName": "D241223"
}