{
    "askPrice": "95,8696",
    "green": 0,
    "coupon": 0,
    "accruedInterest": 0,
    "settleDate": "2024.05.02",
    "askEhmYield": "6,69",
    "bidYield": "7,38",
    "rawName": "D241223",
    "bidPrice": "95,4039",
    "maturityInDays": "235 nap",
    "securityType": "DKJ",
    "maturityDate": "2024.12.23",
    "name": "D241223",
    "bidEhmYield": "7,48",
    "askYield": "6,60",
    "currency": "HUF",
    "maturityInDays_val": 235,
    "issueDate": "2023.12.27",
    "longName": "D241223"
}