{
    "askPrice": "95,5628",
    "green": 0,
    "coupon": 0,
    "accruedInterest": 0,
    "settleDate": "2024.04.05",
    "askEhmYield": "6,47",
    "bidYield": "7,13",
    "rawName": "D241223",
    "bidPrice": "95,0669",
    "maturityInDays": "262 nap",
    "securityType": "DKJ",
    "maturityDate": "2024.12.23",
    "name": "D241223",
    "bidEhmYield": "7,23",
    "askYield": "6,38",
    "currency": "HUF",
    "maturityInDays_val": 262,
    "issueDate": "2023.12.27",
    "longName": "D241223"
}