{
    "askPrice": "95,0277",
    "green": 0,
    "coupon": 0,
    "accruedInterest": 0,
    "settleDate": "2024.02.28",
    "askEhmYield": "6,39",
    "bidYield": "7,13",
    "rawName": "D241223",
    "bidPrice": "94,4092",
    "maturityInDays": "299 nap",
    "securityType": "DKJ",
    "maturityDate": "2024.12.23",
    "name": "D241223",
    "bidEhmYield": "7,23",
    "askYield": "6,30",
    "currency": "HUF",
    "maturityInDays_val": 299,
    "issueDate": "2023.12.27",
    "longName": "D241223"
}