{
    "askPrice": "94,8330",
    "green": 0,
    "coupon": 0,
    "accruedInterest": 0,
    "settleDate": "2024.02.21",
    "askEhmYield": "6,50",
    "bidYield": "7,12",
    "rawName": "D241223",
    "bidPrice": "94,2934",
    "maturityInDays": "306 nap",
    "securityType": "DKJ",
    "maturityDate": "2024.12.23",
    "name": "D241223",
    "bidEhmYield": "7,22",
    "askYield": "6,41",
    "currency": "HUF",
    "maturityInDays_val": 306,
    "issueDate": "2023.12.27",
    "longName": "D241223"
}