{
    "askPrice": "95,5277",
    "green": 0,
    "coupon": 0,
    "accruedInterest": 0,
    "settleDate": "2024.04.02",
    "askEhmYield": "6,45",
    "bidYield": "7,10",
    "rawName": "D241223",
    "bidPrice": "95,0332",
    "maturityInDays": "265 nap",
    "securityType": "DKJ",
    "maturityDate": "2024.12.23",
    "name": "D241223",
    "bidEhmYield": "7,20",
    "askYield": "6,36",
    "currency": "HUF",
    "maturityInDays_val": 265,
    "issueDate": "2023.12.27",
    "longName": "D241223"
}