{
    "askPrice": "93,8331",
    "green": 0,
    "coupon": 0,
    "accruedInterest": 0,
    "settleDate": "2024.01.08",
    "askEhmYield": "6,85",
    "bidYield": "7,55",
    "rawName": "D241223",
    "bidPrice": "93,1617",
    "maturityInDays": "350 nap",
    "securityType": "DKJ",
    "maturityDate": "2024.12.23",
    "name": "D241223",
    "bidEhmYield": "7,65",
    "askYield": "6,76",
    "currency": "HUF",
    "maturityInDays_val": 350,
    "issueDate": "2023.12.27",
    "longName": "D241223"
}