{
    "askPrice": "93,9082",
    "green": 0,
    "coupon": 0,
    "accruedInterest": 0,
    "settleDate": "2024.01.11",
    "askEhmYield": "6,82",
    "bidYield": "7,55",
    "rawName": "D241223",
    "bidPrice": "93,2163",
    "maturityInDays": "347 nap",
    "securityType": "DKJ",
    "maturityDate": "2024.12.23",
    "name": "D241223",
    "bidEhmYield": "7,65",
    "askYield": "6,73",
    "currency": "HUF",
    "maturityInDays_val": 347,
    "issueDate": "2023.12.27",
    "longName": "D241223"
}