{
    "askPrice": "95,7993",
    "green": 0,
    "coupon": 0,
    "accruedInterest": 0,
    "settleDate": "2024.04.26",
    "askEhmYield": "6,64",
    "bidYield": "7,40",
    "rawName": "D241223",
    "bidPrice": "95,2799",
    "maturityInDays": "241 nap",
    "securityType": "DKJ",
    "maturityDate": "2024.12.23",
    "name": "D241223",
    "bidEhmYield": "7,50",
    "askYield": "6,55",
    "currency": "HUF",
    "maturityInDays_val": 241,
    "issueDate": "2023.12.27",
    "longName": "D241223"
}