{
    "askPrice": "95,6574",
    "green": 0,
    "coupon": 0,
    "accruedInterest": 0,
    "settleDate": "2024.04.19",
    "askEhmYield": "6,68",
    "bidYield": "7,39",
    "rawName": "D241223",
    "bidPrice": "95,1557",
    "maturityInDays": "248 nap",
    "securityType": "DKJ",
    "maturityDate": "2024.12.23",
    "name": "D241223",
    "bidEhmYield": "7,49",
    "askYield": "6,59",
    "currency": "HUF",
    "maturityInDays_val": 248,
    "issueDate": "2023.12.27",
    "longName": "D241223"
}