{
    "askPrice": "96,1867",
    "green": 0,
    "coupon": 0,
    "accruedInterest": 0,
    "settleDate": "2024.05.14",
    "askEhmYield": "6,49",
    "bidYield": "7,25",
    "rawName": "D241223",
    "bidPrice": "95,7020",
    "maturityInDays": "223 nap",
    "securityType": "DKJ",
    "maturityDate": "2024.12.23",
    "name": "D241223",
    "bidEhmYield": "7,35",
    "askYield": "6,40",
    "currency": "HUF",
    "maturityInDays_val": 223,
    "issueDate": "2023.12.27",
    "longName": "D241223"
}