{
    "askPrice": "94,7370",
    "green": 0,
    "coupon": 0,
    "accruedInterest": 0,
    "settleDate": "2024.02.15",
    "askEhmYield": "6,50",
    "bidYield": "7,22",
    "rawName": "D241223",
    "bidPrice": "94,1112",
    "maturityInDays": "312 nap",
    "securityType": "DKJ",
    "maturityDate": "2024.12.23",
    "name": "D241223",
    "bidEhmYield": "7,32",
    "askYield": "6,41",
    "currency": "HUF",
    "maturityInDays_val": 312,
    "issueDate": "2023.12.27",
    "longName": "D241223"
}