{
    "askPrice": "95,0061",
    "green": 0,
    "coupon": 0,
    "accruedInterest": 0,
    "settleDate": "2024.02.29",
    "askEhmYield": "6,44",
    "bidYield": "7,13",
    "rawName": "D241223",
    "bidPrice": "94,4269",
    "maturityInDays": "298 nap",
    "securityType": "DKJ",
    "maturityDate": "2024.12.23",
    "name": "D241223",
    "bidEhmYield": "7,23",
    "askYield": "6,35",
    "currency": "HUF",
    "maturityInDays_val": 298,
    "issueDate": "2023.12.27",
    "longName": "D241223"
}