{
    "askPrice": "",
    "green": 0,
    "coupon": "6,50 %",
    "accruedInterest": "1,3712",
    "settleDate": "2024.04.17",
    "askEhmYield": "",
    "bidYield": "7,80",
    "rawName": "K2025/05",
    "bidPrice": "99,0000",
    "coupon_val": 6.5,
    "maturityInDays": "288 nap",
    "securityType": "1MÁP",
    "maturityDate": "2025.01.30",
    "name": "K2025/05",
    "bidEhmYield": "7,71",
    "askYield": "",
    "currency": "HUF",
    "maturityInDays_val": 288,
    "issueDate": "2024.01.30",
    "longName": "K250130"
}