{
    "askPrice": "",
    "green": 0,
    "coupon": "6,50 %",
    "accruedInterest": "0,8548",
    "settleDate": "2024.03.18",
    "askEhmYield": "",
    "bidYield": "7,68",
    "rawName": "K2025/05",
    "bidPrice": "99,0000",
    "coupon_val": 6.5,
    "maturityInDays": "318 nap",
    "securityType": "1MÁP",
    "maturityDate": "2025.01.30",
    "name": "K2025/05",
    "bidEhmYield": "7,64",
    "askYield": "",
    "currency": "HUF",
    "maturityInDays_val": 318,
    "issueDate": "2024.01.30",
    "longName": "K250130"
}