{
    "askPrice": "",
    "green": 0,
    "coupon": "6,50 %",
    "accruedInterest": "1,7630",
    "settleDate": "2024.05.09",
    "askEhmYield": "",
    "bidYield": "7,89",
    "rawName": "K2025/05",
    "bidPrice": "99,0000",
    "coupon_val": 6.5,
    "maturityInDays": "266 nap",
    "securityType": "1MÁP",
    "maturityDate": "2025.01.30",
    "name": "K2025/05",
    "bidEhmYield": "7,79",
    "askYield": "",
    "currency": "HUF",
    "maturityInDays_val": 266,
    "issueDate": "2024.01.30",
    "longName": "K250130"
}