{
    "askPrice": "100,00",
    "green": 0,
    "coupon": null,
    "accruedInterest": "6,28",
    "settleDate": "2022.11.11",
    "askEhmYield": "",
    "bidYield": "",
    "rawName": "2040/S_BABA",
    "bidPrice": "100,00",
    "maturityInDays": "6291 nap",
    "securityType": "BABA",
    "maturityDate": "2040.02.01",
    "name": "2040/S_BABA",
    "bidEhmYield": "",
    "askYield": "",
    "currency": "HUF",
    "maturityInDays_val": 6291,
    "issueDate": "2021-02-01",
    "longName": "A400201S21"
}