{
    "askPrice": "100,00",
    "green": 0,
    "coupon": null,
    "accruedInterest": "5,93",
    "settleDate": "2022.10.26",
    "askEhmYield": "",
    "bidYield": "",
    "rawName": "2040/S_BABA",
    "bidPrice": "100,00",
    "maturityInDays": "6307 nap",
    "securityType": "BABA",
    "maturityDate": "2040.02.01",
    "name": "2040/S_BABA",
    "bidEhmYield": "",
    "askYield": "",
    "currency": "HUF",
    "maturityInDays_val": 6307,
    "longName": "A400201S21"
}