{
    "askPrice": "100,0000",
    "green": 0,
    "coupon": null,
    "accruedInterest": "6,2808",
    "settleDate": "2023.06.12",
    "askEhmYield": "",
    "bidYield": "",
    "rawName": "2040/S_BABA",
    "bidPrice": "100,0000",
    "maturityInDays": "6078 nap",
    "securityType": "BABA",
    "maturityDate": "2040.02.01",
    "name": "2040/S_BABA",
    "bidEhmYield": "",
    "askYield": "",
    "currency": "HUF",
    "maturityInDays_val": 6078,
    "issueDate": "2021.02.01",
    "longName": "A400201S21"
}