{
    "askPrice": "100,0000",
    "green": 0,
    "coupon": null,
    "accruedInterest": "14,1918",
    "settleDate": "2023.11.24",
    "askEhmYield": "",
    "bidYield": "",
    "rawName": "2040/S_BABA",
    "bidPrice": "100,0000",
    "maturityInDays": "5913 nap",
    "securityType": "BABA",
    "maturityDate": "2040.02.01",
    "name": "2040/S_BABA",
    "bidEhmYield": "",
    "askYield": "",
    "currency": "HUF",
    "maturityInDays_val": 5913,
    "issueDate": "2021.02.01",
    "longName": "A400201S21"
}