{
    "askPrice": "",
    "green": 0,
    "coupon": "3,50 %",
    "accruedInterest": "0,99",
    "settleDate": "2022.11.14",
    "askEhmYield": "",
    "bidYield": "6,05",
    "rawName": "N2024/14",
    "bidPrice": "99,50",
    "coupon_val": 3.5,
    "maturityInDays": "665 nap",
    "securityType": "MÁP Plusz",
    "maturityDate": "2024.09.09",
    "name": "N2024/14",
    "bidEhmYield": "",
    "askYield": "",
    "currency": "HUF",
    "maturityInDays_val": 665,
    "issueDate": "2019-09-09",
    "longName": "N240909"
}