{
    "askPrice": "",
    "green": 0,
    "coupon": "3,50 %",
    "accruedInterest": "0,72",
    "settleDate": "2022.10.27",
    "askEhmYield": "",
    "bidYield": "6,04",
    "rawName": "N2024/14",
    "bidPrice": "99,50",
    "coupon_val": 3.5,
    "maturityInDays": "683 nap",
    "securityType": "MÁP Plusz",
    "maturityDate": "2024.09.09",
    "name": "N2024/14",
    "bidEhmYield": "",
    "askYield": "",
    "currency": "HUF",
    "maturityInDays_val": 683,
    "longName": "N240909"
}