{
    "askPrice": "",
    "green": 0,
    "coupon": "3,50 %",
    "accruedInterest": "0,54",
    "settleDate": "2022.10.15",
    "askEhmYield": "",
    "bidYield": "",
    "rawName": "N2024/14",
    "bidPrice": "99,50",
    "coupon_val": 3.5,
    "maturityInDays": "695 nap",
    "securityType": "MÁP Plusz",
    "maturityDate": "2024.09.09",
    "name": "N2024/14",
    "bidEhmYield": "",
    "askYield": "",
    "currency": "HUF",
    "maturityInDays_val": 695,
    "longName": "N240909"
}