{
    "askPrice": "",
    "green": 0,
    "coupon": "3,50 %",
    "accruedInterest": "3,0438",
    "settleDate": "2023.03.30",
    "askEhmYield": "",
    "bidYield": "6,18",
    "rawName": "N2024/14",
    "bidPrice": "99,5000",
    "coupon_val": 3.5,
    "maturityInDays": "529 nap",
    "securityType": "MÁP Plusz",
    "maturityDate": "2024.09.09",
    "name": "N2024/14",
    "bidEhmYield": "",
    "askYield": "",
    "currency": "HUF",
    "maturityInDays_val": 529,
    "issueDate": "2019.09.09",
    "longName": "N240909"
}