{
    "askPrice": "",
    "green": 0,
    "coupon": "3,50 %",
    "accruedInterest": "2,5902",
    "settleDate": "2024.02.14",
    "askEhmYield": "",
    "bidYield": "6,84",
    "rawName": "N2024/14",
    "bidPrice": "99,5000",
    "coupon_val": 3.5,
    "maturityInDays": "208 nap",
    "securityType": "MÁP Plusz",
    "maturityDate": "2024.09.09",
    "name": "N2024/14",
    "bidEhmYield": "",
    "askYield": "",
    "currency": "HUF",
    "maturityInDays_val": 208,
    "issueDate": "2019.09.09",
    "longName": "N240909"
}