{
    "askPrice": "",
    "green": 0,
    "coupon": "3,50 %",
    "accruedInterest": "3,7705",
    "settleDate": "2024.04.26",
    "askEhmYield": "",
    "bidYield": "7,27",
    "rawName": "N2024/14",
    "bidPrice": "99,5000",
    "coupon_val": 3.5,
    "maturityInDays": "136 nap",
    "securityType": "MÁP Plusz",
    "maturityDate": "2024.09.09",
    "name": "N2024/14",
    "bidEhmYield": "",
    "askYield": "",
    "currency": "HUF",
    "maturityInDays_val": 136,
    "issueDate": "2019.09.09",
    "longName": "N240909"
}