{
    "askPrice": "",
    "green": 0,
    "coupon": "3,50 %",
    "accruedInterest": "3,8197",
    "settleDate": "2024.04.29",
    "askEhmYield": "",
    "bidYield": "7,30",
    "rawName": "N2024/14",
    "bidPrice": "99,5000",
    "coupon_val": 3.5,
    "maturityInDays": "133 nap",
    "securityType": "MÁP Plusz",
    "maturityDate": "2024.09.09",
    "name": "N2024/14",
    "bidEhmYield": "",
    "askYield": "",
    "currency": "HUF",
    "maturityInDays_val": 133,
    "issueDate": "2019.09.09",
    "longName": "N240909"
}