{
    "askPrice": "100,00",
    "green": 0,
    "coupon": null,
    "accruedInterest": "5,77",
    "settleDate": "2022.10.19",
    "askEhmYield": "",
    "bidYield": "0,15",
    "rawName": "2038/S_BABA",
    "bidPrice": "100,00",
    "maturityInDays": "5584 nap",
    "securityType": "BABA",
    "maturityDate": "2038.02.01",
    "name": "2038/S_BABA",
    "bidEhmYield": "",
    "askYield": "0,15",
    "currency": "HUF",
    "maturityInDays_val": 5584,
    "longName": "A380201S19"
}