{
    "askPrice": "100,00",
    "green": 0,
    "coupon": null,
    "accruedInterest": "6,12",
    "settleDate": "2022.11.04",
    "askEhmYield": "",
    "bidYield": "",
    "rawName": "2038/S_BABA",
    "bidPrice": "100,00",
    "maturityInDays": "5568 nap",
    "securityType": "BABA",
    "maturityDate": "2038.02.01",
    "name": "2038/S_BABA",
    "bidEhmYield": "",
    "askYield": "",
    "currency": "HUF",
    "maturityInDays_val": 5568,
    "issueDate": "2019-02-01",
    "longName": "A380201S19"
}