{
    "askPrice": "100,0000",
    "green": 0,
    "coupon": null,
    "accruedInterest": "8,9658",
    "settleDate": "2023.08.07",
    "askEhmYield": "",
    "bidYield": "",
    "rawName": "2038/S_BABA",
    "bidPrice": "100,0000",
    "maturityInDays": "5292 nap",
    "securityType": "BABA",
    "maturityDate": "2038.02.01",
    "name": "2038/S_BABA",
    "bidEhmYield": "",
    "askYield": "",
    "currency": "HUF",
    "maturityInDays_val": 5292,
    "issueDate": "2019.02.01",
    "longName": "A380201S19"
}