{
    "askPrice": "",
    "green": 0,
    "coupon": null,
    "accruedInterest": "8,0556",
    "settleDate": "2023.01.30",
    "askEhmYield": "",
    "bidYield": "",
    "rawName": "2038/S_BABA",
    "bidPrice": "",
    "maturityInDays": "5481 nap",
    "securityType": "BABA",
    "maturityDate": "2038.02.01",
    "name": "2038/S_BABA",
    "bidEhmYield": "",
    "askYield": "",
    "currency": "HUF",
    "maturityInDays_val": 5481,
    "issueDate": "2019.02.01",
    "longName": "A380201S19"
}