{
    "askPrice": "",
    "green": 0,
    "coupon": "8,00 %",
    "accruedInterest": "0,4822",
    "settleDate": "2023.11.08",
    "askEhmYield": "",
    "bidYield": "9,11",
    "rawName": "K2024/42",
    "bidPrice": "99,0000",
    "coupon_val": 8,
    "maturityInDays": "344 nap",
    "securityType": "1MÁP",
    "maturityDate": "2024.10.17",
    "name": "K2024/42",
    "bidEhmYield": "9,08",
    "askYield": "",
    "currency": "HUF",
    "maturityInDays_val": 344,
    "issueDate": "2023.10.17",
    "longName": "K241017"
}