{
    "askPrice": "",
    "green": 0,
    "coupon": "8,00 %",
    "accruedInterest": "1,5781",
    "settleDate": "2023.12.28",
    "askEhmYield": "",
    "bidYield": "9,24",
    "rawName": "K2024/42",
    "bidPrice": "99,0000",
    "coupon_val": 8,
    "maturityInDays": "294 nap",
    "securityType": "1MÁP",
    "maturityDate": "2024.10.17",
    "name": "K2024/42",
    "bidEhmYield": "9,16",
    "askYield": "",
    "currency": "HUF",
    "maturityInDays_val": 294,
    "issueDate": "2023.10.17",
    "longName": "K241017"
}