{
    "askPrice": "",
    "green": 0,
    "coupon": "8,00 %",
    "accruedInterest": "1,2493",
    "settleDate": "2023.12.13",
    "askEhmYield": "",
    "bidYield": "9,20",
    "rawName": "K2024/42",
    "bidPrice": "99,0000",
    "coupon_val": 8,
    "maturityInDays": "309 nap",
    "securityType": "1MÁP",
    "maturityDate": "2024.10.17",
    "name": "K2024/42",
    "bidEhmYield": "9,13",
    "askYield": "",
    "currency": "HUF",
    "maturityInDays_val": 309,
    "issueDate": "2023.10.17",
    "longName": "K241017"
}