{
    "askPrice": "",
    "green": 0,
    "coupon": "8,00 %",
    "accruedInterest": "2,0603",
    "settleDate": "2024.01.19",
    "askEhmYield": "",
    "bidYield": "9,32",
    "rawName": "K2024/42",
    "bidPrice": "99,0000",
    "coupon_val": 8,
    "maturityInDays": "272 nap",
    "securityType": "1MÁP",
    "maturityDate": "2024.10.17",
    "name": "K2024/42",
    "bidEhmYield": "9,21",
    "askYield": "",
    "currency": "HUF",
    "maturityInDays_val": 272,
    "issueDate": "2023.10.17",
    "longName": "K241017"
}