{
    "askPrice": "",
    "green": 0,
    "coupon": "8,00 %",
    "accruedInterest": "1,9068",
    "settleDate": "2024.01.12",
    "askEhmYield": "",
    "bidYield": "9,29",
    "rawName": "K2024/42",
    "bidPrice": "99,0000",
    "coupon_val": 8,
    "maturityInDays": "279 nap",
    "securityType": "1MÁP",
    "maturityDate": "2024.10.17",
    "name": "K2024/42",
    "bidEhmYield": "9,20",
    "askYield": "",
    "currency": "HUF",
    "maturityInDays_val": 279,
    "issueDate": "2023.10.17",
    "longName": "K241017"
}