{
    "askPrice": "",
    "green": 0,
    "coupon": "8,00 %",
    "accruedInterest": "3,5507",
    "settleDate": "2024.03.28",
    "askEhmYield": "",
    "bidYield": "9,76",
    "rawName": "K2024/42",
    "bidPrice": "99,0000",
    "coupon_val": 8,
    "maturityInDays": "203 nap",
    "securityType": "1MÁP",
    "maturityDate": "2024.10.17",
    "name": "K2024/42",
    "bidEhmYield": "9,51",
    "askYield": "",
    "currency": "HUF",
    "maturityInDays_val": 203,
    "issueDate": "2023.10.17",
    "longName": "K241017"
}