{
    "askPrice": "",
    "green": 0,
    "coupon": "8,00 %",
    "accruedInterest": "2,1918",
    "settleDate": "2024.01.25",
    "askEhmYield": "",
    "bidYield": "9,35",
    "rawName": "K2024/42",
    "bidPrice": "99,0000",
    "coupon_val": 8,
    "maturityInDays": "266 nap",
    "securityType": "1MÁP",
    "maturityDate": "2024.10.17",
    "name": "K2024/42",
    "bidEhmYield": "9,23",
    "askYield": "",
    "currency": "HUF",
    "maturityInDays_val": 266,
    "issueDate": "2023.10.17",
    "longName": "K241017"
}