{
    "askPrice": "",
    "green": 0,
    "coupon": "8,00 %",
    "accruedInterest": "4,1644",
    "settleDate": "2024.04.25",
    "askEhmYield": "",
    "bidYield": "10,03",
    "rawName": "K2024/42",
    "bidPrice": "99,0000",
    "coupon_val": 8,
    "maturityInDays": "175 nap",
    "securityType": "1MÁP",
    "maturityDate": "2024.10.17",
    "name": "K2024/42",
    "bidEhmYield": "9,73",
    "askYield": "",
    "currency": "HUF",
    "maturityInDays_val": 175,
    "issueDate": "2023.10.17",
    "longName": "K241017"
}