{
    "askPrice": "",
    "green": 0,
    "coupon": "8,00 %",
    "accruedInterest": "3,8795",
    "settleDate": "2024.04.12",
    "askEhmYield": "",
    "bidYield": "9,89",
    "rawName": "K2024/42",
    "bidPrice": "99,0000",
    "coupon_val": 8,
    "maturityInDays": "188 nap",
    "securityType": "1MÁP",
    "maturityDate": "2024.10.17",
    "name": "K2024/42",
    "bidEhmYield": "9,62",
    "askYield": "",
    "currency": "HUF",
    "maturityInDays_val": 188,
    "issueDate": "2023.10.17",
    "longName": "K241017"
}