{
    "askPrice": "",
    "green": 0,
    "coupon": "3,50 %",
    "accruedInterest": "0,6372",
    "settleDate": "2024.05.10",
    "askEhmYield": "",
    "bidYield": "5,08",
    "rawName": "N2029/10",
    "bidPrice": "99,5000",
    "coupon_val": 3.5,
    "maturityInDays": "1759 nap",
    "securityType": "MÁP Plusz",
    "maturityDate": "2029.03.04",
    "name": "N2029/10",
    "bidEhmYield": "",
    "askYield": "",
    "currency": "HUF",
    "maturityInDays_val": 1759,
    "issueDate": "2024.03.04",
    "longName": "N290304"
}