{
    "askPrice": "",
    "green": 0,
    "coupon": "2,50 %",
    "accruedInterest": "1,88",
    "settleDate": "2022.06.30",
    "askEhmYield": "",
    "bidYield": "",
    "rawName": "K2022/39",
    "bidPrice": "99,50",
    "coupon_val": 2.5,
    "maturityInDays": "90 nap",
    "securityType": "1MÁP",
    "maturityDate": "2022.09.28",
    "name": "K2022/39",
    "bidEhmYield": "4,47",
    "askYield": "",
    "currency": "HUF",
    "maturityInDays_val": 90,
    "longName": "K220928"
}