{
    "askPrice": "",
    "green": 0,
    "coupon": "2,50 %",
    "accruedInterest": "2,29",
    "settleDate": "2022.08.29",
    "askEhmYield": "",
    "bidYield": "",
    "rawName": "K2022/39",
    "bidPrice": "99,50",
    "coupon_val": 2.5,
    "maturityInDays": "30 nap",
    "securityType": "1MÁP",
    "maturityDate": "2022.09.28",
    "name": "K2022/39",
    "bidEhmYield": "8,43",
    "askYield": "",
    "currency": "HUF",
    "maturityInDays_val": 30,
    "longName": "K220928"
}