{
    "askPrice": "",
    "green": 0,
    "coupon": "2,50 %",
    "accruedInterest": "2,47",
    "settleDate": "2022.09.23",
    "askEhmYield": "",
    "bidYield": "",
    "rawName": "K2022/39",
    "bidPrice": "99,90",
    "coupon_val": 2.5,
    "maturityInDays": "5 nap",
    "securityType": "1MÁP",
    "maturityDate": "2022.09.28",
    "name": "K2022/39",
    "bidEhmYield": "9,57",
    "askYield": "",
    "currency": "HUF",
    "maturityInDays_val": 5,
    "longName": "K220928"
}