{
    "askPrice": "",
    "green": 0,
    "coupon": "3,50 %",
    "accruedInterest": "0,9945",
    "settleDate": "2022.12.15",
    "askEhmYield": "",
    "bidYield": "5,27",
    "rawName": "N2027/11",
    "bidPrice": "99,5000",
    "coupon_val": 3.5,
    "maturityInDays": "1552 nap",
    "securityType": "MÁP Plusz",
    "maturityDate": "2027.03.16",
    "name": "N2027/11",
    "bidEhmYield": "",
    "askYield": "",
    "currency": "HUF",
    "maturityInDays_val": 1552,
    "issueDate": "2022.03.16",
    "longName": "N270316"
}