{
    "askPrice": "",
    "green": 0,
    "coupon": "3,50 %",
    "accruedInterest": "1,68",
    "settleDate": "2022.09.09",
    "askEhmYield": "",
    "bidYield": "",
    "rawName": "N2027/11",
    "bidPrice": "99,50",
    "coupon_val": 3.5,
    "maturityInDays": "1649 nap",
    "securityType": "MÁP Plusz",
    "maturityDate": "2027.03.16",
    "name": "N2027/11",
    "bidEhmYield": "",
    "askYield": "",
    "currency": "HUF",
    "maturityInDays_val": 1649,
    "longName": "N270316"
}