{
    "askPrice": "",
    "green": 0,
    "coupon": "3,50 %",
    "accruedInterest": 0,
    "settleDate": "2022.09.15",
    "askEhmYield": "",
    "bidYield": "",
    "rawName": "N2027/11",
    "bidPrice": "",
    "coupon_val": 3.5,
    "maturityInDays": "1643 nap",
    "securityType": "MÁP Plusz",
    "maturityDate": "2027.03.16",
    "name": "N2027/11",
    "bidEhmYield": "",
    "askYield": "",
    "currency": "HUF",
    "maturityInDays_val": 1643,
    "longName": "N270316"
}