{
    "askPrice": "",
    "green": 0,
    "coupon": "3,50 %",
    "accruedInterest": "2,0779",
    "settleDate": "2023.09.01",
    "askEhmYield": "",
    "bidYield": "5,47",
    "rawName": "N2027/11",
    "bidPrice": "99,5000",
    "coupon_val": 3.5,
    "maturityInDays": "1292 nap",
    "securityType": "MÁP Plusz",
    "maturityDate": "2027.03.16",
    "name": "N2027/11",
    "bidEhmYield": "",
    "askYield": "",
    "currency": "HUF",
    "maturityInDays_val": 1292,
    "issueDate": "2022.03.16",
    "longName": "N270316"
}