{
    "askPrice": "",
    "green": 0,
    "coupon": "3,50 %",
    "accruedInterest": "0,2336",
    "settleDate": "2023.04.04",
    "askEhmYield": "",
    "bidYield": "5,37",
    "rawName": "N2027/11",
    "bidPrice": "99,5000",
    "coupon_val": 3.5,
    "maturityInDays": "1442 nap",
    "securityType": "MÁP Plusz",
    "maturityDate": "2027.03.16",
    "name": "N2027/11",
    "bidEhmYield": "",
    "askYield": "",
    "currency": "HUF",
    "maturityInDays_val": 1442,
    "issueDate": "2022.03.16",
    "longName": "N270316"
}