{
    "askPrice": "",
    "green": 0,
    "coupon": "3,50 %",
    "accruedInterest": "0,3288",
    "settleDate": "2024.04.09",
    "askEhmYield": "",
    "bidYield": "5,68",
    "rawName": "N2027/11",
    "bidPrice": "99,5000",
    "coupon_val": 3.5,
    "maturityInDays": "1071 nap",
    "securityType": "MÁP Plusz",
    "maturityDate": "2027.03.16",
    "name": "N2027/11",
    "bidEhmYield": "",
    "askYield": "",
    "currency": "HUF",
    "maturityInDays_val": 1071,
    "issueDate": "2022.03.16",
    "longName": "N270316"
}