{
    "askPrice": "98,2239",
    "green": 0,
    "coupon": 0,
    "accruedInterest": 0,
    "settleDate": "2023.02.03",
    "askEhmYield": "14,04",
    "bidYield": "14,70",
    "rawName": "D230322",
    "bidPrice": "98,1170",
    "maturityInDays": "47 nap",
    "securityType": "DKJ",
    "maturityDate": "2023.03.22",
    "name": "D230322",
    "bidEhmYield": "14,90",
    "askYield": "13,85",
    "currency": "HUF",
    "maturityInDays_val": 47,
    "issueDate": "2022.12.21",
    "longName": "D230322"
}