{
    "askPrice": "98,1563",
    "green": 0,
    "coupon": 0,
    "accruedInterest": 0,
    "settleDate": "2023.02.01",
    "askEhmYield": "13,99",
    "bidYield": "14,69",
    "rawName": "D230322",
    "bidPrice": "98,0397",
    "maturityInDays": "49 nap",
    "securityType": "DKJ",
    "maturityDate": "2023.03.22",
    "name": "D230322",
    "bidEhmYield": "14,89",
    "askYield": "13,80",
    "currency": "HUF",
    "maturityInDays_val": 49,
    "issueDate": "2022.12.21",
    "longName": "D230322"
}