{
    "askPrice": "98,3354",
    "green": 0,
    "coupon": 0,
    "accruedInterest": 0,
    "settleDate": "2023.02.06",
    "askEhmYield": "14,04",
    "bidYield": "14,65",
    "rawName": "D230322",
    "bidPrice": "98,2409",
    "maturityInDays": "44 nap",
    "securityType": "DKJ",
    "maturityDate": "2023.03.22",
    "name": "D230322",
    "bidEhmYield": "14,85",
    "askYield": "13,85",
    "currency": "HUF",
    "maturityInDays_val": 44,
    "issueDate": "2022.12.21",
    "longName": "D230322"
}