{
    "askPrice": "98,6164",
    "green": 0,
    "coupon": 0,
    "accruedInterest": 0,
    "settleDate": "2023.02.14",
    "askEhmYield": "14,22",
    "bidYield": "14,90",
    "rawName": "D230322",
    "bidPrice": "98,5319",
    "maturityInDays": "36 nap",
    "securityType": "DKJ",
    "maturityDate": "2023.03.22",
    "name": "D230322",
    "bidEhmYield": "15,11",
    "askYield": "14,03",
    "currency": "HUF",
    "maturityInDays_val": 36,
    "issueDate": "2022.12.21",
    "longName": "D230322"
}