{
    "askPrice": "98,9609",
    "green": 0,
    "coupon": 0,
    "accruedInterest": 0,
    "settleDate": "2023.02.22",
    "askEhmYield": "13,69",
    "bidYield": "14,80",
    "rawName": "D230322",
    "bidPrice": "98,8620",
    "maturityInDays": "28 nap",
    "securityType": "DKJ",
    "maturityDate": "2023.03.22",
    "name": "D230322",
    "bidEhmYield": "15,01",
    "askYield": "13,50",
    "currency": "HUF",
    "maturityInDays_val": 28,
    "issueDate": "2022.12.21",
    "longName": "D230322"
}