{
    "askPrice": "",
    "green": 0,
    "coupon": 0,
    "accruedInterest": 0,
    "settleDate": "2023.03.08",
    "askEhmYield": "",
    "bidYield": "14,95",
    "rawName": "D230322",
    "bidPrice": "99,4220",
    "maturityInDays": "14 nap",
    "securityType": "DKJ",
    "maturityDate": "2023.03.22",
    "name": "D230322",
    "bidEhmYield": "15,16",
    "askYield": "",
    "currency": "HUF",
    "maturityInDays_val": 14,
    "issueDate": "2022.12.21",
    "longName": "D230322"
}