{
    "askPrice": "98,0879",
    "green": 0,
    "coupon": 0,
    "accruedInterest": 0,
    "settleDate": "2023.01.30",
    "askEhmYield": "13,95",
    "bidYield": "14,65",
    "rawName": "D230322",
    "bidPrice": "97,9668",
    "maturityInDays": "51 nap",
    "securityType": "DKJ",
    "maturityDate": "2023.03.22",
    "name": "D230322",
    "bidEhmYield": "14,85",
    "askYield": "13,76",
    "currency": "HUF",
    "maturityInDays_val": 51,
    "issueDate": "2022.12.21",
    "longName": "D230322"
}