{
    "askPrice": "97,5507",
    "green": 0,
    "coupon": 0,
    "accruedInterest": 0,
    "settleDate": "2023.01.12",
    "askEhmYield": "13,28",
    "bidYield": "13,93",
    "rawName": "D230322",
    "bidPrice": "97,3995",
    "maturityInDays": "69 nap",
    "securityType": "DKJ",
    "maturityDate": "2023.03.22",
    "name": "D230322",
    "bidEhmYield": "14,12",
    "askYield": "13,10",
    "currency": "HUF",
    "maturityInDays_val": 69,
    "issueDate": "2022.12.21",
    "longName": "D230322"
}