{
    "askPrice": "97,9984",
    "green": 0,
    "coupon": 0,
    "accruedInterest": 0,
    "settleDate": "2023.01.24",
    "askEhmYield": "13,08",
    "bidYield": "13,75",
    "rawName": "D230322",
    "bidPrice": "97,8693",
    "maturityInDays": "57 nap",
    "securityType": "DKJ",
    "maturityDate": "2023.03.22",
    "name": "D230322",
    "bidEhmYield": "13,94",
    "askYield": "12,90",
    "currency": "HUF",
    "maturityInDays_val": 57,
    "issueDate": "2022.12.21",
    "longName": "D230322"
}