{
    "askPrice": "",
    "green": 0,
    "coupon": "2,50 %",
    "accruedInterest": "2,32",
    "settleDate": "2022.10.07",
    "askEhmYield": "",
    "bidYield": "",
    "rawName": "K2022/44",
    "bidPrice": "99,50",
    "coupon_val": 2.5,
    "maturityInDays": "27 nap",
    "securityType": "1MÁP",
    "maturityDate": "2022.11.03",
    "name": "K2022/44",
    "bidEhmYield": "9,09",
    "askYield": "",
    "currency": "HUF",
    "maturityInDays_val": 27,
    "longName": "K221103"
}