{
    "askPrice": "",
    "green": 0,
    "coupon": "2,50 %",
    "accruedInterest": "2,43",
    "settleDate": "2022.10.24",
    "askEhmYield": "",
    "bidYield": "6,19",
    "rawName": "K2022/44",
    "bidPrice": "99,90",
    "coupon_val": 2.5,
    "maturityInDays": "10 nap",
    "securityType": "1MÁP",
    "maturityDate": "2022.11.03",
    "name": "K2022/44",
    "bidEhmYield": "6,01",
    "askYield": "",
    "currency": "HUF",
    "maturityInDays_val": 10,
    "longName": "K221103"
}