{
    "askPrice": "",
    "green": 0,
    "coupon": null,
    "accruedInterest": "4,52",
    "settleDate": "2022.09.07",
    "askEhmYield": "",
    "bidYield": "",
    "rawName": "2022/L",
    "bidPrice": "99,00",
    "maturityInDays": "14 nap",
    "securityType": "PMÁP",
    "maturityDate": "2022.09.21",
    "name": "2022/L",
    "bidEhmYield": "",
    "askYield": "",
    "currency": "HUF",
    "maturityInDays_val": 14,
    "longName": "A220921L19"
}