{
    "askPrice": "89,52",
    "green": 0,
    "coupon": "6,75 %",
    "accruedInterest": "0,43",
    "settleDate": "2022.11.14",
    "askEhmYield": "9,10",
    "bidYield": "9,83",
    "rawName": "2028/A",
    "bidPrice": "86,61",
    "coupon_val": 6.75,
    "maturityInDays": "2169 nap",
    "securityType": "KTV",
    "maturityDate": "2028.10.22",
    "name": "2028/A",
    "bidEhmYield": "9,82",
    "askYield": "9,11",
    "currency": "HUF",
    "maturityInDays_val": 2169,
    "issueDate": "2011-03-02",
    "longName": "A281022A11"
}