{
    "askPrice": "93,06",
    "green": 0,
    "coupon": "6,75 %",
    "accruedInterest": "4,64",
    "settleDate": "2022.06.30",
    "askEhmYield": "8,19",
    "bidYield": "8,79",
    "rawName": "2028/A",
    "bidPrice": "90,37",
    "coupon_val": 6.75,
    "maturityInDays": "2306 nap",
    "securityType": "KTV",
    "maturityDate": "2028.10.22",
    "name": "2028/A",
    "bidEhmYield": "8,79",
    "askYield": "8,19",
    "currency": "HUF",
    "maturityInDays_val": 2306,
    "longName": "A281022A11"
}