{
    "askPrice": "94,0574",
    "green": 0,
    "coupon": "6,75 %",
    "accruedInterest": "0,7027",
    "settleDate": "2022.11.29",
    "askEhmYield": "8,04",
    "bidYield": "8,76",
    "rawName": "2028/A",
    "bidPrice": "91,0140",
    "coupon_val": 6.75,
    "maturityInDays": "2154 nap",
    "securityType": "KTV",
    "maturityDate": "2028.10.22",
    "name": "2028/A",
    "bidEhmYield": "8,75",
    "askYield": "8,05",
    "currency": "HUF",
    "maturityInDays_val": 2154,
    "issueDate": "2011.03.02",
    "longName": "A281022A11"
}