{
    "askPrice": "91,93",
    "green": 0,
    "coupon": "6,75 %",
    "accruedInterest": "5,49",
    "settleDate": "2022.08.15",
    "askEhmYield": "8,47",
    "bidYield": "9,07",
    "rawName": "2028/A",
    "bidPrice": "89,33",
    "coupon_val": 6.75,
    "maturityInDays": "2260 nap",
    "securityType": "KTV",
    "maturityDate": "2028.10.22",
    "name": "2028/A",
    "bidEhmYield": "9,07",
    "askYield": "8,47",
    "currency": "HUF",
    "maturityInDays_val": 2260,
    "longName": "A281022A11"
}