{
    "askPrice": "86,60",
    "green": 0,
    "coupon": "6,75 %",
    "accruedInterest": "6,32",
    "settleDate": "2022.09.29",
    "askEhmYield": "9,78",
    "bidYield": "10,38",
    "rawName": "2028/A",
    "bidPrice": "84,23",
    "coupon_val": 6.75,
    "maturityInDays": "2215 nap",
    "securityType": "KTV",
    "maturityDate": "2028.10.22",
    "name": "2028/A",
    "bidEhmYield": "10,38",
    "askYield": "9,78",
    "currency": "HUF",
    "maturityInDays_val": 2215,
    "longName": "A281022A11"
}