{
    "askPrice": "92,67",
    "green": 0,
    "coupon": "6,75 %",
    "accruedInterest": "4,51",
    "settleDate": "2022.06.23",
    "askEhmYield": "8,27",
    "bidYield": "8,87",
    "rawName": "2028/A",
    "bidPrice": "89,99",
    "coupon_val": 6.75,
    "maturityInDays": "2313 nap",
    "securityType": "KTV",
    "maturityDate": "2028.10.22",
    "name": "2028/A",
    "bidEhmYield": "8,87",
    "askYield": "8,27",
    "currency": "HUF",
    "maturityInDays_val": 2313,
    "longName": "A281022A11"
}