{
    "askPrice": "87,11",
    "green": 0,
    "coupon": "6,75 %",
    "accruedInterest": "5,03",
    "settleDate": "2022.07.21",
    "askEhmYield": "9,57",
    "bidYield": "10,17",
    "rawName": "2028/A",
    "bidPrice": "84,66",
    "coupon_val": 6.75,
    "maturityInDays": "2285 nap",
    "securityType": "KTV",
    "maturityDate": "2028.10.22",
    "name": "2028/A",
    "bidEhmYield": "10,17",
    "askYield": "9,57",
    "currency": "HUF",
    "maturityInDays_val": 2285,
    "longName": "A281022A11"
}