{
    "askPrice": "92,3117",
    "green": 0,
    "coupon": "6,75 %",
    "accruedInterest": "0,5733",
    "settleDate": "2022.11.22",
    "askEhmYield": "8,44",
    "bidYield": "9,16",
    "rawName": "2028/A",
    "bidPrice": "89,3338",
    "coupon_val": 6.75,
    "maturityInDays": "2161 nap",
    "securityType": "KTV",
    "maturityDate": "2028.10.22",
    "name": "2028/A",
    "bidEhmYield": "9,15",
    "askYield": "8,45",
    "currency": "HUF",
    "maturityInDays_val": 2161,
    "issueDate": "2011.03.02",
    "longName": "A281022A11"
}