{
    "askPrice": "90,0224",
    "green": 0,
    "coupon": "6,75 %",
    "accruedInterest": "1,2575",
    "settleDate": "2022.12.29",
    "askEhmYield": "9,01",
    "bidYield": "9,81",
    "rawName": "2028/A",
    "bidPrice": "86,8639",
    "coupon_val": 6.75,
    "maturityInDays": "2124 nap",
    "securityType": "KTV",
    "maturityDate": "2028.10.22",
    "name": "2028/A",
    "bidEhmYield": "9,80",
    "askYield": "9,02",
    "currency": "HUF",
    "maturityInDays_val": 2124,
    "issueDate": "2011.03.02",
    "longName": "A281022A11"
}