{
    "askPrice": "88,2599",
    "green": 0,
    "coupon": "6,75 %",
    "accruedInterest": "1,3315",
    "settleDate": "2023.01.02",
    "askEhmYield": "9,45",
    "bidYield": "10,18",
    "rawName": "2028/A",
    "bidPrice": "85,4523",
    "coupon_val": 6.75,
    "maturityInDays": "2120 nap",
    "securityType": "KTV",
    "maturityDate": "2028.10.22",
    "name": "2028/A",
    "bidEhmYield": "10,17",
    "askYield": "9,46",
    "currency": "HUF",
    "maturityInDays_val": 2120,
    "issueDate": "2011.03.02",
    "longName": "A281022A11"
}