{
    "askPrice": "93,33",
    "green": 0,
    "coupon": "6,75 %",
    "accruedInterest": "4,62",
    "settleDate": "2022.06.29",
    "askEhmYield": "8,13",
    "bidYield": "8,73",
    "rawName": "2028/A",
    "bidPrice": "90,63",
    "coupon_val": 6.75,
    "maturityInDays": "2307 nap",
    "securityType": "KTV",
    "maturityDate": "2028.10.22",
    "name": "2028/A",
    "bidEhmYield": "8,73",
    "askYield": "8,13",
    "currency": "HUF",
    "maturityInDays_val": 2307,
    "longName": "A281022A11"
}