{
    "askPrice": "91,19",
    "green": 0,
    "coupon": "6,75 %",
    "accruedInterest": "4,77",
    "settleDate": "2022.07.07",
    "askEhmYield": "8,61",
    "bidYield": "9,21",
    "rawName": "2028/A",
    "bidPrice": "88,57",
    "coupon_val": 6.75,
    "maturityInDays": "2299 nap",
    "securityType": "KTV",
    "maturityDate": "2028.10.22",
    "name": "2028/A",
    "bidEhmYield": "9,21",
    "askYield": "8,61",
    "currency": "HUF",
    "maturityInDays_val": 2299,
    "longName": "A281022A11"
}