{
    "askPrice": "89,28",
    "green": 0,
    "coupon": "6,75 %",
    "accruedInterest": "4,88",
    "settleDate": "2022.07.13",
    "askEhmYield": "9,05",
    "bidYield": "9,65",
    "rawName": "2028/A",
    "bidPrice": "86,74",
    "coupon_val": 6.75,
    "maturityInDays": "2293 nap",
    "securityType": "KTV",
    "maturityDate": "2028.10.22",
    "name": "2028/A",
    "bidEhmYield": "9,65",
    "askYield": "9,05",
    "currency": "HUF",
    "maturityInDays_val": 2293,
    "longName": "A281022A11"
}