{
    "askPrice": "89,13",
    "green": 0,
    "coupon": "6,75 %",
    "accruedInterest": "5,77",
    "settleDate": "2022.08.30",
    "askEhmYield": "9,13",
    "bidYield": "9,73",
    "rawName": "2028/A",
    "bidPrice": "86,64",
    "coupon_val": 6.75,
    "maturityInDays": "2245 nap",
    "securityType": "KTV",
    "maturityDate": "2028.10.22",
    "name": "2028/A",
    "bidEhmYield": "9,73",
    "askYield": "9,13",
    "currency": "HUF",
    "maturityInDays_val": 2245,
    "longName": "A281022A11"
}