{
    "askPrice": "91,99",
    "green": 0,
    "coupon": "6,75 %",
    "accruedInterest": "5,57",
    "settleDate": "2022.08.19",
    "askEhmYield": "8,46",
    "bidYield": "9,06",
    "rawName": "2028/A",
    "bidPrice": "89,38",
    "coupon_val": 6.75,
    "maturityInDays": "2256 nap",
    "securityType": "KTV",
    "maturityDate": "2028.10.22",
    "name": "2028/A",
    "bidEhmYield": "9,06",
    "askYield": "8,46",
    "currency": "HUF",
    "maturityInDays_val": 2256,
    "longName": "A281022A11"
}