{
    "askPrice": "87,88",
    "green": 0,
    "coupon": "6,75 %",
    "accruedInterest": "5,10",
    "settleDate": "2022.07.25",
    "askEhmYield": "9,39",
    "bidYield": "9,99",
    "rawName": "2028/A",
    "bidPrice": "85,40",
    "coupon_val": 6.75,
    "maturityInDays": "2281 nap",
    "securityType": "KTV",
    "maturityDate": "2028.10.22",
    "name": "2028/A",
    "bidEhmYield": "9,99",
    "askYield": "9,39",
    "currency": "HUF",
    "maturityInDays_val": 2281,
    "longName": "A281022A11"
}