{
    "askPrice": "89,26",
    "green": 0,
    "coupon": "6,75 %",
    "accruedInterest": "4,79",
    "settleDate": "2022.07.08",
    "askEhmYield": "9,05",
    "bidYield": "9,65",
    "rawName": "2028/A",
    "bidPrice": "86,72",
    "coupon_val": 6.75,
    "maturityInDays": "2298 nap",
    "securityType": "KTV",
    "maturityDate": "2028.10.22",
    "name": "2028/A",
    "bidEhmYield": "9,65",
    "askYield": "9,05",
    "currency": "HUF",
    "maturityInDays_val": 2298,
    "longName": "A281022A11"
}