{
    "askPrice": "88,67",
    "green": 0,
    "coupon": "6,75 %",
    "accruedInterest": "5,79",
    "settleDate": "2022.08.31",
    "askEhmYield": "9,24",
    "bidYield": "9,84",
    "rawName": "2028/A",
    "bidPrice": "86,20",
    "coupon_val": 6.75,
    "maturityInDays": "2244 nap",
    "securityType": "KTV",
    "maturityDate": "2028.10.22",
    "name": "2028/A",
    "bidEhmYield": "9,84",
    "askYield": "9,24",
    "currency": "HUF",
    "maturityInDays_val": 2244,
    "longName": "A281022A11"
}