{
    "askPrice": "86,30",
    "green": 0,
    "coupon": "6,75 %",
    "accruedInterest": "6,14",
    "settleDate": "2022.09.19",
    "askEhmYield": "9,84",
    "bidYield": "10,44",
    "rawName": "2028/A",
    "bidPrice": "83,93",
    "coupon_val": 6.75,
    "maturityInDays": "2225 nap",
    "securityType": "KTV",
    "maturityDate": "2028.10.22",
    "name": "2028/A",
    "bidEhmYield": "10,44",
    "askYield": "9,84",
    "currency": "HUF",
    "maturityInDays_val": 2225,
    "longName": "A281022A11"
}