{
    "askPrice": "82,60",
    "green": 0,
    "coupon": "6,75 %",
    "accruedInterest": "0,09",
    "settleDate": "2022.10.27",
    "askEhmYield": "10,84",
    "bidYield": "11,55",
    "rawName": "2028/A",
    "bidPrice": "80,04",
    "coupon_val": 6.75,
    "maturityInDays": "2187 nap",
    "securityType": "KTV",
    "maturityDate": "2028.10.22",
    "name": "2028/A",
    "bidEhmYield": "11,54",
    "askYield": "10,85",
    "currency": "HUF",
    "maturityInDays_val": 2187,
    "longName": "A281022A11"
}