{
    "askPrice": "93,2435",
    "green": 0,
    "coupon": "6,75 %",
    "accruedInterest": "0,8322",
    "settleDate": "2022.12.06",
    "askEhmYield": "8,23",
    "bidYield": "9,05",
    "rawName": "2028/A",
    "bidPrice": "89,8288",
    "coupon_val": 6.75,
    "maturityInDays": "2147 nap",
    "securityType": "KTV",
    "maturityDate": "2028.10.22",
    "name": "2028/A",
    "bidEhmYield": "9,04",
    "askYield": "8,24",
    "currency": "HUF",
    "maturityInDays_val": 2147,
    "issueDate": "2011.03.02",
    "longName": "A281022A11"
}