{
    "askPrice": "94,48",
    "green": 0,
    "coupon": "6,75 %",
    "accruedInterest": "4,60",
    "settleDate": "2022.06.28",
    "askEhmYield": "7,88",
    "bidYield": "8,48",
    "rawName": "2028/A",
    "bidPrice": "91,74",
    "coupon_val": 6.75,
    "maturityInDays": "2308 nap",
    "securityType": "KTV",
    "maturityDate": "2028.10.22",
    "name": "2028/A",
    "bidEhmYield": "8,48",
    "askYield": "7,88",
    "currency": "HUF",
    "maturityInDays_val": 2308,
    "longName": "A281022A11"
}