{
    "askPrice": "79,85",
    "green": 0,
    "coupon": "6,75 %",
    "accruedInterest": "6,62",
    "settleDate": "2022.10.15",
    "askEhmYield": "11,58",
    "bidYield": "12,88",
    "rawName": "2028/A",
    "bidPrice": "75,35",
    "coupon_val": 6.75,
    "maturityInDays": "2199 nap",
    "securityType": "KTV",
    "maturityDate": "2028.10.22",
    "name": "2028/A",
    "bidEhmYield": "12,88",
    "askYield": "11,58",
    "currency": "HUF",
    "maturityInDays_val": 2199,
    "longName": "A281022A11"
}