{
    "askPrice": "86,10",
    "green": 0,
    "coupon": "6,75 %",
    "accruedInterest": "6,01",
    "settleDate": "2022.09.12",
    "askEhmYield": "9,88",
    "bidYield": "10,48",
    "rawName": "2028/A",
    "bidPrice": "83,74",
    "coupon_val": 6.75,
    "maturityInDays": "2232 nap",
    "securityType": "KTV",
    "maturityDate": "2028.10.22",
    "name": "2028/A",
    "bidEhmYield": "10,48",
    "askYield": "9,88",
    "currency": "HUF",
    "maturityInDays_val": 2232,
    "longName": "A281022A11"
}