{
    "askPrice": "91,5639",
    "green": 0,
    "coupon": "6,75 %",
    "accruedInterest": "2,9219",
    "settleDate": "2023.03.29",
    "askEhmYield": "8,70",
    "bidYield": "9,50",
    "rawName": "2028/A",
    "bidPrice": "88,4433",
    "coupon_val": 6.75,
    "maturityInDays": "2034 nap",
    "securityType": "KTV",
    "maturityDate": "2028.10.22",
    "name": "2028/A",
    "bidEhmYield": "9,49",
    "askYield": "8,71",
    "currency": "HUF",
    "maturityInDays_val": 2034,
    "issueDate": "2011.03.02",
    "longName": "A281022A11"
}