{
    "askPrice": "99,5755",
    "green": 0,
    "coupon": "6,75 %",
    "accruedInterest": "0,6639",
    "settleDate": "2023.11.27",
    "askEhmYield": "6,84",
    "bidYield": "7,49",
    "rawName": "2028/A",
    "bidPrice": "97,0329",
    "coupon_val": 6.75,
    "maturityInDays": "1791 nap",
    "securityType": "KTV",
    "maturityDate": "2028.10.22",
    "name": "2028/A",
    "bidEhmYield": "7,48",
    "askYield": "6,85",
    "currency": "HUF",
    "maturityInDays_val": 1791,
    "issueDate": "2011.03.02",
    "longName": "A281022A11"
}