{
    "askPrice": "92,1257",
    "green": 0,
    "coupon": "6,75 %",
    "accruedInterest": "1,4610",
    "settleDate": "2023.01.09",
    "askEhmYield": "8,51",
    "bidYield": "9,29",
    "rawName": "2028/A",
    "bidPrice": "88,9647",
    "coupon_val": 6.75,
    "maturityInDays": "2113 nap",
    "securityType": "KTV",
    "maturityDate": "2028.10.22",
    "name": "2028/A",
    "bidEhmYield": "9,28",
    "askYield": "8,52",
    "currency": "HUF",
    "maturityInDays_val": 2113,
    "issueDate": "2011.03.02",
    "longName": "A281022A11"
}