{
    "askPrice": "96,5039",
    "green": 0,
    "coupon": "6,75 %",
    "accruedInterest": "6,5281",
    "settleDate": "2023.10.10",
    "askEhmYield": "7,60",
    "bidYield": "8,27",
    "rawName": "2028/A",
    "bidPrice": "93,9332",
    "coupon_val": 6.75,
    "maturityInDays": "1839 nap",
    "securityType": "KTV",
    "maturityDate": "2028.10.22",
    "name": "2028/A",
    "bidEhmYield": "8,26",
    "askYield": "7,61",
    "currency": "HUF",
    "maturityInDays_val": 1839,
    "issueDate": "2011.03.02",
    "longName": "A281022A11"
}