{
    "askPrice": "93,2463",
    "green": 0,
    "coupon": "6,75 %",
    "accruedInterest": "3,5507",
    "settleDate": "2023.05.02",
    "askEhmYield": "8,31",
    "bidYield": "9,01",
    "rawName": "2028/A",
    "bidPrice": "90,4862",
    "coupon_val": 6.75,
    "maturityInDays": "2000 nap",
    "securityType": "KTV",
    "maturityDate": "2028.10.22",
    "name": "2028/A",
    "bidEhmYield": "9,00",
    "askYield": "8,32",
    "currency": "HUF",
    "maturityInDays_val": 2000,
    "issueDate": "2011.03.02",
    "longName": "A281022A11"
}