{
    "askPrice": "93,3494",
    "green": 0,
    "coupon": "6,75 %",
    "accruedInterest": "3,6986",
    "settleDate": "2023.05.10",
    "askEhmYield": "8,29",
    "bidYield": "9,12",
    "rawName": "2028/A",
    "bidPrice": "90,0873",
    "coupon_val": 6.75,
    "maturityInDays": "1992 nap",
    "securityType": "KTV",
    "maturityDate": "2028.10.22",
    "name": "2028/A",
    "bidEhmYield": "9,11",
    "askYield": "8,30",
    "currency": "HUF",
    "maturityInDays_val": 1992,
    "issueDate": "2011.03.02",
    "longName": "A281022A11"
}