{
    "askPrice": "97,3028",
    "green": 0,
    "coupon": "6,75 %",
    "accruedInterest": "6,5466",
    "settleDate": "2023.10.11",
    "askEhmYield": "7,40",
    "bidYield": "8,05",
    "rawName": "2028/A",
    "bidPrice": "94,7830",
    "coupon_val": 6.75,
    "maturityInDays": "1838 nap",
    "securityType": "KTV",
    "maturityDate": "2028.10.22",
    "name": "2028/A",
    "bidEhmYield": "8,04",
    "askYield": "7,41",
    "currency": "HUF",
    "maturityInDays_val": 1838,
    "issueDate": "2011.03.02",
    "longName": "A281022A11"
}