{
    "askPrice": "96,1901",
    "green": 0,
    "coupon": "6,75 %",
    "accruedInterest": "4,3644",
    "settleDate": "2023.06.15",
    "askEhmYield": "7,62",
    "bidYield": "8,45",
    "rawName": "2028/A",
    "bidPrice": "92,8503",
    "coupon_val": 6.75,
    "maturityInDays": "1956 nap",
    "securityType": "KTV",
    "maturityDate": "2028.10.22",
    "name": "2028/A",
    "bidEhmYield": "8,44",
    "askYield": "7,63",
    "currency": "HUF",
    "maturityInDays_val": 1956,
    "issueDate": "2011.03.02",
    "longName": "A281022A11"
}