{
    "askPrice": "96,4411",
    "green": 0,
    "coupon": "6,75 %",
    "accruedInterest": "5,6219",
    "settleDate": "2023.08.22",
    "askEhmYield": "7,59",
    "bidYield": "8,30",
    "rawName": "2028/A",
    "bidPrice": "93,6562",
    "coupon_val": 6.75,
    "maturityInDays": "1888 nap",
    "securityType": "KTV",
    "maturityDate": "2028.10.22",
    "name": "2028/A",
    "bidEhmYield": "8,29",
    "askYield": "7,60",
    "currency": "HUF",
    "maturityInDays_val": 1888,
    "issueDate": "2011.03.02",
    "longName": "A281022A11"
}