{
    "askPrice": "93,1874",
    "green": 0,
    "coupon": "6,75 %",
    "accruedInterest": "1,4979",
    "settleDate": "2023.01.11",
    "askEhmYield": "8,26",
    "bidYield": "9,10",
    "rawName": "2028/A",
    "bidPrice": "89,7380",
    "coupon_val": 6.75,
    "maturityInDays": "2111 nap",
    "securityType": "KTV",
    "maturityDate": "2028.10.22",
    "name": "2028/A",
    "bidEhmYield": "9,09",
    "askYield": "8,27",
    "currency": "HUF",
    "maturityInDays_val": 2111,
    "issueDate": "2011.03.02",
    "longName": "A281022A11"
}