{
    "askPrice": "92,8042",
    "green": 0,
    "coupon": "6,75 %",
    "accruedInterest": "4,0870",
    "settleDate": "2023.05.31",
    "askEhmYield": "8,44",
    "bidYield": "9,19",
    "rawName": "2028/A",
    "bidPrice": "89,9016",
    "coupon_val": 6.75,
    "maturityInDays": "1971 nap",
    "securityType": "KTV",
    "maturityDate": "2028.10.22",
    "name": "2028/A",
    "bidEhmYield": "9,18",
    "askYield": "8,45",
    "currency": "HUF",
    "maturityInDays_val": 1971,
    "issueDate": "2011.03.02",
    "longName": "A281022A11"
}