{
    "askPrice": "92,6811",
    "green": 0,
    "coupon": "6,75 %",
    "accruedInterest": "4,0685",
    "settleDate": "2023.05.30",
    "askEhmYield": "8,47",
    "bidYield": "9,30",
    "rawName": "2028/A",
    "bidPrice": "89,4759",
    "coupon_val": 6.75,
    "maturityInDays": "1972 nap",
    "securityType": "KTV",
    "maturityDate": "2028.10.22",
    "name": "2028/A",
    "bidEhmYield": "9,29",
    "askYield": "8,48",
    "currency": "HUF",
    "maturityInDays_val": 1972,
    "issueDate": "2011.03.02",
    "longName": "A281022A11"
}