{
    "askPrice": "97,5561",
    "green": 0,
    "coupon": "6,75 %",
    "accruedInterest": "5,7699",
    "settleDate": "2023.08.30",
    "askEhmYield": "7,32",
    "bidYield": "8,00",
    "rawName": "2028/A",
    "bidPrice": "94,8584",
    "coupon_val": 6.75,
    "maturityInDays": "1880 nap",
    "securityType": "KTV",
    "maturityDate": "2028.10.22",
    "name": "2028/A",
    "bidEhmYield": "7,99",
    "askYield": "7,33",
    "currency": "HUF",
    "maturityInDays_val": 1880,
    "issueDate": "2011.03.02",
    "longName": "A281022A11"
}