{
    "askPrice": "98,0871",
    "green": 0,
    "coupon": "6,75 %",
    "accruedInterest": "0,2029",
    "settleDate": "2023.11.02",
    "askEhmYield": "7,21",
    "bidYield": "7,88",
    "rawName": "2028/A",
    "bidPrice": "95,4890",
    "coupon_val": 6.75,
    "maturityInDays": "1816 nap",
    "securityType": "KTV",
    "maturityDate": "2028.10.22",
    "name": "2028/A",
    "bidEhmYield": "7,87",
    "askYield": "7,22",
    "currency": "HUF",
    "maturityInDays_val": 1816,
    "issueDate": "2011.03.02",
    "longName": "A281022A11"
}