{
    "askPrice": "92,8932",
    "green": 0,
    "coupon": "6,75 %",
    "accruedInterest": "1,8678",
    "settleDate": "2023.01.31",
    "askEhmYield": "8,34",
    "bidYield": "9,14",
    "rawName": "2028/A",
    "bidPrice": "89,6436",
    "coupon_val": 6.75,
    "maturityInDays": "2091 nap",
    "securityType": "KTV",
    "maturityDate": "2028.10.22",
    "name": "2028/A",
    "bidEhmYield": "9,13",
    "askYield": "8,35",
    "currency": "HUF",
    "maturityInDays_val": 2091,
    "issueDate": "2011.03.02",
    "longName": "A281022A11"
}