{
    "askPrice": "96,1119",
    "green": 0,
    "coupon": "6,75 %",
    "accruedInterest": "4,8267",
    "settleDate": "2023.07.10",
    "askEhmYield": "7,65",
    "bidYield": "8,40",
    "rawName": "2028/A",
    "bidPrice": "93,1270",
    "coupon_val": 6.75,
    "maturityInDays": "1931 nap",
    "securityType": "KTV",
    "maturityDate": "2028.10.22",
    "name": "2028/A",
    "bidEhmYield": "8,39",
    "askYield": "7,66",
    "currency": "HUF",
    "maturityInDays_val": 1931,
    "issueDate": "2011.03.02",
    "longName": "A281022A11"
}