{
    "askPrice": "96,9446",
    "green": 0,
    "coupon": "6,75 %",
    "accruedInterest": "4,8822",
    "settleDate": "2023.07.13",
    "askEhmYield": "7,45",
    "bidYield": "8,22",
    "rawName": "2028/A",
    "bidPrice": "93,8504",
    "coupon_val": 6.75,
    "maturityInDays": "1928 nap",
    "securityType": "KTV",
    "maturityDate": "2028.10.22",
    "name": "2028/A",
    "bidEhmYield": "8,21",
    "askYield": "7,46",
    "currency": "HUF",
    "maturityInDays_val": 1928,
    "issueDate": "2011.03.02",
    "longName": "A281022A11"
}