{
    "askPrice": "96,4525",
    "green": 0,
    "coupon": "6,75 %",
    "accruedInterest": "5,3445",
    "settleDate": "2023.08.07",
    "askEhmYield": "7,58",
    "bidYield": "8,31",
    "rawName": "2028/A",
    "bidPrice": "93,5696",
    "coupon_val": 6.75,
    "maturityInDays": "1903 nap",
    "securityType": "KTV",
    "maturityDate": "2028.10.22",
    "name": "2028/A",
    "bidEhmYield": "8,30",
    "askYield": "7,59",
    "currency": "HUF",
    "maturityInDays_val": 1903,
    "issueDate": "2011.03.02",
    "longName": "A281022A11"
}