{
    "askPrice": "96,9803",
    "green": 0,
    "coupon": "6,75 %",
    "accruedInterest": "5,2890",
    "settleDate": "2023.08.04",
    "askEhmYield": "7,45",
    "bidYield": "8,17",
    "rawName": "2028/A",
    "bidPrice": "94,1126",
    "coupon_val": 6.75,
    "maturityInDays": "1906 nap",
    "securityType": "KTV",
    "maturityDate": "2028.10.22",
    "name": "2028/A",
    "bidEhmYield": "8,16",
    "askYield": "7,46",
    "currency": "HUF",
    "maturityInDays_val": 1906,
    "issueDate": "2011.03.02",
    "longName": "A281022A11"
}