{
    "askPrice": "98,1977",
    "green": 0,
    "coupon": "6,75 %",
    "accruedInterest": "6,6575",
    "settleDate": "2023.10.17",
    "askEhmYield": "7,18",
    "bidYield": "7,82",
    "rawName": "2028/A",
    "bidPrice": "95,6943",
    "coupon_val": 6.75,
    "maturityInDays": "1832 nap",
    "securityType": "KTV",
    "maturityDate": "2028.10.22",
    "name": "2028/A",
    "bidEhmYield": "7,81",
    "askYield": "7,19",
    "currency": "HUF",
    "maturityInDays_val": 1832,
    "issueDate": "2011.03.02",
    "longName": "A281022A11"
}