{
    "askPrice": "94,8936",
    "green": 0,
    "coupon": "6,75 %",
    "accruedInterest": "4,2349",
    "settleDate": "2023.06.08",
    "askEhmYield": "7,93",
    "bidYield": "8,75",
    "rawName": "2028/A",
    "bidPrice": "91,6412",
    "coupon_val": 6.75,
    "maturityInDays": "1963 nap",
    "securityType": "KTV",
    "maturityDate": "2028.10.22",
    "name": "2028/A",
    "bidEhmYield": "8,74",
    "askYield": "7,94",
    "currency": "HUF",
    "maturityInDays_val": 1963,
    "issueDate": "2011.03.02",
    "longName": "A281022A11"
}