{
    "askPrice": "95,3741",
    "green": 0,
    "coupon": "6,75 %",
    "accruedInterest": "4,4753",
    "settleDate": "2023.06.21",
    "askEhmYield": "7,82",
    "bidYield": "8,64",
    "rawName": "2028/A",
    "bidPrice": "92,1185",
    "coupon_val": 6.75,
    "maturityInDays": "1950 nap",
    "securityType": "KTV",
    "maturityDate": "2028.10.22",
    "name": "2028/A",
    "bidEhmYield": "8,63",
    "askYield": "7,83",
    "currency": "HUF",
    "maturityInDays_val": 1950,
    "issueDate": "2011.03.02",
    "longName": "A281022A11"
}