{
    "askPrice": "95,1922",
    "green": 0,
    "coupon": "6,75 %",
    "accruedInterest": "1,7384",
    "settleDate": "2023.01.24",
    "askEhmYield": "7,80",
    "bidYield": "8,62",
    "rawName": "2028/A",
    "bidPrice": "91,7467",
    "coupon_val": 6.75,
    "maturityInDays": "2098 nap",
    "securityType": "KTV",
    "maturityDate": "2028.10.22",
    "name": "2028/A",
    "bidEhmYield": "8,61",
    "askYield": "7,81",
    "currency": "HUF",
    "maturityInDays_val": 2098,
    "issueDate": "2011.03.02",
    "longName": "A281022A11"
}