{
    "askPrice": "89,4344",
    "green": 0,
    "coupon": "6,75 %",
    "accruedInterest": "2,2377",
    "settleDate": "2023.02.20",
    "askEhmYield": "9,20",
    "bidYield": "10,01",
    "rawName": "2028/A",
    "bidPrice": "86,3254",
    "coupon_val": 6.75,
    "maturityInDays": "2071 nap",
    "securityType": "KTV",
    "maturityDate": "2028.10.22",
    "name": "2028/A",
    "bidEhmYield": "10,00",
    "askYield": "9,21",
    "currency": "HUF",
    "maturityInDays_val": 2071,
    "issueDate": "2011.03.02",
    "longName": "A281022A11"
}