{
    "askPrice": "97,0484",
    "green": 0,
    "coupon": "6,75 %",
    "accruedInterest": "4,6233",
    "settleDate": "2023.06.29",
    "askEhmYield": "7,42",
    "bidYield": "8,24",
    "rawName": "2028/A",
    "bidPrice": "93,7305",
    "coupon_val": 6.75,
    "maturityInDays": "1942 nap",
    "securityType": "KTV",
    "maturityDate": "2028.10.22",
    "name": "2028/A",
    "bidEhmYield": "8,23",
    "askYield": "7,43",
    "currency": "HUF",
    "maturityInDays_val": 1942,
    "issueDate": "2011.03.02",
    "longName": "A281022A11"
}