{
    "askPrice": "89,9923",
    "green": 0,
    "coupon": "6,75 %",
    "accruedInterest": "3,0514",
    "settleDate": "2023.04.05",
    "askEhmYield": "9,10",
    "bidYield": "9,90",
    "rawName": "2028/A",
    "bidPrice": "86,9492",
    "coupon_val": 6.75,
    "maturityInDays": "2027 nap",
    "securityType": "KTV",
    "maturityDate": "2028.10.22",
    "name": "2028/A",
    "bidEhmYield": "9,89",
    "askYield": "9,11",
    "currency": "HUF",
    "maturityInDays_val": 2027,
    "issueDate": "2011.03.02",
    "longName": "A281022A11"
}