{
    "askPrice": "90,3801",
    "green": 0,
    "coupon": "6,75 %",
    "accruedInterest": "3,0144",
    "settleDate": "2023.04.03",
    "askEhmYield": "9,00",
    "bidYield": "9,76",
    "rawName": "2028/A",
    "bidPrice": "87,4694",
    "coupon_val": 6.75,
    "maturityInDays": "2029 nap",
    "securityType": "KTV",
    "maturityDate": "2028.10.22",
    "name": "2028/A",
    "bidEhmYield": "9,75",
    "askYield": "9,01",
    "currency": "HUF",
    "maturityInDays_val": 2029,
    "issueDate": "2011.03.02",
    "longName": "A281022A11"
}