{
    "askPrice": "94,2726",
    "green": 0,
    "coupon": "6,75 %",
    "accruedInterest": "4,1795",
    "settleDate": "2023.06.05",
    "askEhmYield": "8,08",
    "bidYield": "8,90",
    "rawName": "2028/A",
    "bidPrice": "91,0435",
    "coupon_val": 6.75,
    "maturityInDays": "1966 nap",
    "securityType": "KTV",
    "maturityDate": "2028.10.22",
    "name": "2028/A",
    "bidEhmYield": "8,89",
    "askYield": "8,09",
    "currency": "HUF",
    "maturityInDays_val": 1966,
    "issueDate": "2011.03.02",
    "longName": "A281022A11"
}