{
    "askPrice": "96,8134",
    "green": 0,
    "coupon": "6,75 %",
    "accruedInterest": "6,4541",
    "settleDate": "2023.10.06",
    "askEhmYield": "7,52",
    "bidYield": "8,20",
    "rawName": "2028/A",
    "bidPrice": "94,1886",
    "coupon_val": 6.75,
    "maturityInDays": "1843 nap",
    "securityType": "KTV",
    "maturityDate": "2028.10.22",
    "name": "2028/A",
    "bidEhmYield": "8,19",
    "askYield": "7,53",
    "currency": "HUF",
    "maturityInDays_val": 1843,
    "issueDate": "2011.03.02",
    "longName": "A281022A11"
}