{
    "askPrice": "99,4156",
    "green": 0,
    "coupon": "6,75 %",
    "accruedInterest": "6,5651",
    "settleDate": "2023.10.12",
    "askEhmYield": "6,88",
    "bidYield": "7,58",
    "rawName": "2028/A",
    "bidPrice": "96,6272",
    "coupon_val": 6.75,
    "maturityInDays": "1837 nap",
    "securityType": "KTV",
    "maturityDate": "2028.10.22",
    "name": "2028/A",
    "bidEhmYield": "7,57",
    "askYield": "6,89",
    "currency": "HUF",
    "maturityInDays_val": 1837,
    "issueDate": "2011.03.02",
    "longName": "A281022A11"
}