{
    "askPrice": "99,6418",
    "green": 0,
    "coupon": "6,75 %",
    "accruedInterest": "5,9918",
    "settleDate": "2023.09.11",
    "askEhmYield": "6,82",
    "bidYield": "7,49",
    "rawName": "2028/A",
    "bidPrice": "96,9251",
    "coupon_val": 6.75,
    "maturityInDays": "1868 nap",
    "securityType": "KTV",
    "maturityDate": "2028.10.22",
    "name": "2028/A",
    "bidEhmYield": "7,48",
    "askYield": "6,83",
    "currency": "HUF",
    "maturityInDays_val": 1868,
    "issueDate": "2011.03.02",
    "longName": "A281022A11"
}