{
    "askPrice": "99,2299",
    "green": 0,
    "coupon": "6,75 %",
    "accruedInterest": "3,3750",
    "settleDate": "2024.04.22",
    "askEhmYield": "6,93",
    "bidYield": "7,61",
    "rawName": "2028/A",
    "bidPrice": "96,7613",
    "coupon_val": 6.75,
    "maturityInDays": "1644 nap",
    "securityType": "KTV",
    "maturityDate": "2028.10.22",
    "name": "2028/A",
    "bidEhmYield": "7,60",
    "askYield": "6,94",
    "currency": "HUF",
    "maturityInDays_val": 1644,
    "issueDate": "2011.03.02",
    "longName": "A281022A11"
}