{
    "askPrice": "100,9619",
    "green": 0,
    "coupon": "6,75 %",
    "accruedInterest": "3,7623",
    "settleDate": "2024.05.13",
    "askEhmYield": "6,47",
    "bidYield": "7,13",
    "rawName": "2028/A",
    "bidPrice": "98,5377",
    "coupon_val": 6.75,
    "maturityInDays": "1623 nap",
    "securityType": "KTV",
    "maturityDate": "2028.10.22",
    "name": "2028/A",
    "bidEhmYield": "7,12",
    "askYield": "6,48",
    "currency": "HUF",
    "maturityInDays_val": 1623,
    "issueDate": "2011.03.02",
    "longName": "A281022A11"
}