{
    "askPrice": "104,1325",
    "green": 0,
    "coupon": "6,75 %",
    "accruedInterest": "2,1209",
    "settleDate": "2024.02.14",
    "askEhmYield": "5,70",
    "bidYield": "6,37",
    "rawName": "2028/A",
    "bidPrice": "101,4541",
    "coupon_val": 6.75,
    "maturityInDays": "1712 nap",
    "securityType": "KTV",
    "maturityDate": "2028.10.22",
    "name": "2028/A",
    "bidEhmYield": "6,36",
    "askYield": "5,71",
    "currency": "HUF",
    "maturityInDays_val": 1712,
    "issueDate": "2011.03.02",
    "longName": "A281022A11"
}