{
    "askPrice": "100,6714",
    "green": 0,
    "coupon": "6,75 %",
    "accruedInterest": "3,1537",
    "settleDate": "2024.04.10",
    "askEhmYield": "6,55",
    "bidYield": "7,23",
    "rawName": "2028/A",
    "bidPrice": "98,1406",
    "coupon_val": 6.75,
    "maturityInDays": "1656 nap",
    "securityType": "KTV",
    "maturityDate": "2028.10.22",
    "name": "2028/A",
    "bidEhmYield": "7,22",
    "askYield": "6,56",
    "currency": "HUF",
    "maturityInDays_val": 1656,
    "issueDate": "2011.03.02",
    "longName": "A281022A11"
}