{
    "askPrice": "104,7547",
    "green": 0,
    "coupon": "6,75 %",
    "accruedInterest": "1,8258",
    "settleDate": "2024.01.29",
    "askEhmYield": "5,56",
    "bidYield": "6,22",
    "rawName": "2028/A",
    "bidPrice": "102,0756",
    "coupon_val": 6.75,
    "maturityInDays": "1728 nap",
    "securityType": "KTV",
    "maturityDate": "2028.10.22",
    "name": "2028/A",
    "bidEhmYield": "6,21",
    "askYield": "5,57",
    "currency": "HUF",
    "maturityInDays_val": 1728,
    "issueDate": "2011.03.02",
    "longName": "A281022A11"
}