{
    "askPrice": "103,9682",
    "green": 0,
    "coupon": "6,75 %",
    "accruedInterest": "1,4385",
    "settleDate": "2024.01.08",
    "askEhmYield": "5,76",
    "bidYield": "6,44",
    "rawName": "2028/A",
    "bidPrice": "101,2081",
    "coupon_val": 6.75,
    "maturityInDays": "1749 nap",
    "securityType": "KTV",
    "maturityDate": "2028.10.22",
    "name": "2028/A",
    "bidEhmYield": "6,43",
    "askYield": "5,77",
    "currency": "HUF",
    "maturityInDays_val": 1749,
    "issueDate": "2011.03.02",
    "longName": "A281022A11"
}