{
    "askPrice": "103,7314",
    "green": 0,
    "coupon": "6,75 %",
    "accruedInterest": "2,0287",
    "settleDate": "2024.02.09",
    "askEhmYield": "5,80",
    "bidYield": "6,47",
    "rawName": "2028/A",
    "bidPrice": "101,0601",
    "coupon_val": 6.75,
    "maturityInDays": "1717 nap",
    "securityType": "KTV",
    "maturityDate": "2028.10.22",
    "name": "2028/A",
    "bidEhmYield": "6,46",
    "askYield": "5,81",
    "currency": "HUF",
    "maturityInDays_val": 1717,
    "issueDate": "2011.03.02",
    "longName": "A281022A11"
}