{
    "askPrice": "100,5100",
    "green": 0,
    "coupon": "6,75 %",
    "accruedInterest": "3,6516",
    "settleDate": "2024.05.07",
    "askEhmYield": "6,59",
    "bidYield": "7,27",
    "rawName": "2028/A",
    "bidPrice": "98,0192",
    "coupon_val": 6.75,
    "maturityInDays": "1629 nap",
    "securityType": "KTV",
    "maturityDate": "2028.10.22",
    "name": "2028/A",
    "bidEhmYield": "7,26",
    "askYield": "6,60",
    "currency": "HUF",
    "maturityInDays_val": 1629,
    "issueDate": "2011.03.02",
    "longName": "A281022A11"
}