{
    "askPrice": "106,1217",
    "green": 0,
    "coupon": "6,75 %",
    "accruedInterest": "1,5123",
    "settleDate": "2024.01.12",
    "askEhmYield": "5,25",
    "bidYield": "5,92",
    "rawName": "2028/A",
    "bidPrice": "103,3339",
    "coupon_val": 6.75,
    "maturityInDays": "1745 nap",
    "securityType": "KTV",
    "maturityDate": "2028.10.22",
    "name": "2028/A",
    "bidEhmYield": "5,91",
    "askYield": "5,26",
    "currency": "HUF",
    "maturityInDays_val": 1745,
    "issueDate": "2011.03.02",
    "longName": "A281022A11"
}