{
    "askPrice": "79,6059",
    "green": 0,
    "coupon": "1,00 %",
    "accruedInterest": "0,0658",
    "settleDate": "2022.12.20",
    "askEhmYield": "9,24",
    "bidYield": "10,01",
    "rawName": "2025/C",
    "bidPrice": "78,0199",
    "coupon_val": 1,
    "maturityInDays": "1072 nap",
    "securityType": "KTV",
    "maturityDate": "2025.11.26",
    "name": "2025/C",
    "bidEhmYield": "10,00",
    "askYield": "9,25",
    "currency": "HUF",
    "maturityInDays_val": 1072,
    "issueDate": "2019.11.13",
    "longName": "A251126C19"
}