{
    "askPrice": "73,08",
    "green": 0,
    "coupon": "1,00 %",
    "accruedInterest": "0,95",
    "settleDate": "2022.11.07",
    "askEhmYield": "12,05",
    "bidYield": "12,74",
    "rawName": "2025/C",
    "bidPrice": "71,75",
    "coupon_val": 1,
    "maturityInDays": "1115 nap",
    "securityType": "KTV",
    "maturityDate": "2025.11.26",
    "name": "2025/C",
    "bidEhmYield": "12,73",
    "askYield": "12,06",
    "currency": "HUF",
    "maturityInDays_val": 1115,
    "issueDate": "2019-11-13",
    "longName": "A251126C19"
}