{
    "askPrice": "70,63",
    "green": 0,
    "coupon": "1,00 %",
    "accruedInterest": "0,90",
    "settleDate": "2022.10.21",
    "askEhmYield": "13,13",
    "bidYield": "13,83",
    "rawName": "2025/C",
    "bidPrice": "69,32",
    "coupon_val": 1,
    "maturityInDays": "1132 nap",
    "securityType": "KTV",
    "maturityDate": "2025.11.26",
    "name": "2025/C",
    "bidEhmYield": "13,82",
    "askYield": "13,14",
    "currency": "HUF",
    "maturityInDays_val": 1132,
    "longName": "A251126C19"
}