{
    "askPrice": "72,85",
    "green": 0,
    "coupon": "1,00 %",
    "accruedInterest": "0,86",
    "settleDate": "2022.10.07",
    "askEhmYield": "11,86",
    "bidYield": "12,46",
    "rawName": "2025/C",
    "bidPrice": "71,65",
    "coupon_val": 1,
    "maturityInDays": "1146 nap",
    "securityType": "KTV",
    "maturityDate": "2025.11.26",
    "name": "2025/C",
    "bidEhmYield": "12,46",
    "askYield": "11,86",
    "currency": "HUF",
    "maturityInDays_val": 1146,
    "longName": "A251126C19"
}