{
    "askPrice": "72,77",
    "green": 0,
    "coupon": "1,00 %",
    "accruedInterest": "0,79",
    "settleDate": "2022.09.09",
    "askEhmYield": "11,63",
    "bidYield": "12,23",
    "rawName": "2025/C",
    "bidPrice": "71,54",
    "coupon_val": 1,
    "maturityInDays": "1174 nap",
    "securityType": "KTV",
    "maturityDate": "2025.11.26",
    "name": "2025/C",
    "bidEhmYield": "12,23",
    "askYield": "11,63",
    "currency": "HUF",
    "maturityInDays_val": 1174,
    "longName": "A251126C19"
}