{
    "askPrice": "75,33",
    "green": 0,
    "coupon": "1,00 %",
    "accruedInterest": "0,74",
    "settleDate": "2022.08.24",
    "askEhmYield": "10,29",
    "bidYield": "10,89",
    "rawName": "2025/C",
    "bidPrice": "74,03",
    "coupon_val": 1,
    "maturityInDays": "1190 nap",
    "securityType": "KTV",
    "maturityDate": "2025.11.26",
    "name": "2025/C",
    "bidEhmYield": "10,89",
    "askYield": "10,29",
    "currency": "HUF",
    "maturityInDays_val": 1190,
    "longName": "A251126C19"
}