{
    "askPrice": "70,73",
    "green": 0,
    "coupon": "1,00 %",
    "accruedInterest": "0,91",
    "settleDate": "2022.10.24",
    "askEhmYield": "13,11",
    "bidYield": "13,80",
    "rawName": "2025/C",
    "bidPrice": "69,45",
    "coupon_val": 1,
    "maturityInDays": "1129 nap",
    "securityType": "KTV",
    "maturityDate": "2025.11.26",
    "name": "2025/C",
    "bidEhmYield": "13,79",
    "askYield": "13,12",
    "currency": "HUF",
    "maturityInDays_val": 1129,
    "longName": "A251126C19"
}