{
    "askPrice": "76,76",
    "green": 0,
    "coupon": "1,00 %",
    "accruedInterest": "0,63",
    "settleDate": "2022.07.14",
    "askEhmYield": "9,35",
    "bidYield": "9,95",
    "rawName": "2025/C",
    "bidPrice": "75,38",
    "coupon_val": 1,
    "maturityInDays": "1231 nap",
    "securityType": "KTV",
    "maturityDate": "2025.11.26",
    "name": "2025/C",
    "bidEhmYield": "9,95",
    "askYield": "9,35",
    "currency": "HUF",
    "maturityInDays_val": 1231,
    "longName": "A251126C19"
}