{
    "askPrice": "79,35",
    "green": 0,
    "coupon": "1,00 %",
    "accruedInterest": "0,57",
    "settleDate": "2022.06.23",
    "askEhmYield": "8,14",
    "bidYield": "8,74",
    "rawName": "2025/C",
    "bidPrice": "77,88",
    "coupon_val": 1,
    "maturityInDays": "1252 nap",
    "securityType": "KTV",
    "maturityDate": "2025.11.26",
    "name": "2025/C",
    "bidEhmYield": "8,74",
    "askYield": "8,14",
    "currency": "HUF",
    "maturityInDays_val": 1252,
    "longName": "A251126C19"
}