{
    "askPrice": "72,83",
    "green": 0,
    "coupon": "1,00 %",
    "accruedInterest": "0,87",
    "settleDate": "2022.10.10",
    "askEhmYield": "11,90",
    "bidYield": "12,50",
    "rawName": "2025/C",
    "bidPrice": "71,64",
    "coupon_val": 1,
    "maturityInDays": "1143 nap",
    "securityType": "KTV",
    "maturityDate": "2025.11.26",
    "name": "2025/C",
    "bidEhmYield": "12,50",
    "askYield": "11,90",
    "currency": "HUF",
    "maturityInDays_val": 1143,
    "longName": "A251126C19"
}