{
    "askPrice": "79,58",
    "green": 0,
    "coupon": "1,00 %",
    "accruedInterest": "0,61",
    "settleDate": "2022.07.05",
    "askEhmYield": "8,12",
    "bidYield": "8,72",
    "rawName": "2025/C",
    "bidPrice": "78,12",
    "coupon_val": 1,
    "maturityInDays": "1240 nap",
    "securityType": "KTV",
    "maturityDate": "2025.11.26",
    "name": "2025/C",
    "bidEhmYield": "8,72",
    "askYield": "8,12",
    "currency": "HUF",
    "maturityInDays_val": 1240,
    "longName": "A251126C19"
}