{
    "askPrice": "75,30",
    "green": 0,
    "coupon": "1,00 %",
    "accruedInterest": "0,75",
    "settleDate": "2022.08.26",
    "askEhmYield": "10,32",
    "bidYield": "10,92",
    "rawName": "2025/C",
    "bidPrice": "74,00",
    "coupon_val": 1,
    "maturityInDays": "1188 nap",
    "securityType": "KTV",
    "maturityDate": "2025.11.26",
    "name": "2025/C",
    "bidEhmYield": "10,92",
    "askYield": "10,32",
    "currency": "HUF",
    "maturityInDays_val": 1188,
    "longName": "A251126C19"
}