{
    "askPrice": "80,0060",
    "green": 0,
    "coupon": "1,00 %",
    "accruedInterest": "0,9918",
    "settleDate": "2022.11.23",
    "askEhmYield": "8,85",
    "bidYield": "9,54",
    "rawName": "2025/C",
    "bidPrice": "78,5377",
    "coupon_val": 1,
    "maturityInDays": "1099 nap",
    "securityType": "KTV",
    "maturityDate": "2025.11.26",
    "name": "2025/C",
    "bidEhmYield": "9,53",
    "askYield": "8,86",
    "currency": "HUF",
    "maturityInDays_val": 1099,
    "issueDate": "2019.11.13",
    "longName": "A251126C19"
}