{
    "askPrice": "73,10",
    "green": 0,
    "coupon": "1,00 %",
    "accruedInterest": "0,78",
    "settleDate": "2022.09.07",
    "askEhmYield": "11,45",
    "bidYield": "12,05",
    "rawName": "2025/C",
    "bidPrice": "71,87",
    "coupon_val": 1,
    "maturityInDays": "1176 nap",
    "securityType": "KTV",
    "maturityDate": "2025.11.26",
    "name": "2025/C",
    "bidEhmYield": "12,05",
    "askYield": "11,45",
    "currency": "HUF",
    "maturityInDays_val": 1176,
    "longName": "A251126C19"
}