{
    "askPrice": "73,63",
    "green": 0,
    "coupon": "1,00 %",
    "accruedInterest": "0,84",
    "settleDate": "2022.09.30",
    "askEhmYield": "11,41",
    "bidYield": "12,01",
    "rawName": "2025/C",
    "bidPrice": "72,41",
    "coupon_val": 1,
    "maturityInDays": "1153 nap",
    "securityType": "KTV",
    "maturityDate": "2025.11.26",
    "name": "2025/C",
    "bidEhmYield": "12,01",
    "askYield": "11,41",
    "currency": "HUF",
    "maturityInDays_val": 1153,
    "longName": "A251126C19"
}