{
    "askPrice": "81,1172",
    "green": 0,
    "coupon": "1,00 %",
    "accruedInterest": "0,5068",
    "settleDate": "2023.05.30",
    "askEhmYield": "9,90",
    "bidYield": "10,72",
    "rawName": "2025/C",
    "bidPrice": "79,6567",
    "coupon_val": 1,
    "maturityInDays": "911 nap",
    "securityType": "KTV",
    "maturityDate": "2025.11.26",
    "name": "2025/C",
    "bidEhmYield": "10,71",
    "askYield": "9,91",
    "currency": "HUF",
    "maturityInDays_val": 911,
    "issueDate": "2019.11.13",
    "longName": "A251126C19"
}