{
    "askPrice": "81,1721",
    "green": 0,
    "coupon": "1,00 %",
    "accruedInterest": "0,5096",
    "settleDate": "2023.05.31",
    "askEhmYield": "9,88",
    "bidYield": "10,70",
    "rawName": "2025/C",
    "bidPrice": "79,7120",
    "coupon_val": 1,
    "maturityInDays": "910 nap",
    "securityType": "KTV",
    "maturityDate": "2025.11.26",
    "name": "2025/C",
    "bidEhmYield": "10,69",
    "askYield": "9,89",
    "currency": "HUF",
    "maturityInDays_val": 910,
    "issueDate": "2019.11.13",
    "longName": "A251126C19"
}