{
    "askPrice": "84,2479",
    "green": 0,
    "coupon": "1,00 %",
    "accruedInterest": "0,6959",
    "settleDate": "2023.08.07",
    "askEhmYield": "8,84",
    "bidYield": "9,56",
    "rawName": "2025/C",
    "bidPrice": "83,0032",
    "coupon_val": 1,
    "maturityInDays": "842 nap",
    "securityType": "KTV",
    "maturityDate": "2025.11.26",
    "name": "2025/C",
    "bidEhmYield": "9,55",
    "askYield": "8,85",
    "currency": "HUF",
    "maturityInDays_val": 842,
    "issueDate": "2019.11.13",
    "longName": "A251126C19"
}