{
    "askPrice": "77,6292",
    "green": 0,
    "coupon": "1,00 %",
    "accruedInterest": "0,2548",
    "settleDate": "2023.02.27",
    "askEhmYield": "10,84",
    "bidYield": "11,68",
    "rawName": "2025/C",
    "bidPrice": "76,0703",
    "coupon_val": 1,
    "maturityInDays": "1003 nap",
    "securityType": "KTV",
    "maturityDate": "2025.11.26",
    "name": "2025/C",
    "bidEhmYield": "11,67",
    "askYield": "10,85",
    "currency": "HUF",
    "maturityInDays_val": 1003,
    "issueDate": "2019.11.13",
    "longName": "A251126C19"
}