{
    "askPrice": "89,1517",
    "green": 0,
    "coupon": "1,00 %",
    "accruedInterest": "0,9836",
    "settleDate": "2023.11.20",
    "askEhmYield": "6,94",
    "bidYield": "7,61",
    "rawName": "2025/C",
    "bidPrice": "88,0583",
    "coupon_val": 1,
    "maturityInDays": "737 nap",
    "securityType": "KTV",
    "maturityDate": "2025.11.26",
    "name": "2025/C",
    "bidEhmYield": "7,60",
    "askYield": "6,95",
    "currency": "HUF",
    "maturityInDays_val": 737,
    "issueDate": "2019.11.13",
    "longName": "A251126C19"
}