{
    "askPrice": "90,2404",
    "green": 0,
    "coupon": "1,00 %",
    "accruedInterest": "0,0437",
    "settleDate": "2023.12.12",
    "askEhmYield": "6,46",
    "bidYield": "7,15",
    "rawName": "2025/C",
    "bidPrice": "89,1289",
    "coupon_val": 1,
    "maturityInDays": "715 nap",
    "securityType": "KTV",
    "maturityDate": "2025.11.26",
    "name": "2025/C",
    "bidEhmYield": "7,14",
    "askYield": "6,47",
    "currency": "HUF",
    "maturityInDays_val": 715,
    "issueDate": "2019.11.13",
    "longName": "A251126C19"
}