{
    "askPrice": "86,9741",
    "green": 0,
    "coupon": "1,00 %",
    "accruedInterest": "0,8493",
    "settleDate": "2023.10.02",
    "askEhmYield": "7,80",
    "bidYield": "8,47",
    "rawName": "2025/C",
    "bidPrice": "85,8464",
    "coupon_val": 1,
    "maturityInDays": "786 nap",
    "securityType": "KTV",
    "maturityDate": "2025.11.26",
    "name": "2025/C",
    "bidEhmYield": "8,46",
    "askYield": "7,81",
    "currency": "HUF",
    "maturityInDays_val": 786,
    "issueDate": "2019.11.13",
    "longName": "A251126C19"
}