{
    "askPrice": "81,8855",
    "green": 0,
    "coupon": "1,00 %",
    "accruedInterest": "0,5233",
    "settleDate": "2023.06.05",
    "askEhmYield": "9,54",
    "bidYield": "10,37",
    "rawName": "2025/C",
    "bidPrice": "80,3979",
    "coupon_val": 1,
    "maturityInDays": "905 nap",
    "securityType": "KTV",
    "maturityDate": "2025.11.26",
    "name": "2025/C",
    "bidEhmYield": "10,36",
    "askYield": "9,55",
    "currency": "HUF",
    "maturityInDays_val": 905,
    "issueDate": "2019.11.13",
    "longName": "A251126C19"
}