{
    "askPrice": "78,6670",
    "green": 0,
    "coupon": "1,00 %",
    "accruedInterest": "0,1808",
    "settleDate": "2023.01.31",
    "askEhmYield": "10,05",
    "bidYield": "10,81",
    "rawName": "2025/C",
    "bidPrice": "77,1897",
    "coupon_val": 1,
    "maturityInDays": "1030 nap",
    "securityType": "KTV",
    "maturityDate": "2025.11.26",
    "name": "2025/C",
    "bidEhmYield": "10,80",
    "askYield": "10,06",
    "currency": "HUF",
    "maturityInDays_val": 1030,
    "issueDate": "2019.11.13",
    "longName": "A251126C19"
}