{
    "askPrice": "76,9619",
    "green": 0,
    "coupon": "1,00 %",
    "accruedInterest": "0,2384",
    "settleDate": "2023.02.21",
    "askEhmYield": "11,13",
    "bidYield": "11,94",
    "rawName": "2025/C",
    "bidPrice": "75,4667",
    "coupon_val": 1,
    "maturityInDays": "1009 nap",
    "securityType": "KTV",
    "maturityDate": "2025.11.26",
    "name": "2025/C",
    "bidEhmYield": "11,93",
    "askYield": "11,14",
    "currency": "HUF",
    "maturityInDays_val": 1009,
    "issueDate": "2019.11.13",
    "longName": "A251126C19"
}