{
    "askPrice": "91,1580",
    "green": 0,
    "coupon": "1,00 %",
    "accruedInterest": "0,0601",
    "settleDate": "2023.12.18",
    "askEhmYield": "5,95",
    "bidYield": "6,63",
    "rawName": "2025/C",
    "bidPrice": "90,0554",
    "coupon_val": 1,
    "maturityInDays": "709 nap",
    "securityType": "KTV",
    "maturityDate": "2025.11.26",
    "name": "2025/C",
    "bidEhmYield": "6,62",
    "askYield": "5,96",
    "currency": "HUF",
    "maturityInDays_val": 709,
    "issueDate": "2019.11.13",
    "longName": "A251126C19"
}