{
    "askPrice": "78,7236",
    "green": 0,
    "coupon": "1,00 %",
    "accruedInterest": "0,3808",
    "settleDate": "2023.04.14",
    "askEhmYield": "10,73",
    "bidYield": "11,55",
    "rawName": "2025/C",
    "bidPrice": "77,2476",
    "coupon_val": 1,
    "maturityInDays": "957 nap",
    "securityType": "KTV",
    "maturityDate": "2025.11.26",
    "name": "2025/C",
    "bidEhmYield": "11,54",
    "askYield": "10,74",
    "currency": "HUF",
    "maturityInDays_val": 957,
    "issueDate": "2019.11.13",
    "longName": "A251126C19"
}