{
    "askPrice": "81,0988",
    "green": 0,
    "coupon": "1,00 %",
    "accruedInterest": "0,4904",
    "settleDate": "2023.05.24",
    "askEhmYield": "9,85",
    "bidYield": "10,66",
    "rawName": "2025/C",
    "bidPrice": "79,6465",
    "coupon_val": 1,
    "maturityInDays": "917 nap",
    "securityType": "KTV",
    "maturityDate": "2025.11.26",
    "name": "2025/C",
    "bidEhmYield": "10,65",
    "askYield": "9,86",
    "currency": "HUF",
    "maturityInDays_val": 917,
    "issueDate": "2019.11.13",
    "longName": "A251126C19"
}