{
    "askPrice": "88,7353",
    "green": 0,
    "coupon": "1,00 %",
    "accruedInterest": "0,9644",
    "settleDate": "2023.11.13",
    "askEhmYield": "7,13",
    "bidYield": "7,83",
    "rawName": "2025/C",
    "bidPrice": "87,5894",
    "coupon_val": 1,
    "maturityInDays": "744 nap",
    "securityType": "KTV",
    "maturityDate": "2025.11.26",
    "name": "2025/C",
    "bidEhmYield": "7,82",
    "askYield": "7,14",
    "currency": "HUF",
    "maturityInDays_val": 744,
    "issueDate": "2019.11.13",
    "longName": "A251126C19"
}