{
    "askPrice": "88,6300",
    "green": 0,
    "coupon": "1,00 %",
    "accruedInterest": "0,9699",
    "settleDate": "2023.11.15",
    "askEhmYield": "7,21",
    "bidYield": "7,90",
    "rawName": "2025/C",
    "bidPrice": "87,5057",
    "coupon_val": 1,
    "maturityInDays": "742 nap",
    "securityType": "KTV",
    "maturityDate": "2025.11.26",
    "name": "2025/C",
    "bidEhmYield": "7,89",
    "askYield": "7,22",
    "currency": "HUF",
    "maturityInDays_val": 742,
    "issueDate": "2019.11.13",
    "longName": "A251126C19"
}