{
    "askPrice": "79,5347",
    "green": 0,
    "coupon": "1,00 %",
    "accruedInterest": "0,1973",
    "settleDate": "2023.02.06",
    "askEhmYield": "9,67",
    "bidYield": "10,50",
    "rawName": "2025/C",
    "bidPrice": "77,9073",
    "coupon_val": 1,
    "maturityInDays": "1024 nap",
    "securityType": "KTV",
    "maturityDate": "2025.11.26",
    "name": "2025/C",
    "bidEhmYield": "10,49",
    "askYield": "9,68",
    "currency": "HUF",
    "maturityInDays_val": 1024,
    "issueDate": "2019.11.13",
    "longName": "A251126C19"
}