{
    "askPrice": "79,3268",
    "green": 0,
    "coupon": "1,00 %",
    "accruedInterest": "0,1452",
    "settleDate": "2023.01.18",
    "askEhmYield": "9,61",
    "bidYield": "10,40",
    "rawName": "2025/C",
    "bidPrice": "77,7532",
    "coupon_val": 1,
    "maturityInDays": "1043 nap",
    "securityType": "KTV",
    "maturityDate": "2025.11.26",
    "name": "2025/C",
    "bidEhmYield": "10,39",
    "askYield": "9,62",
    "currency": "HUF",
    "maturityInDays_val": 1043,
    "issueDate": "2019.11.13",
    "longName": "A251126C19"
}