{
    "askPrice": "84,2689",
    "green": 0,
    "coupon": "1,00 %",
    "accruedInterest": "0,6849",
    "settleDate": "2023.08.03",
    "askEhmYield": "8,79",
    "bidYield": "9,51",
    "rawName": "2025/C",
    "bidPrice": "83,0176",
    "coupon_val": 1,
    "maturityInDays": "846 nap",
    "securityType": "KTV",
    "maturityDate": "2025.11.26",
    "name": "2025/C",
    "bidEhmYield": "9,50",
    "askYield": "8,80",
    "currency": "HUF",
    "maturityInDays_val": 846,
    "issueDate": "2019.11.13",
    "longName": "A251126C19"
}