{
    "askPrice": "84,3245",
    "green": 0,
    "coupon": "1,00 %",
    "accruedInterest": "0,6795",
    "settleDate": "2023.08.01",
    "askEhmYield": "8,74",
    "bidYield": "9,48",
    "rawName": "2025/C",
    "bidPrice": "83,0338",
    "coupon_val": 1,
    "maturityInDays": "848 nap",
    "securityType": "KTV",
    "maturityDate": "2025.11.26",
    "name": "2025/C",
    "bidEhmYield": "9,47",
    "askYield": "8,75",
    "currency": "HUF",
    "maturityInDays_val": 848,
    "issueDate": "2019.11.13",
    "longName": "A251126C19"
}