{
    "askPrice": "89,6904",
    "green": 0,
    "coupon": "1,00 %",
    "accruedInterest": "0,0219",
    "settleDate": "2023.12.04",
    "askEhmYield": "6,73",
    "bidYield": "7,42",
    "rawName": "2025/C",
    "bidPrice": "88,5764",
    "coupon_val": 1,
    "maturityInDays": "723 nap",
    "securityType": "KTV",
    "maturityDate": "2025.11.26",
    "name": "2025/C",
    "bidEhmYield": "7,41",
    "askYield": "6,74",
    "currency": "HUF",
    "maturityInDays_val": 723,
    "issueDate": "2019.11.13",
    "longName": "A251126C19"
}