{
    "askPrice": "82,6281",
    "green": 0,
    "coupon": "1,00 %",
    "accruedInterest": "0,5616",
    "settleDate": "2023.06.19",
    "askEhmYield": "9,27",
    "bidYield": "10,11",
    "rawName": "2025/C",
    "bidPrice": "81,1283",
    "coupon_val": 1,
    "maturityInDays": "891 nap",
    "securityType": "KTV",
    "maturityDate": "2025.11.26",
    "name": "2025/C",
    "bidEhmYield": "10,10",
    "askYield": "9,28",
    "currency": "HUF",
    "maturityInDays_val": 891,
    "issueDate": "2019.11.13",
    "longName": "A251126C19"
}