{
    "askPrice": "80,1204",
    "green": 0,
    "coupon": "1,00 %",
    "accruedInterest": "0,4301",
    "settleDate": "2023.05.02",
    "askEhmYield": "10,16",
    "bidYield": "10,99",
    "rawName": "2025/C",
    "bidPrice": "78,6200",
    "coupon_val": 1,
    "maturityInDays": "939 nap",
    "securityType": "KTV",
    "maturityDate": "2025.11.26",
    "name": "2025/C",
    "bidEhmYield": "10,98",
    "askYield": "10,17",
    "currency": "HUF",
    "maturityInDays_val": 939,
    "issueDate": "2019.11.13",
    "longName": "A251126C19"
}