{
    "askPrice": "90,1946",
    "green": 0,
    "coupon": "1,00 %",
    "accruedInterest": "0,0410",
    "settleDate": "2023.12.11",
    "askEhmYield": "6,48",
    "bidYield": "7,16",
    "rawName": "2025/C",
    "bidPrice": "89,0986",
    "coupon_val": 1,
    "maturityInDays": "716 nap",
    "securityType": "KTV",
    "maturityDate": "2025.11.26",
    "name": "2025/C",
    "bidEhmYield": "7,15",
    "askYield": "6,49",
    "currency": "HUF",
    "maturityInDays_val": 716,
    "issueDate": "2019.11.13",
    "longName": "A251126C19"
}