{
    "askPrice": "79,2416",
    "green": 0,
    "coupon": "1,00 %",
    "accruedInterest": "0,3562",
    "settleDate": "2023.04.05",
    "askEhmYield": "10,36",
    "bidYield": "11,20",
    "rawName": "2025/C",
    "bidPrice": "77,7007",
    "coupon_val": 1,
    "maturityInDays": "966 nap",
    "securityType": "KTV",
    "maturityDate": "2025.11.26",
    "name": "2025/C",
    "bidEhmYield": "11,19",
    "askYield": "10,37",
    "currency": "HUF",
    "maturityInDays_val": 966,
    "issueDate": "2019.11.13",
    "longName": "A251126C19"
}