{
    "askPrice": "91,3826",
    "green": 0,
    "coupon": "1,00 %",
    "accruedInterest": "0,1011",
    "settleDate": "2024.01.02",
    "askEhmYield": "5,92",
    "bidYield": "6,60",
    "rawName": "2025/C",
    "bidPrice": "90,2998",
    "coupon_val": 1,
    "maturityInDays": "694 nap",
    "securityType": "KTV",
    "maturityDate": "2025.11.26",
    "name": "2025/C",
    "bidEhmYield": "6,59",
    "askYield": "5,93",
    "currency": "HUF",
    "maturityInDays_val": 694,
    "issueDate": "2019.11.13",
    "longName": "A251126C19"
}