{
    "askPrice": "86,8812",
    "green": 0,
    "coupon": "1,00 %",
    "accruedInterest": "0,8603",
    "settleDate": "2023.10.06",
    "askEhmYield": "7,89",
    "bidYield": "8,58",
    "rawName": "2025/C",
    "bidPrice": "85,7276",
    "coupon_val": 1,
    "maturityInDays": "782 nap",
    "securityType": "KTV",
    "maturityDate": "2025.11.26",
    "name": "2025/C",
    "bidEhmYield": "8,57",
    "askYield": "7,90",
    "currency": "HUF",
    "maturityInDays_val": 782,
    "issueDate": "2019.11.13",
    "longName": "A251126C19"
}