{
    "askPrice": "87,2279",
    "green": 0,
    "coupon": "1,00 %",
    "accruedInterest": "0,8356",
    "settleDate": "2023.09.27",
    "askEhmYield": "7,61",
    "bidYield": "8,29",
    "rawName": "2025/C",
    "bidPrice": "86,0706",
    "coupon_val": 1,
    "maturityInDays": "791 nap",
    "securityType": "KTV",
    "maturityDate": "2025.11.26",
    "name": "2025/C",
    "bidEhmYield": "8,28",
    "askYield": "7,62",
    "currency": "HUF",
    "maturityInDays_val": 791,
    "issueDate": "2019.11.13",
    "longName": "A251126C19"
}