{
    "askPrice": "89,6042",
    "green": 0,
    "coupon": "1,00 %",
    "accruedInterest": "0,0109",
    "settleDate": "2023.11.30",
    "askEhmYield": "6,75",
    "bidYield": "7,37",
    "rawName": "2025/C",
    "bidPrice": "88,5996",
    "coupon_val": 1,
    "maturityInDays": "727 nap",
    "securityType": "KTV",
    "maturityDate": "2025.11.26",
    "name": "2025/C",
    "bidEhmYield": "7,36",
    "askYield": "6,76",
    "currency": "HUF",
    "maturityInDays_val": 727,
    "issueDate": "2019.11.13",
    "longName": "A251126C19"
}