{
    "askPrice": "79,4291",
    "green": 0,
    "coupon": "1,00 %",
    "accruedInterest": "0,1288",
    "settleDate": "2023.01.12",
    "askEhmYield": "9,51",
    "bidYield": "10,32",
    "rawName": "2025/C",
    "bidPrice": "77,8031",
    "coupon_val": 1,
    "maturityInDays": "1049 nap",
    "securityType": "KTV",
    "maturityDate": "2025.11.26",
    "name": "2025/C",
    "bidEhmYield": "10,31",
    "askYield": "9,52",
    "currency": "HUF",
    "maturityInDays_val": 1049,
    "issueDate": "2019.11.13",
    "longName": "A251126C19"
}