{
    "askPrice": "91,3826",
    "green": 0,
    "coupon": "1,00 %",
    "accruedInterest": "0,3962",
    "settleDate": "2024.04.19",
    "askEhmYield": "6,84",
    "bidYield": "7,53",
    "rawName": "2025/C",
    "bidPrice": "90,4596",
    "coupon_val": 1,
    "maturityInDays": "586 nap",
    "securityType": "KTV",
    "maturityDate": "2025.11.26",
    "name": "2025/C",
    "bidEhmYield": "7,52",
    "askYield": "6,85",
    "currency": "HUF",
    "maturityInDays_val": 586,
    "issueDate": "2019.11.13",
    "longName": "A251126C19"
}