{
    "askPrice": "92,3914",
    "green": 0,
    "coupon": "1,00 %",
    "accruedInterest": "0,2978",
    "settleDate": "2024.03.14",
    "askEhmYield": "5,81",
    "bidYield": "6,50",
    "rawName": "2025/C",
    "bidPrice": "91,3923",
    "coupon_val": 1,
    "maturityInDays": "622 nap",
    "securityType": "KTV",
    "maturityDate": "2025.11.26",
    "name": "2025/C",
    "bidEhmYield": "6,49",
    "askYield": "5,82",
    "currency": "HUF",
    "maturityInDays_val": 622,
    "issueDate": "2019.11.13",
    "longName": "A251126C19"
}