{
    "askPrice": "92,2759",
    "green": 0,
    "coupon": "1,00 %",
    "accruedInterest": "0,3087",
    "settleDate": "2024.03.18",
    "askEhmYield": "5,92",
    "bidYield": "6,60",
    "rawName": "2025/C",
    "bidPrice": "91,2999",
    "coupon_val": 1,
    "maturityInDays": "618 nap",
    "securityType": "KTV",
    "maturityDate": "2025.11.26",
    "name": "2025/C",
    "bidEhmYield": "6,59",
    "askYield": "5,93",
    "currency": "HUF",
    "maturityInDays_val": 618,
    "issueDate": "2019.11.13",
    "longName": "A251126C19"
}