{
    "askPrice": "92,3417",
    "green": 0,
    "coupon": "1,00 %",
    "accruedInterest": "0,1366",
    "settleDate": "2024.01.15",
    "askEhmYield": "5,42",
    "bidYield": "6,11",
    "rawName": "2025/C",
    "bidPrice": "91,2466",
    "coupon_val": 1,
    "maturityInDays": "681 nap",
    "securityType": "KTV",
    "maturityDate": "2025.11.26",
    "name": "2025/C",
    "bidEhmYield": "6,10",
    "askYield": "5,43",
    "currency": "HUF",
    "maturityInDays_val": 681,
    "issueDate": "2019.11.13",
    "longName": "A251126C19"
}