{
    "askPrice": "92,4526",
    "green": 0,
    "coupon": "1,00 %",
    "accruedInterest": "0,2131",
    "settleDate": "2024.02.12",
    "askEhmYield": "5,54",
    "bidYield": "6,23",
    "rawName": "2025/C",
    "bidPrice": "91,4015",
    "coupon_val": 1,
    "maturityInDays": "653 nap",
    "securityType": "KTV",
    "maturityDate": "2025.11.26",
    "name": "2025/C",
    "bidEhmYield": "6,22",
    "askYield": "5,55",
    "currency": "HUF",
    "maturityInDays_val": 653,
    "issueDate": "2019.11.13",
    "longName": "A251126C19"
}