{
    "askPrice": "91,8366",
    "green": 0,
    "coupon": "1,00 %",
    "accruedInterest": "0,3552",
    "settleDate": "2024.04.04",
    "askEhmYield": "6,37",
    "bidYield": "7,06",
    "rawName": "2025/C",
    "bidPrice": "90,8815",
    "coupon_val": 1,
    "maturityInDays": "601 nap",
    "securityType": "KTV",
    "maturityDate": "2025.11.26",
    "name": "2025/C",
    "bidEhmYield": "7,05",
    "askYield": "6,38",
    "currency": "HUF",
    "maturityInDays_val": 601,
    "issueDate": "2019.11.13",
    "longName": "A251126C19"
}