{
    "askPrice": "92,4266",
    "green": 0,
    "coupon": "1,00 %",
    "accruedInterest": "0,2814",
    "settleDate": "2024.03.08",
    "askEhmYield": "5,74",
    "bidYield": "6,43",
    "rawName": "2025/C",
    "bidPrice": "91,4171",
    "coupon_val": 1,
    "maturityInDays": "628 nap",
    "securityType": "KTV",
    "maturityDate": "2025.11.26",
    "name": "2025/C",
    "bidEhmYield": "6,42",
    "askYield": "5,75",
    "currency": "HUF",
    "maturityInDays_val": 628,
    "issueDate": "2019.11.13",
    "longName": "A251126C19"
}