{
    "askPrice": "92,2067",
    "green": 0,
    "coupon": "1,00 %",
    "accruedInterest": "0,1475",
    "settleDate": "2024.01.19",
    "askEhmYield": "5,53",
    "bidYield": "6,22",
    "rawName": "2025/C",
    "bidPrice": "91,1205",
    "coupon_val": 1,
    "maturityInDays": "677 nap",
    "securityType": "KTV",
    "maturityDate": "2025.11.26",
    "name": "2025/C",
    "bidEhmYield": "6,21",
    "askYield": "5,54",
    "currency": "HUF",
    "maturityInDays_val": 677,
    "issueDate": "2019.11.13",
    "longName": "A251126C19"
}