{
    "askPrice": "92,4590",
    "green": 0,
    "coupon": "1,00 %",
    "accruedInterest": "0,2186",
    "settleDate": "2024.02.14",
    "askEhmYield": "5,55",
    "bidYield": "6,24",
    "rawName": "2025/C",
    "bidPrice": "91,4110",
    "coupon_val": 1,
    "maturityInDays": "651 nap",
    "securityType": "KTV",
    "maturityDate": "2025.11.26",
    "name": "2025/C",
    "bidEhmYield": "6,23",
    "askYield": "5,56",
    "currency": "HUF",
    "maturityInDays_val": 651,
    "issueDate": "2019.11.13",
    "longName": "A251126C19"
}