{
    "askPrice": "91,3341",
    "green": 0,
    "coupon": "1,00 %",
    "accruedInterest": "0,4262",
    "settleDate": "2024.04.30",
    "askEhmYield": "6,99",
    "bidYield": "7,68",
    "rawName": "2025/C",
    "bidPrice": "90,4298",
    "coupon_val": 1,
    "maturityInDays": "575 nap",
    "securityType": "KTV",
    "maturityDate": "2025.11.26",
    "name": "2025/C",
    "bidEhmYield": "7,67",
    "askYield": "7,00",
    "currency": "HUF",
    "maturityInDays_val": 575,
    "issueDate": "2019.11.13",
    "longName": "A251126C19"
}