{
    "askPrice": "92,0074",
    "green": 0,
    "coupon": "1,00 %",
    "accruedInterest": "0,4617",
    "settleDate": "2024.05.13",
    "askEhmYield": "6,62",
    "bidYield": "7,30",
    "rawName": "2025/C",
    "bidPrice": "91,1267",
    "coupon_val": 1,
    "maturityInDays": "562 nap",
    "securityType": "KTV",
    "maturityDate": "2025.11.26",
    "name": "2025/C",
    "bidEhmYield": "7,29",
    "askYield": "6,63",
    "currency": "HUF",
    "maturityInDays_val": 562,
    "issueDate": "2019.11.13",
    "longName": "A251126C19"
}