{
    "askPrice": "91,4110",
    "green": 0,
    "coupon": "1,00 %",
    "accruedInterest": "0,4071",
    "settleDate": "2024.04.23",
    "askEhmYield": "6,86",
    "bidYield": "7,54",
    "rawName": "2025/C",
    "bidPrice": "90,5074",
    "coupon_val": 1,
    "maturityInDays": "582 nap",
    "securityType": "KTV",
    "maturityDate": "2025.11.26",
    "name": "2025/C",
    "bidEhmYield": "7,53",
    "askYield": "6,87",
    "currency": "HUF",
    "maturityInDays_val": 582,
    "issueDate": "2019.11.13",
    "longName": "A251126C19"
}