{
    "askPrice": "91,9303",
    "green": 0,
    "coupon": "1,00 %",
    "accruedInterest": "0,3197",
    "settleDate": "2024.03.22",
    "askEhmYield": "6,19",
    "bidYield": "6,87",
    "rawName": "2025/C",
    "bidPrice": "90,9666",
    "coupon_val": 1,
    "maturityInDays": "614 nap",
    "securityType": "KTV",
    "maturityDate": "2025.11.26",
    "name": "2025/C",
    "bidEhmYield": "6,86",
    "askYield": "6,20",
    "currency": "HUF",
    "maturityInDays_val": 614,
    "issueDate": "2019.11.13",
    "longName": "A251126C19"
}