{
    "askPrice": "91,2749",
    "green": 0,
    "coupon": "1,00 %",
    "accruedInterest": "0,1175",
    "settleDate": "2024.01.08",
    "askEhmYield": "6,03",
    "bidYield": "6,71",
    "rawName": "2025/C",
    "bidPrice": "90,2036",
    "coupon_val": 1,
    "maturityInDays": "688 nap",
    "securityType": "KTV",
    "maturityDate": "2025.11.26",
    "name": "2025/C",
    "bidEhmYield": "6,70",
    "askYield": "6,04",
    "currency": "HUF",
    "maturityInDays_val": 688,
    "issueDate": "2019.11.13",
    "longName": "A251126C19"
}