{
    "askPrice": "92,5358",
    "green": 0,
    "coupon": "1,00 %",
    "accruedInterest": "0,2377",
    "settleDate": "2024.02.21",
    "askEhmYield": "5,55",
    "bidYield": "6,25",
    "rawName": "2025/C",
    "bidPrice": "91,4829",
    "coupon_val": 1,
    "maturityInDays": "644 nap",
    "securityType": "KTV",
    "maturityDate": "2025.11.26",
    "name": "2025/C",
    "bidEhmYield": "6,24",
    "askYield": "5,56",
    "currency": "HUF",
    "maturityInDays_val": 644,
    "issueDate": "2019.11.13",
    "longName": "A251126C19"
}