{
    "askPrice": "91,9491",
    "green": 0,
    "coupon": "1,00 %",
    "accruedInterest": "0,3142",
    "settleDate": "2024.03.20",
    "askEhmYield": "6,16",
    "bidYield": "6,85",
    "rawName": "2025/C",
    "bidPrice": "90,9675",
    "coupon_val": 1,
    "maturityInDays": "616 nap",
    "securityType": "KTV",
    "maturityDate": "2025.11.26",
    "name": "2025/C",
    "bidEhmYield": "6,84",
    "askYield": "6,17",
    "currency": "HUF",
    "maturityInDays_val": 616,
    "issueDate": "2019.11.13",
    "longName": "A251126C19"
}