{
    "askPrice": "",
    "green": 0,
    "coupon": "9,00 %",
    "accruedInterest": "5,8192",
    "settleDate": "2023.08.21",
    "askEhmYield": "",
    "bidYield": "11,70",
    "rawName": "K2023/52",
    "bidPrice": "99,0000",
    "coupon_val": 9,
    "maturityInDays": "129 nap",
    "securityType": "1MÁP",
    "maturityDate": "2023.12.28",
    "name": "K2023/52",
    "bidEhmYield": "11,29",
    "askYield": "",
    "currency": "HUF",
    "maturityInDays_val": 129,
    "issueDate": "2022.12.28",
    "longName": "K231228"
}