{
    "askPrice": "",
    "green": 0,
    "coupon": "9,00 %",
    "accruedInterest": "8,7534",
    "settleDate": "2023.12.18",
    "askEhmYield": "",
    "bidYield": "32,92",
    "rawName": "K2023/52",
    "bidPrice": "99,4000",
    "coupon_val": 9,
    "maturityInDays": "10 nap",
    "securityType": "1MÁP",
    "maturityDate": "2023.12.28",
    "name": "K2023/52",
    "bidEhmYield": "28,57",
    "askYield": "",
    "currency": "HUF",
    "maturityInDays_val": 10,
    "issueDate": "2022.12.28",
    "longName": "K231228"
}