{
    "askPrice": "",
    "green": 0,
    "coupon": "9,00 %",
    "accruedInterest": "7,4219",
    "settleDate": "2023.10.25",
    "askEhmYield": "",
    "bidYield": "14,63",
    "rawName": "K2023/52",
    "bidPrice": "99,0000",
    "coupon_val": 9,
    "maturityInDays": "64 nap",
    "securityType": "1MÁP",
    "maturityDate": "2023.12.28",
    "name": "K2023/52",
    "bidEhmYield": "13,82",
    "askYield": "",
    "currency": "HUF",
    "maturityInDays_val": 64,
    "issueDate": "2022.12.28",
    "longName": "K231228"
}