{
    "askPrice": "",
    "green": 0,
    "coupon": "9,00 %",
    "accruedInterest": "8,8274",
    "settleDate": "2023.12.21",
    "askEhmYield": "",
    "bidYield": "44,91",
    "rawName": "K2023/52",
    "bidPrice": "99,4000",
    "coupon_val": 9,
    "maturityInDays": "7 nap",
    "securityType": "1MÁP",
    "maturityDate": "2023.12.28",
    "name": "K2023/52",
    "bidEhmYield": "37,22",
    "askYield": "",
    "currency": "HUF",
    "maturityInDays_val": 7,
    "issueDate": "2022.12.28",
    "longName": "K231228"
}