{
    "askPrice": "",
    "green": 0,
    "coupon": "9,00 %",
    "accruedInterest": "4,3644",
    "settleDate": "2023.06.23",
    "askEhmYield": "",
    "bidYield": "10,86",
    "rawName": "K2023/52",
    "bidPrice": "99,0000",
    "coupon_val": 9,
    "maturityInDays": "188 nap",
    "securityType": "1MÁP",
    "maturityDate": "2023.12.28",
    "name": "K2023/52",
    "bidEhmYield": "10,59",
    "askYield": "",
    "currency": "HUF",
    "maturityInDays_val": 188,
    "issueDate": "2022.12.28",
    "longName": "K231228"
}