{
    "askPrice": "",
    "green": 0,
    "coupon": "9,00 %",
    "accruedInterest": "0,5671",
    "settleDate": "2023.01.20",
    "askEhmYield": "",
    "bidYield": "10,14",
    "rawName": "K2023/52",
    "bidPrice": "99,0000",
    "coupon_val": 9,
    "maturityInDays": "342 nap",
    "securityType": "1MÁP",
    "maturityDate": "2023.12.28",
    "name": "K2023/52",
    "bidEhmYield": "10,11",
    "askYield": "",
    "currency": "HUF",
    "maturityInDays_val": 342,
    "issueDate": "2022.12.28",
    "longName": "K231228"
}