{
    "askPrice": "",
    "green": 0,
    "coupon": "9,00 %",
    "accruedInterest": "3,4767",
    "settleDate": "2023.05.18",
    "askEhmYield": "",
    "bidYield": "10,58",
    "rawName": "K2023/52",
    "bidPrice": "99,0000",
    "coupon_val": 9,
    "maturityInDays": "224 nap",
    "securityType": "1MÁP",
    "maturityDate": "2023.12.28",
    "name": "K2023/52",
    "bidEhmYield": "10,37",
    "askYield": "",
    "currency": "HUF",
    "maturityInDays_val": 224,
    "issueDate": "2022.12.28",
    "longName": "K231228"
}