{
    "askPrice": "",
    "green": 0,
    "coupon": "9,00 %",
    "accruedInterest": "6,3863",
    "settleDate": "2023.09.13",
    "askEhmYield": "",
    "bidYield": "12,31",
    "rawName": "K2023/52",
    "bidPrice": "99,0000",
    "coupon_val": 9,
    "maturityInDays": "106 nap",
    "securityType": "1MÁP",
    "maturityDate": "2023.12.28",
    "name": "K2023/52",
    "bidEhmYield": "11,81",
    "askYield": "",
    "currency": "HUF",
    "maturityInDays_val": 106,
    "issueDate": "2022.12.28",
    "longName": "K231228"
}