{
    "askPrice": "",
    "green": 0,
    "coupon": "9,00 %",
    "accruedInterest": "4,2658",
    "settleDate": "2023.06.19",
    "askEhmYield": "",
    "bidYield": "10,82",
    "rawName": "K2023/52",
    "bidPrice": "99,0000",
    "coupon_val": 9,
    "maturityInDays": "192 nap",
    "securityType": "1MÁP",
    "maturityDate": "2023.12.28",
    "name": "K2023/52",
    "bidEhmYield": "10,56",
    "askYield": "",
    "currency": "HUF",
    "maturityInDays_val": 192,
    "issueDate": "2022.12.28",
    "longName": "K231228"
}