{
    "askPrice": "",
    "green": 0,
    "coupon": "9,00 %",
    "accruedInterest": "8,8027",
    "settleDate": "2023.12.20",
    "askEhmYield": "",
    "bidYield": "39,79",
    "rawName": "K2023/52",
    "bidPrice": "99,4000",
    "coupon_val": 9,
    "maturityInDays": "8 nap",
    "securityType": "1MÁP",
    "maturityDate": "2023.12.28",
    "name": "K2023/52",
    "bidEhmYield": "33,62",
    "askYield": "",
    "currency": "HUF",
    "maturityInDays_val": 8,
    "issueDate": "2022.12.28",
    "longName": "K231228"
}