{
    "askPrice": "",
    "green": 0,
    "coupon": "9,00 %",
    "accruedInterest": "5,4740",
    "settleDate": "2023.08.07",
    "askEhmYield": "",
    "bidYield": "11,43",
    "rawName": "K2023/52",
    "bidPrice": "99,0000",
    "coupon_val": 9,
    "maturityInDays": "143 nap",
    "securityType": "1MÁP",
    "maturityDate": "2023.12.28",
    "name": "K2023/52",
    "bidEhmYield": "11,06",
    "askYield": "",
    "currency": "HUF",
    "maturityInDays_val": 143,
    "issueDate": "2022.12.28",
    "longName": "K231228"
}