{
    "askPrice": "",
    "green": 0,
    "coupon": "9,00 %",
    "accruedInterest": "5,3014",
    "settleDate": "2023.07.31",
    "askEhmYield": "",
    "bidYield": "11,32",
    "rawName": "K2023/52",
    "bidPrice": "99,0000",
    "coupon_val": 9,
    "maturityInDays": "150 nap",
    "securityType": "1MÁP",
    "maturityDate": "2023.12.28",
    "name": "K2023/52",
    "bidEhmYield": "10,96",
    "askYield": "",
    "currency": "HUF",
    "maturityInDays_val": 150,
    "issueDate": "2022.12.28",
    "longName": "K231228"
}