{
    "askPrice": "",
    "green": 0,
    "coupon": "9,00 %",
    "accruedInterest": "5,9918",
    "settleDate": "2023.08.28",
    "askEhmYield": "",
    "bidYield": "11,86",
    "rawName": "K2023/52",
    "bidPrice": "99,0000",
    "coupon_val": 9,
    "maturityInDays": "122 nap",
    "securityType": "1MÁP",
    "maturityDate": "2023.12.28",
    "name": "K2023/52",
    "bidEhmYield": "11,42",
    "askYield": "",
    "currency": "HUF",
    "maturityInDays_val": 122,
    "issueDate": "2022.12.28",
    "longName": "K231228"
}