{
    "askPrice": "",
    "green": 0,
    "coupon": "9,00 %",
    "accruedInterest": "8,6301",
    "settleDate": "2023.12.13",
    "askEhmYield": "",
    "bidYield": "27,13",
    "rawName": "K2023/52",
    "bidPrice": "99,3000",
    "coupon_val": 9,
    "maturityInDays": "15 nap",
    "securityType": "1MÁP",
    "maturityDate": "2023.12.28",
    "name": "K2023/52",
    "bidEhmYield": "24,12",
    "askYield": "",
    "currency": "HUF",
    "maturityInDays_val": 15,
    "issueDate": "2022.12.28",
    "longName": "K231228"
}