{
    "askPrice": "",
    "green": 0,
    "coupon": "9,00 %",
    "accruedInterest": "6,5589",
    "settleDate": "2023.09.20",
    "askEhmYield": "",
    "bidYield": "12,55",
    "rawName": "K2023/52",
    "bidPrice": "99,0000",
    "coupon_val": 9,
    "maturityInDays": "99 nap",
    "securityType": "1MÁP",
    "maturityDate": "2023.12.28",
    "name": "K2023/52",
    "bidEhmYield": "12,02",
    "askYield": "",
    "currency": "HUF",
    "maturityInDays_val": 99,
    "issueDate": "2022.12.28",
    "longName": "K231228"
}