{
    "askPrice": "",
    "green": 0,
    "coupon": "9,00 %",
    "accruedInterest": "8,0630",
    "settleDate": "2023.11.20",
    "askEhmYield": "",
    "bidYield": "18,79",
    "rawName": "K2023/52",
    "bidPrice": "99,0000",
    "coupon_val": 9,
    "maturityInDays": "38 nap",
    "securityType": "1MÁP",
    "maturityDate": "2023.12.28",
    "name": "K2023/52",
    "bidEhmYield": "17,38",
    "askYield": "",
    "currency": "HUF",
    "maturityInDays_val": 38,
    "issueDate": "2022.12.28",
    "longName": "K231228"
}