{
    "askPrice": "",
    "green": 0,
    "coupon": null,
    "accruedInterest": "2,58",
    "settleDate": "2022.10.10",
    "askEhmYield": "",
    "bidYield": "",
    "rawName": "2024/X_EUR",
    "bidPrice": "99,00",
    "maturityInDays": "772 nap",
    "securityType": "PEMÁP",
    "maturityDate": "2024.11.20",
    "name": "2024/X_EUR",
    "bidEhmYield": "",
    "askYield": "",
    "currency": "EUR",
    "maturityInDays_val": 772,
    "longName": "C241120X21"
}