{
    "askPrice": "",
    "green": 0,
    "coupon": null,
    "accruedInterest": "3,11",
    "settleDate": "2022.11.08",
    "askEhmYield": "",
    "bidYield": "",
    "rawName": "2024/X_EUR",
    "bidPrice": "99,00",
    "maturityInDays": "743 nap",
    "securityType": "PEMÁP",
    "maturityDate": "2024.11.20",
    "name": "2024/X_EUR",
    "bidEhmYield": "",
    "askYield": "",
    "currency": "EUR",
    "maturityInDays_val": 743,
    "issueDate": "2021-06-08",
    "longName": "C241120X21"
}