{
    "askPrice": "",
    "green": 0,
    "coupon": "3,50 %",
    "accruedInterest": "0,0192",
    "settleDate": "2022.12.14",
    "askEhmYield": "",
    "bidYield": "5,02",
    "rawName": "N2027/50",
    "bidPrice": "99,5000",
    "coupon_val": 3.5,
    "maturityInDays": "1824 nap",
    "securityType": "MÁP Plusz",
    "maturityDate": "2027.12.12",
    "name": "N2027/50",
    "bidEhmYield": "",
    "askYield": "",
    "currency": "HUF",
    "maturityInDays_val": 1824,
    "issueDate": "2022.12.12",
    "longName": "N271212"
}