{
    "askPrice": "",
    "green": 0,
    "coupon": "3,50 %",
    "accruedInterest": "1,2788",
    "settleDate": "2023.04.24",
    "askEhmYield": "",
    "bidYield": "5,15",
    "rawName": "N2027/50",
    "bidPrice": "99,5000",
    "coupon_val": 3.5,
    "maturityInDays": "1693 nap",
    "securityType": "MÁP Plusz",
    "maturityDate": "2027.12.12",
    "name": "N2027/50",
    "bidEhmYield": "",
    "askYield": "",
    "currency": "HUF",
    "maturityInDays_val": 1693,
    "issueDate": "2022.12.12",
    "longName": "N271212"
}