{
    "askPrice": "",
    "green": 0,
    "coupon": "9,00 %",
    "accruedInterest": "3,3288",
    "settleDate": "2023.12.21",
    "askEhmYield": "",
    "bidYield": "10,49",
    "rawName": "K2024/32",
    "bidPrice": "99,0000",
    "coupon_val": 9,
    "maturityInDays": "231 nap",
    "securityType": "1MÁP",
    "maturityDate": "2024.08.08",
    "name": "K2024/32",
    "bidEhmYield": "10,30",
    "askYield": "",
    "currency": "HUF",
    "maturityInDays_val": 231,
    "issueDate": "2023.08.08",
    "longName": "K240808"
}