{
    "askPrice": "",
    "green": 0,
    "coupon": "9,00 %",
    "accruedInterest": "2,2438",
    "settleDate": "2023.11.07",
    "askEhmYield": "",
    "bidYield": "10,29",
    "rawName": "K2024/32",
    "bidPrice": "99,0000",
    "coupon_val": 9,
    "maturityInDays": "275 nap",
    "securityType": "1MÁP",
    "maturityDate": "2024.08.08",
    "name": "K2024/32",
    "bidEhmYield": "10,17",
    "askYield": "",
    "currency": "HUF",
    "maturityInDays_val": 275,
    "issueDate": "2023.08.08",
    "longName": "K240808"
}