{
    "askPrice": "",
    "green": 0,
    "coupon": "9,00 %",
    "accruedInterest": "1,8986",
    "settleDate": "2023.10.24",
    "askEhmYield": "",
    "bidYield": "10,25",
    "rawName": "K2024/32",
    "bidPrice": "99,0000",
    "coupon_val": 9,
    "maturityInDays": "289 nap",
    "securityType": "1MÁP",
    "maturityDate": "2024.08.08",
    "name": "K2024/32",
    "bidEhmYield": "10,14",
    "askYield": "",
    "currency": "HUF",
    "maturityInDays_val": 289,
    "issueDate": "2023.08.08",
    "longName": "K240808"
}