{
    "askPrice": "",
    "green": 0,
    "coupon": "9,00 %",
    "accruedInterest": "4,6356",
    "settleDate": "2024.02.12",
    "askEhmYield": "",
    "bidYield": "10,90",
    "rawName": "K2024/32",
    "bidPrice": "99,0000",
    "coupon_val": 9,
    "maturityInDays": "178 nap",
    "securityType": "1MÁP",
    "maturityDate": "2024.08.08",
    "name": "K2024/32",
    "bidEhmYield": "10,61",
    "askYield": "",
    "currency": "HUF",
    "maturityInDays_val": 178,
    "issueDate": "2023.08.08",
    "longName": "K240808"
}