{
    "askPrice": "",
    "green": 0,
    "coupon": "9,00 %",
    "accruedInterest": "5,9918",
    "settleDate": "2024.04.08",
    "askEhmYield": "",
    "bidYield": "11,86",
    "rawName": "K2024/32",
    "bidPrice": "99,0000",
    "coupon_val": 9,
    "maturityInDays": "122 nap",
    "securityType": "1MÁP",
    "maturityDate": "2024.08.08",
    "name": "K2024/32",
    "bidEhmYield": "11,35",
    "askYield": "",
    "currency": "HUF",
    "maturityInDays_val": 122,
    "issueDate": "2023.08.08",
    "longName": "K240808"
}