{
    "askPrice": "",
    "green": 0,
    "coupon": "9,00 %",
    "accruedInterest": "6,5096",
    "settleDate": "2024.04.29",
    "askEhmYield": "",
    "bidYield": "12,48",
    "rawName": "K2024/32",
    "bidPrice": "99,0000",
    "coupon_val": 9,
    "maturityInDays": "101 nap",
    "securityType": "1MÁP",
    "maturityDate": "2024.08.08",
    "name": "K2024/32",
    "bidEhmYield": "11,87",
    "askYield": "",
    "currency": "HUF",
    "maturityInDays_val": 101,
    "issueDate": "2023.08.08",
    "longName": "K240808"
}