{
    "askPrice": "",
    "green": 0,
    "coupon": "9,00 %",
    "accruedInterest": "3,8466",
    "settleDate": "2024.01.11",
    "askEhmYield": "",
    "bidYield": "10,63",
    "rawName": "K2024/32",
    "bidPrice": "99,0000",
    "coupon_val": 9,
    "maturityInDays": "210 nap",
    "securityType": "1MÁP",
    "maturityDate": "2024.08.08",
    "name": "K2024/32",
    "bidEhmYield": "10,40",
    "askYield": "",
    "currency": "HUF",
    "maturityInDays_val": 210,
    "issueDate": "2023.08.08",
    "longName": "K240808"
}