{
    "askPrice": "",
    "green": 0,
    "coupon": "3,50 %",
    "accruedInterest": "2,15",
    "settleDate": "2022.07.25",
    "askEhmYield": "",
    "bidYield": "",
    "rawName": "N2026/05",
    "bidPrice": "99,50",
    "coupon_val": 3.5,
    "maturityInDays": "1287 nap",
    "securityType": "MÁP Plusz",
    "maturityDate": "2026.02.01",
    "name": "N2026/05",
    "bidEhmYield": "",
    "askYield": "",
    "currency": "HUF",
    "maturityInDays_val": 1287,
    "longName": "N260201"
}