{
    "askPrice": "",
    "green": 0,
    "coupon": "3,50 %",
    "accruedInterest": "3,6986",
    "settleDate": "2022.11.28",
    "askEhmYield": "",
    "bidYield": "5,59",
    "rawName": "N2026/05",
    "bidPrice": "99,5000",
    "coupon_val": 3.5,
    "maturityInDays": "1161 nap",
    "securityType": "MÁP Plusz",
    "maturityDate": "2026.02.01",
    "name": "N2026/05",
    "bidEhmYield": "",
    "askYield": "",
    "currency": "HUF",
    "maturityInDays_val": 1161,
    "issueDate": "2021.02.01",
    "longName": "N260201"
}