{
    "askPrice": "",
    "green": 0,
    "coupon": "3,50 %",
    "accruedInterest": "3,27",
    "settleDate": "2022.10.24",
    "askEhmYield": "",
    "bidYield": "5,56",
    "rawName": "N2026/05",
    "bidPrice": "99,50",
    "coupon_val": 3.5,
    "maturityInDays": "1196 nap",
    "securityType": "MÁP Plusz",
    "maturityDate": "2026.02.01",
    "name": "N2026/05",
    "bidEhmYield": "",
    "askYield": "",
    "currency": "HUF",
    "maturityInDays_val": 1196,
    "longName": "N260201"
}