{
    "askPrice": "",
    "green": 0,
    "coupon": "3,50 %",
    "accruedInterest": "4,2658",
    "settleDate": "2023.01.13",
    "askEhmYield": "",
    "bidYield": "5,64",
    "rawName": "N2026/05",
    "bidPrice": "99,5000",
    "coupon_val": 3.5,
    "maturityInDays": "1115 nap",
    "securityType": "MÁP Plusz",
    "maturityDate": "2026.02.01",
    "name": "N2026/05",
    "bidEhmYield": "",
    "askYield": "",
    "currency": "HUF",
    "maturityInDays_val": 1115,
    "issueDate": "2021.02.01",
    "longName": "N260201"
}