{
    "askPrice": "",
    "green": 0,
    "coupon": "3,50 %",
    "accruedInterest": "4,4753",
    "settleDate": "2023.01.30",
    "askEhmYield": "",
    "bidYield": "",
    "rawName": "N2026/05",
    "bidPrice": "",
    "coupon_val": 3.5,
    "maturityInDays": "1098 nap",
    "securityType": "MÁP Plusz",
    "maturityDate": "2026.02.01",
    "name": "N2026/05",
    "bidEhmYield": "",
    "askYield": "",
    "currency": "HUF",
    "maturityInDays_val": 1098,
    "issueDate": "2021.02.01",
    "longName": "N260201"
}