{
    "askPrice": "",
    "green": 0,
    "coupon": "3,50 %",
    "accruedInterest": "0,5260",
    "settleDate": "2024.03.07",
    "askEhmYield": "",
    "bidYield": "6,03",
    "rawName": "N2026/05",
    "bidPrice": "99,5000",
    "coupon_val": 3.5,
    "maturityInDays": "696 nap",
    "securityType": "MÁP Plusz",
    "maturityDate": "2026.02.01",
    "name": "N2026/05",
    "bidEhmYield": "",
    "askYield": "",
    "currency": "HUF",
    "maturityInDays_val": 696,
    "issueDate": "2021.02.01",
    "longName": "N260201"
}