{
    "askPrice": "",
    "green": 0,
    "coupon": "3,50 %",
    "accruedInterest": "1,83",
    "settleDate": "2022.08.01",
    "askEhmYield": "",
    "bidYield": "",
    "rawName": "N2026/33",
    "bidPrice": "99,50",
    "coupon_val": 3.5,
    "maturityInDays": "1476 nap",
    "securityType": "MÁP Plusz",
    "maturityDate": "2026.08.16",
    "name": "N2026/33",
    "bidEhmYield": "",
    "askYield": "",
    "currency": "HUF",
    "maturityInDays_val": 1476,
    "longName": "N260816"
}