{
    "askPrice": "",
    "green": 0,
    "coupon": "3,50 %",
    "accruedInterest": "0,85",
    "settleDate": "2022.10.24",
    "askEhmYield": "",
    "bidYield": "5,40",
    "rawName": "N2026/33",
    "bidPrice": "99,50",
    "coupon_val": 3.5,
    "maturityInDays": "1392 nap",
    "securityType": "MÁP Plusz",
    "maturityDate": "2026.08.16",
    "name": "N2026/33",
    "bidEhmYield": "",
    "askYield": "",
    "currency": "HUF",
    "maturityInDays_val": 1392,
    "longName": "N260816"
}