{
    "askPrice": "",
    "green": 0,
    "coupon": "3,50 %",
    "accruedInterest": "3,1192",
    "settleDate": "2023.04.26",
    "askEhmYield": "",
    "bidYield": "5,54",
    "rawName": "N2026/33",
    "bidPrice": "99,5000",
    "coupon_val": 3.5,
    "maturityInDays": "1208 nap",
    "securityType": "MÁP Plusz",
    "maturityDate": "2026.08.16",
    "name": "N2026/33",
    "bidEhmYield": "",
    "askYield": "",
    "currency": "HUF",
    "maturityInDays_val": 1208,
    "issueDate": "2021.08.16",
    "longName": "N260816"
}