{
    "askPrice": "",
    "green": 0,
    "coupon": "3,50 %",
    "accruedInterest": "3,3607",
    "settleDate": "2024.04.18",
    "askEhmYield": "",
    "bidYield": "5,85",
    "rawName": "N2026/33",
    "bidPrice": "99,5000",
    "coupon_val": 3.5,
    "maturityInDays": "850 nap",
    "securityType": "MÁP Plusz",
    "maturityDate": "2026.08.16",
    "name": "N2026/33",
    "bidEhmYield": "",
    "askYield": "",
    "currency": "HUF",
    "maturityInDays_val": 850,
    "issueDate": "2021.08.16",
    "longName": "N260816"
}