{
    "askPrice": "",
    "green": 0,
    "coupon": "3,50 %",
    "accruedInterest": "3,6475",
    "settleDate": "2024.05.09",
    "askEhmYield": "",
    "bidYield": "5,88",
    "rawName": "N2026/33",
    "bidPrice": "99,5000",
    "coupon_val": 3.5,
    "maturityInDays": "829 nap",
    "securityType": "MÁP Plusz",
    "maturityDate": "2026.08.16",
    "name": "N2026/33",
    "bidEhmYield": "",
    "askYield": "",
    "currency": "HUF",
    "maturityInDays_val": 829,
    "issueDate": "2021.08.16",
    "longName": "N260816"
}