{
    "askPrice": "",
    "green": 0,
    "coupon": "9,00 %",
    "accruedInterest": "2,4658",
    "settleDate": "2023.06.22",
    "askEhmYield": "",
    "bidYield": "10,33",
    "rawName": "K2024/11",
    "bidPrice": "99,0000",
    "coupon_val": 9,
    "maturityInDays": "266 nap",
    "securityType": "1MÁP",
    "maturityDate": "2024.03.14",
    "name": "K2024/11",
    "bidEhmYield": "10,19",
    "askYield": "",
    "currency": "HUF",
    "maturityInDays_val": 266,
    "issueDate": "2023.03.14",
    "longName": "K240314"
}