{
    "askPrice": "",
    "green": 0,
    "coupon": "9,00 %",
    "accruedInterest": "4,5123",
    "settleDate": "2023.09.13",
    "askEhmYield": "",
    "bidYield": "10,85",
    "rawName": "K2024/11",
    "bidPrice": "99,0000",
    "coupon_val": 9,
    "maturityInDays": "183 nap",
    "securityType": "1MÁP",
    "maturityDate": "2024.03.14",
    "name": "K2024/11",
    "bidEhmYield": "10,57",
    "askYield": "",
    "currency": "HUF",
    "maturityInDays_val": 183,
    "issueDate": "2023.03.14",
    "longName": "K240314"
}