{
    "askPrice": "",
    "green": 0,
    "coupon": "9,00 %",
    "accruedInterest": "0,9370",
    "settleDate": "2023.04.21",
    "askEhmYield": "",
    "bidYield": "10,14",
    "rawName": "K2024/11",
    "bidPrice": "99,0000",
    "coupon_val": 9,
    "maturityInDays": "328 nap",
    "securityType": "1MÁP",
    "maturityDate": "2024.03.14",
    "name": "K2024/11",
    "bidEhmYield": "10,09",
    "askYield": "",
    "currency": "HUF",
    "maturityInDays_val": 328,
    "issueDate": "2023.03.14",
    "longName": "K240314"
}