{
    "askPrice": "",
    "green": 0,
    "coupon": "9,00 %",
    "accruedInterest": "7,1014",
    "settleDate": "2023.12.27",
    "askEhmYield": "",
    "bidYield": "13,44",
    "rawName": "K2024/11",
    "bidPrice": "99,0000",
    "coupon_val": 9,
    "maturityInDays": "78 nap",
    "securityType": "1MÁP",
    "maturityDate": "2024.03.14",
    "name": "K2024/11",
    "bidEhmYield": "12,78",
    "askYield": "",
    "currency": "HUF",
    "maturityInDays_val": 78,
    "issueDate": "2023.03.14",
    "longName": "K240314"
}