{
    "askPrice": "",
    "green": 0,
    "coupon": "9,00 %",
    "accruedInterest": "6,8795",
    "settleDate": "2023.12.18",
    "askEhmYield": "",
    "bidYield": "12,96",
    "rawName": "K2024/11",
    "bidPrice": "99,0000",
    "coupon_val": 9,
    "maturityInDays": "87 nap",
    "securityType": "1MÁP",
    "maturityDate": "2024.03.14",
    "name": "K2024/11",
    "bidEhmYield": "12,36",
    "askYield": "",
    "currency": "HUF",
    "maturityInDays_val": 87,
    "issueDate": "2023.03.14",
    "longName": "K240314"
}