{
    "askPrice": "",
    "green": 0,
    "coupon": "9,00 %",
    "accruedInterest": "1,1096",
    "settleDate": "2023.04.28",
    "askEhmYield": "",
    "bidYield": "10,16",
    "rawName": "K2024/11",
    "bidPrice": "99,0000",
    "coupon_val": 9,
    "maturityInDays": "321 nap",
    "securityType": "1MÁP",
    "maturityDate": "2024.03.14",
    "name": "K2024/11",
    "bidEhmYield": "10,10",
    "askYield": "",
    "currency": "HUF",
    "maturityInDays_val": 321,
    "issueDate": "2023.03.14",
    "longName": "K240314"
}