{
    "askPrice": "",
    "green": 0,
    "coupon": "9,00 %",
    "accruedInterest": "8,6055",
    "settleDate": "2024.02.26",
    "askEhmYield": "",
    "bidYield": "24,20",
    "rawName": "K2024/11",
    "bidPrice": "99,3000",
    "coupon_val": 9,
    "maturityInDays": "17 nap",
    "securityType": "1MÁP",
    "maturityDate": "2024.03.14",
    "name": "K2024/11",
    "bidEhmYield": "21,78",
    "askYield": "",
    "currency": "HUF",
    "maturityInDays_val": 17,
    "issueDate": "2023.03.14",
    "longName": "K240314"
}