{
    "askPrice": "",
    "green": 0,
    "coupon": "9,00 %",
    "accruedInterest": "8,4575",
    "settleDate": "2024.02.20",
    "askEhmYield": "",
    "bidYield": "21,73",
    "rawName": "K2024/11",
    "bidPrice": "99,2000",
    "coupon_val": 9,
    "maturityInDays": "23 nap",
    "securityType": "1MÁP",
    "maturityDate": "2024.03.14",
    "name": "K2024/11",
    "bidEhmYield": "19,79",
    "askYield": "",
    "currency": "HUF",
    "maturityInDays_val": 23,
    "issueDate": "2023.03.14",
    "longName": "K240314"
}