{
    "askPrice": "",
    "green": 0,
    "coupon": "9,00 %",
    "accruedInterest": "8,4329",
    "settleDate": "2024.02.19",
    "askEhmYield": "",
    "bidYield": "21,16",
    "rawName": "K2024/11",
    "bidPrice": "99,2000",
    "coupon_val": 9,
    "maturityInDays": "24 nap",
    "securityType": "1MÁP",
    "maturityDate": "2024.03.14",
    "name": "K2024/11",
    "bidEhmYield": "19,32",
    "askYield": "",
    "currency": "HUF",
    "maturityInDays_val": 24,
    "issueDate": "2023.03.14",
    "longName": "K240314"
}