{
    "askPrice": "",
    "green": 0,
    "coupon": "9,00 %",
    "accruedInterest": "8,5315",
    "settleDate": "2024.02.23",
    "askEhmYield": "",
    "bidYield": "23,82",
    "rawName": "K2024/11",
    "bidPrice": "99,2000",
    "coupon_val": 9,
    "maturityInDays": "20 nap",
    "securityType": "1MÁP",
    "maturityDate": "2024.03.14",
    "name": "K2024/11",
    "bidEhmYield": "21,49",
    "askYield": "",
    "currency": "HUF",
    "maturityInDays_val": 20,
    "issueDate": "2023.03.14",
    "longName": "K240314"
}