{
    "askPrice": "",
    "green": 0,
    "coupon": "9,00 %",
    "accruedInterest": "7,6685",
    "settleDate": "2024.01.19",
    "askEhmYield": "",
    "bidYield": "15,43",
    "rawName": "K2024/11",
    "bidPrice": "99,0000",
    "coupon_val": 9,
    "maturityInDays": "55 nap",
    "securityType": "1MÁP",
    "maturityDate": "2024.03.14",
    "name": "K2024/11",
    "bidEhmYield": "14,51",
    "askYield": "",
    "currency": "HUF",
    "maturityInDays_val": 55,
    "issueDate": "2023.03.14",
    "longName": "K240314"
}