{
    "askPrice": "",
    "green": 0,
    "coupon": "3,50 %",
    "accruedInterest": "0,9416",
    "settleDate": "2023.11.21",
    "askEhmYield": "",
    "bidYield": "5,11",
    "rawName": "N2028/33",
    "bidPrice": "99,5000",
    "coupon_val": 3.5,
    "maturityInDays": "1728 nap",
    "securityType": "MÁP Plusz",
    "maturityDate": "2028.08.14",
    "name": "N2028/33",
    "bidEhmYield": "",
    "askYield": "",
    "currency": "HUF",
    "maturityInDays_val": 1728,
    "issueDate": "2023.08.14",
    "longName": "N280814"
}