{
    "askPrice": "",
    "green": 0,
    "coupon": "3,50 %",
    "accruedInterest": "0,5870",
    "settleDate": "2023.09.15",
    "askEhmYield": "",
    "bidYield": "5,24",
    "rawName": "N2028/04",
    "bidPrice": "99,5000",
    "coupon_val": 3.5,
    "maturityInDays": "1591 nap",
    "securityType": "MÁP Plusz",
    "maturityDate": "2028.01.23",
    "name": "N2028/04",
    "bidEhmYield": "",
    "askYield": "",
    "currency": "HUF",
    "maturityInDays_val": 1591,
    "issueDate": "2023.01.23",
    "longName": "N280123"
}