{
    "askPrice": "",
    "green": 0,
    "coupon": "3,50 %",
    "accruedInterest": "1,5953",
    "settleDate": "2023.07.07",
    "askEhmYield": "",
    "bidYield": "5,18",
    "rawName": "N2028/04",
    "bidPrice": "99,5000",
    "coupon_val": 3.5,
    "maturityInDays": "1661 nap",
    "securityType": "MÁP Plusz",
    "maturityDate": "2028.01.23",
    "name": "N2028/04",
    "bidEhmYield": "",
    "askYield": "",
    "currency": "HUF",
    "maturityInDays_val": 1661,
    "issueDate": "2023.01.23",
    "longName": "N280123"
}