{
    "askPrice": "96,2153",
    "green": 0,
    "coupon": 0,
    "accruedInterest": 0,
    "settleDate": "2023.12.27",
    "askEhmYield": "6,03",
    "bidYield": "6,75",
    "rawName": "D240821",
    "bidPrice": "95,7281",
    "maturityInDays": "238 nap",
    "securityType": "DKJ",
    "maturityDate": "2024.08.21",
    "name": "D240821",
    "bidEhmYield": "6,84",
    "askYield": "5,95",
    "currency": "HUF",
    "maturityInDays_val": 238,
    "issueDate": "2023.08.23",
    "longName": "D240821"
}