{
    "askPrice": "94,3478",
    "green": 0,
    "coupon": 0,
    "accruedInterest": 0,
    "settleDate": "2023.11.22",
    "askEhmYield": "8,01",
    "bidYield": "8,70",
    "rawName": "D240821",
    "bidPrice": "93,8108",
    "maturityInDays": "273 nap",
    "securityType": "DKJ",
    "maturityDate": "2024.08.21",
    "name": "D240821",
    "bidEhmYield": "8,82",
    "askYield": "7,90",
    "currency": "HUF",
    "maturityInDays_val": 273,
    "issueDate": "2023.08.23",
    "longName": "D240821"
}