{
    "askPrice": "93,1246",
    "green": 0,
    "coupon": 0,
    "accruedInterest": 0,
    "settleDate": "2023.10.05",
    "askEhmYield": "8,40",
    "bidYield": "9,11",
    "rawName": "D240821",
    "bidPrice": "92,4872",
    "maturityInDays": "321 nap",
    "securityType": "DKJ",
    "maturityDate": "2024.08.21",
    "name": "D240821",
    "bidEhmYield": "9,24",
    "askYield": "8,28",
    "currency": "HUF",
    "maturityInDays_val": 321,
    "issueDate": "2023.08.23",
    "longName": "D240821"
}