{
    "askPrice": "91,9944",
    "green": 0,
    "coupon": 0,
    "accruedInterest": 0,
    "settleDate": "2023.09.04",
    "askEhmYield": "9,02",
    "bidYield": "9,74",
    "rawName": "D240821",
    "bidPrice": "91,3046",
    "maturityInDays": "352 nap",
    "securityType": "DKJ",
    "maturityDate": "2024.08.21",
    "name": "D240821",
    "bidEhmYield": "9,88",
    "askYield": "8,90",
    "currency": "HUF",
    "maturityInDays_val": 352,
    "issueDate": "2023.08.23",
    "longName": "D240821"
}