{
    "askPrice": "91,6251",
    "green": 0,
    "coupon": 0,
    "accruedInterest": 0,
    "settleDate": "2023.08.23",
    "askEhmYield": "9,17",
    "bidYield": "9,73",
    "rawName": "D240821",
    "bidPrice": "91,0431",
    "maturityInDays": "364 nap",
    "securityType": "DKJ",
    "maturityDate": "2024.08.21",
    "name": "D240821",
    "bidEhmYield": "9,87",
    "askYield": "9,04",
    "currency": "HUF",
    "maturityInDays_val": 364,
    "issueDate": "2023.08.23",
    "longName": "D240821"
}