{
    "askPrice": "94,0808",
    "green": 0,
    "coupon": 0,
    "accruedInterest": 0,
    "settleDate": "2023.10.24",
    "askEhmYield": "7,60",
    "bidYield": "8,30",
    "rawName": "D240821",
    "bidPrice": "93,4905",
    "maturityInDays": "302 nap",
    "securityType": "DKJ",
    "maturityDate": "2024.08.21",
    "name": "D240821",
    "bidEhmYield": "8,42",
    "askYield": "7,50",
    "currency": "HUF",
    "maturityInDays_val": 302,
    "issueDate": "2023.08.23",
    "longName": "D240821"
}