{
    "askPrice": "93,4619",
    "green": 0,
    "coupon": 0,
    "accruedInterest": 0,
    "settleDate": "2023.10.17",
    "askEhmYield": "8,26",
    "bidYield": "8,95",
    "rawName": "D240821",
    "bidPrice": "92,8660",
    "maturityInDays": "309 nap",
    "securityType": "DKJ",
    "maturityDate": "2024.08.21",
    "name": "D240821",
    "bidEhmYield": "9,07",
    "askYield": "8,15",
    "currency": "HUF",
    "maturityInDays_val": 309,
    "issueDate": "2023.08.23",
    "longName": "D240821"
}