{
    "askPrice": "94,1551",
    "green": 0,
    "coupon": 0,
    "accruedInterest": 0,
    "settleDate": "2023.10.30",
    "askEhmYield": "7,65",
    "bidYield": "8,30",
    "rawName": "D240821",
    "bidPrice": "93,6115",
    "maturityInDays": "296 nap",
    "securityType": "DKJ",
    "maturityDate": "2024.08.21",
    "name": "D240821",
    "bidEhmYield": "8,42",
    "askYield": "7,55",
    "currency": "HUF",
    "maturityInDays_val": 296,
    "issueDate": "2023.08.23",
    "longName": "D240821"
}