{
    "askPrice": "97,0664",
    "green": 0,
    "coupon": 0,
    "accruedInterest": 0,
    "settleDate": "2024.03.04",
    "askEhmYield": "6,49",
    "bidYield": "7,14",
    "rawName": "D240821",
    "bidPrice": "96,7383",
    "maturityInDays": "170 nap",
    "securityType": "DKJ",
    "maturityDate": "2024.08.21",
    "name": "D240821",
    "bidEhmYield": "7,24",
    "askYield": "6,40",
    "currency": "HUF",
    "maturityInDays_val": 170,
    "issueDate": "2023.08.23",
    "longName": "D240821"
}