{
    "askPrice": "96,0721",
    "green": 0,
    "coupon": 0,
    "accruedInterest": 0,
    "settleDate": "2024.01.12",
    "askEhmYield": "6,72",
    "bidYield": "7,47",
    "rawName": "D240821",
    "bidPrice": "95,5964",
    "maturityInDays": "222 nap",
    "securityType": "DKJ",
    "maturityDate": "2024.08.21",
    "name": "D240821",
    "bidEhmYield": "7,57",
    "askYield": "6,63",
    "currency": "HUF",
    "maturityInDays_val": 222,
    "issueDate": "2023.08.23",
    "longName": "D240821"
}