{
    "askPrice": "98,0126",
    "green": 0,
    "coupon": 0,
    "accruedInterest": 0,
    "settleDate": "2024.04.30",
    "askEhmYield": "6,55",
    "bidYield": "7,30",
    "rawName": "D240821",
    "bidPrice": "97,7599",
    "maturityInDays": "113 nap",
    "securityType": "DKJ",
    "maturityDate": "2024.08.21",
    "name": "D240821",
    "bidEhmYield": "7,40",
    "askYield": "6,46",
    "currency": "HUF",
    "maturityInDays_val": 113,
    "issueDate": "2023.08.23",
    "longName": "D240821"
}