{
    "askPrice": "96,1298",
    "green": 0,
    "coupon": 0,
    "accruedInterest": 0,
    "settleDate": "2024.01.18",
    "askEhmYield": "6,80",
    "bidYield": "7,35",
    "rawName": "D240821",
    "bidPrice": "95,7763",
    "maturityInDays": "216 nap",
    "securityType": "DKJ",
    "maturityDate": "2024.08.21",
    "name": "D240821",
    "bidEhmYield": "7,45",
    "askYield": "6,71",
    "currency": "HUF",
    "maturityInDays_val": 216,
    "issueDate": "2023.08.23",
    "longName": "D240821"
}