{
    "askPrice": "98,2667",
    "green": 0,
    "coupon": 0,
    "accruedInterest": 0,
    "settleDate": "2024.05.13",
    "askEhmYield": "6,44",
    "bidYield": "7,23",
    "rawName": "D240821",
    "bidPrice": "98,0312",
    "maturityInDays": "100 nap",
    "securityType": "DKJ",
    "maturityDate": "2024.08.21",
    "name": "D240821",
    "bidEhmYield": "7,33",
    "askYield": "6,35",
    "currency": "HUF",
    "maturityInDays_val": 100,
    "issueDate": "2023.08.23",
    "longName": "D240821"
}