{
    "askPrice": "97,0479",
    "green": 0,
    "coupon": 0,
    "accruedInterest": 0,
    "settleDate": "2024.03.01",
    "askEhmYield": "6,42",
    "bidYield": "7,10",
    "rawName": "D240821",
    "bidPrice": "96,7006",
    "maturityInDays": "173 nap",
    "securityType": "DKJ",
    "maturityDate": "2024.08.21",
    "name": "D240821",
    "bidEhmYield": "7,20",
    "askYield": "6,33",
    "currency": "HUF",
    "maturityInDays_val": 173,
    "issueDate": "2023.08.23",
    "longName": "D240821"
}