{
    "askPrice": "97,3960",
    "green": 0,
    "coupon": 0,
    "accruedInterest": 0,
    "settleDate": "2024.03.20",
    "askEhmYield": "6,34",
    "bidYield": "7,09",
    "rawName": "D240821",
    "bidPrice": "97,0563",
    "maturityInDays": "154 nap",
    "securityType": "DKJ",
    "maturityDate": "2024.08.21",
    "name": "D240821",
    "bidEhmYield": "7,19",
    "askYield": "6,25",
    "currency": "HUF",
    "maturityInDays_val": 154,
    "issueDate": "2023.08.23",
    "longName": "D240821"
}