{
    "askPrice": "96,7060",
    "green": 0,
    "coupon": 0,
    "accruedInterest": 0,
    "settleDate": "2024.02.12",
    "askEhmYield": "6,51",
    "bidYield": "7,20",
    "rawName": "D240821",
    "bidPrice": "96,3206",
    "maturityInDays": "191 nap",
    "securityType": "DKJ",
    "maturityDate": "2024.08.21",
    "name": "D240821",
    "bidEhmYield": "7,30",
    "askYield": "6,42",
    "currency": "HUF",
    "maturityInDays_val": 191,
    "issueDate": "2023.08.23",
    "longName": "D240821"
}