{
    "askPrice": "95,9926",
    "green": 0,
    "coupon": 0,
    "accruedInterest": 0,
    "settleDate": "2024.01.08",
    "askEhmYield": "6,74",
    "bidYield": "7,45",
    "rawName": "D240821",
    "bidPrice": "95,5320",
    "maturityInDays": "226 nap",
    "securityType": "DKJ",
    "maturityDate": "2024.08.21",
    "name": "D240821",
    "bidEhmYield": "7,55",
    "askYield": "6,65",
    "currency": "HUF",
    "maturityInDays_val": 226,
    "issueDate": "2023.08.23",
    "longName": "D240821"
}