{
    "askPrice": "97,0304",
    "green": 0,
    "coupon": 0,
    "accruedInterest": 0,
    "settleDate": "2024.02.27",
    "askEhmYield": "6,35",
    "bidYield": "7,10",
    "rawName": "D240821",
    "bidPrice": "96,6453",
    "maturityInDays": "176 nap",
    "securityType": "DKJ",
    "maturityDate": "2024.08.21",
    "name": "D240821",
    "bidEhmYield": "7,20",
    "askYield": "6,26",
    "currency": "HUF",
    "maturityInDays_val": 176,
    "issueDate": "2023.08.23",
    "longName": "D240821"
}