{
    "askPrice": "97,2682",
    "green": 0,
    "coupon": 0,
    "accruedInterest": 0,
    "settleDate": "2024.03.13",
    "askEhmYield": "6,37",
    "bidYield": "7,10",
    "rawName": "D240821",
    "bidPrice": "96,9224",
    "maturityInDays": "161 nap",
    "securityType": "DKJ",
    "maturityDate": "2024.08.21",
    "name": "D240821",
    "bidEhmYield": "7,20",
    "askYield": "6,28",
    "currency": "HUF",
    "maturityInDays_val": 161,
    "issueDate": "2023.08.23",
    "longName": "D240821"
}