{
    "askPrice": "100,0000",
    "green": 0,
    "coupon": null,
    "accruedInterest": "8,6301",
    "settleDate": "2023.07.31",
    "askEhmYield": "",
    "bidYield": "",
    "rawName": "2042/S_BABA",
    "bidPrice": "100,0000",
    "maturityInDays": "6760 nap",
    "securityType": "BABA",
    "maturityDate": "2042.02.01",
    "name": "2042/S_BABA",
    "bidEhmYield": "",
    "askYield": "",
    "currency": "HUF",
    "maturityInDays_val": 6760,
    "issueDate": "2023.02.01",
    "longName": "A420201S23"
}