{
    "askPrice": "100,0000",
    "green": 0,
    "coupon": null,
    "accruedInterest": "17,1644",
    "settleDate": "2024.01.25",
    "askEhmYield": "",
    "bidYield": "",
    "rawName": "2042/S_BABA",
    "bidPrice": "100,0000",
    "maturityInDays": "6582 nap",
    "securityType": "BABA",
    "maturityDate": "2042.02.01",
    "name": "2042/S_BABA",
    "bidEhmYield": "",
    "askYield": "",
    "currency": "HUF",
    "maturityInDays_val": 6582,
    "issueDate": "2023.02.01",
    "longName": "A420201S23"
}