{
    "askPrice": "",
    "green": 0,
    "coupon": null,
    "accruedInterest": "17,4041",
    "settleDate": "2024.01.30",
    "askEhmYield": "",
    "bidYield": "",
    "rawName": "2042/S_BABA",
    "bidPrice": "",
    "maturityInDays": "6577 nap",
    "securityType": "BABA",
    "maturityDate": "2042.02.01",
    "name": "2042/S_BABA",
    "bidEhmYield": "",
    "askYield": "",
    "currency": "HUF",
    "maturityInDays_val": 6577,
    "issueDate": "2023.02.01",
    "longName": "A420201S23"
}