{
    "askPrice": "",
    "green": 0,
    "coupon": "9,00 %",
    "accruedInterest": "3,1562",
    "settleDate": "2023.11.23",
    "askEhmYield": "",
    "bidYield": "10,46",
    "rawName": "K2024/29",
    "bidPrice": "99,0000",
    "coupon_val": 9,
    "maturityInDays": "238 nap",
    "securityType": "1MÁP",
    "maturityDate": "2024.07.18",
    "name": "K2024/29",
    "bidEhmYield": "10,27",
    "askYield": "",
    "currency": "HUF",
    "maturityInDays_val": 238,
    "issueDate": "2023.07.18",
    "longName": "K240718"
}