{
    "askPrice": "",
    "green": 0,
    "coupon": "9,00 %",
    "accruedInterest": "2,4164",
    "settleDate": "2023.10.24",
    "askEhmYield": "",
    "bidYield": "10,32",
    "rawName": "K2024/29",
    "bidPrice": "99,0000",
    "coupon_val": 9,
    "maturityInDays": "268 nap",
    "securityType": "1MÁP",
    "maturityDate": "2024.07.18",
    "name": "K2024/29",
    "bidEhmYield": "10,18",
    "askYield": "",
    "currency": "HUF",
    "maturityInDays_val": 268,
    "issueDate": "2023.07.18",
    "longName": "K240718"
}