{
    "askPrice": "",
    "green": 0,
    "coupon": "9,00 %",
    "accruedInterest": "2,0466",
    "settleDate": "2023.10.09",
    "askEhmYield": "",
    "bidYield": "10,27",
    "rawName": "K2024/29",
    "bidPrice": "99,0000",
    "coupon_val": 9,
    "maturityInDays": "283 nap",
    "securityType": "1MÁP",
    "maturityDate": "2024.07.18",
    "name": "K2024/29",
    "bidEhmYield": "10,15",
    "askYield": "",
    "currency": "HUF",
    "maturityInDays_val": 283,
    "issueDate": "2023.07.18",
    "longName": "K240718"
}