{
    "askPrice": "",
    "green": 0,
    "coupon": "9,00 %",
    "accruedInterest": "7,0274",
    "settleDate": "2024.04.29",
    "askEhmYield": "",
    "bidYield": "13,45",
    "rawName": "K2024/29",
    "bidPrice": "99,0000",
    "coupon_val": 9,
    "maturityInDays": "80 nap",
    "securityType": "1MÁP",
    "maturityDate": "2024.07.18",
    "name": "K2024/29",
    "bidEhmYield": "12,68",
    "askYield": "",
    "currency": "HUF",
    "maturityInDays_val": 80,
    "issueDate": "2023.07.18",
    "longName": "K240718"
}