{
    "askPrice": "",
    "green": 0,
    "coupon": "9,00 %",
    "accruedInterest": "6,4110",
    "settleDate": "2024.04.04",
    "askEhmYield": "",
    "bidYield": "12,34",
    "rawName": "K2024/29",
    "bidPrice": "99,0000",
    "coupon_val": 9,
    "maturityInDays": "105 nap",
    "securityType": "1MÁP",
    "maturityDate": "2024.07.18",
    "name": "K2024/29",
    "bidEhmYield": "11,75",
    "askYield": "",
    "currency": "HUF",
    "maturityInDays_val": 105,
    "issueDate": "2023.07.18",
    "longName": "K240718"
}