{
    "askPrice": "",
    "green": 0,
    "coupon": "9,00 %",
    "accruedInterest": "5,7699",
    "settleDate": "2024.03.08",
    "askEhmYield": "",
    "bidYield": "11,57",
    "rawName": "K2024/29",
    "bidPrice": "99,0000",
    "coupon_val": 9,
    "maturityInDays": "132 nap",
    "securityType": "1MÁP",
    "maturityDate": "2024.07.18",
    "name": "K2024/29",
    "bidEhmYield": "11,16",
    "askYield": "",
    "currency": "HUF",
    "maturityInDays_val": 132,
    "issueDate": "2023.07.18",
    "longName": "K240718"
}