{
    "askPrice": "",
    "green": 0,
    "coupon": "9,00 %",
    "accruedInterest": "5,0301",
    "settleDate": "2024.02.07",
    "askEhmYield": "",
    "bidYield": "11,09",
    "rawName": "K2024/29",
    "bidPrice": "99,0000",
    "coupon_val": 9,
    "maturityInDays": "162 nap",
    "securityType": "1MÁP",
    "maturityDate": "2024.07.18",
    "name": "K2024/29",
    "bidEhmYield": "10,76",
    "askYield": "",
    "currency": "HUF",
    "maturityInDays_val": 162,
    "issueDate": "2023.07.18",
    "longName": "K240718"
}