{
    "askPrice": "",
    "green": 0,
    "coupon": "2,50 %",
    "accruedInterest": "2,27",
    "settleDate": "2022.08.05",
    "askEhmYield": "",
    "bidYield": "",
    "rawName": "K2022/36",
    "bidPrice": "99,50",
    "coupon_val": 2.5,
    "maturityInDays": "33 nap",
    "securityType": "1MÁP",
    "maturityDate": "2022.09.07",
    "name": "K2022/36",
    "bidEhmYield": "7,89",
    "askYield": "",
    "currency": "HUF",
    "maturityInDays_val": 33,
    "longName": "K220907"
}