{
    "askPrice": "",
    "green": 0,
    "coupon": "9,00 %",
    "accruedInterest": "0,8384",
    "settleDate": "2023.10.09",
    "askEhmYield": "",
    "bidYield": "10,13",
    "rawName": "K2024/36",
    "bidPrice": "99,0000",
    "coupon_val": 9,
    "maturityInDays": "332 nap",
    "securityType": "1MÁP",
    "maturityDate": "2024.09.05",
    "name": "K2024/36",
    "bidEhmYield": "10,09",
    "askYield": "",
    "currency": "HUF",
    "maturityInDays_val": 332,
    "issueDate": "2023.09.05",
    "longName": "K240905"
}