{
    "askPrice": "",
    "green": 0,
    "coupon": "9,00 %",
    "accruedInterest": "1,6274",
    "settleDate": "2023.11.10",
    "askEhmYield": "",
    "bidYield": "10,21",
    "rawName": "K2024/36",
    "bidPrice": "99,0000",
    "coupon_val": 9,
    "maturityInDays": "300 nap",
    "securityType": "1MÁP",
    "maturityDate": "2024.09.05",
    "name": "K2024/36",
    "bidEhmYield": "10,12",
    "askYield": "",
    "currency": "HUF",
    "maturityInDays_val": 300,
    "issueDate": "2023.09.05",
    "longName": "K240905"
}