{
    "askPrice": "",
    "green": 0,
    "coupon": "9,00 %",
    "accruedInterest": "1,2822",
    "settleDate": "2023.10.27",
    "askEhmYield": "",
    "bidYield": "10,17",
    "rawName": "K2024/36",
    "bidPrice": "99,0000",
    "coupon_val": 9,
    "maturityInDays": "314 nap",
    "securityType": "1MÁP",
    "maturityDate": "2024.09.05",
    "name": "K2024/36",
    "bidEhmYield": "10,11",
    "askYield": "",
    "currency": "HUF",
    "maturityInDays_val": 314,
    "issueDate": "2023.09.05",
    "longName": "K240905"
}