{
    "askPrice": "",
    "green": 0,
    "coupon": "9,00 %",
    "accruedInterest": "5,3507",
    "settleDate": "2024.04.10",
    "askEhmYield": "",
    "bidYield": "11,35",
    "rawName": "K2024/36",
    "bidPrice": "99,0000",
    "coupon_val": 9,
    "maturityInDays": "148 nap",
    "securityType": "1MÁP",
    "maturityDate": "2024.09.05",
    "name": "K2024/36",
    "bidEhmYield": "10,93",
    "askYield": "",
    "currency": "HUF",
    "maturityInDays_val": 148,
    "issueDate": "2023.09.05",
    "longName": "K240905"
}