{
    "askPrice": "",
    "green": 0,
    "coupon": "9,00 %",
    "accruedInterest": "4,8822",
    "settleDate": "2024.03.22",
    "askEhmYield": "",
    "bidYield": "11,08",
    "rawName": "K2024/36",
    "bidPrice": "99,0000",
    "coupon_val": 9,
    "maturityInDays": "167 nap",
    "securityType": "1MÁP",
    "maturityDate": "2024.09.05",
    "name": "K2024/36",
    "bidEhmYield": "10,71",
    "askYield": "",
    "currency": "HUF",
    "maturityInDays_val": 167,
    "issueDate": "2023.09.05",
    "longName": "K240905"
}