{
    "askPrice": "",
    "green": 0,
    "coupon": "3,50 %",
    "accruedInterest": "4,27",
    "settleDate": "2022.11.18",
    "askEhmYield": "",
    "bidYield": "5,64",
    "rawName": "N2025/49",
    "bidPrice": "99,50",
    "coupon_val": 3.5,
    "maturityInDays": "1115 nap",
    "securityType": "MÁP Plusz",
    "maturityDate": "2025.12.07",
    "name": "N2025/49",
    "bidEhmYield": "",
    "askYield": "",
    "currency": "HUF",
    "maturityInDays_val": 1115,
    "issueDate": "2020-12-07",
    "longName": "N251207"
}