{
    "askPrice": "",
    "green": 0,
    "coupon": "3,50 %",
    "accruedInterest": "3,21",
    "settleDate": "2022.08.24",
    "askEhmYield": "",
    "bidYield": "",
    "rawName": "N2025/49",
    "bidPrice": "99,50",
    "coupon_val": 3.5,
    "maturityInDays": "1201 nap",
    "securityType": "MÁP Plusz",
    "maturityDate": "2025.12.07",
    "name": "N2025/49",
    "bidEhmYield": "",
    "askYield": "",
    "currency": "HUF",
    "maturityInDays_val": 1201,
    "longName": "N251207"
}