{
    "askPrice": "",
    "green": 0,
    "coupon": "3,50 %",
    "accruedInterest": "0,3151",
    "settleDate": "2022.12.30",
    "askEhmYield": "",
    "bidYield": "5,68",
    "rawName": "N2025/49",
    "bidPrice": "99,5000",
    "coupon_val": 3.5,
    "maturityInDays": "1073 nap",
    "securityType": "MÁP Plusz",
    "maturityDate": "2025.12.07",
    "name": "N2025/49",
    "bidEhmYield": "",
    "askYield": "",
    "currency": "HUF",
    "maturityInDays_val": 1073,
    "issueDate": "2020.12.07",
    "longName": "N251207"
}