{
    "askPrice": "",
    "green": 0,
    "coupon": "3,50 %",
    "accruedInterest": "2,3836",
    "settleDate": "2023.05.30",
    "askEhmYield": "",
    "bidYield": "5,78",
    "rawName": "N2025/49",
    "bidPrice": "99,5000",
    "coupon_val": 3.5,
    "maturityInDays": "922 nap",
    "securityType": "MÁP Plusz",
    "maturityDate": "2025.12.07",
    "name": "N2025/49",
    "bidEhmYield": "",
    "askYield": "",
    "currency": "HUF",
    "maturityInDays_val": 922,
    "issueDate": "2020.12.07",
    "longName": "N251207"
}