{
    "askPrice": "",
    "green": 0,
    "coupon": "3,50 %",
    "accruedInterest": "1,0274",
    "settleDate": "2023.02.20",
    "askEhmYield": "",
    "bidYield": "5,71",
    "rawName": "N2025/49",
    "bidPrice": "99,5000",
    "coupon_val": 3.5,
    "maturityInDays": "1021 nap",
    "securityType": "MÁP Plusz",
    "maturityDate": "2025.12.07",
    "name": "N2025/49",
    "bidEhmYield": "",
    "askYield": "",
    "currency": "HUF",
    "maturityInDays_val": 1021,
    "issueDate": "2020.12.07",
    "longName": "N251207"
}