{
    "askPrice": "",
    "green": 0,
    "coupon": "3,50 %",
    "accruedInterest": "4,9589",
    "settleDate": "2023.12.04",
    "askEhmYield": "",
    "bidYield": "6,01",
    "rawName": "N2025/49",
    "bidPrice": "99,5000",
    "coupon_val": 3.5,
    "maturityInDays": "734 nap",
    "securityType": "MÁP Plusz",
    "maturityDate": "2025.12.07",
    "name": "N2025/49",
    "bidEhmYield": "",
    "askYield": "",
    "currency": "HUF",
    "maturityInDays_val": 734,
    "issueDate": "2020.12.07",
    "longName": "N251207"
}