{
    "askPrice": "",
    "green": 0,
    "coupon": "3,50 %",
    "accruedInterest": "1,5328",
    "settleDate": "2024.03.18",
    "askEhmYield": "",
    "bidYield": "6,08",
    "rawName": "N2025/49",
    "bidPrice": "99,5000",
    "coupon_val": 3.5,
    "maturityInDays": "629 nap",
    "securityType": "MÁP Plusz",
    "maturityDate": "2025.12.07",
    "name": "N2025/49",
    "bidEhmYield": "",
    "askYield": "",
    "currency": "HUF",
    "maturityInDays_val": 629,
    "issueDate": "2020.12.07",
    "longName": "N251207"
}