{
    "askPrice": "",
    "green": 0,
    "coupon": null,
    "accruedInterest": "2,0714",
    "settleDate": "2024.01.11",
    "askEhmYield": "",
    "bidYield": "",
    "rawName": "2027/X_EUR",
    "bidPrice": "99,0000",
    "maturityInDays": "1345 nap",
    "securityType": "PEMÁP",
    "maturityDate": "2027.09.17",
    "name": "2027/X_EUR",
    "bidEhmYield": "",
    "askYield": "",
    "currency": "EUR",
    "maturityInDays_val": 1345,
    "issueDate": "2021.12.14",
    "longName": "C270917X21"
}