{
    "askPrice": "",
    "green": 0,
    "coupon": "2,50 %",
    "accruedInterest": "2,39",
    "settleDate": "2022.08.08",
    "askEhmYield": "",
    "bidYield": "",
    "rawName": "K2022/34",
    "bidPrice": "99,80",
    "coupon_val": 2.5,
    "maturityInDays": "16 nap",
    "securityType": "1MÁP",
    "maturityDate": "2022.08.24",
    "name": "K2022/34",
    "bidEhmYield": "6,91",
    "askYield": "",
    "currency": "HUF",
    "maturityInDays_val": 16,
    "longName": "K220824"
}