{
    "askPrice": "",
    "green": 0,
    "coupon": "2,50 %",
    "accruedInterest": "2,34",
    "settleDate": "2022.08.01",
    "askEhmYield": "",
    "bidYield": "",
    "rawName": "K2022/34",
    "bidPrice": "99,70",
    "coupon_val": 2.5,
    "maturityInDays": "23 nap",
    "securityType": "1MÁP",
    "maturityDate": "2022.08.24",
    "name": "K2022/34",
    "bidEhmYield": "7,11",
    "askYield": "",
    "currency": "HUF",
    "maturityInDays_val": 23,
    "longName": "K220824"
}