{
    "askPrice": "",
    "green": 0,
    "coupon": "3,50 %",
    "accruedInterest": "3,03",
    "settleDate": "2022.06.27",
    "askEhmYield": "",
    "bidYield": "",
    "rawName": "N2024/24",
    "bidPrice": "99,50",
    "coupon_val": 3.5,
    "maturityInDays": "875 nap",
    "securityType": "MÁP Plusz",
    "maturityDate": "2024.11.18",
    "name": "N2024/24",
    "bidEhmYield": "",
    "askYield": "",
    "currency": "HUF",
    "maturityInDays_val": 875,
    "longName": "N241118"
}