{
    "askPrice": "",
    "green": 0,
    "coupon": "3,50 %",
    "accruedInterest": "4,62",
    "settleDate": "2022.10.21",
    "askEhmYield": "",
    "bidYield": "5,97",
    "rawName": "N2024/24",
    "bidPrice": "99,50",
    "coupon_val": 3.5,
    "maturityInDays": "759 nap",
    "securityType": "MÁP Plusz",
    "maturityDate": "2024.11.18",
    "name": "N2024/24",
    "bidEhmYield": "",
    "askYield": "",
    "currency": "HUF",
    "maturityInDays_val": 759,
    "longName": "N241118"
}