{
    "askPrice": "",
    "green": 0,
    "coupon": "3,50 %",
    "accruedInterest": "4,88",
    "settleDate": "2022.11.09",
    "askEhmYield": "",
    "bidYield": "6,00",
    "rawName": "N2024/24",
    "bidPrice": "99,50",
    "coupon_val": 3.5,
    "maturityInDays": "740 nap",
    "securityType": "MÁP Plusz",
    "maturityDate": "2024.11.18",
    "name": "N2024/24",
    "bidEhmYield": "",
    "askYield": "",
    "currency": "HUF",
    "maturityInDays_val": 740,
    "issueDate": "2019-11-18",
    "longName": "N241118"
}