{
    "askPrice": "",
    "green": 0,
    "coupon": "3,50 %",
    "accruedInterest": "0,0753",
    "settleDate": "2022.11.23",
    "askEhmYield": "",
    "bidYield": "5,74",
    "rawName": "N2024/24",
    "bidPrice": "100,0000",
    "coupon_val": 3.5,
    "maturityInDays": "726 nap",
    "securityType": "MÁP Plusz",
    "maturityDate": "2024.11.18",
    "name": "N2024/24",
    "bidEhmYield": "",
    "askYield": "",
    "currency": "HUF",
    "maturityInDays_val": 726,
    "issueDate": "2019.11.18",
    "longName": "N241118"
}