{
    "askPrice": "",
    "green": 0,
    "coupon": "3,50 %",
    "accruedInterest": "3,7671",
    "settleDate": "2023.07.26",
    "askEhmYield": "",
    "bidYield": "6,26",
    "rawName": "N2024/24",
    "bidPrice": "99,5000",
    "coupon_val": 3.5,
    "maturityInDays": "481 nap",
    "securityType": "MÁP Plusz",
    "maturityDate": "2024.11.18",
    "name": "N2024/24",
    "bidEhmYield": "",
    "askYield": "",
    "currency": "HUF",
    "maturityInDays_val": 481,
    "issueDate": "2019.11.18",
    "longName": "N241118"
}