{
    "askPrice": "",
    "green": 0,
    "coupon": "3,50 %",
    "accruedInterest": "0,8137",
    "settleDate": "2023.01.11",
    "askEhmYield": "",
    "bidYield": "6,05",
    "rawName": "N2024/24",
    "bidPrice": "99,5000",
    "coupon_val": 3.5,
    "maturityInDays": "677 nap",
    "securityType": "MÁP Plusz",
    "maturityDate": "2024.11.18",
    "name": "N2024/24",
    "bidEhmYield": "",
    "askYield": "",
    "currency": "HUF",
    "maturityInDays_val": 677,
    "issueDate": "2019.11.18",
    "longName": "N241118"
}