{
    "askPrice": "",
    "green": 0,
    "coupon": "3,50 %",
    "accruedInterest": "2,1148",
    "settleDate": "2024.03.26",
    "askEhmYield": "",
    "bidYield": "6,74",
    "rawName": "N2024/24",
    "bidPrice": "99,5000",
    "coupon_val": 3.5,
    "maturityInDays": "237 nap",
    "securityType": "MÁP Plusz",
    "maturityDate": "2024.11.18",
    "name": "N2024/24",
    "bidEhmYield": "",
    "askYield": "",
    "currency": "HUF",
    "maturityInDays_val": 237,
    "issueDate": "2019.11.18",
    "longName": "N241118"
}