{
    "askPrice": "",
    "green": 0,
    "coupon": "7,00 %",
    "accruedInterest": "0,7288",
    "settleDate": "2022.12.16",
    "askEhmYield": "",
    "bidYield": "8,17",
    "rawName": "K2023/45",
    "bidPrice": "99,0000",
    "coupon_val": 7,
    "maturityInDays": "327 nap",
    "securityType": "1MÁP",
    "maturityDate": "2023.11.08",
    "name": "K2023/45",
    "bidEhmYield": "8,14",
    "askYield": "",
    "currency": "HUF",
    "maturityInDays_val": 327,
    "issueDate": "2022.11.08",
    "longName": "K231108"
}