{
    "askPrice": "",
    "green": 0,
    "coupon": "7,00 %",
    "accruedInterest": "0,2685",
    "settleDate": "2022.11.22",
    "askEhmYield": "",
    "bidYield": "7,55",
    "rawName": "K2023/45",
    "bidPrice": "99,5000",
    "coupon_val": 7,
    "maturityInDays": "351 nap",
    "securityType": "1MÁP",
    "maturityDate": "2023.11.08",
    "name": "K2023/45",
    "bidEhmYield": "7,54",
    "askYield": "",
    "currency": "HUF",
    "maturityInDays_val": 351,
    "issueDate": "2022.11.08",
    "longName": "K231108"
}