{
    "askPrice": "",
    "green": 0,
    "coupon": "7,00 %",
    "accruedInterest": "4,5644",
    "settleDate": "2023.07.04",
    "askEhmYield": "",
    "bidYield": "9,83",
    "rawName": "K2023/45",
    "bidPrice": "99,0000",
    "coupon_val": 7,
    "maturityInDays": "127 nap",
    "securityType": "1MÁP",
    "maturityDate": "2023.11.08",
    "name": "K2023/45",
    "bidEhmYield": "9,53",
    "askYield": "",
    "currency": "HUF",
    "maturityInDays_val": 127,
    "issueDate": "2022.11.08",
    "longName": "K231108"
}