{
    "askPrice": "",
    "green": 0,
    "coupon": "7,00 %",
    "accruedInterest": "4,4110",
    "settleDate": "2023.06.26",
    "askEhmYield": "",
    "bidYield": "9,66",
    "rawName": "K2023/45",
    "bidPrice": "99,0000",
    "coupon_val": 7,
    "maturityInDays": "135 nap",
    "securityType": "1MÁP",
    "maturityDate": "2023.11.08",
    "name": "K2023/45",
    "bidEhmYield": "9,38",
    "askYield": "",
    "currency": "HUF",
    "maturityInDays_val": 135,
    "issueDate": "2022.11.08",
    "longName": "K231108"
}