{
    "askPrice": "",
    "green": 0,
    "coupon": "7,00 %",
    "accruedInterest": "2,9534",
    "settleDate": "2023.04.11",
    "askEhmYield": "",
    "bidYield": "8,72",
    "rawName": "K2023/45",
    "bidPrice": "99,0000",
    "coupon_val": 7,
    "maturityInDays": "211 nap",
    "securityType": "1MÁP",
    "maturityDate": "2023.11.08",
    "name": "K2023/45",
    "bidEhmYield": "8,56",
    "askYield": "",
    "currency": "HUF",
    "maturityInDays_val": 211,
    "issueDate": "2022.11.08",
    "longName": "K231108"
}