{
    "askPrice": "",
    "green": 0,
    "coupon": "7,00 %",
    "accruedInterest": "6,0795",
    "settleDate": "2023.09.21",
    "askEhmYield": "",
    "bidYield": "14,77",
    "rawName": "K2023/45",
    "bidPrice": "99,0000",
    "coupon_val": 7,
    "maturityInDays": "48 nap",
    "securityType": "1MÁP",
    "maturityDate": "2023.11.08",
    "name": "K2023/45",
    "bidEhmYield": "13,90",
    "askYield": "",
    "currency": "HUF",
    "maturityInDays_val": 48,
    "issueDate": "2022.11.08",
    "longName": "K231108"
}