{
    "askPrice": "",
    "green": 0,
    "coupon": "7,00 %",
    "accruedInterest": "3,3562",
    "settleDate": "2023.05.02",
    "askEhmYield": "",
    "bidYield": "8,90",
    "rawName": "K2023/45",
    "bidPrice": "99,0000",
    "coupon_val": 7,
    "maturityInDays": "190 nap",
    "securityType": "1MÁP",
    "maturityDate": "2023.11.08",
    "name": "K2023/45",
    "bidEhmYield": "8,72",
    "askYield": "",
    "currency": "HUF",
    "maturityInDays_val": 190,
    "issueDate": "2022.11.08",
    "longName": "K231108"
}