{
    "askPrice": "",
    "green": 0,
    "coupon": "7,00 %",
    "accruedInterest": "4,3534",
    "settleDate": "2023.06.23",
    "askEhmYield": "",
    "bidYield": "9,60",
    "rawName": "K2023/45",
    "bidPrice": "99,0000",
    "coupon_val": 7,
    "maturityInDays": "138 nap",
    "securityType": "1MÁP",
    "maturityDate": "2023.11.08",
    "name": "K2023/45",
    "bidEhmYield": "9,33",
    "askYield": "",
    "currency": "HUF",
    "maturityInDays_val": 138,
    "issueDate": "2022.11.08",
    "longName": "K231108"
}