{
    "askPrice": "",
    "green": 0,
    "coupon": "7,00 %",
    "accruedInterest": "5,8301",
    "settleDate": "2023.09.08",
    "askEhmYield": "",
    "bidYield": "13,04",
    "rawName": "K2023/45",
    "bidPrice": "99,0000",
    "coupon_val": 7,
    "maturityInDays": "61 nap",
    "securityType": "1MÁP",
    "maturityDate": "2023.11.08",
    "name": "K2023/45",
    "bidEhmYield": "12,39",
    "askYield": "",
    "currency": "HUF",
    "maturityInDays_val": 61,
    "issueDate": "2022.11.08",
    "longName": "K231108"
}