{
    "askPrice": "",
    "green": 0,
    "coupon": "7,00 %",
    "accruedInterest": "2,7233",
    "settleDate": "2023.03.30",
    "askEhmYield": "",
    "bidYield": "8,63",
    "rawName": "K2023/45",
    "bidPrice": "99,0000",
    "coupon_val": 7,
    "maturityInDays": "223 nap",
    "securityType": "1MÁP",
    "maturityDate": "2023.11.08",
    "name": "K2023/45",
    "bidEhmYield": "8,49",
    "askYield": "",
    "currency": "HUF",
    "maturityInDays_val": 223,
    "issueDate": "2022.11.08",
    "longName": "K231108"
}