{
    "askPrice": "",
    "green": 0,
    "coupon": "7,00 %",
    "accruedInterest": "5,5233",
    "settleDate": "2023.08.23",
    "askEhmYield": "",
    "bidYield": "11,74",
    "rawName": "K2023/45",
    "bidPrice": "99,0000",
    "coupon_val": 7,
    "maturityInDays": "77 nap",
    "securityType": "1MÁP",
    "maturityDate": "2023.11.08",
    "name": "K2023/45",
    "bidEhmYield": "11,23",
    "askYield": "",
    "currency": "HUF",
    "maturityInDays_val": 77,
    "issueDate": "2022.11.08",
    "longName": "K231108"
}