{
    "askPrice": "",
    "green": 0,
    "coupon": "7,00 %",
    "accruedInterest": "1,8795",
    "settleDate": "2023.02.14",
    "askEhmYield": "",
    "bidYield": "8,39",
    "rawName": "K2023/45",
    "bidPrice": "99,0000",
    "coupon_val": 7,
    "maturityInDays": "267 nap",
    "securityType": "1MÁP",
    "maturityDate": "2023.11.08",
    "name": "K2023/45",
    "bidEhmYield": "8,29",
    "askYield": "",
    "currency": "HUF",
    "maturityInDays_val": 267,
    "issueDate": "2022.11.08",
    "longName": "K231108"
}