{
    "askPrice": "",
    "green": 0,
    "coupon": "7,00 %",
    "accruedInterest": "5,6575",
    "settleDate": "2023.08.30",
    "askEhmYield": "",
    "bidYield": "12,23",
    "rawName": "K2023/45",
    "bidPrice": "99,0000",
    "coupon_val": 7,
    "maturityInDays": "70 nap",
    "securityType": "1MÁP",
    "maturityDate": "2023.11.08",
    "name": "K2023/45",
    "bidEhmYield": "11,67",
    "askYield": "",
    "currency": "HUF",
    "maturityInDays_val": 70,
    "issueDate": "2022.11.08",
    "longName": "K231108"
}