{
    "askPrice": "",
    "green": 0,
    "coupon": null,
    "accruedInterest": "3,02",
    "settleDate": "2022.06.27",
    "askEhmYield": "",
    "bidYield": "",
    "rawName": "2022/N",
    "bidPrice": "99,00",
    "maturityInDays": "85 nap",
    "securityType": "BMÁP",
    "maturityDate": "2022.09.20",
    "name": "2022/N",
    "bidEhmYield": "",
    "askYield": "",
    "currency": "HUF",
    "maturityInDays_val": 85,
    "longName": "A220920N16"
}