{
    "askPrice": "",
    "green": 0,
    "coupon": null,
    "accruedInterest": "3,14",
    "settleDate": "2022.07.08",
    "askEhmYield": "",
    "bidYield": "",
    "rawName": "2022/N",
    "bidPrice": "99,00",
    "maturityInDays": "74 nap",
    "securityType": "BMÁP",
    "maturityDate": "2022.09.20",
    "name": "2022/N",
    "bidEhmYield": "",
    "askYield": "",
    "currency": "HUF",
    "maturityInDays_val": 74,
    "longName": "A220920N16"
}