{
    "askPrice": "",
    "green": 0,
    "coupon": "3,50 %",
    "accruedInterest": "1,18",
    "settleDate": "2022.11.18",
    "askEhmYield": "",
    "bidYield": "5,72",
    "rawName": "N2025/34",
    "bidPrice": "99,50",
    "coupon_val": 3.5,
    "maturityInDays": "1010 nap",
    "securityType": "MÁP Plusz",
    "maturityDate": "2025.08.24",
    "name": "N2025/34",
    "bidEhmYield": "",
    "askYield": "",
    "currency": "HUF",
    "maturityInDays_val": 1010,
    "issueDate": "2020-08-24",
    "longName": "N250824"
}