{
    "askPrice": "",
    "green": 0,
    "coupon": "3,50 %",
    "accruedInterest": "0,84",
    "settleDate": "2022.10.24",
    "askEhmYield": "",
    "bidYield": "5,70",
    "rawName": "N2025/34",
    "bidPrice": "99,50",
    "coupon_val": 3.5,
    "maturityInDays": "1035 nap",
    "securityType": "MÁP Plusz",
    "maturityDate": "2025.08.24",
    "name": "N2025/34",
    "bidEhmYield": "",
    "askYield": "",
    "currency": "HUF",
    "maturityInDays_val": 1035,
    "longName": "N250824"
}