{
    "askPrice": "",
    "green": 0,
    "coupon": "3,50 %",
    "accruedInterest": "3,8356",
    "settleDate": "2023.05.31",
    "askEhmYield": "",
    "bidYield": "5,89",
    "rawName": "N2025/34",
    "bidPrice": "99,5000",
    "coupon_val": 3.5,
    "maturityInDays": "816 nap",
    "securityType": "MÁP Plusz",
    "maturityDate": "2025.08.24",
    "name": "N2025/34",
    "bidEhmYield": "",
    "askYield": "",
    "currency": "HUF",
    "maturityInDays_val": 816,
    "issueDate": "2020.08.24",
    "longName": "N250824"
}