{
    "askPrice": "",
    "green": 0,
    "coupon": "6,50 %",
    "accruedInterest": "0,2671",
    "settleDate": "2024.03.27",
    "askEhmYield": "",
    "bidYield": "7,61",
    "rawName": "K2025/11",
    "bidPrice": "99,0000",
    "coupon_val": 6.5,
    "maturityInDays": "350 nap",
    "securityType": "1MÁP",
    "maturityDate": "2025.03.12",
    "name": "K2025/11",
    "bidEhmYield": "7,60",
    "askYield": "",
    "currency": "HUF",
    "maturityInDays_val": 350,
    "issueDate": "2024.03.12",
    "longName": "K250312"
}