{
    "askPrice": "98,4472",
    "green": 0,
    "coupon": 0,
    "accruedInterest": 0,
    "settleDate": "2023.07.10",
    "askEhmYield": "9,93",
    "bidYield": "11,00",
    "rawName": "D230906",
    "bidPrice": "98,2586",
    "maturityInDays": "58 nap",
    "securityType": "DKJ",
    "maturityDate": "2023.09.06",
    "name": "D230906",
    "bidEhmYield": "11,15",
    "askYield": "9,79",
    "currency": "HUF",
    "maturityInDays_val": 58,
    "issueDate": "2023.06.07",
    "longName": "D230906"
}