{
    "askPrice": "97,3655",
    "green": 0,
    "coupon": 0,
    "accruedInterest": 0,
    "settleDate": "2023.06.19",
    "askEhmYield": "12,50",
    "bidYield": "13,50",
    "rawName": "D230906",
    "bidPrice": "97,1227",
    "maturityInDays": "79 nap",
    "securityType": "DKJ",
    "maturityDate": "2023.09.06",
    "name": "D230906",
    "bidEhmYield": "13,69",
    "askYield": "12,33",
    "currency": "HUF",
    "maturityInDays_val": 79,
    "issueDate": "2023.06.07",
    "longName": "D230906"
}