{
    "askPrice": "97,4488",
    "green": 0,
    "coupon": 0,
    "accruedInterest": 0,
    "settleDate": "2023.06.21",
    "askEhmYield": "12,41",
    "bidYield": "13,55",
    "rawName": "D230906",
    "bidPrice": "97,1834",
    "maturityInDays": "77 nap",
    "securityType": "DKJ",
    "maturityDate": "2023.09.06",
    "name": "D230906",
    "bidEhmYield": "13,74",
    "askYield": "12,24",
    "currency": "HUF",
    "maturityInDays_val": 77,
    "issueDate": "2023.06.07",
    "longName": "D230906"
}