{
    "askPrice": "98,6307",
    "green": 0,
    "coupon": 0,
    "accruedInterest": 0,
    "settleDate": "2023.07.17",
    "askEhmYield": "9,94",
    "bidYield": "11,09",
    "rawName": "D230906",
    "bidPrice": "98,4532",
    "maturityInDays": "51 nap",
    "securityType": "DKJ",
    "maturityDate": "2023.09.06",
    "name": "D230906",
    "bidEhmYield": "11,24",
    "askYield": "9,80",
    "currency": "HUF",
    "maturityInDays_val": 51,
    "issueDate": "2023.06.07",
    "longName": "D230906"
}