{
    "askPrice": "",
    "green": 0,
    "coupon": 0,
    "accruedInterest": 0,
    "settleDate": "2023.08.16",
    "askEhmYield": "",
    "bidYield": "10,24",
    "rawName": "D230906",
    "bidPrice": "99,4062",
    "maturityInDays": "21 nap",
    "securityType": "DKJ",
    "maturityDate": "2023.09.06",
    "name": "D230906",
    "bidEhmYield": "10,38",
    "askYield": "",
    "currency": "HUF",
    "maturityInDays_val": 21,
    "issueDate": "2023.06.07",
    "longName": "D230906"
}