{
    "askPrice": "",
    "green": 0,
    "coupon": "3,50 %",
    "accruedInterest": "1,1346",
    "settleDate": "2024.04.29",
    "askEhmYield": "",
    "bidYield": "5,13",
    "rawName": "N2029/01",
    "bidPrice": "99,5000",
    "coupon_val": 3.5,
    "maturityInDays": "1709 nap",
    "securityType": "MÁP Plusz",
    "maturityDate": "2029.01.02",
    "name": "N2029/01",
    "bidEhmYield": "",
    "askYield": "",
    "currency": "HUF",
    "maturityInDays_val": 1709,
    "issueDate": "2024.01.02",
    "longName": "N290102"
}