{
    "askPrice": "",
    "green": 0,
    "coupon": "6,50 %",
    "accruedInterest": "0,2493",
    "settleDate": "2024.04.02",
    "askEhmYield": "",
    "bidYield": "7,61",
    "rawName": "K2025/12",
    "bidPrice": "99,0000",
    "coupon_val": 6.5,
    "maturityInDays": "351 nap",
    "securityType": "1MÁP",
    "maturityDate": "2025.03.19",
    "name": "K2025/12",
    "bidEhmYield": "7,60",
    "askYield": "",
    "currency": "HUF",
    "maturityInDays_val": 351,
    "issueDate": "2024.03.19",
    "longName": "K250319"
}