{
    "askPrice": "",
    "green": 0,
    "coupon": "3,50 %",
    "accruedInterest": "1,45",
    "settleDate": "2022.11.02",
    "askEhmYield": "",
    "bidYield": "6,07",
    "rawName": "N2024/08",
    "bidPrice": "99,50",
    "coupon_val": 3.5,
    "maturityInDays": "635 nap",
    "securityType": "MÁP Plusz",
    "maturityDate": "2024.07.29",
    "name": "N2024/08",
    "bidEhmYield": "",
    "askYield": "",
    "currency": "HUF",
    "maturityInDays_val": 635,
    "issueDate": "2019-07-29",
    "longName": "N240729"
}