{
    "askPrice": "",
    "green": 0,
    "coupon": "3,50 %",
    "accruedInterest": "2,3607",
    "settleDate": "2023.12.20",
    "askEhmYield": "",
    "bidYield": "6,79",
    "rawName": "N2024/08",
    "bidPrice": "99,5000",
    "coupon_val": 3.5,
    "maturityInDays": "222 nap",
    "securityType": "MÁP Plusz",
    "maturityDate": "2024.07.29",
    "name": "N2024/08",
    "bidEhmYield": "",
    "askYield": "",
    "currency": "HUF",
    "maturityInDays_val": 222,
    "issueDate": "2019.07.29",
    "longName": "N240729"
}