{
    "askPrice": "",
    "green": 0,
    "coupon": "3,50 %",
    "accruedInterest": "4,6557",
    "settleDate": "2024.05.08",
    "askEhmYield": "",
    "bidYield": "8,15",
    "rawName": "N2024/08",
    "bidPrice": "99,5000",
    "coupon_val": 3.5,
    "maturityInDays": "82 nap",
    "securityType": "MÁP Plusz",
    "maturityDate": "2024.07.29",
    "name": "N2024/08",
    "bidEhmYield": "",
    "askYield": "",
    "currency": "HUF",
    "maturityInDays_val": 82,
    "issueDate": "2019.07.29",
    "longName": "N240729"
}