{
    "askPrice": "",
    "green": 0,
    "coupon": "3,50 %",
    "accruedInterest": "3,4754",
    "settleDate": "2024.02.26",
    "askEhmYield": "",
    "bidYield": "7,12",
    "rawName": "N2024/08",
    "bidPrice": "99,5000",
    "coupon_val": 3.5,
    "maturityInDays": "154 nap",
    "securityType": "MÁP Plusz",
    "maturityDate": "2024.07.29",
    "name": "N2024/08",
    "bidEhmYield": "",
    "askYield": "",
    "currency": "HUF",
    "maturityInDays_val": 154,
    "issueDate": "2019.07.29",
    "longName": "N240729"
}