{
    "askPrice": "",
    "green": 0,
    "coupon": "3,50 %",
    "accruedInterest": "3,9344",
    "settleDate": "2024.03.25",
    "askEhmYield": "",
    "bidYield": "7,37",
    "rawName": "N2024/08",
    "bidPrice": "99,5000",
    "coupon_val": 3.5,
    "maturityInDays": "126 nap",
    "securityType": "MÁP Plusz",
    "maturityDate": "2024.07.29",
    "name": "N2024/08",
    "bidEhmYield": "",
    "askYield": "",
    "currency": "HUF",
    "maturityInDays_val": 126,
    "issueDate": "2019.07.29",
    "longName": "N240729"
}