{
    "askPrice": "",
    "green": 0,
    "coupon": "3,50 %",
    "accruedInterest": "3,8689",
    "settleDate": "2024.03.21",
    "askEhmYield": "",
    "bidYield": "7,33",
    "rawName": "N2024/08",
    "bidPrice": "99,5000",
    "coupon_val": 3.5,
    "maturityInDays": "130 nap",
    "securityType": "MÁP Plusz",
    "maturityDate": "2024.07.29",
    "name": "N2024/08",
    "bidEhmYield": "",
    "askYield": "",
    "currency": "HUF",
    "maturityInDays_val": 130,
    "issueDate": "2019.07.29",
    "longName": "N240729"
}