{
    "askPrice": "",
    "green": 0,
    "coupon": "8,00 %",
    "accruedInterest": "0,2849",
    "settleDate": "2023.11.13",
    "askEhmYield": "",
    "bidYield": "9,09",
    "rawName": "K2024/44",
    "bidPrice": "99,0000",
    "coupon_val": 8,
    "maturityInDays": "353 nap",
    "securityType": "1MÁP",
    "maturityDate": "2024.10.31",
    "name": "K2024/44",
    "bidEhmYield": "9,08",
    "askYield": "",
    "currency": "HUF",
    "maturityInDays_val": 353,
    "issueDate": "2023.10.31",
    "longName": "K241031"
}