{
    "askPrice": "",
    "green": 0,
    "coupon": "8,00 %",
    "accruedInterest": "3,3534",
    "settleDate": "2024.04.02",
    "askEhmYield": "",
    "bidYield": "9,69",
    "rawName": "K2024/44",
    "bidPrice": "99,0000",
    "coupon_val": 8,
    "maturityInDays": "212 nap",
    "securityType": "1MÁP",
    "maturityDate": "2024.10.31",
    "name": "K2024/44",
    "bidEhmYield": "9,46",
    "askYield": "",
    "currency": "HUF",
    "maturityInDays_val": 212,
    "issueDate": "2023.10.31",
    "longName": "K241031"
}