{
    "askPrice": "",
    "green": 0,
    "coupon": "8,00 %",
    "accruedInterest": "3,6822",
    "settleDate": "2024.04.17",
    "askEhmYield": "",
    "bidYield": "9,81",
    "rawName": "K2024/44",
    "bidPrice": "99,0000",
    "coupon_val": 8,
    "maturityInDays": "197 nap",
    "securityType": "1MÁP",
    "maturityDate": "2024.10.31",
    "name": "K2024/44",
    "bidEhmYield": "9,55",
    "askYield": "",
    "currency": "HUF",
    "maturityInDays_val": 197,
    "issueDate": "2023.10.31",
    "longName": "K241031"
}