{
    "askPrice": "",
    "green": 0,
    "coupon": "8,00 %",
    "accruedInterest": "3,8575",
    "settleDate": "2024.04.25",
    "askEhmYield": "",
    "bidYield": "9,88",
    "rawName": "K2024/44",
    "bidPrice": "99,0000",
    "coupon_val": 8,
    "maturityInDays": "189 nap",
    "securityType": "1MÁP",
    "maturityDate": "2024.10.31",
    "name": "K2024/44",
    "bidEhmYield": "9,61",
    "askYield": "",
    "currency": "HUF",
    "maturityInDays_val": 189,
    "issueDate": "2023.10.31",
    "longName": "K241031"
}