{
    "askPrice": "",
    "green": 0,
    "coupon": "8,00 %",
    "accruedInterest": "2,4986",
    "settleDate": "2024.02.22",
    "askEhmYield": "",
    "bidYield": "9,41",
    "rawName": "K2024/44",
    "bidPrice": "99,0000",
    "coupon_val": 8,
    "maturityInDays": "252 nap",
    "securityType": "1MÁP",
    "maturityDate": "2024.10.31",
    "name": "K2024/44",
    "bidEhmYield": "9,28",
    "askYield": "",
    "currency": "HUF",
    "maturityInDays_val": 252,
    "issueDate": "2023.10.31",
    "longName": "K241031"
}