{
    "askPrice": "98,6890",
    "green": 0,
    "coupon": 0,
    "accruedInterest": 0,
    "settleDate": "2023.06.28",
    "askEhmYield": "9,90",
    "bidYield": "10,96",
    "rawName": "D230816",
    "bidPrice": "98,5301",
    "maturityInDays": "49 nap",
    "securityType": "DKJ",
    "maturityDate": "2023.08.16",
    "name": "D230816",
    "bidEhmYield": "11,11",
    "askYield": "9,76",
    "currency": "HUF",
    "maturityInDays_val": 49,
    "issueDate": "2023.05.17",
    "longName": "D230816"
}