{
    "askPrice": "99,0038",
    "green": 0,
    "coupon": 0,
    "accruedInterest": 0,
    "settleDate": "2023.07.10",
    "askEhmYield": "9,93",
    "bidYield": "11,00",
    "rawName": "D230816",
    "bidPrice": "98,8821",
    "maturityInDays": "37 nap",
    "securityType": "DKJ",
    "maturityDate": "2023.08.16",
    "name": "D230816",
    "bidEhmYield": "11,15",
    "askYield": "9,79",
    "currency": "HUF",
    "maturityInDays_val": 37,
    "issueDate": "2023.05.17",
    "longName": "D230816"
}