{
    "askPrice": "",
    "green": 0,
    "coupon": 0,
    "accruedInterest": 0,
    "settleDate": "2023.08.11",
    "askEhmYield": "",
    "bidYield": "10,67",
    "rawName": "D230816",
    "bidPrice": "99,8520",
    "maturityInDays": "5 nap",
    "securityType": "DKJ",
    "maturityDate": "2023.08.16",
    "name": "D230816",
    "bidEhmYield": "10,82",
    "askYield": "",
    "currency": "HUF",
    "maturityInDays_val": 5,
    "issueDate": "2023.05.17",
    "longName": "D230816"
}