{
    "askPrice": "99,1899",
    "green": 0,
    "coupon": 0,
    "accruedInterest": 0,
    "settleDate": "2023.07.17",
    "askEhmYield": "9,94",
    "bidYield": "11,09",
    "rawName": "D230816",
    "bidPrice": "99,0843",
    "maturityInDays": "30 nap",
    "securityType": "DKJ",
    "maturityDate": "2023.08.16",
    "name": "D230816",
    "bidEhmYield": "11,24",
    "askYield": "9,80",
    "currency": "HUF",
    "maturityInDays_val": 30,
    "issueDate": "2023.05.17",
    "longName": "D230816"
}