{
    "askPrice": "99,4047",
    "green": 0,
    "coupon": 0,
    "accruedInterest": 0,
    "settleDate": "2023.07.25",
    "askEhmYield": "9,94",
    "bidYield": "11,12",
    "rawName": "D230816",
    "bidPrice": "99,3250",
    "maturityInDays": "22 nap",
    "securityType": "DKJ",
    "maturityDate": "2023.08.16",
    "name": "D230816",
    "bidEhmYield": "11,27",
    "askYield": "9,80",
    "currency": "HUF",
    "maturityInDays_val": 22,
    "issueDate": "2023.05.17",
    "longName": "D230816"
}