{
    "askPrice": "",
    "green": 0,
    "coupon": 0,
    "accruedInterest": 0,
    "settleDate": "2023.08.07",
    "askEhmYield": "",
    "bidYield": "10,75",
    "rawName": "D230816",
    "bidPrice": "99,7320",
    "maturityInDays": "9 nap",
    "securityType": "DKJ",
    "maturityDate": "2023.08.16",
    "name": "D230816",
    "bidEhmYield": "10,90",
    "askYield": "",
    "currency": "HUF",
    "maturityInDays_val": 9,
    "issueDate": "2023.05.17",
    "longName": "D230816"
}