{
    "askPrice": "",
    "green": 0,
    "coupon": "8,00 %",
    "accruedInterest": "1,2274",
    "settleDate": "2024.02.13",
    "askEhmYield": "",
    "bidYield": "9,19",
    "rawName": "K2024/51",
    "bidPrice": "99,0000",
    "coupon_val": 8,
    "maturityInDays": "310 nap",
    "securityType": "1MÁP",
    "maturityDate": "2024.12.19",
    "name": "K2024/51",
    "bidEhmYield": "9,13",
    "askYield": "",
    "currency": "HUF",
    "maturityInDays_val": 310,
    "issueDate": "2023.12.19",
    "longName": "K241219"
}