{
    "askPrice": "",
    "green": 0,
    "coupon": "8,00 %",
    "accruedInterest": "2,9370",
    "settleDate": "2024.05.02",
    "askEhmYield": "",
    "bidYield": "9,56",
    "rawName": "K2024/51",
    "bidPrice": "99,0000",
    "coupon_val": 8,
    "maturityInDays": "231 nap",
    "securityType": "1MÁP",
    "maturityDate": "2024.12.19",
    "name": "K2024/51",
    "bidEhmYield": "9,36",
    "askYield": "",
    "currency": "HUF",
    "maturityInDays_val": 231,
    "issueDate": "2023.12.19",
    "longName": "K241219"
}