{
    "askPrice": "",
    "green": 0,
    "coupon": "8,00 %",
    "accruedInterest": "1,9726",
    "settleDate": "2024.03.18",
    "askEhmYield": "",
    "bidYield": "9,31",
    "rawName": "K2024/51",
    "bidPrice": "99,0000",
    "coupon_val": 8,
    "maturityInDays": "276 nap",
    "securityType": "1MÁP",
    "maturityDate": "2024.12.19",
    "name": "K2024/51",
    "bidEhmYield": "9,20",
    "askYield": "",
    "currency": "HUF",
    "maturityInDays_val": 276,
    "issueDate": "2023.12.19",
    "longName": "K241219"
}