{
    "askPrice": "",
    "green": 0,
    "coupon": "8,00 %",
    "accruedInterest": "0,4384",
    "settleDate": "2024.01.08",
    "askEhmYield": "",
    "bidYield": "9,10",
    "rawName": "K2024/51",
    "bidPrice": "99,0000",
    "coupon_val": 8,
    "maturityInDays": "346 nap",
    "securityType": "1MÁP",
    "maturityDate": "2024.12.19",
    "name": "K2024/51",
    "bidEhmYield": "9,08",
    "askYield": "",
    "currency": "HUF",
    "maturityInDays_val": 346,
    "issueDate": "2023.12.19",
    "longName": "K241219"
}